-0.47583,-0.47614,-0.47615,-0.47594,-0.4755,-0.47497,-0.47447,-0.47381,-0.47307,-0.47236,-0.47159,-0.47092,-0.47023,-0.46956,-0.469,-0.46847,-0.46797,-0.46754,-0.46719,-0.46681,-0.4665,-0.46631,-0.4661,-0.46597,-0.46587,-0.46577,-0.46569,-0.46568,-0.46566,-0.46571,-0.46585,-0.46608,-0.46645,-0.46688,-0.46749,-0.46809,-0.46884,-0.46963,-0.47037,-0.47112,-0.47188,-0.47252,-0.47311,-0.47363,-0.47405,-0.47442,-0.47484,-0.47524,-0.47566,-0.47602,-0.47637,-0.4768,-0.47711,-0.47672,-0.47529,-0.47165,-0.46526,-0.45559,-0.4426,-0.42636,-0.40708,-0.3848,-0.36006,-0.33284,-0.30374,-0.27304,-0.24109,-0.20805,-0.17452,-0.14069,-0.10698,-0.073748,-0.04123,-0.0098511,0.020313,0.04883,0.07568,0.10061,0.1234,0.1441,0.16247,0.17852,0.19217,0.20355,0.21264,0.21924,0.22367,0.22585,0.226,0.22409,0.22048,0.21516,0.20832,0.2002,0.19108,0.18094,0.17004,0.15861,0.14686,0.13492,0.12291,0.11092,0.099225,0.087822,0.076879,0.066406,0.056409,0.047049,0.038304,0.030468,0.023228,0.016579,0.010806,0.0057605,0.0014308,-0.0021134,-0.0048899,-0.0069923,-0.0084714,-0.0091616,-0.0092692,-0.0089435,-0.0080155,-0.0067097,-0.0050478,-0.0030407,-0.00076495,0.0016778,0.0043395,0.0069612,0.0096938,0.012393,0.015147,0.017918,0.020522,0.023003,0.025362,0.027606,0.02964,0.031601,0.033327,0.034895,0.036195,0.037444,0.038336,0.039303,0.039929,0.04056,0.041064,0.041359,0.04158,0.041744,0.041936,0.041916,0.041942,0.041795,0.041584,0.041256,0.040909,0.040466,0.039904,0.039422,0.038807,0.038127,0.037453,0.036744,0.036091,0.035472,0.034868,0.034378,0.033826,0.033346,0.032954,0.032536,0.032067,0.031649,0.031177,0.030777,0.030358,0.030047,0.029768,0.02959,0.029456,0.029362,0.029303,0.02924,0.029216,0.029148,0.029165,0.029174,0.029229,0.029409,0.029593,0.029859,0.030156,0.030558,0.030946,0.031384,0.031822,0.032347,0.032852,0.033353,0.033791,0.034186,0.034568,0.034872,0.035127,0.035374,0.035532,0.035657,0.035667,0.035662,0.035569,0.035479,0.035261,0.034908,0.034586,0.034199,0.03375,0.03323,0.032678,0.03211,0.031499,0.030784,0.03007,0.029393,0.028634,0.027671,0.026854,0.025949,0.024958,0.024106,0.023135,0.022256,0.021325,0.02053,0.019684,0.01888,0.018253,0.017656,0.017091,0.016604
-0.51568,-0.51478,-0.51399,-0.51309,-0.51228,-0.51163,-0.51091,-0.51021,-0.50976,-0.50938,-0.50911,-0.50884,-0.50893,-0.50911,-0.50966,-0.51033,-0.51117,-0.51213,-0.51323,-0.51451,-0.51591,-0.51736,-0.51886,-0.52049,-0.52218,-0.52358,-0.52522,-0.5267,-0.52826,-0.52974,-0.53135,-0.53282,-0.5343,-0.53573,-0.53711,-0.53824,-0.53945,-0.54028,-0.54108,-0.54171,-0.54221,-0.5426,-0.54275,-0.54274,-0.5426,-0.54235,-0.54194,-0.54136,-0.54054,-0.53946,-0.53828,-0.53722,-0.53566,-0.53402,-0.53218,-0.5301,-0.52753,-0.52507,-0.52243,-0.51961,-0.51703,-0.51428,-0.5116,-0.50892,-0.50638,-0.50399,-0.50136,-0.49889,-0.49628,-0.49349,-0.49052,-0.48741,-0.48414,-0.48067,-0.47661,-0.47252,-0.46802,-0.46308,-0.45756,-0.45148,-0.44457,-0.43719,-0.42935,-0.42056,-0.41075,-0.40067,-0.3898,-0.37818,-0.36602,-0.35343,-0.34025,-0.32666,-0.31294,-0.2989,-0.28467,-0.27049,-0.2563,-0.24217,-0.22806,-0.21435,-0.20098,-0.188,-0.1752,-0.16268,-0.1507,-0.13925,-0.12832,-0.11835,-0.10876,-0.099744,-0.091495,-0.083823,-0.076823,-0.070607,-0.06506,-0.059849,-0.055639,-0.052211,-0.049355,-0.046674,-0.045283,-0.043859,-0.043613,-0.043551,-0.043832,-0.044963,-0.046198,-0.047963,-0.049778,-0.05185,-0.054503,-0.057144,-0.059638,-0.06262,-0.065432,-0.06829,-0.071132,-0.073783,-0.076658,-0.079149,-0.081488,-0.083966,-0.085935,-0.088078,-0.08962,-0.091324,-0.09246,-0.093776,-0.09467,-0.0957,-0.096149,-0.096341,-0.096739,-0.096595,-0.096635,-0.096374,-0.096004,-0.095788,-0.095204,-0.09475,-0.094294,-0.09354,-0.092809,-0.092185,-0.091377,-0.090772,-0.09008,-0.089294,-0.08861,-0.087943,-0.087263,-0.08638,-0.085949,-0.085353,-0.084848,-0.084534,-0.084299,-0.08387,-0.083508,-0.083487,-0.08332,-0.083164,-0.083116,-0.083102,-0.083006,-0.082836,-0.082914,-0.082802,-0.082879,-0.082667,-0.082613,-0.082452,-0.082187,-0.081909,-0.081567,-0.081238,-0.080856,-0.080637,-0.080407,-0.080194,-0.079868,-0.079642,-0.079407,-0.079243,-0.079315,-0.079301,-0.079409,-0.079567,-0.079877,-0.080135,-0.08045,-0.080987,-0.081343,-0.081919,-0.082441,-0.083063,-0.083572,-0.084212,-0.084629,-0.085193,-0.085515,-0.08569,-0.085751,-0.086008,-0.086033,-0.085932,-0.085939,-0.085687,-0.085497,-0.085029,-0.084739,-0.08433,-0.08376,-0.083338,-0.082754,-0.082019,-0.081298,-0.080636,-0.079875,-0.079091,-0.07838,-0.077735
0.44305,0.44339,0.44394,0.44436,0.44479,0.44533,0.4458,0.44618,0.44658,0.44687,0.44715,0.44736,0.44765,0.44772,0.44798,0.44823,0.44856,0.44886,0.44911,0.4495,0.44976,0.44984,0.44985,0.44973,0.44947,0.44911,0.44882,0.44836,0.44809,0.44771,0.44749,0.44738,0.44723,0.44712,0.44708,0.44705,0.44698,0.4468,0.44673,0.4465,0.44621,0.44601,0.44567,0.44523,0.44476,0.4442,0.4436,0.44306,0.44243,0.44168,0.44106,0.44065,0.44017,0.44017,0.44194,0.44626,0.45355,0.46383,0.47629,0.49093,0.50731,0.52535,0.54489,0.56547,0.58694,0.60903,0.6312,0.6534,0.67537,0.69697,0.71783,0.73842,0.75782,0.77673,0.79436,0.81116,0.82656,0.8408,0.85392,0.86586,0.87644,0.88582,0.894,0.90075,0.90686,0.91174,0.91574,0.91896,0.92153,0.92345,0.92486,0.9258,0.92632,0.92651,0.92652,0.9263,0.92593,0.92554,0.92488,0.92431,0.92367,0.92317,0.9226,0.92209,0.92174,0.92153,0.92149,0.92175,0.92217,0.92237,0.92249,0.92267,0.92296,0.9233,0.92394,0.92451,0.92538,0.92638,0.92733,0.92842,0.92956,0.93083,0.93195,0.93324,0.93471,0.93604,0.93732,0.93869,0.93993,0.94114,0.94215,0.94303,0.94375,0.94449,0.94499,0.94556,0.94583,0.94607,0.94631,0.94636,0.94628,0.94611,0.94566,0.94527,0.94473,0.94439,0.94404,0.94369,0.9433,0.94299,0.9426,0.94215,0.94177,0.9414,0.94119,0.94075,0.94033,0.93989,0.93939,0.939,0.93885,0.93871,0.93851,0.93842,0.93819,0.93787,0.9377,0.93737,0.93734,0.93715,0.93718,0.93714,0.93726,0.93706,0.93694,0.93682,0.93678,0.9366,0.93661,0.93663,0.93676,0.93677,0.93698,0.93698,0.93695,0.93691,0.9369,0.93704,0.93713,0.93732,0.93769,0.93799,0.93843,0.93875,0.93917,0.93944,0.9398,0.94003,0.94035,0.94044,0.94068,0.94081,0.94102,0.94128,0.94146,0.94169,0.94178,0.94171,0.94164,0.94145,0.94146,0.94137,0.94134,0.94129,0.94118,0.94108,0.94089,0.94088,0.94084,0.94089,0.94107,0.94123,0.94141,0.94152,0.94164,0.94163,0.94162,0.94148,0.94143,0.94137,0.94142,0.94149,0.94166,0.94195,0.94246,0.94282,0.94315,0.94356,0.94385,0.94413,0.94445,0.94482
