n_hidden,Tini,Q_x_y,Q_z,Q_yaw,R_thrust,R_roll_pitch,R_yaw,P_x_y,P_xy_ang,P_z,P_roll_pitch,P_yaw,svd_weighing,svd_cutoff,lambda1_g,lambda2_g,lambda1_s,lambda2_s,solve_time,input_cost,output_cost,opt_input_cost,opt_output_cost,opt_cost_lambda1_g,opt_cost_lambda2_g,opt_cost_lambda1_s,opt_cost_lambda2_s
0,6,40,40,40,160,4,2,0,0,0,0,0,0,0,0,0,0,10000,0.033285,243.58,23090,376.58,2.7858e+05,0,0,0,2.9264e+08
0,6,40,40,40,160,4,2,0,0,0,0,0,0,0,0,0,0,1e+05,0.048379,249.52,12096,3499.4,2.7185e+05,0,0,0,1.163e+09
0,6,40,40,40,160,4,2,0,0,0,0,0,0,0,0,0,0,1e+06,0.0066142,8.9163,497.78,-10458,-1.0522e+05,0,0,0,5663.2
0,6,40,40,40,160,4,2,0,0,0,0,0,0,0,0,0,0,1e+07,0.015338,13.752,627.66,-8445.5,-78399,0,0,0,3209.1
0,6,40,40,40,160,4,2,0,0,0,0,0,0,0,0,0,0,1e+08,0.017199,12.494,715.68,-7205.4,-50030,0,0,0,882.25
0,6,40,40,40,160,4,2,0,0,0,0,0,0,0,0,0.0001,0,10000,0.034876,244.05,23536,392.14,2.7962e+05,0,374.1,0,2.9981e+08
0,6,40,40,40,160,4,2,0,0,0,0,0,0,0,0,0.0001,0,1e+05,0.050853,248.68,11849,3498.4,2.6968e+05,0,252.77,0,1.1287e+09
0,6,40,40,40,160,4,2,0,0,0,0,0,0,0,0,0.0001,0,1e+06,0.0088198,8.8248,501.38,-10403,-1.0448e+05,0,79.951,0,5679.2
0,6,40,40,40,160,4,2,0,0,0,0,0,0,0,0,0.0001,0,1e+07,0.015932,13.617,625.48,-8490.8,-79232,0,97.483,0,3205.4
0,6,40,40,40,160,4,2,0,0,0,0,0,0,0,0,0.0001,0,1e+08,0.01534,12.493,714.95,-7235.3,-50785,0,110.13,0,878.93
0,6,40,40,40,160,4,2,0,0,0,0,0,0,0,0,0.001,0,10000,0.030601,259.42,25453,290.32,2.8224e+05,0,3783.8,0,3.2883e+08
0,6,40,40,40,160,4,2,0,0,0,0,0,0,0,0,0.001,0,1e+05,0.059134,245.6,10785,3251.8,2.5818e+05,0,2450.7,0,9.8411e+08
0,6,40,40,40,160,4,2,0,0,0,0,0,0,0,0,0.001,0,1e+06,0.010841,8.1164,523.45,-10190,-1.013e+05,0,782.34,0,5714.6
0,6,40,40,40,160,4,2,0,0,0,0,0,0,0,0,0.001,0,1e+07,0.014012,12.612,623.51,-8608.5,-81478,0,901.29,0,3273.2
0,6,40,40,40,160,4,2,0,0,0,0,0,0,0,0,0.001,0,1e+08,0.014999,12.659,718.34,-7237,-53424,0,1007.1,0,886.13
0,6,40,40,40,160,4,2,0,0,0,0,0,0,0,0,0.01,0,10000,0.03456,217.98,11414,-1453,2.363e+05,0,22764,0,1.0965e+08
0,6,40,40,40,160,4,2,0,0,0,0,0,0,0,0,0.01,0,1e+05,0.037322,169.82,5462.6,122.39,1.5716e+05,0,15533,0,2.9773e+08
0,6,40,40,40,160,4,2,0,0,0,0,0,0,0,0,0.01,0,1e+06,0.0046463,6.6341,600.3,-9507,-86988,0,5427.6,0,6150.8
0,6,40,40,40,160,4,2,0,0,0,0,0,0,0,0,0.01,0,1e+07,0.01574,9.0416,621.48,-9035,-82888,0,7296.8,0,3688.3
0,6,40,40,40,160,4,2,0,0,0,0,0,0,0,0,0.01,0,1e+08,0.0064832,9.8488,675.52,-8055.2,-64797,0,8044.5,0,966.25
0,6,40,40,40,160,4,2,0,0,0,0,0,0,0,0,0.1,0,10000,0.019674,76.136,4473,-3103.8,44600,0,70968,0,2.8898e+07
0,6,40,40,40,160,4,2,0,0,0,0,0,0,0,0,0.1,0,1e+05,0.037719,148.53,3879.2,-1677.4,1.4778e+05,0,87400,0,1.4558e+08
0,6,40,40,40,160,4,2,0,0,0,0,0,0,0,0,0.1,0,1e+06,0.005614,20.544,146.41,-15227,-1.5533e+05,0,-14889,0,7492
0,6,40,40,40,160,4,2,0,0,0,0,0,0,0,0,0.1,0,1e+07,0.005294,23.66,307.05,-12099,-1.2295e+05,0,-1829.7,0,6119.7
0,6,40,40,40,160,4,2,0,0,0,0,0,0,0,0,0.1,0,1e+08,0.0089723,23.359,361.26,-11582,-1.0658e+05,0,6858.9,0,1770.6
0,6,40,40,40,160,4,2,0,0,0,0,0,0,0,0,1,0,10000,0.018608,66.513,1343.8,-3062.9,-38038,0,-2.3482e+05,0,1.083e+06
0,6,40,40,40,160,4,2,0,0,0,0,0,0,0,0,1,0,1e+05,0.0089061,36.42,91.587,-14261,-1.5817e+05,0,-3.1195e+05,0,22350
0,6,40,40,40,160,4,2,0,0,0,0,0,0,0,0,1,0,1e+06,0.0045643,41.339,38.808,-13779,-1.6183e+05,0,-2.8575e+05,0,23061
0,6,40,40,40,160,4,2,0,0,0,0,0,0,0,0,1,0,1e+07,0.002806,38.947,52.985,-10266,-1.5046e+05,0,-2.3259e+05,0,33732
0,6,40,40,40,160,4,2,0,0,0,0,0,0,0,0,1,0,1e+08,0.0032832,31.123,89.67,-8549.9,-1.3499e+05,0,-1.6369e+05,0,19290
0,6,40,40,40,160,4,2,0,0,0,0,0,0,0,0,10,0,10000,0.0069016,25.195,196.02,-9149.6,-1.5475e+05,0,-3.6228e+06,0,62899
0,6,40,40,40,160,4,2,0,0,0,0,0,0,0,0,10,0,1e+05,0.0025975,31.829,65.437,-3739.2,-1.5907e+05,0,-3.5327e+06,0,1.0188e+05
0,6,40,40,40,160,4,2,0,0,0,0,0,0,0,0,10,0,1e+06,0.0027256,18.328,261.95,649.64,-1.0951e+05,0,-3.337e+06,0,1.2314e+05
0,6,40,40,40,160,4,2,0,0,0,0,0,0,0,0,10,0,1e+07,0.0027627,15.145,227.71,7304.5,-1.0635e+05,0,-3.049e+06,0,1.7965e+05
0,6,40,40,40,160,4,2,0,0,0,0,0,0,0,0,10,0,1e+08,0.0032875,27.6,296.49,11286,-57387,0,-2.5348e+06,0,2.7674e+05
0,6,40,40,40,160,4,2,0,0,0,0,0,0,0,0,100,0,10000,0.011167,44.687,295.29,1862.2,-1.3733e+05,0,-3.6373e+07,0,1.3276e+05
0,6,40,40,40,160,4,2,0,0,0,0,0,0,0,0,100,0,1e+05,0.0061223,41.859,165.34,3644.1,-1.4615e+05,0,-3.6299e+07,0,3.3814e+05
0,6,40,40,40,160,4,2,0,0,0,0,0,0,0,0,100,0,1e+06,0.0027627,14.072,607.13,10729,-49349,0,-3.5414e+07,0,7.2293e+05
0,6,40,40,40,160,4,2,0,0,0,0,0,0,0,0,100,0,1e+07,0.0051647,19.778,818.24,12190,23050,0,-3.3506e+07,0,1.1311e+06
0,6,40,40,40,160,4,2,0,0,0,0,0,0,0,0,100,0,1e+08,0.0086017,30.887,576.97,15215,-808.65,0,-3.0521e+07,0,1.7295e+06
0,6,40,40,40,160,4,2,0,0,0,0,0,0,0,0,1000,0,10000,0.056196,240.66,15350,8040.8,2.7979e+05,0,-3.5567e+08,0,1.3034e+08
0,6,40,40,40,160,4,2,0,0,0,0,0,0,0,0,1000,0,1e+05,0.012723,77.038,253.06,7338.6,-1.2386e+05,0,-3.641e+08,0,8.9222e+05
0,6,40,40,40,160,4,2,0,0,0,0,0,0,0,0,1000,0,1e+06,0.024656,37.974,446.92,11756,-73592,0,-3.6251e+08,0,2.9499e+06
0,6,40,40,40,160,4,2,0,0,0,0,0,0,0,0,1000,0,1e+07,0.0053235,17.729,979.2,13566,32356,0,-3.5374e+08,0,6.8011e+06
0,6,40,40,40,160,4,2,0,0,0,0,0,0,0,0,1000,0,1e+08,0.019386,22.554,940.64,13987,56055,0,-3.3499e+08,0,1.124e+07
0,6,40,40,40,160,4,2,0,0,0,0,0,0,0,0,10000,0,10000,0.065966,237.97,54681,2975.5,3.2923e+05,0,-3.6012e+09,0,9.7946e+08
0,6,40,40,40,160,4,2,0,0,0,0,0,0,0,0,10000,0,1e+05,0.1473,188.15,6681.9,8320,2.393e+05,0,-3.5963e+09,0,3.1842e+08
0,6,40,40,40,160,4,2,0,0,0,0,0,0,0,0,10000,0,1e+06,0.029495,78.095,357.67,10853,-84983,0,-3.6402e+09,0,8.8557e+06
0,6,40,40,40,160,4,2,0,0,0,0,0,0,0,0,10000,0,1e+07,0.067103,38.349,516.47,12261,-56098,0,-3.6239e+09,0,2.9018e+07
0,6,40,40,40,160,4,2,0,0,0,0,0,0,0,0,10000,0,1e+08,0.013758,18.868,1047,13907,48090,0,-3.5368e+09,0,6.7507e+07
