-0.4567,-0.45711,-0.45764,-0.45833,-0.45894,-0.45955,-0.46026,-0.46101,-0.46177,-0.46259,-0.46331,-0.46418,-0.4649,-0.46558,-0.46625,-0.46683,-0.46725,-0.46767,-0.46796,-0.46816,-0.46826,-0.46831,-0.46828,-0.4683,-0.46829,-0.46825,-0.46832,-0.46843,-0.46858,-0.46883,-0.46916,-0.46956,-0.47002,-0.47046,-0.47082,-0.47122,-0.47154,-0.47188,-0.47213,-0.47236,-0.47255,-0.47275,-0.47287,-0.47305,-0.4731,-0.47317,-0.47321,-0.47318,-0.47305,-0.47289,-0.47267,-0.4724,-0.4721,-0.47122,-0.46908,-0.4643,-0.45526,-0.44062,-0.41936,-0.39103,-0.35555,-0.31335,-0.26503,-0.21185,-0.15462,-0.094451,-0.032404,0.030508,0.093525,0.15595,0.21734,0.27717,0.33511,0.39101,0.44428,0.49467,0.5418,0.58544,0.62526,0.66094,0.6922,0.71888,0.74113,0.7588,0.77214,0.78069,0.78497,0.78556,0.78248,0.77538,0.76543,0.75258,0.73742,0.72013,0.70128,0.68129,0.66046,0.63922,0.61771,0.59648,0.5757,0.55551,0.53626,0.51824,0.50093,0.48518,0.47036,0.45753,0.44573,0.43566,0.42716,0.41997,0.41425,0.40971,0.40666,0.40452,0.40353,0.40356,0.40446,0.40628,0.40867,0.41162,0.41512,0.41895,0.42294,0.42729,0.43173,0.43624,0.44088,0.44559,0.4502,0.45486,0.45938,0.46386,0.46816,0.47226,0.47624,0.47994,0.48354,0.48683,0.48982,0.49258,0.49509,0.49734,0.49934,0.50101,0.50234,0.50352,0.50452,0.50511,0.50555,0.50575,0.50563,0.50538,0.50488,0.50423,0.50335,0.50245,0.50143,0.50025,0.49899,0.49776,0.49654,0.49519,0.49392,0.49265,0.49138,0.4901,0.48893,0.4877,0.4867,0.48566,0.48474,0.48396,0.48318,0.48258,0.48196,0.48151,0.48118,0.48094,0.4808,0.4808,0.48092,0.48108,0.48131,0.48176,0.48224,0.48276,0.48346,0.48413,0.4849,0.4858,0.48658,0.48761,0.48847,0.48942,0.49026,0.49111,0.49211,0.49291,0.49389,0.49471,0.49556,0.49656,0.49733,0.49815,0.49903,0.49968,0.50026,0.50083,0.5014,0.50184,0.50216,0.50239,0.50254,0.50266,0.50265,0.50262,0.50254,0.5024,0.50227,0.50206,0.50178,0.50141,0.50093,0.50048,0.50006,0.49957,0.49893,0.49821,0.49758,0.49688,0.49604,0.49525,0.49457,0.49375,0.49295,0.49225,0.49147,0.49073,0.49002,0.4893,0.48861,0.48798,0.48727,0.48665,0.48602,0.48537,0.48479,0.48434,0.48396,0.48362,0.48342,0.4833,0.48321,0.48324,0.48329,0.48336,0.48354,0.48377,0.48405,0.48439,0.48474,0.48506,0.48537,0.48563,0.48586,0.48606,0.48626,0.48638,0.48641,0.4864,0.48628,0.486,0.48567,0.48523,0.48468,0.48385,0.48307,0.48225,0.48124,0.48024,0.47923,0.47827,0.47723,0.47639,0.47556,0.47494,0.47442,0.47397,0.47371,0.47363,0.47368,0.47391,0.47419,0.47461,0.47517,0.47575,0.47633,0.47695,0.47766
-0.52696,-0.52639,-0.52602,-0.52553,-0.52536,-0.52511,-0.52484,-0.5248,-0.52489,-0.52503,-0.52528,-0.52547,-0.52556,-0.5256,-0.5257,-0.52582,-0.52607,-0.52618,-0.5262,-0.5262,-0.52617,-0.52606,-0.52591,-0.52577,-0.52562,-0.52532,-0.52508,-0.52488,-0.5246,-0.52432,-0.52403,-0.5237,-0.52339,-0.52319,-0.52312,-0.52305,-0.52298,-0.52286,-0.52271,-0.52253,-0.5223,-0.52208,-0.52195,-0.52188,-0.52182,-0.52172,-0.52168,-0.52179,-0.52202,-0.5222,-0.52235,-0.52256,-0.52255,-0.5224,-0.52155,-0.51973,-0.51689,-0.51244,-0.50715,-0.50069,-0.49385,-0.48641,-0.47871,-0.47121,-0.46424,-0.45713,-0.45031,-0.44371,-0.43702,-0.43022,-0.42317,-0.41573,-0.40758,-0.39904,-0.38988,-0.38,-0.36934,-0.35767,-0.34531,-0.33196,-0.3172,-0.30123,-0.28402,-0.26503,-0.24485,-0.2228,-0.19906,-0.17416,-0.14813,-0.11991,-0.090896,-0.060382,-0.029236,0.0028407,0.035101,0.067861,0.10045,0.13339,0.16563,0.19799,0.22996,0.26106,0.29145,0.32096,0.34855,0.3752,0.39991,0.42351,0.44454,0.46429,0.48244,0.49845,0.51246,0.52407,0.53506,0.54301,0.54972,0.55567,0.55878,0.56149,0.56202,0.56199,0.56026,0.55804,0.55444,0.55016,0.54507,0.53953,0.53334,0.52676,0.52005,0.51315,0.50641,0.49981,0.49329,0.48701,0.48088,0.4753,0.46979,0.46516,0.46108,0.45734,0.45419,0.45171,0.44947,0.44845,0.4478,0.44717,0.44724,0.44783,0.44885,0.45016,0.45186,0.45364,0.45601,0.45828,0.46091,0.46325,0.46602,0.46868,0.47145,0.47388,0.47638,0.47874,0.4812,0.48311,0.48499,0.48675,0.48802,0.48938,0.49034,0.49134,0.49179,0.4924,0.49257,0.49278,0.49248,0.49225,0.49189,0.4913,0.49044,0.48957,0.48863,0.48776,0.48673,0.48553,0.4844,0.48331,0.48204,0.48085,0.47978,0.47855,0.47756,0.47643,0.47545,0.47446,0.47348,0.47265,0.47169,0.47118,0.4705,0.46988,0.4694,0.46882,0.46851,0.46816,0.46769,0.46749,0.46716,0.4668,0.46647,0.46628,0.4661,0.46582,0.46585,0.46569,0.46554,0.4655,0.46551,0.46556,0.46566,0.46579,0.46595,0.46617,0.46658,0.46698,0.4673,0.46756,0.46798,0.46863,0.46876,0.46914,0.46969,0.46996,0.47025,0.47088,0.47128,0.47139,0.47172,0.47213,0.47219,0.47223,0.47238,0.47228,0.47208,0.47199,0.47182,0.4716,0.47133,0.47098,0.47072,0.47036,0.47003,0.46976,0.46952,0.46925,0.46911,0.46898,0.46885,0.4688,0.46874,0.46866,0.46866,0.4685,0.46862,0.46854,0.46858,0.46862,0.46855,0.46855,0.46846,0.46839,0.46831,0.46805,0.46798,0.46764,0.46754,0.46742,0.46719,0.46682,0.46648,0.46622,0.4657,0.46552,0.46504,0.46464,0.46412,0.46366,0.46321,0.46274,0.46234,0.46207,0.46173,0.46149,0.46128,0.46115,0.46103,0.46098,0.46084,0.46086,0.46095
0.43743,0.43727,0.43714,0.43681,0.43654,0.43622,0.43577,0.43537,0.43503,0.4346,0.43424,0.43384,0.43343,0.43303,0.43275,0.43261,0.43265,0.43261,0.43261,0.43253,0.43244,0.43235,0.43226,0.43215,0.43201,0.4318,0.43157,0.43137,0.43112,0.43093,0.43076,0.43062,0.43052,0.43051,0.4305,0.43048,0.43047,0.4304,0.43037,0.4304,0.43064,0.43106,0.43153,0.43213,0.43288,0.43357,0.43417,0.43467,0.43515,0.43543,0.43559,0.43568,0.43565,0.43689,0.441,0.44968,0.46314,0.48099,0.50336,0.52969,0.5599,0.59383,0.63139,0.67263,0.71749,0.7654,0.81622,0.86906,0.92304,0.97728,1.0306,1.0823,1.1314,1.1777,1.2207,1.2601,1.2961,1.329,1.3584,1.3848,1.4083,1.429,1.4471,1.463,1.4763,1.4877,1.4971,1.5048,1.5109,1.5155,1.5192,1.5216,1.5232,1.5242,1.5248,1.5248,1.5247,1.5241,1.5235,1.5225,1.5212,1.5197,1.5179,1.516,1.5143,1.5125,1.511,1.5096,1.5088,1.508,1.5077,1.5078,1.5083,1.5093,1.5106,1.5123,1.5141,1.5162,1.5186,1.5211,1.5236,1.5263,1.5288,1.5313,1.5338,1.5363,1.5387,1.541,1.5429,1.5445,1.5457,1.5468,1.5477,1.5485,1.549,1.5494,1.5494,1.5492,1.5488,1.5482,1.5473,1.5462,1.5452,1.544,1.5429,1.5418,1.5406,1.5393,1.5381,1.5368,1.5356,1.5343,1.5331,1.5319,1.5308,1.5298,1.5287,1.5277,1.5269,1.5261,1.5252,1.5246,1.5239,1.5233,1.5228,1.5225,1.5221,1.5219,1.5217,1.5216,1.5215,1.5215,1.5216,1.5218,1.522,1.5222,1.5224,1.5225,1.5225,1.5225,1.5226,1.5227,1.5229,1.523,1.5232,1.5232,1.5234,1.5235,1.5237,1.5238,1.524,1.5241,1.5242,1.5243,1.5243,1.5244,1.5244,1.5244,1.5243,1.5242,1.5242,1.5242,1.5243,1.5244,1.5244,1.5243,1.5242,1.5241,1.524,1.5238,1.5236,1.5234,1.5232,1.523,1.5228,1.5226,1.5224,1.5221,1.5219,1.5216,1.5213,1.5211,1.5209,1.5207,1.5205,1.5203,1.5201,1.52,1.5198,1.5197,1.5196,1.5194,1.5193,1.5192,1.5191,1.5192,1.5191,1.519,1.519,1.5191,1.519,1.5189,1.5189,1.5189,1.5188,1.5188,1.5189,1.5189,1.5189,1.5189,1.5191,1.5192,1.5192,1.5193,1.5194,1.5195,1.5195,1.5196,1.5198,1.52,1.5202,1.5206,1.5208,1.521,1.5212,1.5214,1.5216,1.5218,1.522,1.5222,1.5223,1.5224,1.5224,1.5224,1.5224,1.5224,1.5224,1.5224,1.5224,1.5224,1.5224,1.5224,1.5224,1.5224,1.5223,1.5222,1.5221,1.5219,1.5218,1.5216,1.5215,1.5215,1.5215,1.5216,1.5217,1.5219,1.522,1.5222,1.5224,1.5227,1.5228
