-0.50324,-0.50335,-0.50357,-0.50386,-0.50419,-0.50442,-0.50463,-0.50487,-0.50505,-0.50515,-0.50514,-0.50509,-0.50497,-0.50468,-0.50438,-0.50395,-0.50355,-0.50309,-0.50254,-0.50187,-0.50126,-0.50066,-0.49992,-0.49918,-0.49847,-0.49782,-0.49716,-0.49643,-0.49576,-0.49512,-0.49457,-0.49403,-0.49349,-0.49306,-0.49275,-0.49245,-0.49224,-0.49201,-0.49189,-0.49179,-0.49174,-0.49172,-0.49178,-0.49183,-0.492,-0.49219,-0.49241,-0.4927,-0.493,-0.49344,-0.49381,-0.49427,-0.49466,-0.49442,-0.49285,-0.48845,-0.47968,-0.46526,-0.44431,-0.41638,-0.38165,-0.34059,-0.29411,-0.2428,-0.18785,-0.13006,-0.070175,-0.0090931,0.052403,0.11368,0.17414,0.23325,0.29037,0.34492,0.39681,0.44512,0.48968,0.53,0.56628,0.59765,0.62404,0.64641,0.66286,0.67544,0.68248,0.6853,0.68369,0.67787,0.66832,0.65505,0.63842,0.61965,0.59921,0.57709,0.55418,0.53069,0.50666,0.48342,0.46043,0.43862,0.41691,0.39691,0.37814,0.3611,0.34617,0.33281,0.32131,0.3126,0.30564,0.30059,0.29774,0.29711,0.29814,0.30105,0.30569,0.31198,0.31957,0.32832,0.33821,0.3488,0.36028,0.37228,0.38467,0.39731,0.41028,0.42332,0.4363,0.44923,0.46184,0.47434,0.48647,0.49807,0.50914,0.51971,0.52926,0.5384,0.54662,0.55412,0.56094,0.56683,0.57191,0.57605,0.57939,0.58168,0.58322,0.58379,0.58336,0.58223,0.58038,0.57769,0.5744,0.57061,0.56618,0.56139,0.55622,0.55076,0.54539,0.53975,0.53412,0.52865,0.5234,0.51848,0.51385,0.50953,0.50558,0.50218,0.49923,0.4966,0.49458,0.493,0.49187,0.49133,0.49098,0.49116,0.49177,0.49267,0.494,0.49556,0.49743,0.49949,0.50186,0.50441,0.50707,0.50998,0.51279,0.51583,0.51877,0.52172,0.52447,0.52728,0.52981,0.53218,0.53437,0.53648,0.53835,0.54002,0.54149,0.54275,0.54378,0.54458,0.54513,0.5454,0.54537,0.54517,0.5447,0.54405,0.54317,0.54213,0.54097,0.53966,0.53822,0.53671,0.53513,0.53339,0.5317,0.52999,0.52809,0.52642,0.52478,0.52328,0.5217,0.52034,0.51906,0.51789,0.51685,0.51589,0.51513,0.51446,0.51389,0.51344,0.5132,0.51304,0.51299,0.51306,0.51325,0.51343,0.51371,0.51397,0.51429,0.51473,0.51521,0.51564,0.5162,0.51679,0.5173,0.51794,0.51853,0.51919,0.51975,0.52042,0.52097,0.52168,0.52229,0.5229,0.52355,0.52418,0.52482,0.52535,0.52584,0.52628,0.52659,0.52685,0.52699,0.5271,0.52712,0.52713,0.52696,0.5267,0.52641,0.52605,0.52572,0.52534,0.52486,0.5243,0.52374,0.52315,0.52248,0.52189,0.52135,0.52073,0.52006,0.51948,0.51886,0.51826,0.51776,0.51728,0.51694,0.51663,0.51642,0.51614,0.51601,0.51591,0.51588,0.51588,0.51587,0.51592,0.51592,0.51602,0.51604,0.51617,0.51634
-0.54158,-0.54167,-0.54194,-0.54223,-0.54263,-0.54312,-0.54354,-0.54411,-0.54459,-0.54534,-0.54606,-0.54675,-0.5474,-0.5483,-0.54912,-0.54993,-0.55106,-0.55214,-0.55296,-0.55394,-0.55491,-0.55585,-0.55666,-0.55772,-0.55839,-0.55926,-0.55991,-0.56061,-0.56124,-0.56181,-0.56228,-0.56272,-0.56322,-0.56353,-0.56387,-0.56426,-0.56442,-0.56452,-0.56462,-0.56459,-0.56454,-0.56433,-0.56435,-0.56415,-0.56411,-0.56393,-0.56376,-0.56365,-0.56338,-0.56331,-0.56309,-0.56298,-0.56285,-0.5627,-0.56243,-0.56218,-0.56192,-0.56191,-0.56195,-0.56225,-0.56287,-0.56392,-0.56457,-0.56528,-0.56533,-0.56521,-0.56398,-0.56144,-0.55786,-0.55314,-0.54704,-0.5391,-0.52994,-0.51928,-0.50643,-0.49265,-0.47712,-0.45997,-0.44137,-0.4204,-0.39737,-0.37386,-0.34687,-0.3194,-0.28885,-0.25716,-0.22379,-0.18922,-0.15321,-0.11592,-0.077536,-0.039133,-0.00086742,0.037149,0.075118,0.11224,0.14802,0.18452,0.21985,0.25503,0.28654,0.3174,0.34654,0.37405,0.40063,0.42408,0.4453,0.46647,0.48459,0.50039,0.51458,0.52747,0.53744,0.54641,0.55336,0.55858,0.56217,0.56413,0.56435,0.56325,0.56047,0.55705,0.5527,0.54709,0.54105,0.53402,0.52681,0.51877,0.51118,0.50329,0.49528,0.48733,0.47968,0.47268,0.46588,0.46005,0.4542,0.44948,0.44519,0.44183,0.43904,0.4372,0.43613,0.43622,0.43658,0.43798,0.4403,0.44294,0.44583,0.44995,0.45407,0.45862,0.46383,0.46923,0.47475,0.48052,0.48629,0.49198,0.49755,0.50327,0.50848,0.51359,0.51881,0.52324,0.52738,0.53153,0.53515,0.53829,0.54094,0.54338,0.54497,0.54589,0.54694,0.5471,0.54663,0.54573,0.54418,0.54242,0.54004,0.53742,0.53461,0.53117,0.52794,0.52401,0.52047,0.51663,0.51286,0.50913,0.50553,0.50171,0.49827,0.49491,0.49161,0.48854,0.48582,0.48278,0.48047,0.47832,0.47641,0.47489,0.47335,0.47246,0.47168,0.47117,0.47077,0.47054,0.47064,0.47081,0.47125,0.47186,0.47261,0.47356,0.4746,0.47584,0.47707,0.47837,0.47987,0.48142,0.48283,0.48437,0.48579,0.48732,0.48869,0.48996,0.49127,0.49236,0.49345,0.49429,0.49519,0.49594,0.49638,0.49675,0.49709,0.49735,0.49755,0.49747,0.49732,0.49702,0.49665,0.49601,0.49528,0.4946,0.49362,0.49248,0.49151,0.49021,0.48901,0.48761,0.48643,0.48492,0.48374,0.48234,0.48128,0.48009,0.47893,0.47793,0.47716,0.47644,0.47581,0.47524,0.47481,0.47456,0.4743,0.47406,0.4738,0.47348,0.47354,0.47348,0.4735,0.47359,0.47375,0.47398,0.47434,0.47479,0.47525,0.47574,0.47641,0.47713,0.47783,0.4786,0.47947,0.48019,0.48096,0.48176,0.48235,0.48317,0.48387,0.4844,0.48484,0.48529,0.48564,0.48593,0.48612,0.48624,0.4864,0.4865,0.48662,0.48668,0.4867,0.48654,0.48633
0.44205,0.44256,0.44299,0.44338,0.44364,0.44379,0.44388,0.44396,0.44399,0.44417,0.44431,0.44441,0.44454,0.44474,0.44494,0.44516,0.4454,0.44556,0.44555,0.44562,0.4455,0.44544,0.44536,0.44529,0.44509,0.44498,0.44487,0.44472,0.44459,0.44449,0.44452,0.44447,0.44434,0.44417,0.44397,0.44383,0.44359,0.44326,0.44293,0.44255,0.4422,0.44179,0.44154,0.44125,0.44104,0.44076,0.44041,0.44008,0.43966,0.43932,0.43895,0.43861,0.43842,0.43942,0.4436,0.45285,0.46723,0.48665,0.51056,0.53868,0.57029,0.60498,0.64215,0.68203,0.72432,0.76884,0.81488,0.86174,0.90877,0.95486,0.99972,1.0426,1.0832,1.1215,1.1573,1.1907,1.2212,1.2493,1.2748,1.2977,1.3183,1.3367,1.353,1.3671,1.3797,1.3905,1.4,1.4087,1.4167,1.4239,1.43,1.4357,1.4409,1.4455,1.45,1.454,1.4574,1.4604,1.4631,1.4653,1.4679,1.4704,1.473,1.4753,1.4771,1.4791,1.4814,1.4837,1.4864,1.4891,1.4923,1.496,1.4999,1.5043,1.5095,1.515,1.5209,1.5272,1.5336,1.5398,1.5457,1.5515,1.557,1.562,1.5668,1.5713,1.5755,1.5791,1.5825,1.5854,1.5878,1.5897,1.5913,1.5924,1.5929,1.593,1.5925,1.5915,1.5902,1.5885,1.5865,1.5843,1.5822,1.5799,1.5774,1.5751,1.5726,1.5699,1.5669,1.564,1.5609,1.5578,1.5549,1.552,1.5493,1.5468,1.5443,1.542,1.54,1.538,1.5364,1.5349,1.5337,1.5326,1.5317,1.5311,1.5306,1.5302,1.5303,1.5306,1.531,1.5315,1.5322,1.5328,1.5335,1.5342,1.5351,1.536,1.5368,1.5377,1.5388,1.5398,1.5408,1.5415,1.5422,1.5428,1.5432,1.5435,1.5437,1.544,1.5443,1.5445,1.5447,1.5447,1.5446,1.5443,1.5441,1.5437,1.543,1.5423,1.5415,1.5408,1.5401,1.5393,1.5385,1.5377,1.5369,1.5362,1.5354,1.5345,1.5337,1.5328,1.5321,1.5314,1.5309,1.5303,1.5298,1.5294,1.529,1.5288,1.5286,1.5285,1.5284,1.5283,1.5282,1.5282,1.5283,1.5284,1.5286,1.5288,1.529,1.5293,1.5295,1.5298,1.5302,1.5305,1.531,1.5314,1.5317,1.5319,1.532,1.5321,1.5324,1.5326,1.5328,1.5329,1.533,1.5331,1.5332,1.5332,1.5332,1.5333,1.5335,1.5336,1.5337,1.5337,1.5337,1.5336,1.5336,1.5335,1.5334,1.5334,1.5333,1.5331,1.5329,1.5327,1.5325,1.5324,1.5322,1.5322,1.5321,1.532,1.5318,1.5315,1.5313,1.5311,1.5309,1.5308,1.5306,1.5304,1.5302,1.53,1.5299,1.5298,1.5298,1.5299,1.5299,1.53,1.5301,1.5303,1.5304,1.5306,1.5308,1.531,1.5312,1.5315,1.5318,1.5322,1.5325,1.5329,1.5332
