-0.48773,-0.48724,-0.48691,-0.48653,-0.48612,-0.48581,-0.48545,-0.48512,-0.48483,-0.48461,-0.48453,-0.48448,-0.48446,-0.48454,-0.48465,-0.48482,-0.48509,-0.4855,-0.48599,-0.48641,-0.48693,-0.48749,-0.48806,-0.48853,-0.48907,-0.48971,-0.49032,-0.4909,-0.49158,-0.49217,-0.49277,-0.49331,-0.49389,-0.4944,-0.49502,-0.49558,-0.49612,-0.49657,-0.49704,-0.49746,-0.49778,-0.49805,-0.49821,-0.49841,-0.49855,-0.49864,-0.49873,-0.49882,-0.49887,-0.49893,-0.49889,-0.49886,-0.49833,-0.49639,-0.49197,-0.4837,-0.47077,-0.4529,-0.43038,-0.4032,-0.37186,-0.33701,-0.29933,-0.25953,-0.21826,-0.17619,-0.13377,-0.091425,-0.049366,-0.0080057,0.032493,0.071964,0.11017,0.14667,0.18155,0.2144,0.24518,0.27385,0.30011,0.32414,0.34589,0.36524,0.38245,0.39727,0.40984,0.42035,0.42895,0.43534,0.4401,0.44307,0.44465,0.44509,0.44434,0.44275,0.44015,0.43701,0.43318,0.42916,0.42495,0.42072,0.41651,0.41224,0.4082,0.40405,0.40053,0.39707,0.39387,0.39133,0.38895,0.38678,0.38511,0.38377,0.38288,0.38247,0.38202,0.38218,0.38261,0.38327,0.38431,0.38572,0.3874,0.3892,0.39132,0.39353,0.396,0.39863,0.40155,0.40455,0.40768,0.41097,0.41439,0.41767,0.42104,0.42436,0.4276,0.43087,0.43407,0.43711,0.44012,0.44298,0.44563,0.44823,0.4507,0.45289,0.45493,0.45686,0.45852,0.46002,0.46119,0.46226,0.46303,0.46367,0.46405,0.46431,0.46427,0.46418,0.46386,0.46355,0.4631,0.46242,0.46184,0.46103,0.46014,0.45916,0.45803,0.45695,0.456,0.45496,0.454,0.45313,0.45234,0.45144,0.45072,0.45003,0.44939,0.44891,0.44852,0.44835,0.44828,0.44829,0.44845,0.44875,0.44912,0.44957,0.45008,0.45063,0.45116,0.45181,0.45243,0.45305,0.45357,0.45401,0.45438,0.45469,0.45491,0.45508,0.45514,0.45522,0.45526,0.45524,0.4552,0.45511,0.4549,0.45467,0.45432,0.45392,0.4535,0.45309,0.45269,0.45228,0.4519,0.45147,0.45105,0.45065,0.45026,0.4499,0.44954,0.4493,0.44905,0.44884,0.4487,0.44861,0.44858,0.4486,0.44872,0.44892,0.44919,0.4495,0.44995,0.45041,0.4509,0.45139,0.45194,0.45241,0.45282,0.45317,0.45348,0.45373,0.4539,0.45396,0.45392,0.45367,0.45333,0.45289,0.45241,0.45182,0.45108,0.45044,0.44979,0.44904,0.44844,0.44792,0.44745,0.44701,0.44667,0.44646,0.44634,0.4463,0.44632,0.44641,0.44652,0.44668,0.44685,0.44699,0.44718,0.44734,0.4476,0.44792,0.44821,0.44846,0.4487,0.44894,0.44926,0.44948,0.44967,0.4498,0.44986,0.44985,0.4498,0.44968,0.44953,0.44927,0.44898,0.44866,0.44837,0.44806,0.44772,0.4474,0.44713,0.44694,0.44674,0.44649,0.44637,0.44618,0.44614,0.4461,0.44607,0.44605,0.44596,0.44589,0.44578
-0.53618,-0.53504,-0.53426,-0.53317,-0.5323,-0.53172,-0.53084,-0.53024,-0.52971,-0.52915,-0.52873,-0.52833,-0.52808,-0.52796,-0.52797,-0.52807,-0.52809,-0.52824,-0.52836,-0.5284,-0.52851,-0.52853,-0.52874,-0.52885,-0.52898,-0.52901,-0.52905,-0.52909,-0.52927,-0.52938,-0.52937,-0.52963,-0.5297,-0.52975,-0.52992,-0.53038,-0.53067,-0.53084,-0.53114,-0.53139,-0.53189,-0.53246,-0.53295,-0.53323,-0.53387,-0.53439,-0.53486,-0.5354,-0.5359,-0.53633,-0.53675,-0.53718,-0.53724,-0.53638,-0.53435,-0.53093,-0.52587,-0.51891,-0.51043,-0.50057,-0.48986,-0.47847,-0.46696,-0.45535,-0.4439,-0.4328,-0.42153,-0.41124,-0.40069,-0.39094,-0.3814,-0.37188,-0.36232,-0.35293,-0.34323,-0.33348,-0.32359,-0.31321,-0.30247,-0.29111,-0.27931,-0.26674,-0.25305,-0.23844,-0.22302,-0.20663,-0.18886,-0.16975,-0.14943,-0.12819,-0.10572,-0.082606,-0.05861,-0.033784,-0.0082585,0.017421,0.044271,0.070944,0.097845,0.12439,0.15098,0.17722,0.20304,0.22806,0.25253,0.27637,0.29867,0.32084,0.34193,0.36111,0.37923,0.39635,0.41166,0.42567,0.43859,0.44998,0.45987,0.46882,0.47657,0.48269,0.48814,0.49219,0.49576,0.49828,0.5,0.5012,0.50147,0.50138,0.50087,0.50005,0.49889,0.49758,0.49581,0.49385,0.49229,0.49005,0.4882,0.48639,0.48466,0.48295,0.48167,0.48032,0.47936,0.47843,0.47747,0.47711,0.47655,0.47649,0.47665,0.47686,0.47742,0.47804,0.47917,0.4798,0.48106,0.48209,0.48347,0.4847,0.48585,0.48727,0.48849,0.48973,0.49089,0.4921,0.49316,0.49415,0.49511,0.49583,0.49642,0.49693,0.49747,0.49783,0.49786,0.49794,0.4978,0.49764,0.49746,0.49718,0.49684,0.49639,0.49579,0.49505,0.49454,0.49401,0.49344,0.4929,0.49242,0.49202,0.49169,0.49145,0.49118,0.49094,0.49074,0.49052,0.49047,0.49049,0.49074,0.49097,0.4913,0.49165,0.49211,0.49261,0.49301,0.49341,0.49394,0.49453,0.49509,0.49565,0.49633,0.49692,0.4974,0.49793,0.49835,0.4987,0.49889,0.49904,0.49898,0.49893,0.49886,0.49877,0.49862,0.49844,0.4983,0.49827,0.49811,0.49804,0.49806,0.49814,0.49834,0.4985,0.49858,0.49865,0.49869,0.49899,0.4992,0.49939,0.49967,0.49978,0.49986,0.49999,0.50005,0.49996,0.49987,0.49986,0.49974,0.49956,0.49951,0.49949,0.4993,0.49915,0.49908,0.49907,0.49902,0.49894,0.49901,0.49916,0.49924,0.49942,0.49969,0.49996,0.50027,0.50069,0.50102,0.50128,0.50159,0.50186,0.50223,0.50257,0.50302,0.50326,0.50338,0.50356,0.5038,0.50397,0.50415,0.50428,0.50436,0.50439,0.50437,0.50423,0.50411,0.50385,0.5035,0.50317,0.50282,0.50241,0.50188,0.50126,0.50071,0.5001,0.49956,0.4989,0.49827,0.49782,0.49738,0.49698,0.49661,0.49621,0.49582,0.49537,0.49504
0.44002,0.43939,0.43892,0.43827,0.43768,0.43706,0.43628,0.43569,0.43518,0.43468,0.43428,0.43387,0.43362,0.43344,0.43333,0.43329,0.43326,0.43328,0.43322,0.4331,0.43296,0.43288,0.43291,0.43291,0.43284,0.43269,0.43252,0.43231,0.43195,0.4317,0.43138,0.43124,0.43106,0.431,0.43099,0.43114,0.4312,0.43122,0.43131,0.43151,0.43178,0.43202,0.43224,0.43245,0.4328,0.43304,0.43328,0.43364,0.43402,0.43443,0.43473,0.43515,0.4366,0.44105,0.44981,0.46393,0.48274,0.50624,0.53461,0.56772,0.60525,0.64756,0.69428,0.74439,0.79704,0.85114,0.90603,0.96025,1.013,1.0641,1.1128,1.1591,1.203,1.2445,1.2836,1.3204,1.3546,1.3863,1.4153,1.4414,1.4652,1.4864,1.505,1.5216,1.5361,1.5486,1.5594,1.5685,1.5763,1.5829,1.5883,1.5927,1.5965,1.5993,1.6017,1.6034,1.6045,1.6053,1.6058,1.6057,1.6056,1.6051,1.6044,1.6037,1.6032,1.6024,1.602,1.6017,1.6013,1.6012,1.6011,1.6013,1.6012,1.6014,1.6018,1.6018,1.6016,1.6018,1.6018,1.6017,1.6019,1.6021,1.6024,1.6027,1.6029,1.603,1.603,1.6028,1.6025,1.6022,1.6017,1.6011,1.6005,1.5997,1.5987,1.5976,1.5964,1.5952,1.5939,1.5927,1.5916,1.5903,1.5891,1.5878,1.5863,1.5847,1.5832,1.5816,1.5801,1.5787,1.5774,1.576,1.5746,1.5733,1.572,1.5706,1.5693,1.5682,1.567,1.5659,1.5651,1.5641,1.5634,1.5628,1.5623,1.5618,1.5614,1.5611,1.5607,1.5604,1.5601,1.5598,1.5595,1.5594,1.5593,1.5593,1.5595,1.5597,1.5598,1.5599,1.5599,1.56,1.56,1.5602,1.5604,1.5608,1.5611,1.5614,1.5615,1.5616,1.5615,1.5614,1.5612,1.5611,1.561,1.5611,1.5611,1.5612,1.5612,1.5611,1.5608,1.5606,1.5603,1.56,1.5598,1.5596,1.5594,1.5593,1.5592,1.5591,1.559,1.559,1.5589,1.5588,1.5589,1.5589,1.5588,1.5588,1.5588,1.5588,1.5589,1.5591,1.5592,1.5593,1.5594,1.5593,1.5593,1.5593,1.5593,1.5594,1.5594,1.5595,1.5595,1.5595,1.5595,1.5595,1.5596,1.5595,1.5594,1.5593,1.5594,1.5594,1.5595,1.5596,1.5596,1.5596,1.5596,1.5596,1.5596,1.5597,1.5597,1.5598,1.5598,1.5598,1.5599,1.56,1.56,1.5601,1.5601,1.5602,1.5602,1.5603,1.5603,1.5603,1.5603,1.5605,1.5606,1.5608,1.561,1.5611,1.5613,1.5614,1.5615,1.5616,1.5617,1.5617,1.5617,1.5616,1.5614,1.5612,1.5612,1.5612,1.5614,1.5616,1.5618,1.5618,1.5618,1.5616,1.5613,1.5611,1.561,1.561,1.5611,1.5612,1.5613,1.5613,1.5612,1.561,1.5608,1.5606,1.5604
