-0.51002,-0.50997,-0.50991,-0.50964,-0.50935,-0.50898,-0.50867,-0.50824,-0.50777,-0.50728,-0.50685,-0.50643,-0.50606,-0.50574,-0.50547,-0.5052,-0.50495,-0.50483,-0.5048,-0.50474,-0.50479,-0.50496,-0.5052,-0.50548,-0.50584,-0.50625,-0.5067,-0.50724,-0.5078,-0.50839,-0.50892,-0.50949,-0.5101,-0.51077,-0.51142,-0.51216,-0.51285,-0.51356,-0.51427,-0.51503,-0.51572,-0.51635,-0.51711,-0.51774,-0.51841,-0.51904,-0.51966,-0.52036,-0.52107,-0.52165,-0.5223,-0.52297,-0.52352,-0.52351,-0.52214,-0.51814,-0.50996,-0.49657,-0.47734,-0.45206,-0.42117,-0.38503,-0.34464,-0.30059,-0.2541,-0.20606,-0.15714,-0.10798,-0.059186,-0.010949,0.036137,0.081805,0.12601,0.16835,0.20835,0.24596,0.2808,0.31288,0.34162,0.3677,0.39022,0.40954,0.42592,0.43891,0.44883,0.45556,0.45968,0.46087,0.4601,0.4566,0.45128,0.44419,0.43601,0.42677,0.4165,0.4059,0.3952,0.38439,0.37391,0.36384,0.35458,0.34559,0.33774,0.33088,0.32501,0.32022,0.31662,0.31404,0.31263,0.31223,0.31289,0.31453,0.31731,0.32083,0.32521,0.33037,0.33621,0.34264,0.34965,0.35712,0.36493,0.37299,0.38129,0.38982,0.39837,0.40697,0.4155,0.42396,0.43223,0.44035,0.44828,0.45588,0.46327,0.47021,0.47679,0.48299,0.4888,0.49424,0.49926,0.50397,0.50817,0.51204,0.51551,0.51856,0.52111,0.52342,0.52522,0.52678,0.52801,0.5288,0.5294,0.52962,0.52946,0.52918,0.5286,0.52781,0.52682,0.52564,0.52436,0.52294,0.52137,0.5198,0.51827,0.51664,0.51511,0.51364,0.51238,0.51105,0.50998,0.509,0.50804,0.50727,0.50673,0.50619,0.50575,0.50539,0.50514,0.50496,0.50481,0.50469,0.50461,0.50451,0.50447,0.50445,0.50443,0.5044,0.50433,0.50418,0.50402,0.50387,0.50375,0.50355,0.50323,0.50296,0.50269,0.50233,0.50192,0.50162,0.50119,0.50071,0.50028,0.49969,0.49916,0.49854,0.49789,0.49721,0.49643,0.49569,0.49493,0.49417,0.49344,0.49271,0.49188,0.49129,0.49056,0.49003,0.48961,0.48914,0.48872,0.48846,0.48825,0.48804,0.48789,0.48784,0.48781,0.48791,0.48808,0.48827,0.4886,0.48903,0.48953,0.49006,0.49054,0.4912,0.4919,0.49262,0.49328,0.49405,0.49476,0.49538,0.49594,0.49644,0.49687,0.49718,0.49737,0.49747,0.49741,0.49723,0.49693,0.49659,0.49616,0.49568,0.49515,0.49451,0.49389,0.49332,0.49272,0.49216,0.4917,0.49134,0.49104,0.49085,0.49074,0.49075,0.49089,0.49114,0.49147,0.49189,0.49236,0.4928,0.49331,0.49385,0.49445,0.49501,0.49547,0.4959,0.49627,0.49651,0.49672,0.49677,0.49671,0.49656,0.49622,0.49586,0.49541,0.49497,0.49449,0.49395,0.4934,0.49283,0.49227,0.4918,0.49132,0.49084,0.49039,0.48993,0.48961,0.4893,0.48901,0.48873,0.48845
-0.54096,-0.54096,-0.54086,-0.54105,-0.54126,-0.54144,-0.54174,-0.5422,-0.54255,-0.54282,-0.54316,-0.54339,-0.54364,-0.54382,-0.54401,-0.54418,-0.54436,-0.54442,-0.54431,-0.54441,-0.54437,-0.54422,-0.54394,-0.54373,-0.54343,-0.54303,-0.54253,-0.54191,-0.5414,-0.54061,-0.54005,-0.53933,-0.53847,-0.53756,-0.53682,-0.53619,-0.53541,-0.53465,-0.53413,-0.53356,-0.53315,-0.5329,-0.53253,-0.53232,-0.5324,-0.53238,-0.5325,-0.53265,-0.53294,-0.53341,-0.53373,-0.53427,-0.53465,-0.53499,-0.53452,-0.53274,-0.52951,-0.5245,-0.51809,-0.50984,-0.5002,-0.48923,-0.47739,-0.4647,-0.45139,-0.43778,-0.42359,-0.40919,-0.39478,-0.38023,-0.36581,-0.35121,-0.33607,-0.32103,-0.30551,-0.2896,-0.27341,-0.25683,-0.24036,-0.22347,-0.20655,-0.18921,-0.17155,-0.15294,-0.1344,-0.1151,-0.095723,-0.075379,-0.055674,-0.033688,-0.012954,0.0089333,0.030168,0.051745,0.073379,0.094943,0.11661,0.13823,0.15926,0.18009,0.2011,0.22069,0.24035,0.25931,0.27764,0.29524,0.31209,0.32764,0.34296,0.35714,0.37024,0.38265,0.39411,0.40428,0.4138,0.42206,0.42985,0.43666,0.44273,0.44771,0.45173,0.45547,0.45805,0.46017,0.46155,0.46255,0.46278,0.4627,0.46246,0.46176,0.46071,0.45985,0.45838,0.45707,0.45579,0.45444,0.45338,0.45221,0.45136,0.45057,0.44994,0.44962,0.44944,0.44943,0.44986,0.45029,0.45106,0.45212,0.4533,0.45476,0.4562,0.45796,0.45985,0.46172,0.46378,0.46598,0.4681,0.47023,0.47241,0.47451,0.47654,0.47856,0.48036,0.48217,0.48379,0.48547,0.48671,0.48823,0.48933,0.49044,0.49132,0.49207,0.49268,0.49335,0.49391,0.49425,0.49447,0.49452,0.49446,0.49433,0.49399,0.49359,0.49305,0.49239,0.49178,0.49119,0.49047,0.48957,0.48858,0.48759,0.48672,0.48573,0.48461,0.48356,0.48264,0.4815,0.48039,0.47954,0.47843,0.47739,0.47651,0.47547,0.4746,0.47368,0.47272,0.47174,0.4709,0.46995,0.46897,0.46808,0.46703,0.46637,0.46539,0.4648,0.46388,0.46318,0.46253,0.4618,0.46118,0.46064,0.46026,0.45981,0.45932,0.45886,0.45841,0.45796,0.45766,0.45737,0.45717,0.457,0.45687,0.45675,0.4565,0.45644,0.45638,0.45637,0.45646,0.45629,0.45641,0.45649,0.45662,0.45679,0.45682,0.45689,0.45705,0.45718,0.45741,0.45754,0.45776,0.45797,0.45816,0.45837,0.45851,0.45851,0.45876,0.45859,0.45864,0.45874,0.45876,0.45883,0.4587,0.4586,0.45846,0.45831,0.45818,0.45807,0.45792,0.45772,0.45755,0.45737,0.4574,0.45722,0.45698,0.45682,0.45671,0.45677,0.45669,0.4564,0.45624,0.45614,0.45573,0.45556,0.45533,0.45499,0.45491,0.45478,0.4545,0.45437,0.4544,0.45441,0.45432,0.45423,0.45442,0.45462,0.45484,0.45494,0.45503,0.45529,0.45554,0.45589,0.45628
0.4554,0.45521,0.45493,0.45475,0.45454,0.45424,0.45396,0.45379,0.45371,0.4536,0.45356,0.45344,0.4534,0.45335,0.45328,0.45317,0.45318,0.45319,0.45307,0.4531,0.45307,0.45308,0.45311,0.45329,0.45351,0.45372,0.45408,0.45463,0.4551,0.45556,0.45616,0.45684,0.45735,0.45772,0.45825,0.45872,0.45911,0.45939,0.45981,0.46008,0.46018,0.46038,0.4606,0.46076,0.46099,0.46107,0.46121,0.46132,0.46128,0.46131,0.46132,0.46141,0.46148,0.46299,0.46721,0.47627,0.49042,0.5095,0.53336,0.56181,0.59477,0.63232,0.67371,0.719,0.76738,0.81842,0.87065,0.92362,0.97615,1.0275,1.0772,1.1246,1.1695,1.2117,1.2513,1.2885,1.3231,1.3552,1.3846,1.4114,1.4356,1.4572,1.4765,1.4935,1.5085,1.5217,1.5331,1.5429,1.5513,1.5585,1.5644,1.5694,1.5734,1.5765,1.5791,1.5811,1.5826,1.5834,1.584,1.5842,1.584,1.5837,1.5832,1.5825,1.5818,1.5811,1.5805,1.58,1.5795,1.5794,1.5793,1.5794,1.5798,1.5803,1.581,1.5817,1.5825,1.5834,1.5843,1.5854,1.5863,1.5873,1.5881,1.5888,1.5892,1.5897,1.59,1.5901,1.5902,1.59,1.5897,1.5892,1.5885,1.5877,1.5866,1.5854,1.5839,1.5822,1.5804,1.5784,1.5764,1.5742,1.572,1.5696,1.5673,1.5649,1.5625,1.5602,1.558,1.5559,1.5538,1.5517,1.5496,1.5474,1.5454,1.5433,1.5414,1.5395,1.5377,1.5361,1.5346,1.5333,1.5321,1.531,1.5299,1.5289,1.5279,1.527,1.5262,1.5256,1.5252,1.5248,1.5244,1.524,1.5237,1.5235,1.5235,1.5234,1.5234,1.5234,1.5234,1.5234,1.5234,1.5233,1.5233,1.5233,1.5234,1.5235,1.5236,1.5237,1.5237,1.5237,1.5237,1.5236,1.5236,1.5237,1.5238,1.5239,1.524,1.5241,1.5242,1.5243,1.5243,1.5244,1.5243,1.5243,1.5243,1.5243,1.5242,1.5243,1.5243,1.5243,1.5243,1.5242,1.5241,1.524,1.524,1.5239,1.5239,1.5239,1.5239,1.524,1.524,1.5242,1.5242,1.5243,1.5243,1.5244,1.5244,1.5245,1.5246,1.5249,1.5251,1.5253,1.5256,1.5258,1.5261,1.5262,1.5264,1.5266,1.5266,1.5268,1.5268,1.5268,1.5269,1.5269,1.527,1.5271,1.5271,1.5272,1.5272,1.5272,1.5272,1.5271,1.5271,1.527,1.5269,1.5269,1.5269,1.527,1.527,1.527,1.5271,1.5271,1.5272,1.5272,1.5272,1.5273,1.5274,1.5275,1.5276,1.5277,1.5277,1.5278,1.5279,1.528,1.5279,1.5279,1.5279,1.528,1.5279,1.5279,1.5278,1.5276,1.5276,1.5274,1.5272,1.527,1.5267,1.5264,1.5261,1.5258,1.5256,1.5254,1.5253,1.5252,1.5251,1.5251,1.525,1.525,1.525
