-0.48694,-0.4853,-0.48355,-0.48173,-0.4799,-0.47807,-0.47622,-0.47446,-0.47269,-0.47101,-0.46935,-0.46775,-0.46633,-0.46497,-0.46374,-0.46258,-0.46172,-0.46088,-0.4602,-0.45973,-0.4593,-0.45904,-0.45885,-0.45873,-0.45874,-0.45886,-0.45895,-0.45902,-0.45922,-0.45938,-0.45961,-0.45986,-0.46009,-0.46026,-0.46042,-0.46053,-0.46064,-0.46075,-0.46084,-0.46086,-0.4609,-0.46086,-0.46085,-0.46085,-0.46075,-0.46069,-0.46059,-0.46042,-0.4603,-0.46015,-0.46005,-0.45993,-0.45969,-0.45903,-0.45694,-0.45195,-0.4426,-0.42749,-0.40572,-0.37657,-0.34035,-0.29732,-0.24841,-0.19415,-0.1356,-0.073653,-0.0093272,0.056395,0.12259,0.18866,0.25368,0.31726,0.37887,0.43798,0.49444,0.54758,0.59715,0.64271,0.68357,0.71977,0.75036,0.77582,0.7955,0.80947,0.81724,0.81944,0.8158,0.80658,0.79236,0.77302,0.74947,0.72213,0.69175,0.65876,0.62401,0.58774,0.55151,0.51464,0.4792,0.44249,0.40853,0.37425,0.3434,0.31401,0.2867,0.26182,0.23994,0.22101,0.20464,0.19161,0.18171,0.17487,0.17119,0.17055,0.17309,0.17837,0.1864,0.1969,0.20965,0.22444,0.24114,0.25938,0.27881,0.29924,0.3204,0.34201,0.36405,0.38613,0.40797,0.42956,0.45049,0.47072,0.48983,0.50796,0.52459,0.53988,0.55357,0.56554,0.57586,0.58438,0.59107,0.59591,0.59913,0.60047,0.60009,0.59815,0.59471,0.59,0.58392,0.57696,0.56899,0.56029,0.55104,0.54135,0.53147,0.52152,0.51153,0.50176,0.49222,0.48325,0.47469,0.46691,0.45954,0.45314,0.4474,0.44244,0.43837,0.43514,0.43271,0.43128,0.43052,0.4307,0.43174,0.43346,0.43608,0.4395,0.44337,0.44807,0.45318,0.4587,0.4647,0.47103,0.47751,0.48429,0.49117,0.498,0.50478,0.5113,0.5178,0.52394,0.52984,0.53516,0.54012,0.54444,0.54817,0.55156,0.55411,0.55609,0.55752,0.55822,0.55853,0.55821,0.55732,0.55588,0.55415,0.5519,0.54934,0.54648,0.54333,0.53995,0.53637,0.53269,0.52898,0.52516,0.52139,0.51774,0.51416,0.51087,0.50762,0.50458,0.50176,0.49925,0.49698,0.49488,0.49312,0.49154,0.49036,0.48935,0.48849,0.48798,0.48762,0.48756,0.48772,0.48803,0.48866,0.48927,0.49015,0.49122,0.49239,0.49374,0.49522,0.49679,0.49832,0.50015,0.50184,0.50364,0.5055,0.50738,0.50906,0.51095,0.51252,0.51411,0.51555,0.51692,0.51802,0.51906,0.51983,0.52048,0.52089,0.52121,0.52138,0.5214,0.5213,0.52108,0.52071,0.52031,0.51978,0.51929,0.51867,0.51812,0.51755,0.51697,0.51632,0.51573,0.51512,0.51442,0.51368,0.51289,0.51207,0.51134,0.51057,0.50966,0.50895,0.50818,0.50732,0.50648,0.50584,0.50517,0.50458,0.50395,0.50342,0.503,0.50266,0.50235,0.50215,0.5021,0.50202,0.50213,0.50237,0.50258,0.50298
-0.51487,-0.51569,-0.51655,-0.51717,-0.51799,-0.51856,-0.51934,-0.51995,-0.52057,-0.52119,-0.52163,-0.52215,-0.5224,-0.52301,-0.52313,-0.52336,-0.5233,-0.52351,-0.52347,-0.52335,-0.52322,-0.52297,-0.52243,-0.52208,-0.52145,-0.52071,-0.52006,-0.51942,-0.5186,-0.51786,-0.51709,-0.51615,-0.51555,-0.51482,-0.5141,-0.51335,-0.51302,-0.51253,-0.5121,-0.51205,-0.51188,-0.51189,-0.51213,-0.51218,-0.51249,-0.51293,-0.51333,-0.51396,-0.51444,-0.51535,-0.51609,-0.51696,-0.51778,-0.51888,-0.52033,-0.52242,-0.52548,-0.52965,-0.53529,-0.5419,-0.54968,-0.55872,-0.56859,-0.57948,-0.59101,-0.60288,-0.61493,-0.62711,-0.63879,-0.65014,-0.66055,-0.67001,-0.67866,-0.68616,-0.69183,-0.69541,-0.69729,-0.69718,-0.69395,-0.68948,-0.68129,-0.67062,-0.65677,-0.63951,-0.61939,-0.59583,-0.56906,-0.53905,-0.50606,-0.46941,-0.43058,-0.38946,-0.3468,-0.30272,-0.25794,-0.21302,-0.1663,-0.12072,-0.073198,-0.030554,0.014949,0.054646,0.096842,0.13571,0.17225,0.20599,0.23767,0.26651,0.29116,0.31401,0.33391,0.35067,0.36424,0.37497,0.38334,0.38875,0.39169,0.39224,0.39052,0.38712,0.38176,0.37491,0.367,0.35782,0.34792,0.33724,0.3265,0.3156,0.30479,0.29428,0.284,0.27458,0.26564,0.25756,0.25042,0.2446,0.24006,0.23631,0.23419,0.23334,0.23374,0.23582,0.23876,0.24322,0.24865,0.25536,0.26306,0.27156,0.28107,0.29106,0.30172,0.31269,0.32401,0.33548,0.34677,0.35798,0.36905,0.37954,0.38966,0.39932,0.40812,0.41634,0.42399,0.43073,0.43672,0.44184,0.44546,0.44898,0.45094,0.45194,0.45263,0.45184,0.45045,0.44817,0.44525,0.44116,0.43703,0.43193,0.42668,0.4207,0.41468,0.40819,0.40173,0.39531,0.38888,0.3826,0.37644,0.3704,0.36496,0.35976,0.35496,0.35074,0.34684,0.34343,0.34062,0.33854,0.33678,0.33544,0.33485,0.33464,0.33493,0.33577,0.33688,0.33855,0.34051,0.34294,0.34534,0.34817,0.3509,0.35411,0.35725,0.3605,0.36391,0.3672,0.37059,0.37361,0.37709,0.3802,0.3832,0.38605,0.3887,0.39105,0.39295,0.39496,0.39636,0.39766,0.39846,0.39876,0.39929,0.39895,0.39897,0.39842,0.39748,0.39661,0.39526,0.3939,0.39238,0.39086,0.38913,0.38711,0.38516,0.38344,0.38173,0.38004,0.37822,0.37662,0.37532,0.37408,0.37272,0.37138,0.37052,0.36982,0.3692,0.36876,0.36847,0.36808,0.36807,0.36786,0.36829,0.36824,0.36862,0.36869,0.36914,0.36951,0.37,0.37056,0.3711,0.37158,0.37233,0.37313,0.37384,0.3746,0.37531,0.37605,0.37677,0.37759,0.37818,0.37883,0.37959,0.38001,0.38051,0.38104,0.3814,0.38171,0.38217,0.38223,0.38225,0.38264,0.38267,0.38281,0.3827,0.38253,0.38243,0.38213,0.3817,0.38089,0.38042,0.37968,0.37889,0.3783,0.37752
0.51444,0.51487,0.51531,0.51557,0.51599,0.51627,0.51661,0.51694,0.51728,0.51774,0.51816,0.51872,0.51911,0.51971,0.52014,0.52058,0.52086,0.52121,0.52135,0.52139,0.52149,0.52142,0.52118,0.52105,0.52068,0.52027,0.5199,0.51941,0.51877,0.5182,0.51766,0.51688,0.51624,0.51555,0.51491,0.51426,0.5138,0.51317,0.51258,0.51207,0.51145,0.51093,0.51048,0.50993,0.50952,0.50905,0.50871,0.50841,0.50807,0.50796,0.50767,0.50753,0.50739,0.50865,0.5132,0.52259,0.53697,0.556,0.57962,0.60688,0.63766,0.67124,0.70756,0.74654,0.78794,0.83145,0.87657,0.92276,0.96904,1.015,1.0596,1.1021,1.1425,1.1801,1.2147,1.2459,1.2735,1.2974,1.3181,1.3349,1.3487,1.3595,1.3675,1.3729,1.3768,1.3787,1.3794,1.3793,1.3786,1.3776,1.3768,1.3761,1.3759,1.3763,1.3775,1.3794,1.3814,1.3839,1.386,1.389,1.3909,1.3939,1.396,1.3985,1.401,1.4037,1.4065,1.4095,1.4131,1.4166,1.4203,1.4243,1.4288,1.4336,1.4389,1.4445,1.4503,1.4562,1.4623,1.4684,1.4746,1.4808,1.4869,1.4928,1.4983,1.5033,1.5077,1.5115,1.5146,1.5167,1.5182,1.5188,1.5187,1.5178,1.5162,1.5137,1.5108,1.5073,1.5031,1.4987,1.4939,1.4886,1.4832,1.4777,1.4722,1.4666,1.4612,1.4561,1.451,1.4461,1.4414,1.4371,1.433,1.4293,1.4258,1.4228,1.4202,1.4179,1.416,1.4143,1.4131,1.412,1.4114,1.4108,1.4106,1.4105,1.4107,1.4111,1.4116,1.4124,1.4133,1.4143,1.4155,1.4168,1.418,1.4192,1.4204,1.4216,1.4228,1.4239,1.4249,1.4256,1.4262,1.4266,1.4268,1.4267,1.4266,1.4262,1.4256,1.4249,1.4241,1.4231,1.422,1.4206,1.4193,1.4179,1.4163,1.4147,1.4131,1.4113,1.4095,1.4079,1.4063,1.4047,1.4032,1.4018,1.4004,1.399,1.3978,1.3967,1.3957,1.3948,1.3942,1.3938,1.3936,1.3934,1.3933,1.3933,1.3932,1.3932,1.3933,1.3934,1.3937,1.3942,1.3946,1.3953,1.396,1.3967,1.3977,1.3984,1.3994,1.4003,1.4011,1.4019,1.4026,1.4033,1.4039,1.4045,1.405,1.4057,1.4062,1.4068,1.4074,1.408,1.4084,1.4087,1.409,1.4091,1.4089,1.4087,1.4084,1.4082,1.4081,1.4079,1.4078,1.4077,1.4075,1.4072,1.4068,1.4064,1.4059,1.4056,1.4052,1.4049,1.4046,1.4043,1.404,1.4037,1.4035,1.4033,1.4032,1.403,1.4029,1.4029,1.4029,1.403,1.4034,1.4035,1.4037,1.4037,1.4037,1.4036,1.4036,1.4036,1.4037,1.4039,1.4041,1.4043,1.4044,1.4046,1.4046,1.4047,1.4048,1.4049,1.4049,1.4049,1.405,1.4049,1.4049,1.4048,1.4048
