-0.47432,-0.47335,-0.47249,-0.47159,-0.47067,-0.46972,-0.46881,-0.46796,-0.46717,-0.46647,-0.46582,-0.46519,-0.46468,-0.46422,-0.46396,-0.46364,-0.46347,-0.46335,-0.4634,-0.46357,-0.46389,-0.46423,-0.4646,-0.46509,-0.46571,-0.46647,-0.46719,-0.46793,-0.46872,-0.46956,-0.47041,-0.47138,-0.47243,-0.47352,-0.47458,-0.47565,-0.47676,-0.47788,-0.47897,-0.48006,-0.48112,-0.48213,-0.48312,-0.48406,-0.48484,-0.48555,-0.48615,-0.48658,-0.48689,-0.48704,-0.48698,-0.48677,-0.48636,-0.48521,-0.48276,-0.47745,-0.46774,-0.45219,-0.42971,-0.39972,-0.36238,-0.31836,-0.26856,-0.21406,-0.15617,-0.096197,-0.0352,0.025999,0.086649,0.1462,0.20443,0.26083,0.3152,0.36717,0.41634,0.46235,0.50488,0.54363,0.57848,0.60935,0.63624,0.6591,0.6779,0.693,0.70403,0.71121,0.71493,0.71463,0.71132,0.70497,0.6959,0.6843,0.67063,0.65529,0.63853,0.62073,0.60228,0.5832,0.56395,0.54491,0.52564,0.50736,0.48913,0.47223,0.45571,0.44038,0.42613,0.41321,0.40123,0.39103,0.3818,0.37426,0.36805,0.36323,0.35997,0.35786,0.35716,0.35744,0.35905,0.36172,0.36534,0.36989,0.37513,0.38117,0.38786,0.39505,0.40264,0.41067,0.4189,0.42732,0.43579,0.44432,0.45278,0.46109,0.46901,0.47671,0.48419,0.49115,0.49771,0.50381,0.50939,0.5145,0.51903,0.52299,0.52648,0.52924,0.53161,0.53354,0.53469,0.53553,0.53583,0.5356,0.53513,0.5341,0.53264,0.53102,0.529,0.52675,0.5242,0.52154,0.51872,0.51589,0.513,0.51009,0.50732,0.5045,0.50192,0.49936,0.49685,0.49466,0.49241,0.49062,0.48875,0.48717,0.48568,0.48444,0.48338,0.48249,0.48163,0.48097,0.4804,0.47996,0.4796,0.47928,0.47919,0.4792,0.47926,0.47947,0.47971,0.48008,0.48058,0.48122,0.48185,0.4827,0.48349,0.48428,0.48518,0.48605,0.48693,0.48786,0.4888,0.48979,0.49061,0.49155,0.49242,0.49313,0.4937,0.49411,0.4944,0.49452,0.49446,0.4943,0.49399,0.49362,0.4931,0.49256,0.49183,0.49114,0.49023,0.48945,0.48862,0.48781,0.48698,0.4861,0.48527,0.48451,0.48374,0.48296,0.48219,0.48157,0.48098,0.48057,0.48023,0.48004,0.47988,0.47983,0.47979,0.47986,0.47993,0.48008,0.48019,0.48041,0.48058,0.4808,0.48104,0.48136,0.48177,0.48218,0.48266,0.48322,0.48369,0.48411,0.48455,0.48501,0.48549,0.48593,0.48624,0.48655,0.48682,0.48705,0.48719,0.48722,0.48723,0.48726,0.48737,0.48748,0.48763,0.4879,0.48815,0.48837,0.48863,0.48883,0.48902,0.48927,0.48957,0.48987,0.49023,0.49055,0.49084,0.49103,0.49123,0.49142,0.49155,0.49164,0.49168,0.49169,0.49162,0.49147,0.49125,0.49095,0.4906,0.4902,0.48983,0.48934,0.48886,0.48819,0.48752,0.48681,0.48602,0.48511,0.48433
-0.54814,-0.54874,-0.5494,-0.5498,-0.55027,-0.5507,-0.55106,-0.55134,-0.55143,-0.5514,-0.55132,-0.55102,-0.55057,-0.55009,-0.54933,-0.5487,-0.54787,-0.54703,-0.54624,-0.54551,-0.54461,-0.54369,-0.543,-0.5422,-0.54131,-0.54038,-0.53954,-0.53862,-0.53785,-0.53713,-0.53658,-0.53604,-0.53542,-0.53495,-0.53457,-0.53434,-0.53419,-0.53423,-0.53429,-0.53451,-0.53482,-0.53518,-0.53572,-0.53632,-0.53692,-0.53762,-0.53817,-0.5388,-0.53954,-0.54025,-0.54083,-0.5414,-0.5418,-0.54206,-0.54138,-0.53958,-0.53606,-0.53057,-0.52326,-0.51387,-0.50294,-0.49067,-0.47778,-0.46428,-0.4509,-0.43775,-0.42499,-0.41255,-0.40065,-0.38901,-0.37777,-0.36677,-0.35601,-0.34536,-0.33468,-0.32306,-0.31168,-0.29971,-0.28717,-0.27402,-0.26,-0.24498,-0.22881,-0.21155,-0.1928,-0.17228,-0.15052,-0.12681,-0.10184,-0.075318,-0.047852,-0.018892,0.01092,0.041237,0.072373,0.10373,0.13531,0.16709,0.19862,0.23034,0.26022,0.29107,0.31956,0.348,0.37426,0.39971,0.42313,0.44551,0.46566,0.48484,0.50118,0.51656,0.52957,0.54114,0.55141,0.55874,0.56545,0.56967,0.57334,0.57464,0.57498,0.57371,0.57134,0.56773,0.56329,0.55811,0.55226,0.5456,0.53855,0.53102,0.52344,0.51564,0.5081,0.50029,0.49265,0.48516,0.47793,0.47151,0.46497,0.45901,0.45407,0.44912,0.44495,0.44136,0.43849,0.43635,0.4346,0.43346,0.43321,0.43315,0.43386,0.43513,0.43656,0.43856,0.44112,0.44361,0.4465,0.44964,0.45283,0.45613,0.45942,0.46261,0.46592,0.46902,0.47209,0.47489,0.47756,0.48015,0.4824,0.48468,0.48648,0.48832,0.48983,0.49127,0.49256,0.49344,0.49426,0.49486,0.49521,0.49512,0.49494,0.49454,0.49393,0.49307,0.4921,0.49095,0.48985,0.48842,0.48694,0.48537,0.48388,0.48218,0.48074,0.47894,0.47728,0.47572,0.47388,0.4723,0.47099,0.46963,0.46847,0.46733,0.46655,0.46568,0.465,0.4646,0.46424,0.46412,0.46406,0.46419,0.46446,0.4648,0.46524,0.4657,0.46622,0.46695,0.46764,0.46823,0.46906,0.46981,0.47071,0.47164,0.47249,0.47334,0.47409,0.47506,0.47575,0.47655,0.47712,0.47757,0.47817,0.47888,0.47942,0.47976,0.4801,0.48044,0.48074,0.48095,0.48108,0.48115,0.48113,0.48114,0.48108,0.48106,0.481,0.48097,0.4806,0.48049,0.48055,0.48039,0.48031,0.48022,0.48002,0.47974,0.47941,0.47895,0.47868,0.47824,0.47763,0.47693,0.4763,0.4757,0.4752,0.4746,0.47396,0.47339,0.47288,0.4723,0.47172,0.47122,0.47066,0.47042,0.47026,0.47005,0.46992,0.46992,0.47,0.47018,0.4703,0.47046,0.47064,0.47085,0.47114,0.47138,0.47164,0.47189,0.47212,0.47239,0.47267,0.47293,0.47329,0.47352,0.47378,0.47417,0.47446,0.47466,0.47475,0.47479,0.47503,0.47501,0.47508
0.36918,0.36907,0.36906,0.36899,0.36911,0.3691,0.36917,0.36923,0.36917,0.3691,0.36917,0.36909,0.36922,0.36941,0.36938,0.36953,0.3695,0.36931,0.36926,0.36933,0.36914,0.36884,0.36876,0.36864,0.36849,0.36828,0.3682,0.36803,0.36794,0.3678,0.36759,0.36734,0.36704,0.36688,0.36678,0.36668,0.36661,0.3666,0.36642,0.36625,0.36613,0.36603,0.36602,0.36619,0.36638,0.36661,0.36674,0.36685,0.36695,0.36713,0.36734,0.36758,0.36782,0.36904,0.37325,0.38154,0.39437,0.41179,0.4334,0.45914,0.48867,0.52193,0.55895,0.5994,0.64321,0.68972,0.73818,0.78769,0.83687,0.88514,0.93128,0.97523,1.0166,1.0555,1.0921,1.1266,1.1588,1.1892,1.2173,1.2431,1.2668,1.2882,1.3073,1.3243,1.3395,1.353,1.3648,1.3754,1.3848,1.3934,1.4012,1.4087,1.4158,1.4224,1.4286,1.4345,1.4404,1.4457,1.4509,1.456,1.4612,1.4661,1.4713,1.4763,1.4812,1.4863,1.4914,1.4964,1.5013,1.5061,1.5111,1.516,1.5211,1.5264,1.5316,1.5371,1.5425,1.548,1.5534,1.5588,1.5639,1.5692,1.5744,1.5791,1.5837,1.5878,1.5916,1.5951,1.5983,1.6012,1.6036,1.6058,1.6074,1.6087,1.6096,1.6101,1.6105,1.6105,1.6102,1.6098,1.609,1.608,1.6069,1.6054,1.6037,1.6019,1.6,1.5981,1.5962,1.5943,1.5923,1.5902,1.5884,1.5865,1.5848,1.5831,1.5817,1.5802,1.5789,1.5777,1.5763,1.5751,1.574,1.573,1.5721,1.5713,1.5709,1.5706,1.5705,1.5705,1.5707,1.5707,1.5707,1.5707,1.5706,1.5704,1.5702,1.5701,1.5702,1.5703,1.5704,1.5706,1.5708,1.5712,1.5715,1.5718,1.5723,1.5728,1.5732,1.5736,1.5738,1.5739,1.5738,1.5736,1.5736,1.5735,1.5737,1.5738,1.574,1.574,1.5741,1.574,1.5739,1.5736,1.5734,1.5731,1.5727,1.5725,1.5724,1.5723,1.5724,1.5725,1.5726,1.5727,1.5728,1.5728,1.5727,1.5727,1.5726,1.5725,1.5723,1.5721,1.572,1.5719,1.5719,1.5721,1.5722,1.5722,1.5723,1.5725,1.5727,1.573,1.5732,1.5734,1.5736,1.5739,1.5741,1.5744,1.5746,1.5749,1.5753,1.5758,1.5761,1.5764,1.5767,1.577,1.5773,1.5774,1.5774,1.5774,1.5774,1.5773,1.5773,1.5772,1.5771,1.577,1.5769,1.5769,1.577,1.577,1.577,1.577,1.5769,1.5766,1.5764,1.576,1.5758,1.5755,1.5752,1.5748,1.5746,1.5745,1.5745,1.5746,1.5747,1.5748,1.5748,1.5747,1.5746,1.5744,1.5743,1.5743,1.5742,1.5741,1.574,1.5739,1.5738,1.5736,1.5735,1.5733,1.5731,1.5729,1.5727,1.5725,1.5724,1.5723,1.5723,1.5725,1.5728,1.5731,1.5735
