-0.48755,-0.48708,-0.48682,-0.48668,-0.48667,-0.48678,-0.48694,-0.48722,-0.48762,-0.48813,-0.4887,-0.4893,-0.48994,-0.4906,-0.49126,-0.49192,-0.49264,-0.49333,-0.49401,-0.49473,-0.49541,-0.49611,-0.49687,-0.4976,-0.49836,-0.49909,-0.49984,-0.50052,-0.5012,-0.50186,-0.50257,-0.5032,-0.50388,-0.50451,-0.50515,-0.50572,-0.50621,-0.50663,-0.50689,-0.50699,-0.50706,-0.50704,-0.50694,-0.50677,-0.50645,-0.5061,-0.50553,-0.50493,-0.50427,-0.50363,-0.50282,-0.50211,-0.50118,-0.4998,-0.49707,-0.49178,-0.48246,-0.46833,-0.44901,-0.42505,-0.3962,-0.36347,-0.3275,-0.28908,-0.24899,-0.20788,-0.16667,-0.12554,-0.084753,-0.044724,-0.0056153,0.032452,0.069015,0.10418,0.13752,0.16902,0.1983,0.22553,0.25037,0.27285,0.29305,0.31096,0.32648,0.33983,0.3508,0.35989,0.36723,0.37271,0.37648,0.37941,0.38085,0.38147,0.38122,0.3804,0.37916,0.37782,0.3765,0.37534,0.37417,0.37306,0.37292,0.37311,0.37321,0.37474,0.37616,0.37822,0.38111,0.38416,0.38792,0.39176,0.39612,0.40053,0.4053,0.41021,0.41536,0.42039,0.42566,0.43074,0.43593,0.44088,0.44564,0.45021,0.45455,0.45876,0.46256,0.46619,0.46944,0.47245,0.47517,0.47763,0.47971,0.48173,0.4832,0.48469,0.48583,0.4867,0.48742,0.48792,0.48841,0.48864,0.48879,0.48893,0.48915,0.48935,0.48956,0.48987,0.49026,0.49069,0.49108,0.49155,0.49203,0.49248,0.49292,0.49319,0.49336,0.49354,0.4936,0.49358,0.49356,0.49333,0.49317,0.49281,0.49241,0.49209,0.49152,0.49102,0.49047,0.48989,0.48938,0.48886,0.48838,0.48792,0.48766,0.48731,0.48715,0.487,0.48699,0.48698,0.48705,0.48717,0.48745,0.48775,0.48807,0.48851,0.48899,0.48945,0.49005,0.49053,0.49112,0.4917,0.49233,0.49287,0.49345,0.49399,0.49448,0.49495,0.4954,0.49578,0.49607,0.49636,0.49653,0.49671,0.49681,0.49693,0.49687,0.49667,0.49646,0.49622,0.49593,0.49555,0.49509,0.49465,0.49422,0.49374,0.49313,0.49248,0.49181,0.49116,0.49048,0.48983,0.4892,0.48861,0.48809,0.48764,0.48722,0.48677,0.48625,0.48582,0.48541,0.48491,0.48448,0.48416,0.48389,0.48371,0.48363,0.4836,0.48355,0.48353,0.48352,0.48358,0.48362,0.48366,0.48375,0.48383,0.48392,0.484,0.48409,0.48424,0.48438,0.48462,0.48485,0.48509,0.48535,0.48556,0.48581,0.48601,0.48624,0.48651,0.48685,0.48718,0.48754,0.48785,0.4882,0.4885,0.48879,0.48901,0.4892,0.48934,0.48946,0.48952,0.48955,0.48951,0.48949,0.48932,0.48916,0.4889,0.48858,0.48822,0.48778,0.48743,0.48707,0.48673,0.48636,0.486,0.48564,0.48533,0.48501,0.48471,0.48441,0.48412,0.4838,0.48352,0.48334,0.48314,0.48305,0.483,0.483,0.48304,0.4831,0.48318,0.48329
-0.5714,-0.57128,-0.57117,-0.57082,-0.57038,-0.5699,-0.56939,-0.56885,-0.56827,-0.56764,-0.56691,-0.56619,-0.5654,-0.56445,-0.56352,-0.56256,-0.56155,-0.56044,-0.55929,-0.55801,-0.55664,-0.55517,-0.55367,-0.55205,-0.55039,-0.54875,-0.54705,-0.5454,-0.5437,-0.5418,-0.54017,-0.53855,-0.53674,-0.53523,-0.53386,-0.53229,-0.53117,-0.53001,-0.52905,-0.52815,-0.52768,-0.52731,-0.52713,-0.52727,-0.5275,-0.52786,-0.52846,-0.52929,-0.53031,-0.53151,-0.53296,-0.53454,-0.5362,-0.53783,-0.5386,-0.53884,-0.53777,-0.53528,-0.5314,-0.52592,-0.51958,-0.5114,-0.50212,-0.492,-0.48046,-0.46819,-0.45513,-0.44135,-0.42734,-0.41265,-0.39803,-0.38232,-0.367,-0.35069,-0.33442,-0.31744,-0.30028,-0.2825,-0.26428,-0.24567,-0.22666,-0.20725,-0.18732,-0.16695,-0.14568,-0.12408,-0.10162,-0.078518,-0.054864,-0.031439,-0.0071112,0.017095,0.041765,0.066435,0.090604,0.1153,0.13932,0.16299,0.18605,0.20865,0.23098,0.25265,0.27313,0.29401,0.3133,0.33156,0.34983,0.36652,0.38266,0.3976,0.41189,0.42531,0.43762,0.44938,0.45986,0.47011,0.47918,0.48729,0.4945,0.50106,0.50672,0.51192,0.51609,0.51988,0.52289,0.52521,0.52697,0.52855,0.52949,0.52999,0.53059,0.53051,0.53038,0.52988,0.52935,0.52871,0.52783,0.527,0.52594,0.52515,0.52432,0.52343,0.52263,0.5219,0.52139,0.52098,0.52032,0.52,0.51968,0.51929,0.51889,0.5184,0.51801,0.51764,0.5174,0.51679,0.51633,0.51587,0.51526,0.51526,0.51461,0.514,0.51338,0.51268,0.51209,0.51117,0.51011,0.50908,0.50801,0.5066,0.50531,0.50396,0.50235,0.50079,0.49923,0.49754,0.49582,0.49428,0.49253,0.4908,0.48905,0.48728,0.48537,0.48352,0.48172,0.47984,0.47788,0.47613,0.47415,0.4724,0.47061,0.469,0.46736,0.46584,0.46444,0.46308,0.46175,0.46036,0.45902,0.45761,0.45648,0.45534,0.45448,0.45352,0.45275,0.45192,0.45126,0.45084,0.4505,0.4501,0.44975,0.44956,0.44952,0.44966,0.44969,0.44987,0.45023,0.45053,0.45095,0.45134,0.45179,0.45223,0.45279,0.45323,0.45391,0.45445,0.45494,0.45538,0.4559,0.45644,0.45687,0.45735,0.458,0.45864,0.45936,0.46007,0.46075,0.46148,0.46212,0.46287,0.46351,0.46417,0.46477,0.46525,0.46572,0.46608,0.46641,0.46674,0.46683,0.46681,0.46686,0.46676,0.46662,0.46644,0.46622,0.46596,0.46566,0.46534,0.46493,0.46451,0.46415,0.46385,0.4635,0.46311,0.46271,0.46242,0.46222,0.46198,0.46186,0.46177,0.4617,0.46167,0.46169,0.46183,0.46193,0.46213,0.46232,0.46242,0.4628,0.46302,0.46327,0.46348,0.46372,0.46396,0.46417,0.46429,0.46442,0.46459,0.46476,0.46495,0.46515,0.4653,0.46538,0.46557,0.46561,0.46568,0.46569,0.46566,0.46559,0.46548,0.46526
0.44943,0.44989,0.45027,0.45056,0.45072,0.45071,0.45058,0.4504,0.45019,0.44999,0.44979,0.44973,0.4497,0.44966,0.44967,0.44987,0.45007,0.45034,0.45073,0.45124,0.45174,0.45243,0.4532,0.4539,0.45464,0.45547,0.45629,0.45711,0.45786,0.45832,0.45901,0.45937,0.45946,0.45984,0.45997,0.45994,0.45996,0.46001,0.45998,0.45983,0.45977,0.45958,0.45938,0.45916,0.45889,0.4586,0.45843,0.45822,0.45789,0.45766,0.45757,0.45742,0.45742,0.45855,0.46278,0.47164,0.48533,0.50391,0.52723,0.55485,0.58736,0.62366,0.66435,0.70891,0.75613,0.80594,0.85706,0.90866,0.95988,1.0103,1.0592,1.1059,1.1506,1.1927,1.2324,1.2696,1.3045,1.3369,1.3671,1.3948,1.4203,1.4437,1.465,1.4844,1.5018,1.5174,1.5312,1.5433,1.554,1.5633,1.5714,1.5784,1.5845,1.5895,1.5936,1.5971,1.6001,1.6023,1.6042,1.6054,1.6065,1.6073,1.6075,1.6079,1.608,1.6077,1.6078,1.6076,1.6074,1.607,1.6067,1.6063,1.6058,1.6053,1.6043,1.6037,1.6028,1.6017,1.6005,1.5993,1.5978,1.5963,1.5946,1.5929,1.5912,1.5893,1.5871,1.5848,1.5824,1.5799,1.5773,1.5747,1.5721,1.5694,1.5667,1.564,1.5614,1.5588,1.5562,1.5536,1.5512,1.5487,1.5461,1.5435,1.5409,1.5383,1.5358,1.5334,1.5311,1.529,1.527,1.525,1.5233,1.5217,1.5203,1.5189,1.5177,1.5165,1.5155,1.5146,1.5137,1.5128,1.5119,1.511,1.51,1.509,1.508,1.5071,1.5063,1.5056,1.5051,1.5047,1.5043,1.5039,1.5035,1.5031,1.5028,1.5025,1.5021,1.5018,1.5014,1.5011,1.5008,1.5006,1.5004,1.5002,1.5,1.4999,1.4998,1.4995,1.4993,1.4991,1.4988,1.4986,1.4983,1.4979,1.4977,1.4973,1.4969,1.4965,1.4963,1.496,1.4958,1.4958,1.4959,1.4958,1.4959,1.4959,1.4959,1.4958,1.4957,1.4955,1.4954,1.4952,1.495,1.495,1.495,1.495,1.495,1.4951,1.4952,1.4952,1.4951,1.4951,1.4952,1.4952,1.4952,1.4954,1.4956,1.4957,1.4959,1.496,1.4962,1.4964,1.4966,1.4969,1.4971,1.4973,1.4975,1.4977,1.4979,1.4981,1.4983,1.4985,1.4987,1.499,1.4992,1.4994,1.4994,1.4995,1.4996,1.4997,1.5,1.5003,1.5006,1.5009,1.5011,1.5012,1.5013,1.5015,1.5016,1.5019,1.502,1.5022,1.5023,1.5024,1.5025,1.5025,1.5025,1.5025,1.5025,1.5025,1.5025,1.5025,1.5025,1.5025,1.5024,1.5023,1.5023,1.5021,1.502,1.5018,1.5016,1.5014,1.5012,1.5012,1.5012,1.5013,1.5014,1.5015,1.5015,1.5015,1.5013,1.5012,1.501,1.5009,1.5009,1.5008,1.5009,1.501,1.5011
