-0.39699,-0.39695,-0.39691,-0.39713,-0.39739,-0.39779,-0.3982,-0.39866,-0.39919,-0.3998,-0.40032,-0.40085,-0.40146,-0.40208,-0.4027,-0.40338,-0.40412,-0.40489,-0.40569,-0.40657,-0.40753,-0.40836,-0.40936,-0.41025,-0.41108,-0.4119,-0.41256,-0.41313,-0.41353,-0.41376,-0.4138,-0.41363,-0.41327,-0.41276,-0.41207,-0.4112,-0.41023,-0.40914,-0.40807,-0.40694,-0.40585,-0.40479,-0.40404,-0.4031,-0.40231,-0.40178,-0.40129,-0.40089,-0.40058,-0.40058,-0.40074,-0.40102,-0.40134,-0.40136,-0.40009,-0.39607,-0.38761,-0.37315,-0.35175,-0.3232,-0.28749,-0.24544,-0.19805,-0.14646,-0.092345,-0.036856,0.018779,0.073541,0.12682,0.17801,0.22702,0.27333,0.31707,0.35769,0.39498,0.42889,0.45896,0.48521,0.507,0.52543,0.53901,0.54814,0.55258,0.55319,0.55004,0.54305,0.53242,0.51893,0.5025,0.48368,0.46288,0.44023,0.41649,0.39163,0.36639,0.34121,0.31612,0.29162,0.26796,0.24526,0.22409,0.20464,0.18716,0.17153,0.15826,0.14684,0.13825,0.1315,0.12721,0.12524,0.12538,0.12765,0.13196,0.13828,0.14614,0.1556,0.16635,0.17826,0.19128,0.20507,0.21945,0.23428,0.24949,0.26474,0.28022,0.29529,0.31006,0.32469,0.33859,0.35181,0.3645,0.37606,0.38698,0.39685,0.40564,0.4133,0.42012,0.42578,0.4304,0.43405,0.43684,0.4385,0.43943,0.43939,0.43858,0.43706,0.43491,0.43214,0.42885,0.42511,0.42107,0.41679,0.41232,0.40781,0.40329,0.39883,0.39464,0.3907,0.38704,0.38369,0.3808,0.37849,0.37642,0.37489,0.37387,0.3732,0.37312,0.37345,0.37417,0.37528,0.37671,0.37857,0.38058,0.38284,0.38529,0.38792,0.39063,0.39348,0.39639,0.39933,0.40219,0.405,0.40769,0.4102,0.41252,0.4146,0.41644,0.41809,0.41937,0.42049,0.42128,0.42186,0.42223,0.42236,0.42234,0.42214,0.42177,0.42127,0.42065,0.41989,0.41895,0.41804,0.4169,0.41584,0.41467,0.41352,0.41224,0.4111,0.4098,0.40855,0.40739,0.40613,0.40508,0.40403,0.4031,0.40224,0.40161,0.40108,0.40065,0.40039,0.40017,0.40014,0.40018,0.40034,0.40053,0.40075,0.40104,0.40153,0.40201,0.40254,0.40314,0.40372,0.40423,0.40466,0.40515,0.40555,0.40586,0.40607,0.40625,0.40644,0.40654,0.40658,0.40656,0.40653,0.40642,0.40632,0.40614,0.40597,0.40577,0.40553,0.40522,0.40481,0.40429,0.40373,0.40317,0.4026,0.40197,0.40128,0.4007,0.40016,0.39969,0.39921,0.39885,0.39855,0.39836,0.39824,0.39815,0.3981,0.39811,0.39815,0.39821,0.39828,0.39838,0.39856,0.39877,0.39905,0.39931,0.39962,0.3999,0.40025,0.40058,0.40095,0.40126,0.40147,0.40165,0.40181,0.40192,0.40199,0.40198,0.40191,0.40184,0.4017,0.40158,0.40145,0.40135,0.40127,0.40112,0.40099,0.40077,0.40055,0.40023
-0.45977,-0.45926,-0.45879,-0.45839,-0.458,-0.45756,-0.45728,-0.45715,-0.45705,-0.45699,-0.45691,-0.45685,-0.45684,-0.45676,-0.45692,-0.45701,-0.45739,-0.45775,-0.45798,-0.4587,-0.45925,-0.45968,-0.46054,-0.46114,-0.46182,-0.46252,-0.46302,-0.46371,-0.46416,-0.46479,-0.46526,-0.46565,-0.46611,-0.46648,-0.46676,-0.46673,-0.4668,-0.46681,-0.46682,-0.46685,-0.46648,-0.46635,-0.46602,-0.46573,-0.46503,-0.46454,-0.46415,-0.4634,-0.4624,-0.46169,-0.46078,-0.4598,-0.4587,-0.45762,-0.45564,-0.45307,-0.44939,-0.44455,-0.43851,-0.43118,-0.42258,-0.41268,-0.40193,-0.38986,-0.37721,-0.3635,-0.34942,-0.33508,-0.32063,-0.30615,-0.29133,-0.27673,-0.26211,-0.24729,-0.23234,-0.2173,-0.20253,-0.18704,-0.17122,-0.15716,-0.1411,-0.12462,-0.10652,-0.088264,-0.069746,-0.050037,-0.02958,-0.0090592,0.012068,0.033306,0.054135,0.074961,0.096119,0.1164,0.1368,0.15732,0.1767,0.19597,0.2144,0.23173,0.24791,0.26341,0.27852,0.29191,0.30521,0.31683,0.32762,0.33678,0.34481,0.35175,0.35769,0.36226,0.36553,0.36852,0.36954,0.37069,0.37028,0.36959,0.36818,0.36625,0.36429,0.36151,0.35908,0.3561,0.35313,0.35023,0.34686,0.34392,0.34111,0.33874,0.337,0.33527,0.33394,0.33254,0.33206,0.33169,0.33226,0.33313,0.33446,0.33564,0.33801,0.34095,0.34392,0.34754,0.35161,0.35585,0.3603,0.36508,0.36982,0.3746,0.37967,0.38459,0.38945,0.39412,0.39864,0.40295,0.40736,0.41109,0.41486,0.41829,0.42137,0.42383,0.42627,0.42857,0.43062,0.43226,0.43356,0.43443,0.43498,0.43544,0.43537,0.43495,0.43452,0.4338,0.43282,0.43175,0.43055,0.42929,0.42786,0.42644,0.42507,0.42366,0.42238,0.42111,0.41996,0.419,0.41793,0.41703,0.41641,0.4156,0.41512,0.41469,0.41439,0.41424,0.41409,0.41401,0.41411,0.41432,0.41467,0.41507,0.41573,0.4162,0.41709,0.41759,0.41846,0.41923,0.42013,0.42107,0.42204,0.42278,0.42379,0.42442,0.42533,0.42591,0.42634,0.42698,0.42732,0.42749,0.42762,0.42768,0.42769,0.42753,0.42731,0.42697,0.42656,0.42615,0.42561,0.42479,0.42411,0.42348,0.42267,0.42202,0.42144,0.42094,0.42021,0.41964,0.41922,0.41895,0.41873,0.41845,0.41824,0.41809,0.41797,0.41789,0.4178,0.41772,0.41766,0.41762,0.41758,0.41763,0.41773,0.41782,0.41787,0.41789,0.41798,0.41808,0.41817,0.41834,0.41847,0.41848,0.41846,0.41842,0.41849,0.41844,0.41836,0.41835,0.41844,0.41851,0.41858,0.41863,0.41874,0.4189,0.41911,0.41937,0.41963,0.42002,0.42037,0.42072,0.42101,0.42127,0.42157,0.4219,0.42217,0.42233,0.42249,0.4227,0.42284,0.42295,0.42302,0.42302,0.42297,0.42288,0.42274,0.42256,0.42239,0.4222,0.42201,0.42185,0.42168,0.42158,0.42151
0.40453,0.40509,0.40571,0.40631,0.40689,0.40733,0.40759,0.40782,0.40796,0.40808,0.40808,0.40799,0.40787,0.40747,0.4073,0.40687,0.40653,0.40612,0.40567,0.40553,0.40521,0.40494,0.40489,0.4047,0.40456,0.40433,0.40402,0.40388,0.40357,0.40336,0.40313,0.40301,0.40303,0.40299,0.40308,0.40318,0.40341,0.40376,0.40409,0.40453,0.4047,0.4051,0.40523,0.40541,0.4055,0.40554,0.40572,0.40583,0.40578,0.40586,0.40606,0.40623,0.40642,0.40774,0.41208,0.42065,0.43418,0.45225,0.47462,0.50103,0.53179,0.56707,0.60698,0.65155,0.70083,0.75426,0.81114,0.87044,0.93057,0.99042,1.0484,1.1039,1.1561,1.2044,1.2491,1.2898,1.3265,1.36,1.3904,1.4172,1.4414,1.4627,1.4819,1.4982,1.5122,1.5241,1.5344,1.543,1.5501,1.5556,1.5606,1.5644,1.5675,1.5702,1.5725,1.5743,1.5758,1.5768,1.5776,1.5781,1.5785,1.5788,1.5789,1.5792,1.5796,1.5801,1.5809,1.582,1.5837,1.586,1.5888,1.5921,1.5959,1.6,1.6044,1.6088,1.6134,1.618,1.6226,1.6273,1.6318,1.6363,1.6407,1.6449,1.649,1.6526,1.6557,1.6585,1.6607,1.6625,1.6638,1.6646,1.6649,1.665,1.6647,1.664,1.6628,1.6613,1.6594,1.6574,1.6551,1.6527,1.65,1.6473,1.6443,1.6414,1.6386,1.6356,1.6327,1.6298,1.627,1.6242,1.6217,1.6194,1.6173,1.6155,1.6137,1.6121,1.6106,1.6093,1.6082,1.6072,1.6064,1.6058,1.6054,1.6052,1.6052,1.6053,1.6056,1.606,1.6064,1.6068,1.6073,1.6078,1.6084,1.6091,1.6099,1.6108,1.6116,1.6124,1.6131,1.6136,1.6141,1.6145,1.615,1.6154,1.6158,1.6161,1.6164,1.6164,1.6165,1.6163,1.6158,1.6152,1.6145,1.6137,1.6129,1.6121,1.6113,1.6106,1.6099,1.6093,1.6086,1.6081,1.6076,1.6071,1.6068,1.6065,1.6061,1.6058,1.6054,1.605,1.6046,1.6044,1.6041,1.604,1.604,1.6038,1.6036,1.6035,1.6034,1.6034,1.6035,1.6038,1.6042,1.6047,1.6051,1.6056,1.6059,1.6062,1.6065,1.6067,1.6069,1.6071,1.6073,1.6075,1.6078,1.608,1.6082,1.6083,1.6084,1.6085,1.6086,1.6087,1.6087,1.6087,1.6086,1.6085,1.6083,1.6082,1.6081,1.6081,1.6082,1.6083,1.6084,1.6085,1.6086,1.6086,1.6086,1.6085,1.6083,1.6081,1.6078,1.6075,1.6071,1.6068,1.6065,1.6064,1.6063,1.6064,1.6065,1.6067,1.6069,1.6072,1.6076,1.6079,1.6083,1.6086,1.6088,1.609,1.6091,1.6093,1.6094,1.6096,1.6098,1.6099,1.61,1.6101,1.6101,1.6101,1.6101,1.61,1.61,1.6099,1.6099,1.6098,1.6097,1.6096,1.6095,1.6095,1.6094
