-0.49677,-0.49738,-0.49801,-0.4988,-0.49965,-0.50049,-0.50147,-0.5025,-0.50345,-0.50444,-0.50547,-0.50636,-0.50724,-0.50816,-0.50891,-0.50963,-0.51034,-0.51107,-0.51166,-0.51218,-0.51268,-0.51309,-0.51344,-0.51375,-0.51407,-0.51437,-0.51467,-0.51485,-0.51502,-0.51507,-0.51511,-0.51506,-0.51494,-0.51472,-0.51445,-0.51409,-0.5137,-0.51328,-0.51283,-0.51234,-0.51172,-0.51105,-0.51028,-0.50952,-0.50872,-0.50795,-0.50707,-0.50628,-0.50557,-0.50469,-0.50398,-0.50333,-0.50262,-0.5015,-0.49901,-0.49388,-0.48469,-0.46981,-0.44866,-0.42083,-0.38649,-0.3458,-0.29982,-0.24922,-0.19528,-0.13909,-0.081442,-0.023447,0.034237,0.091142,0.1468,0.20098,0.25326,0.30333,0.35109,0.39585,0.4367,0.47318,0.5061,0.53453,0.55874,0.57858,0.59464,0.60611,0.61475,0.61893,0.61997,0.61761,0.61214,0.604,0.59333,0.58044,0.56606,0.54973,0.53265,0.51474,0.49607,0.47757,0.45906,0.4409,0.42346,0.40694,0.39132,0.37704,0.36411,0.35303,0.3434,0.33555,0.32976,0.32551,0.32284,0.32197,0.3226,0.32508,0.32864,0.33352,0.33955,0.34664,0.35458,0.36337,0.37287,0.38281,0.39332,0.40401,0.41495,0.426,0.43717,0.44807,0.45893,0.46938,0.47945,0.48919,0.49822,0.50696,0.51491,0.5223,0.52907,0.53521,0.54067,0.5454,0.54946,0.55274,0.55544,0.5576,0.55886,0.55967,0.55963,0.55923,0.55826,0.5568,0.55484,0.55259,0.54983,0.54694,0.54368,0.54032,0.53678,0.53317,0.52967,0.52595,0.52246,0.51892,0.51547,0.51222,0.50926,0.50643,0.50375,0.50138,0.49928,0.49744,0.49592,0.49474,0.49392,0.49344,0.49317,0.49317,0.49342,0.49387,0.49448,0.49533,0.49621,0.49728,0.49827,0.49947,0.50066,0.50191,0.50313,0.50428,0.50543,0.5065,0.50745,0.50838,0.50915,0.50978,0.51026,0.51057,0.51077,0.51075,0.5106,0.51033,0.51006,0.50962,0.50905,0.50854,0.50782,0.50712,0.5064,0.50554,0.5047,0.50378,0.50277,0.50186,0.50083,0.49986,0.49893,0.49808,0.49732,0.49662,0.496,0.4954,0.49501,0.49452,0.49421,0.49388,0.49354,0.49335,0.49315,0.49291,0.49279,0.49266,0.4926,0.49259,0.49264,0.49277,0.49293,0.49316,0.49334,0.49358,0.49372,0.49392,0.49411,0.49425,0.49437,0.49446,0.4945,0.49453,0.4945,0.49443,0.4943,0.49406,0.49382,0.49346,0.49315,0.49288,0.49264,0.49244,0.49219,0.49194,0.49173,0.49156,0.49144,0.49143,0.49144,0.49152,0.4916,0.49164,0.49175,0.49177,0.49181,0.4918,0.4918,0.49176,0.49175,0.49177,0.49175,0.49183,0.49191,0.49201,0.49213,0.49223,0.49234,0.4925,0.49264,0.4928,0.4929,0.49301,0.49306,0.49316,0.49317,0.49322,0.49313,0.49312,0.49305,0.49296,0.49283,0.49275,0.49257,0.49243,0.49228,0.49206,0.49197
-0.54786,-0.54858,-0.54934,-0.54986,-0.55027,-0.55067,-0.55083,-0.55093,-0.55074,-0.55057,-0.55018,-0.54968,-0.54899,-0.54813,-0.54721,-0.54628,-0.54517,-0.54409,-0.54315,-0.54217,-0.54102,-0.54012,-0.5391,-0.53817,-0.53727,-0.53645,-0.53573,-0.53503,-0.53458,-0.53427,-0.5341,-0.53414,-0.53429,-0.53479,-0.53546,-0.5362,-0.53716,-0.53797,-0.53896,-0.54005,-0.54125,-0.54227,-0.54318,-0.5443,-0.54524,-0.5459,-0.54652,-0.54707,-0.5474,-0.54775,-0.54818,-0.54841,-0.54846,-0.5482,-0.54705,-0.54467,-0.54047,-0.53417,-0.52606,-0.51625,-0.50445,-0.49132,-0.47664,-0.46101,-0.44436,-0.42741,-0.40935,-0.39117,-0.37242,-0.3537,-0.33485,-0.31579,-0.29772,-0.27938,-0.26045,-0.24104,-0.22133,-0.20027,-0.18142,-0.16149,-0.14113,-0.12014,-0.099434,-0.077282,-0.055839,-0.032798,-0.0099296,0.013949,0.037984,0.062776,0.087483,0.1124,0.13689,0.1621,0.18695,0.21201,0.23664,0.26132,0.28549,0.30895,0.33194,0.35459,0.37565,0.39601,0.41509,0.43362,0.45038,0.46595,0.48042,0.49328,0.50452,0.51463,0.52302,0.53087,0.53655,0.54158,0.54514,0.54701,0.54818,0.54848,0.54725,0.54585,0.54347,0.54046,0.537,0.53292,0.52858,0.52391,0.5189,0.51404,0.5095,0.50431,0.49966,0.49524,0.49116,0.48762,0.4842,0.48138,0.47928,0.47745,0.4764,0.47566,0.47559,0.47599,0.47675,0.47821,0.48004,0.48207,0.48441,0.48716,0.49026,0.4931,0.49648,0.49953,0.50282,0.50588,0.50905,0.51214,0.51491,0.51799,0.52046,0.5233,0.52576,0.5281,0.52989,0.53153,0.5332,0.53442,0.5354,0.53629,0.53688,0.53725,0.53747,0.53752,0.53724,0.5369,0.53646,0.53587,0.53495,0.5341,0.53316,0.53221,0.53087,0.52975,0.52838,0.52703,0.52554,0.524,0.52243,0.52087,0.51934,0.51763,0.51595,0.51439,0.51281,0.51119,0.50965,0.50824,0.50682,0.5056,0.50442,0.50332,0.50233,0.50167,0.50095,0.50046,0.50013,0.49983,0.49978,0.49998,0.50014,0.50056,0.50111,0.5017,0.50248,0.50334,0.50421,0.50522,0.50615,0.50719,0.50809,0.50926,0.51015,0.51122,0.51226,0.51297,0.51367,0.51443,0.51485,0.51542,0.51582,0.51621,0.51651,0.51682,0.51704,0.51704,0.51712,0.51699,0.5169,0.51656,0.51636,0.51606,0.5158,0.51548,0.51521,0.51494,0.51462,0.51448,0.51424,0.51406,0.51383,0.51355,0.51332,0.51321,0.51315,0.51295,0.51298,0.51279,0.51283,0.51264,0.51278,0.51262,0.51263,0.51271,0.51274,0.51295,0.5129,0.51308,0.51308,0.51327,0.51298,0.51297,0.51276,0.51241,0.51215,0.51167,0.51131,0.51086,0.51048,0.51023,0.50991,0.5096,0.50925,0.50893,0.50875,0.50847,0.50826,0.50801,0.50792,0.50769,0.50756,0.50749,0.50737,0.50715,0.50709,0.50699,0.50687,0.50672,0.50653,0.50641,0.50626
0.48344,0.48296,0.48241,0.48203,0.48181,0.48168,0.48166,0.48176,0.48173,0.48167,0.48155,0.48134,0.48108,0.48061,0.48022,0.4798,0.47938,0.47893,0.4787,0.4784,0.47806,0.47781,0.47752,0.47725,0.47694,0.47673,0.47659,0.47649,0.47649,0.47662,0.47679,0.47707,0.47731,0.4776,0.47793,0.47821,0.47845,0.47861,0.47877,0.47895,0.47927,0.47959,0.48,0.48045,0.48093,0.48126,0.48176,0.4823,0.48281,0.4834,0.48408,0.48468,0.48527,0.48683,0.49156,0.50128,0.51607,0.53585,0.56023,0.58905,0.62217,0.65973,0.7012,0.74722,0.79737,0.85139,0.90776,0.96605,1.0245,1.082,1.1372,1.1898,1.2394,1.2852,1.3279,1.3674,1.4049,1.4405,1.4735,1.5045,1.5331,1.5588,1.5817,1.602,1.6193,1.6341,1.6464,1.6562,1.6639,1.6694,1.6732,1.6752,1.676,1.6754,1.674,1.6717,1.6688,1.6655,1.6617,1.6574,1.6527,1.6475,1.642,1.6362,1.6304,1.6246,1.6192,1.6142,1.61,1.6062,1.603,1.6004,1.5984,1.5968,1.5957,1.5951,1.595,1.595,1.5955,1.5962,1.5968,1.5977,1.5984,1.5988,1.5993,1.5995,1.5994,1.5993,1.5988,1.5982,1.5975,1.5965,1.5954,1.594,1.5922,1.5902,1.588,1.5853,1.5825,1.5793,1.5761,1.5728,1.5694,1.566,1.5626,1.5591,1.5557,1.5522,1.549,1.5458,1.5428,1.5399,1.537,1.5342,1.5316,1.5291,1.5269,1.5248,1.5229,1.5212,1.5196,1.5182,1.517,1.5159,1.5151,1.5144,1.5139,1.5137,1.5136,1.5137,1.5138,1.5141,1.5145,1.5149,1.5154,1.5162,1.5169,1.5176,1.5185,1.5194,1.5203,1.5211,1.522,1.5227,1.5235,1.5242,1.5251,1.5259,1.5267,1.5273,1.5278,1.5283,1.5287,1.5291,1.5294,1.5296,1.5298,1.5298,1.5299,1.5299,1.53,1.5301,1.5301,1.5301,1.5299,1.5295,1.5291,1.5287,1.5282,1.5279,1.5276,1.5274,1.5272,1.527,1.5268,1.5265,1.5263,1.5262,1.5263,1.5263,1.5264,1.5265,1.5265,1.5266,1.5269,1.5271,1.5273,1.5277,1.5281,1.5286,1.5291,1.5297,1.5303,1.5308,1.5311,1.5313,1.5315,1.5318,1.5321,1.5326,1.5331,1.5334,1.5337,1.534,1.5341,1.5343,1.5344,1.5345,1.5345,1.5345,1.5345,1.5345,1.5345,1.5347,1.5346,1.5346,1.5346,1.5346,1.5346,1.5346,1.5346,1.5346,1.5346,1.5345,1.5345,1.5345,1.5346,1.5346,1.5348,1.5349,1.535,1.5351,1.535,1.535,1.535,1.535,1.535,1.5351,1.5353,1.5353,1.5353,1.5352,1.5351,1.535,1.5349,1.5347,1.5346,1.5343,1.5341,1.5339,1.5338,1.5337,1.5336,1.5335,1.5335,1.5334,1.5333,1.5331,1.5329,1.5327,1.5326
