-0.47706,-0.47725,-0.47746,-0.47762,-0.47782,-0.47801,-0.47809,-0.47817,-0.47818,-0.4782,-0.47825,-0.4783,-0.47839,-0.47851,-0.47869,-0.47875,-0.47893,-0.47902,-0.47911,-0.47921,-0.4792,-0.47924,-0.4793,-0.47927,-0.47936,-0.47941,-0.47946,-0.47953,-0.47954,-0.47947,-0.47942,-0.47924,-0.47901,-0.47871,-0.47842,-0.47808,-0.47765,-0.47717,-0.47672,-0.47638,-0.47603,-0.47578,-0.47554,-0.47545,-0.47544,-0.4755,-0.47563,-0.47596,-0.47633,-0.47679,-0.47741,-0.4782,-0.47891,-0.47912,-0.47798,-0.47404,-0.46572,-0.45188,-0.4317,-0.40504,-0.37179,-0.33243,-0.28782,-0.2387,-0.18586,-0.13046,-0.073272,-0.015223,0.043055,0.10113,0.15826,0.21433,0.2688,0.32124,0.37126,0.41863,0.46273,0.50352,0.54043,0.57399,0.60317,0.6285,0.64985,0.66668,0.67984,0.68841,0.69287,0.69371,0.69038,0.68388,0.67426,0.66132,0.64605,0.62901,0.60993,0.59005,0.56917,0.54786,0.52641,0.50533,0.48411,0.46414,0.44443,0.42631,0.40935,0.39343,0.37941,0.36684,0.35605,0.34695,0.33936,0.33328,0.32865,0.32582,0.32401,0.3237,0.32431,0.32632,0.32918,0.33301,0.33762,0.34298,0.34876,0.35526,0.36198,0.36894,0.37632,0.38387,0.39149,0.39918,0.40691,0.41459,0.42222,0.42955,0.43683,0.44386,0.4504,0.45673,0.46274,0.46833,0.47362,0.47862,0.48312,0.48724,0.49081,0.494,0.4967,0.49878,0.50054,0.50166,0.50245,0.50274,0.50279,0.50231,0.50152,0.50043,0.49908,0.49758,0.49595,0.49418,0.49222,0.49029,0.48833,0.48636,0.48446,0.48248,0.48062,0.47871,0.4769,0.47503,0.47336,0.47168,0.47032,0.46884,0.46758,0.46664,0.46576,0.46502,0.46454,0.46429,0.46419,0.46424,0.46427,0.46461,0.46502,0.4655,0.46611,0.4667,0.46742,0.4682,0.46908,0.46997,0.47089,0.47176,0.4726,0.47348,0.47413,0.47488,0.47551,0.47616,0.47682,0.47729,0.47778,0.47823,0.47862,0.47893,0.47925,0.47962,0.47999,0.48032,0.48062,0.48096,0.48124,0.48147,0.48162,0.48173,0.48178,0.48173,0.48165,0.4815,0.4813,0.48101,0.48068,0.48029,0.47987,0.47936,0.47881,0.47815,0.47737,0.4765,0.4757,0.47484,0.47369,0.47281,0.47169,0.47062,0.46959,0.46846,0.4675,0.46657,0.46577,0.46499,0.46432,0.46375,0.46322,0.46268,0.4623,0.46195,0.46157,0.4612,0.46094,0.46074,0.46058,0.46043,0.46034,0.46023,0.46012,0.45997,0.45991,0.45986,0.45978,0.45975,0.45978,0.45978,0.45976,0.45979,0.45976,0.45977,0.4598,0.45982,0.45989,0.45991,0.45998,0.46002,0.46009,0.46015,0.46024,0.46035,0.46051,0.46063,0.46075,0.4608,0.46082,0.4607,0.46056,0.46038,0.46017,0.45994,0.4597,0.45945,0.45924,0.45902,0.45879,0.45857,0.45834,0.4581,0.45787,0.45767,0.45754,0.45749,0.45752
-0.5626,-0.56248,-0.5621,-0.5617,-0.56135,-0.56072,-0.56042,-0.56007,-0.5598,-0.55937,-0.55917,-0.55915,-0.55916,-0.55923,-0.55927,-0.55968,-0.56017,-0.56064,-0.56098,-0.56156,-0.56216,-0.56275,-0.5631,-0.56353,-0.56398,-0.56426,-0.56448,-0.56463,-0.56477,-0.56494,-0.56491,-0.56509,-0.56499,-0.56497,-0.56488,-0.56461,-0.56444,-0.56406,-0.56363,-0.5634,-0.56296,-0.56268,-0.5622,-0.56179,-0.56139,-0.56095,-0.56046,-0.55989,-0.55945,-0.55908,-0.55851,-0.55797,-0.55746,-0.5568,-0.55606,-0.55509,-0.5538,-0.55229,-0.55077,-0.54898,-0.54734,-0.54517,-0.54327,-0.54075,-0.53803,-0.53488,-0.53032,-0.52573,-0.5201,-0.5135,-0.50596,-0.49736,-0.48765,-0.47676,-0.46483,-0.4514,-0.43683,-0.4209,-0.40331,-0.38431,-0.36341,-0.34109,-0.3177,-0.2914,-0.26438,-0.2345,-0.20353,-0.17095,-0.13596,-0.10044,-0.063628,-0.025423,0.013216,0.052232,0.090323,0.12878,0.16656,0.20437,0.24124,0.27775,0.3121,0.34643,0.37758,0.40846,0.4373,0.46368,0.48872,0.51132,0.53212,0.55104,0.56751,0.58143,0.5941,0.60476,0.613,0.61951,0.62382,0.62655,0.62731,0.62601,0.62352,0.61924,0.61346,0.60672,0.59858,0.58998,0.5804,0.57059,0.55993,0.5489,0.53801,0.52682,0.51581,0.50511,0.4945,0.48441,0.47502,0.46581,0.45718,0.44981,0.44254,0.43689,0.43168,0.4274,0.42385,0.42143,0.41962,0.41861,0.41853,0.41915,0.42039,0.4224,0.42458,0.4276,0.43136,0.43523,0.43937,0.44358,0.44816,0.45295,0.45784,0.4626,0.46754,0.47246,0.477,0.48148,0.48561,0.4896,0.49319,0.49628,0.49919,0.50151,0.50368,0.50508,0.50618,0.50691,0.50739,0.50725,0.50684,0.50602,0.50509,0.50378,0.50213,0.50048,0.49856,0.49654,0.49432,0.49202,0.48976,0.4875,0.48509,0.48275,0.48067,0.47854,0.47663,0.47465,0.4729,0.47112,0.46967,0.46818,0.46694,0.46598,0.46482,0.46396,0.46318,0.46256,0.46205,0.46149,0.46107,0.46083,0.46099,0.46107,0.46123,0.46161,0.46181,0.46226,0.4627,0.46337,0.46396,0.46451,0.46501,0.4656,0.46621,0.46683,0.46731,0.4678,0.46831,0.46885,0.4691,0.46939,0.46982,0.47,0.47019,0.47027,0.47029,0.47035,0.47019,0.46999,0.46984,0.46947,0.46916,0.46884,0.46853,0.46818,0.46772,0.46714,0.46682,0.46635,0.46591,0.46534,0.4649,0.4645,0.46422,0.46394,0.46365,0.46338,0.46316,0.46296,0.4629,0.46278,0.46289,0.46307,0.46328,0.46357,0.46391,0.46416,0.46456,0.46473,0.46508,0.46513,0.46541,0.46549,0.46562,0.46561,0.46567,0.46564,0.46571,0.46562,0.46554,0.46536,0.46527,0.46498,0.4648,0.46458,0.46443,0.46425,0.46411,0.46405,0.46393,0.46375,0.46354,0.4634,0.46324,0.4632,0.46312,0.46315,0.4632,0.46324,0.46329,0.46337,0.46346
0.45691,0.45677,0.4564,0.45599,0.4555,0.45478,0.45418,0.45352,0.45291,0.45227,0.45184,0.45163,0.45153,0.45155,0.45168,0.45212,0.45265,0.45325,0.45395,0.45479,0.45558,0.45622,0.45671,0.45732,0.45774,0.458,0.45821,0.45848,0.45867,0.45893,0.45917,0.45952,0.45966,0.45989,0.45998,0.45995,0.46002,0.45977,0.45951,0.4593,0.45892,0.45869,0.45852,0.45849,0.45855,0.45878,0.45912,0.45939,0.45975,0.46009,0.46035,0.46055,0.46076,0.46205,0.4667,0.47628,0.49097,0.51051,0.53491,0.56388,0.59696,0.63416,0.67499,0.71944,0.76721,0.81776,0.86995,0.92316,0.97652,1.0288,1.0794,1.1277,1.1734,1.2164,1.2567,1.2941,1.3284,1.36,1.3883,1.4138,1.4364,1.4561,1.473,1.4877,1.4998,1.51,1.5182,1.5249,1.5301,1.5341,1.5373,1.5399,1.5416,1.5429,1.5437,1.5442,1.5446,1.5447,1.5445,1.5442,1.5438,1.5432,1.5425,1.5417,1.5412,1.5408,1.5405,1.5405,1.5407,1.5414,1.5424,1.5437,1.5453,1.5471,1.5491,1.5514,1.5538,1.5565,1.5595,1.5623,1.5655,1.5686,1.5718,1.5749,1.5777,1.5806,1.5831,1.5853,1.5873,1.5888,1.59,1.5909,1.5914,1.5916,1.5916,1.5914,1.5908,1.59,1.589,1.5876,1.586,1.5841,1.5819,1.5795,1.577,1.5744,1.5717,1.569,1.5663,1.5638,1.5613,1.5589,1.5565,1.5542,1.5519,1.5498,1.5476,1.5457,1.5439,1.5423,1.5409,1.5396,1.5385,1.5374,1.5366,1.5359,1.5353,1.5349,1.5346,1.5343,1.5343,1.5343,1.5345,1.5347,1.5351,1.5355,1.5359,1.5365,1.5372,1.5377,1.5381,1.5385,1.5389,1.5392,1.5394,1.5399,1.5403,1.5408,1.5412,1.5417,1.542,1.5423,1.5426,1.5428,1.543,1.5432,1.5433,1.5435,1.5436,1.5436,1.5436,1.5435,1.5433,1.5432,1.5431,1.543,1.543,1.5429,1.5428,1.5426,1.5425,1.5422,1.5419,1.5416,1.5414,1.5413,1.5412,1.5411,1.541,1.541,1.5408,1.5406,1.5404,1.5402,1.54,1.5398,1.5398,1.5399,1.5399,1.54,1.5402,1.5402,1.5402,1.5402,1.5401,1.54,1.5398,1.5398,1.5397,1.5397,1.5398,1.5398,1.54,1.5402,1.5404,1.5406,1.5408,1.5409,1.541,1.5411,1.5413,1.5415,1.5418,1.542,1.5423,1.5425,1.5427,1.5428,1.5429,1.543,1.5431,1.5432,1.5434,1.5434,1.5435,1.5434,1.5435,1.5434,1.5435,1.5435,1.5436,1.5436,1.5437,1.5438,1.5439,1.544,1.5442,1.5443,1.5444,1.5443,1.5443,1.5441,1.5441,1.5441,1.5442,1.5442,1.5443,1.5443,1.5444,1.5444,1.5444,1.5443,1.5443,1.5443,1.5441,1.5441,1.544,1.5439,1.5439,1.544,1.5441
