-0.44196,-0.44236,-0.44259,-0.44289,-0.44313,-0.4433,-0.44338,-0.44343,-0.44344,-0.44337,-0.44337,-0.44327,-0.44329,-0.44324,-0.4433,-0.44329,-0.44339,-0.44347,-0.44352,-0.44361,-0.44367,-0.44375,-0.4439,-0.44405,-0.44428,-0.44461,-0.445,-0.44552,-0.4461,-0.44682,-0.44751,-0.44825,-0.44904,-0.44969,-0.45036,-0.45097,-0.4515,-0.45194,-0.45238,-0.45272,-0.45298,-0.45312,-0.45322,-0.45324,-0.45322,-0.45311,-0.45299,-0.45286,-0.45267,-0.45246,-0.45228,-0.45208,-0.45185,-0.45116,-0.44913,-0.44448,-0.43552,-0.42131,-0.40093,-0.37441,-0.34233,-0.30529,-0.26394,-0.21951,-0.17282,-0.12494,-0.076398,-0.028092,0.019447,0.066089,0.11114,0.15449,0.19581,0.23469,0.27068,0.30383,0.3339,0.36031,0.38356,0.40355,0.42051,0.43409,0.44492,0.45288,0.45783,0.46065,0.46098,0.45927,0.45579,0.45075,0.44429,0.43669,0.42823,0.41917,0.40945,0.39977,0.38998,0.38037,0.37106,0.36218,0.35398,0.34616,0.33942,0.33338,0.32814,0.3238,0.32061,0.31817,0.31663,0.316,0.31632,0.31734,0.31918,0.32179,0.32503,0.32889,0.33323,0.33795,0.34299,0.34826,0.35366,0.3593,0.36499,0.3706,0.3762,0.3818,0.38739,0.39279,0.39815,0.4032,0.40821,0.41298,0.4174,0.42171,0.42572,0.42968,0.43334,0.43675,0.44019,0.4433,0.44628,0.44906,0.45179,0.45425,0.45654,0.45847,0.46033,0.46195,0.46333,0.46458,0.46553,0.46636,0.467,0.46748,0.46781,0.46802,0.46809,0.46822,0.46819,0.46803,0.46786,0.46765,0.46732,0.46708,0.46676,0.46646,0.46616,0.46586,0.46554,0.46514,0.46472,0.46425,0.46375,0.46318,0.46263,0.46215,0.46164,0.46118,0.46083,0.46052,0.46031,0.46015,0.45998,0.45992,0.45994,0.46005,0.46016,0.4604,0.46072,0.46105,0.46136,0.46177,0.46222,0.46271,0.46348,0.46418,0.46495,0.46575,0.46664,0.46755,0.46841,0.46917,0.47002,0.47084,0.47148,0.47217,0.47267,0.47315,0.47352,0.47393,0.47418,0.47443,0.47457,0.47467,0.47471,0.47466,0.47451,0.47427,0.47391,0.47364,0.4733,0.47302,0.47258,0.47223,0.47185,0.47148,0.47103,0.4706,0.47022,0.4699,0.46958,0.46919,0.46875,0.46831,0.46791,0.46757,0.46729,0.46704,0.46676,0.4665,0.4663,0.46617,0.46607,0.46611,0.46613,0.46633,0.46653,0.4668,0.46708,0.46738,0.46774,0.46801,0.46832,0.46857,0.46885,0.4691,0.46929,0.46948,0.46957,0.46961,0.46961,0.46947,0.46935,0.46916,0.46891,0.46862,0.46827,0.46783,0.46747,0.46702,0.46659,0.46613,0.46565,0.4653,0.46499,0.46466,0.46444,0.46418,0.46394,0.46381,0.46369,0.46362,0.46368,0.46389,0.46411,0.46451,0.46498,0.46549,0.46599,0.46662,0.46727,0.46791,0.46851,0.46909,0.46965,0.47013,0.47042,0.47072,0.4709,0.47097,0.47103
-0.4964,-0.49689,-0.49756,-0.498,-0.49867,-0.49922,-0.49984,-0.5004,-0.50082,-0.50131,-0.50166,-0.50205,-0.50235,-0.50282,-0.50305,-0.50347,-0.50365,-0.50381,-0.50397,-0.50388,-0.5041,-0.50415,-0.50416,-0.50428,-0.50427,-0.50439,-0.50447,-0.50453,-0.50461,-0.50458,-0.50477,-0.50474,-0.50474,-0.50478,-0.50463,-0.50456,-0.50423,-0.50404,-0.50362,-0.50324,-0.50276,-0.50223,-0.50169,-0.50108,-0.50045,-0.49968,-0.49897,-0.49815,-0.49755,-0.49657,-0.49589,-0.49517,-0.49452,-0.49322,-0.49081,-0.48696,-0.4804,-0.47109,-0.4589,-0.44394,-0.4269,-0.40778,-0.38713,-0.36564,-0.34338,-0.32107,-0.29834,-0.2761,-0.25426,-0.2327,-0.21163,-0.19087,-0.17051,-0.15091,-0.13207,-0.11486,-0.097575,-0.080811,-0.064082,-0.047748,-0.031767,-0.015215,0.00097523,0.016819,0.033349,0.049521,0.065721,0.081531,0.097291,0.11251,0.12793,0.14318,0.15816,0.17287,0.18725,0.20204,0.21632,0.2305,0.24423,0.258,0.2709,0.28402,0.29666,0.30892,0.32051,0.33164,0.34246,0.35286,0.36279,0.37195,0.38071,0.38917,0.39685,0.4043,0.41102,0.4173,0.42285,0.42811,0.43284,0.43657,0.44009,0.4428,0.44497,0.4468,0.44799,0.44858,0.4489,0.44874,0.44841,0.44766,0.44694,0.44598,0.44476,0.44347,0.44201,0.44093,0.43963,0.43845,0.43722,0.43618,0.43528,0.43455,0.43409,0.43323,0.43312,0.43274,0.43257,0.43255,0.4327,0.43274,0.43303,0.4334,0.43402,0.43473,0.43505,0.43598,0.43687,0.4376,0.43861,0.43954,0.44043,0.44143,0.4426,0.44369,0.4447,0.446,0.44707,0.44835,0.44962,0.45068,0.45191,0.45311,0.45423,0.4554,0.45632,0.45721,0.45835,0.45914,0.45971,0.46049,0.46094,0.46169,0.46197,0.46232,0.46258,0.46277,0.46305,0.46311,0.46325,0.46324,0.46305,0.46285,0.46259,0.4623,0.46194,0.4618,0.46145,0.46085,0.46038,0.45987,0.45922,0.45868,0.45792,0.45724,0.45667,0.45589,0.45515,0.45448,0.4537,0.45297,0.4524,0.45174,0.45107,0.45039,0.4497,0.44916,0.44857,0.448,0.44738,0.44686,0.44646,0.44602,0.44555,0.44522,0.4449,0.44473,0.44446,0.44428,0.44418,0.44407,0.44396,0.44385,0.44364,0.44352,0.44348,0.44359,0.44362,0.4436,0.44357,0.44329,0.4433,0.44306,0.44308,0.44298,0.44305,0.44298,0.44294,0.44304,0.44285,0.44283,0.44263,0.44266,0.44223,0.4423,0.44196,0.44184,0.44169,0.44149,0.44134,0.44094,0.44069,0.44036,0.44007,0.44,0.43976,0.43954,0.43928,0.43902,0.43881,0.43884,0.43868,0.4384,0.43834,0.4382,0.43808,0.43816,0.43812,0.43808,0.43806,0.43789,0.43808,0.43817,0.43819,0.43825,0.43815,0.43816,0.43841,0.43853,0.43853,0.43864,0.43889,0.43883,0.43883,0.4391,0.43915,0.43921,0.4392,0.43926,0.4393,0.43934,0.43948
0.51292,0.51287,0.51284,0.51265,0.51259,0.51241,0.51226,0.51207,0.51193,0.51177,0.51152,0.5113,0.51099,0.51073,0.51033,0.51006,0.5098,0.50968,0.50955,0.50925,0.50907,0.50867,0.50823,0.50784,0.50738,0.50702,0.50663,0.50638,0.50603,0.50565,0.50546,0.50508,0.50483,0.50459,0.50429,0.50407,0.50376,0.50359,0.50337,0.50318,0.50297,0.50271,0.50256,0.5024,0.50239,0.50238,0.50247,0.5024,0.50251,0.50246,0.50256,0.50265,0.50275,0.50369,0.50779,0.51691,0.53096,0.54992,0.57354,0.60148,0.63291,0.66784,0.70584,0.74688,0.79043,0.83614,0.88262,0.92881,0.97402,1.0173,1.0584,1.097,1.1334,1.168,1.2004,1.231,1.2599,1.2871,1.3128,1.3367,1.3586,1.3789,1.3973,1.4139,1.4288,1.4419,1.4534,1.4635,1.472,1.4795,1.4856,1.4906,1.4948,1.4982,1.5008,1.5028,1.5042,1.505,1.5052,1.505,1.5045,1.5037,1.5026,1.5014,1.5002,1.499,1.4976,1.4964,1.4952,1.4939,1.4929,1.4921,1.4914,1.4911,1.4908,1.4908,1.4907,1.4908,1.4909,1.4911,1.4913,1.4915,1.4916,1.4918,1.492,1.4921,1.4922,1.4923,1.4923,1.4921,1.4921,1.4917,1.4915,1.4911,1.4907,1.4904,1.4897,1.4893,1.4887,1.488,1.4872,1.4864,1.4854,1.4843,1.4832,1.4821,1.481,1.4799,1.4788,1.4776,1.4766,1.4755,1.4744,1.4732,1.472,1.471,1.4699,1.4689,1.4679,1.4669,1.4659,1.4648,1.464,1.4631,1.4623,1.4615,1.4608,1.46,1.4594,1.4588,1.4584,1.458,1.4577,1.4574,1.4571,1.4567,1.4562,1.4558,1.4554,1.4553,1.4551,1.4553,1.4555,1.4558,1.4561,1.4563,1.4565,1.4565,1.4565,1.4564,1.4562,1.4562,1.4563,1.4566,1.4569,1.4574,1.4577,1.4579,1.4579,1.4577,1.4576,1.4574,1.4574,1.4574,1.4575,1.4577,1.4579,1.458,1.458,1.458,1.4579,1.4577,1.4575,1.4574,1.4573,1.4572,1.4571,1.457,1.4569,1.4567,1.4566,1.4565,1.4564,1.4563,1.4561,1.456,1.4559,1.4558,1.4557,1.4556,1.4555,1.4555,1.4554,1.4553,1.4551,1.455,1.4548,1.4548,1.4547,1.4546,1.4545,1.4546,1.4547,1.4549,1.4551,1.4553,1.4553,1.4551,1.4548,1.4545,1.4543,1.4543,1.4543,1.4544,1.4547,1.4549,1.4552,1.4553,1.4554,1.4553,1.4552,1.4551,1.4551,1.4552,1.4553,1.4555,1.4559,1.4562,1.4563,1.4564,1.4564,1.4562,1.4559,1.4557,1.4556,1.4557,1.4556,1.4557,1.4557,1.4556,1.4555,1.4554,1.4553,1.4553,1.4554,1.4554,1.4555,1.4555,1.4556,1.4557,1.4559,1.4559,1.456,1.4561,1.456,1.456,1.4561,1.4561,1.4562,1.4563,1.4564
