-0.50279,-0.50226,-0.50176,-0.50129,-0.5008,-0.50028,-0.49973,-0.49927,-0.49874,-0.49828,-0.49792,-0.49761,-0.49745,-0.49739,-0.49735,-0.49748,-0.49759,-0.49782,-0.49808,-0.49839,-0.49873,-0.49927,-0.49983,-0.50042,-0.50107,-0.50171,-0.5024,-0.50324,-0.50389,-0.5046,-0.50534,-0.50615,-0.50684,-0.5075,-0.50813,-0.50884,-0.50938,-0.50984,-0.51022,-0.5105,-0.51067,-0.51077,-0.5108,-0.51074,-0.51059,-0.51031,-0.51006,-0.50967,-0.50929,-0.50885,-0.50838,-0.50785,-0.50737,-0.50641,-0.50401,-0.49911,-0.48979,-0.4749,-0.45348,-0.42515,-0.38995,-0.34836,-0.30139,-0.25011,-0.1956,-0.13944,-0.082262,-0.02478,0.032413,0.088337,0.14369,0.19698,0.24855,0.29806,0.34491,0.38927,0.43129,0.46892,0.50278,0.53179,0.55677,0.5772,0.59349,0.60612,0.61535,0.62085,0.62268,0.62182,0.6176,0.61031,0.60005,0.58772,0.57325,0.55741,0.5399,0.52199,0.50331,0.48448,0.46606,0.44801,0.43073,0.41463,0.39959,0.38623,0.37395,0.36352,0.35444,0.34704,0.34157,0.33793,0.33559,0.33507,0.33597,0.33874,0.34231,0.34758,0.35385,0.36118,0.36959,0.37849,0.38808,0.39823,0.40884,0.41969,0.43051,0.44147,0.45227,0.46283,0.47303,0.48302,0.49236,0.50148,0.50987,0.5176,0.52471,0.5311,0.53688,0.54189,0.54622,0.54982,0.55291,0.55517,0.55681,0.55793,0.55846,0.55831,0.55772,0.55654,0.55501,0.55297,0.55061,0.54794,0.545,0.54177,0.53846,0.53506,0.5315,0.52804,0.5245,0.5211,0.51791,0.51484,0.51191,0.50918,0.50674,0.50455,0.5026,0.50097,0.49959,0.49825,0.49732,0.49653,0.496,0.49555,0.49537,0.49529,0.49541,0.4956,0.49608,0.49653,0.49712,0.49772,0.49837,0.49912,0.49987,0.50047,0.50111,0.50163,0.5021,0.50244,0.50265,0.50286,0.50301,0.50312,0.50309,0.50299,0.50289,0.50273,0.50247,0.50213,0.50174,0.50128,0.50069,0.49995,0.4993,0.49863,0.49785,0.49699,0.49619,0.4953,0.49449,0.49363,0.49278,0.49196,0.49108,0.4902,0.48941,0.48859,0.48789,0.48732,0.48685,0.48646,0.48622,0.48611,0.48612,0.48643,0.48679,0.48722,0.48768,0.48825,0.48881,0.48946,0.4901,0.49069,0.49124,0.4918,0.49234,0.49291,0.49342,0.49386,0.49424,0.49464,0.49497,0.49527,0.49547,0.4956,0.49563,0.49571,0.49575,0.49574,0.4957,0.4956,0.4955,0.49541,0.49532,0.49519,0.49512,0.49501,0.49496,0.49501,0.49495,0.49499,0.495,0.49504,0.49508,0.49512,0.4952,0.49521,0.49528,0.49535,0.49542,0.49551,0.49564,0.49575,0.49586,0.49593,0.49604,0.49611,0.49607,0.49611,0.4961,0.49608,0.49607,0.49604,0.49605,0.496,0.49597,0.49593,0.49588,0.49574,0.49569,0.49562,0.49557,0.49557,0.49553,0.49559,0.49563,0.49572,0.49584,0.49602,0.4962
-0.55045,-0.55058,-0.55068,-0.55071,-0.55077,-0.55066,-0.55071,-0.55056,-0.55044,-0.55025,-0.54986,-0.54964,-0.54942,-0.54902,-0.54877,-0.54821,-0.54781,-0.54731,-0.54695,-0.54638,-0.54581,-0.54531,-0.54472,-0.54405,-0.54358,-0.54305,-0.54234,-0.54165,-0.54105,-0.54039,-0.53978,-0.53903,-0.53841,-0.53781,-0.53713,-0.53629,-0.53569,-0.53504,-0.53454,-0.53393,-0.53324,-0.53277,-0.53221,-0.53194,-0.53163,-0.53145,-0.53136,-0.53144,-0.53147,-0.53184,-0.53212,-0.53251,-0.53306,-0.53316,-0.53268,-0.53054,-0.52635,-0.52025,-0.51188,-0.50151,-0.48847,-0.47433,-0.45788,-0.44114,-0.4226,-0.40449,-0.38586,-0.36673,-0.34685,-0.32755,-0.30705,-0.2876,-0.2684,-0.24962,-0.22919,-0.21014,-0.19597,-0.17721,-0.15864,-0.13704,-0.11676,-0.095112,-0.072926,-0.05036,-0.027785,-0.0042122,0.019716,0.043543,0.067905,0.092959,0.11876,0.1438,0.16888,0.19418,0.21884,0.24371,0.26833,0.29209,0.3161,0.33913,0.36183,0.38384,0.40518,0.42561,0.44414,0.46249,0.47849,0.49383,0.50765,0.52021,0.53088,0.54048,0.54844,0.55587,0.56104,0.56549,0.56858,0.57048,0.57164,0.57098,0.56947,0.56706,0.5639,0.55985,0.55511,0.55045,0.54483,0.53917,0.53356,0.52761,0.52161,0.51574,0.5101,0.50458,0.49954,0.49494,0.49071,0.48704,0.48377,0.48084,0.47882,0.47692,0.47581,0.47526,0.47512,0.47555,0.47627,0.47755,0.47932,0.48136,0.48363,0.48632,0.48908,0.49202,0.49504,0.49829,0.50142,0.50464,0.50776,0.511,0.51385,0.51703,0.51961,0.52226,0.52472,0.52683,0.52867,0.53019,0.53171,0.53258,0.53334,0.53367,0.53382,0.53355,0.53314,0.53244,0.53165,0.53062,0.52954,0.52807,0.52688,0.5254,0.52393,0.5224,0.52074,0.51938,0.51776,0.51636,0.51466,0.51323,0.51149,0.51005,0.50859,0.50736,0.506,0.50455,0.50348,0.50247,0.50142,0.50066,0.5002,0.49996,0.49966,0.49967,0.49976,0.49985,0.50031,0.5009,0.50152,0.50226,0.50309,0.50402,0.50494,0.50586,0.50668,0.50743,0.50818,0.50903,0.50964,0.51044,0.51095,0.51145,0.51199,0.51256,0.51284,0.51303,0.51347,0.51386,0.51395,0.514,0.51382,0.51381,0.51375,0.51337,0.51292,0.51258,0.51215,0.51167,0.51113,0.51059,0.51023,0.50982,0.50928,0.50875,0.50833,0.50787,0.50749,0.50715,0.50667,0.50648,0.50652,0.50653,0.50673,0.50694,0.50712,0.5075,0.5079,0.50839,0.50899,0.50944,0.51023,0.51082,0.51133,0.51177,0.51221,0.51262,0.51293,0.51314,0.51342,0.51367,0.51382,0.51399,0.51404,0.51403,0.51393,0.51385,0.51373,0.5135,0.51326,0.51306,0.51272,0.51235,0.51203,0.51155,0.51116,0.51068,0.51044,0.50995,0.50972,0.50955,0.50931,0.50921,0.50924,0.50916,0.50928,0.50937,0.50948,0.50984,0.50992,0.51041,0.51065
0.4813,0.48145,0.48154,0.48156,0.48171,0.48172,0.48187,0.48194,0.48209,0.48231,0.48243,0.4827,0.48297,0.48308,0.4834,0.48358,0.4839,0.48413,0.48436,0.48453,0.48462,0.48471,0.48477,0.48483,0.48492,0.48501,0.48489,0.48471,0.48462,0.48449,0.48437,0.48426,0.4842,0.4841,0.48387,0.48367,0.48355,0.48345,0.48337,0.48335,0.48337,0.48353,0.48352,0.48377,0.48387,0.48419,0.48438,0.48462,0.48474,0.48491,0.48501,0.48516,0.48527,0.48656,0.49123,0.50067,0.5152,0.53497,0.5594,0.58878,0.62225,0.66068,0.70331,0.75097,0.8022,0.85807,0.91612,0.97533,1.0342,1.0923,1.1474,1.2001,1.249,1.2946,1.3359,1.374,1.408,1.4413,1.4728,1.5024,1.5309,1.5572,1.5806,1.6006,1.6175,1.6309,1.6419,1.6499,1.6562,1.6605,1.6636,1.6656,1.6665,1.6665,1.6655,1.6638,1.6611,1.6576,1.6533,1.6487,1.6435,1.638,1.6321,1.6263,1.6204,1.6148,1.6094,1.6047,1.6005,1.5971,1.5943,1.5921,1.5902,1.5885,1.5871,1.586,1.5854,1.585,1.5853,1.586,1.5868,1.5879,1.5889,1.5899,1.5908,1.5917,1.5922,1.5926,1.5928,1.5924,1.5918,1.5908,1.5893,1.5875,1.5856,1.5835,1.5812,1.5788,1.5762,1.5732,1.57,1.5665,1.563,1.5594,1.556,1.5525,1.5491,1.5456,1.5421,1.5386,1.5351,1.5317,1.5285,1.5255,1.5227,1.5202,1.518,1.5162,1.5146,1.5131,1.5119,1.5108,1.5099,1.5092,1.5086,1.5083,1.508,1.5079,1.508,1.5084,1.5088,1.5096,1.5104,1.5114,1.5124,1.5136,1.5148,1.5161,1.5174,1.5187,1.5199,1.5211,1.5222,1.523,1.5239,1.5248,1.5255,1.5263,1.5269,1.5276,1.528,1.5284,1.5288,1.529,1.5293,1.5296,1.5298,1.53,1.53,1.5301,1.53,1.5298,1.5297,1.5295,1.5292,1.5288,1.5285,1.5281,1.5277,1.5274,1.5272,1.5269,1.5268,1.5267,1.5266,1.5266,1.5266,1.5268,1.527,1.5272,1.5276,1.528,1.5285,1.529,1.5294,1.5299,1.5303,1.5307,1.5312,1.5317,1.5321,1.5325,1.5329,1.5332,1.5335,1.5338,1.5341,1.5344,1.5348,1.535,1.5352,1.5353,1.5354,1.5354,1.5354,1.5353,1.5352,1.535,1.5348,1.5347,1.5347,1.5347,1.5347,1.5347,1.5346,1.5346,1.5346,1.5344,1.5343,1.5341,1.5341,1.5341,1.5341,1.5343,1.5343,1.5342,1.5342,1.534,1.5339,1.5337,1.5336,1.5335,1.5334,1.5334,1.5334,1.5334,1.5333,1.5331,1.5329,1.5326,1.5325,1.5324,1.5324,1.5324,1.5324,1.5324,1.5324,1.5325,1.5325,1.5325,1.5324,1.5325,1.5325,1.5324,1.5325,1.5326,1.5327,1.5328,1.5328,1.5328,1.5328
