-0.45348,-0.45258,-0.45183,-0.45112,-0.45052,-0.45012,-0.4498,-0.44953,-0.4494,-0.44936,-0.44943,-0.44958,-0.44983,-0.45012,-0.45038,-0.45061,-0.45081,-0.45099,-0.45125,-0.4515,-0.45185,-0.45225,-0.45266,-0.45311,-0.45353,-0.45407,-0.45477,-0.4554,-0.45612,-0.45703,-0.45791,-0.4589,-0.45979,-0.46085,-0.46187,-0.46293,-0.46402,-0.46515,-0.46625,-0.46739,-0.46846,-0.46951,-0.47041,-0.47117,-0.47178,-0.47225,-0.47248,-0.47258,-0.47247,-0.47227,-0.47195,-0.47147,-0.47086,-0.46955,-0.46683,-0.46125,-0.45154,-0.43643,-0.41506,-0.38703,-0.35244,-0.31153,-0.26477,-0.21275,-0.15618,-0.095918,-0.032944,0.03205,0.098066,0.16429,0.22997,0.29436,0.35711,0.41747,0.47457,0.52848,0.57824,0.62409,0.66519,0.70168,0.73302,0.75948,0.78078,0.79698,0.80826,0.81472,0.81695,0.81506,0.809,0.79939,0.78684,0.7714,0.75389,0.73462,0.71413,0.69263,0.67077,0.6483,0.62619,0.60432,0.58309,0.56288,0.54335,0.5249,0.50742,0.49131,0.47643,0.46285,0.45042,0.43909,0.42954,0.42109,0.41435,0.40843,0.40412,0.4012,0.39926,0.39831,0.39884,0.39998,0.40221,0.40523,0.40882,0.41319,0.41808,0.42335,0.42917,0.43505,0.44132,0.4476,0.45401,0.46043,0.46689,0.47318,0.47934,0.48542,0.49117,0.49681,0.50216,0.50718,0.51183,0.51617,0.52017,0.52376,0.52687,0.52971,0.53215,0.53404,0.53566,0.53688,0.53763,0.53798,0.53808,0.53772,0.53705,0.53608,0.53475,0.53333,0.53162,0.5298,0.52784,0.52572,0.52346,0.52122,0.51891,0.51656,0.51425,0.51192,0.50956,0.50723,0.50495,0.50271,0.50058,0.49857,0.49677,0.49503,0.49343,0.49206,0.49084,0.48965,0.48886,0.48817,0.48767,0.48742,0.4874,0.48733,0.48759,0.48804,0.48848,0.48913,0.48999,0.49095,0.492,0.49321,0.49453,0.49592,0.49724,0.49866,0.49997,0.50129,0.50252,0.50357,0.50447,0.50548,0.50621,0.5068,0.50741,0.50796,0.50826,0.5086,0.5089,0.50894,0.5091,0.50923,0.50919,0.50912,0.50908,0.50912,0.50902,0.50909,0.50914,0.50924,0.50956,0.50974,0.51018,0.51048,0.51096,0.51146,0.51207,0.51261,0.51322,0.5139,0.51456,0.51539,0.51606,0.51702,0.51777,0.51872,0.51947,0.52041,0.52125,0.52229,0.52301,0.52388,0.52456,0.52522,0.52584,0.52626,0.52653,0.52675,0.52669,0.52652,0.52619,0.5258,0.52535,0.52481,0.52424,0.52353,0.52272,0.52219,0.52151,0.52072,0.52022,0.51973,0.51921,0.51862,0.51806,0.51756,0.51699,0.51646,0.516,0.51551,0.51503,0.51454,0.51411,0.5138,0.51353,0.51315,0.51284,0.51257,0.51234,0.51214,0.51192,0.51185,0.51174,0.51177,0.51183,0.51202,0.51227,0.51249,0.51277,0.51301,0.51328,0.5135,0.51376,0.51407,0.51441,0.51468,0.51499,0.51523,0.51553
-0.65728,-0.65702,-0.65659,-0.65592,-0.65501,-0.65414,-0.65319,-0.65213,-0.65113,-0.6502,-0.64931,-0.64844,-0.64751,-0.64659,-0.6458,-0.64494,-0.6442,-0.64326,-0.6425,-0.64161,-0.6407,-0.63973,-0.6386,-0.63761,-0.63653,-0.63528,-0.63391,-0.6325,-0.63098,-0.62949,-0.62792,-0.62629,-0.6249,-0.62342,-0.62198,-0.62055,-0.61943,-0.61835,-0.61738,-0.61646,-0.61611,-0.61559,-0.61528,-0.61521,-0.6152,-0.61545,-0.61584,-0.61643,-0.61705,-0.61791,-0.61875,-0.61996,-0.62114,-0.62235,-0.62357,-0.62509,-0.62658,-0.62836,-0.6304,-0.63243,-0.63479,-0.63737,-0.64045,-0.64395,-0.64783,-0.6518,-0.65604,-0.66034,-0.6644,-0.66823,-0.67128,-0.67382,-0.67526,-0.67556,-0.67481,-0.67223,-0.66839,-0.66305,-0.656,-0.64707,-0.63589,-0.6232,-0.60823,-0.59145,-0.57249,-0.55166,-0.52892,-0.50434,-0.47777,-0.44976,-0.42017,-0.38937,-0.35755,-0.32467,-0.29135,-0.25753,-0.22323,-0.18922,-0.15501,-0.12122,-0.087423,-0.053513,-0.020738,0.011536,0.042188,0.072315,0.10154,0.12945,0.15515,0.1794,0.20274,0.22401,0.24452,0.26215,0.27887,0.29397,0.30713,0.31834,0.32874,0.33703,0.34399,0.34979,0.35391,0.35715,0.35919,0.36009,0.36006,0.35949,0.35817,0.35632,0.35403,0.35157,0.34882,0.34604,0.34307,0.34045,0.33779,0.33547,0.33343,0.33155,0.33015,0.32925,0.32879,0.32877,0.32914,0.33018,0.33171,0.33339,0.33594,0.33881,0.34179,0.34548,0.34914,0.35334,0.35756,0.36185,0.36637,0.37095,0.37547,0.38005,0.38443,0.38887,0.39307,0.39699,0.40082,0.40425,0.40775,0.41043,0.41306,0.41517,0.41712,0.41843,0.41954,0.42001,0.42052,0.42019,0.41991,0.41923,0.4181,0.41679,0.41523,0.41311,0.4111,0.40873,0.40603,0.40371,0.40111,0.39818,0.39573,0.39302,0.39043,0.38796,0.38569,0.38338,0.3814,0.37968,0.37787,0.37616,0.37516,0.37446,0.37357,0.37301,0.37271,0.37256,0.37278,0.37306,0.37383,0.37464,0.3755,0.37648,0.37767,0.37901,0.38035,0.38211,0.3835,0.38526,0.38691,0.38889,0.3905,0.39243,0.39427,0.39609,0.3978,0.39956,0.40121,0.40304,0.40471,0.40636,0.40793,0.40937,0.41084,0.41227,0.41336,0.41466,0.41581,0.41683,0.41798,0.41907,0.42008,0.42101,0.4218,0.42278,0.42328,0.4243,0.42473,0.42565,0.42613,0.42649,0.42709,0.42754,0.42801,0.42833,0.42869,0.42897,0.4291,0.42909,0.4292,0.4291,0.42876,0.4287,0.42846,0.42812,0.42809,0.42796,0.42767,0.42737,0.42716,0.42716,0.42697,0.4268,0.42663,0.42681,0.42665,0.42641,0.42632,0.42622,0.42592,0.42557,0.42523,0.42475,0.42421,0.4238,0.42307,0.42245,0.42167,0.42123,0.42056,0.41984,0.41925,0.41847,0.41774,0.41715,0.41624,0.41559,0.41495,0.41417,0.41349,0.41286,0.41231,0.41171,0.41111
0.34115,0.3412,0.34127,0.34135,0.34141,0.34145,0.34145,0.34154,0.3417,0.34188,0.34218,0.34242,0.34273,0.34319,0.34361,0.34405,0.34452,0.34506,0.34546,0.34587,0.34617,0.34645,0.34661,0.34658,0.34659,0.34644,0.34636,0.3464,0.34643,0.3464,0.34658,0.34665,0.34675,0.34685,0.34684,0.34681,0.34693,0.34697,0.34703,0.34703,0.34713,0.34715,0.34702,0.34691,0.3466,0.34636,0.34591,0.34543,0.34493,0.34466,0.34426,0.34399,0.34375,0.34438,0.34721,0.35366,0.36399,0.37761,0.39431,0.4136,0.43488,0.45784,0.48258,0.50883,0.53655,0.56545,0.59547,0.62625,0.65741,0.68876,0.71954,0.7496,0.77833,0.80546,0.83109,0.85479,0.87668,0.89643,0.91458,0.93058,0.94521,0.95845,0.97026,0.98081,0.99049,0.99925,1.0072,1.0147,1.0223,1.0296,1.0372,1.0451,1.0531,1.0615,1.0706,1.0801,1.0897,1.1,1.1104,1.121,1.1316,1.1422,1.153,1.1637,1.175,1.1862,1.1974,1.2086,1.2199,1.2312,1.2425,1.2536,1.2642,1.2749,1.2853,1.2955,1.3056,1.3153,1.3244,1.3334,1.3418,1.35,1.3578,1.365,1.3719,1.3784,1.3844,1.39,1.3951,1.3996,1.4035,1.407,1.4102,1.4129,1.4153,1.4172,1.4189,1.4201,1.421,1.4217,1.4221,1.4225,1.4226,1.4227,1.4225,1.4225,1.4223,1.4221,1.4219,1.4217,1.4215,1.4214,1.4215,1.4215,1.4215,1.4218,1.4219,1.4223,1.4226,1.423,1.4235,1.424,1.4245,1.4251,1.4257,1.4262,1.4271,1.4277,1.4285,1.4293,1.4303,1.4311,1.432,1.4326,1.4333,1.434,1.4345,1.435,1.4355,1.436,1.4363,1.4366,1.4368,1.4369,1.437,1.4369,1.4369,1.4367,1.4366,1.4364,1.4362,1.4359,1.4355,1.4351,1.4347,1.4343,1.434,1.4337,1.4336,1.4334,1.4333,1.4332,1.4331,1.4332,1.4333,1.4333,1.4334,1.4336,1.4336,1.4335,1.4335,1.4335,1.4336,1.4337,1.434,1.4342,1.4345,1.4347,1.4349,1.4352,1.4356,1.4361,1.4364,1.4367,1.437,1.4374,1.4378,1.438,1.4384,1.4386,1.439,1.4392,1.4395,1.4398,1.4401,1.4403,1.4404,1.4406,1.4407,1.4407,1.4409,1.4411,1.4412,1.4413,1.4414,1.4415,1.4415,1.4414,1.4413,1.4413,1.4411,1.441,1.4409,1.4408,1.4407,1.4405,1.4404,1.4402,1.44,1.4397,1.4393,1.4389,1.4385,1.4382,1.4378,1.4375,1.4373,1.4372,1.4369,1.4366,1.4364,1.4363,1.4361,1.4359,1.4357,1.4356,1.4353,1.435,1.4348,1.4347,1.4346,1.4345,1.4345,1.4343,1.4342,1.4341,1.4339,1.4336,1.4334,1.4332,1.4331,1.4331,1.433,1.433,1.433,1.4329,1.4327,1.4325,1.4323,1.432,1.4316
