-0.47879,-0.47786,-0.47708,-0.47632,-0.47542,-0.47462,-0.47384,-0.47317,-0.47249,-0.47187,-0.47137,-0.47101,-0.47072,-0.47048,-0.47042,-0.47034,-0.47039,-0.47044,-0.4707,-0.47086,-0.47117,-0.4716,-0.47211,-0.47273,-0.47334,-0.47398,-0.47463,-0.4753,-0.476,-0.47659,-0.4771,-0.47763,-0.47817,-0.47853,-0.47889,-0.47919,-0.47943,-0.47963,-0.47984,-0.47985,-0.47998,-0.48003,-0.48002,-0.48001,-0.48001,-0.47992,-0.47986,-0.47978,-0.47968,-0.47955,-0.47942,-0.47927,-0.47907,-0.47826,-0.47614,-0.47126,-0.4623,-0.44816,-0.42837,-0.4031,-0.37287,-0.33803,-0.29942,-0.25796,-0.21436,-0.16932,-0.12333,-0.077157,-0.031065,0.014586,0.059247,0.10273,0.14478,0.18505,0.22337,0.2593,0.29255,0.32328,0.35107,0.37609,0.39804,0.41708,0.43318,0.44608,0.45618,0.46347,0.46812,0.47019,0.47003,0.46746,0.46324,0.45715,0.44987,0.44131,0.43176,0.42185,0.41139,0.40087,0.39037,0.38022,0.37022,0.36109,0.35225,0.34465,0.33771,0.33176,0.32653,0.32263,0.3193,0.31698,0.31553,0.31491,0.31535,0.31641,0.31856,0.32117,0.32479,0.32906,0.33383,0.33917,0.34514,0.35147,0.35826,0.36547,0.37292,0.38064,0.38841,0.39632,0.40434,0.41221,0.42002,0.42766,0.43518,0.4424,0.4493,0.45592,0.46204,0.4679,0.47332,0.47819,0.48256,0.48658,0.49004,0.493,0.49559,0.49744,0.49892,0.49984,0.50032,0.50031,0.49995,0.49912,0.49801,0.49652,0.49489,0.49284,0.49076,0.48844,0.48604,0.48353,0.48111,0.47865,0.47607,0.4737,0.47131,0.46907,0.46704,0.46514,0.46334,0.46187,0.46042,0.45925,0.45828,0.45742,0.45671,0.45623,0.45586,0.45564,0.45563,0.45589,0.45627,0.45678,0.45747,0.45835,0.4592,0.46021,0.46109,0.4622,0.46307,0.46411,0.46494,0.46584,0.46665,0.46743,0.46815,0.46873,0.46926,0.46976,0.47007,0.4702,0.47027,0.47021,0.46992,0.46956,0.46915,0.46862,0.46798,0.46732,0.46658,0.46577,0.46509,0.46431,0.46347,0.46267,0.46194,0.46103,0.46024,0.45943,0.45854,0.45764,0.45687,0.4562,0.45548,0.45484,0.45429,0.45382,0.45346,0.45305,0.45274,0.4525,0.45233,0.45216,0.45215,0.45215,0.45225,0.45244,0.45271,0.45303,0.45346,0.45391,0.45444,0.45504,0.45577,0.45647,0.45706,0.45782,0.45861,0.45932,0.46001,0.46084,0.46156,0.46217,0.46278,0.46332,0.46379,0.46426,0.46471,0.46508,0.46531,0.46554,0.46574,0.46588,0.46591,0.46593,0.46589,0.46582,0.46572,0.46565,0.46558,0.46547,0.46534,0.46518,0.46501,0.46475,0.46454,0.46428,0.4641,0.4639,0.46378,0.46357,0.4634,0.46325,0.463,0.4628,0.46254,0.46237,0.46218,0.46203,0.46185,0.46175,0.4617,0.46165,0.4616,0.46164,0.46167,0.46171,0.46182,0.46192,0.46204,0.46227,0.46247
-0.52551,-0.52592,-0.52619,-0.52648,-0.52684,-0.52746,-0.52794,-0.52823,-0.52885,-0.52938,-0.52976,-0.53045,-0.531,-0.53155,-0.53198,-0.53255,-0.53307,-0.53358,-0.53414,-0.53476,-0.53512,-0.53561,-0.53607,-0.53659,-0.53687,-0.53739,-0.53795,-0.53851,-0.53884,-0.53947,-0.5399,-0.54041,-0.54091,-0.54143,-0.54178,-0.54215,-0.5427,-0.54292,-0.54325,-0.54344,-0.54356,-0.54344,-0.5435,-0.54306,-0.54275,-0.54226,-0.54167,-0.54108,-0.5405,-0.53961,-0.53868,-0.53776,-0.53683,-0.53548,-0.53358,-0.53081,-0.52675,-0.52136,-0.51489,-0.50711,-0.49811,-0.4884,-0.47759,-0.46657,-0.45475,-0.44255,-0.42985,-0.41751,-0.4044,-0.39131,-0.378,-0.36438,-0.35053,-0.33612,-0.32129,-0.30588,-0.29005,-0.27348,-0.25633,-0.2387,-0.22032,-0.20142,-0.18199,-0.16135,-0.14009,-0.11774,-0.094819,-0.070847,-0.046933,-0.021498,0.0036862,0.029607,0.05551,0.081761,0.10821,0.13381,0.15969,0.18463,0.2096,0.23395,0.25705,0.27998,0.3012,0.3221,0.34147,0.36022,0.37706,0.39344,0.40779,0.42108,0.43342,0.44382,0.45365,0.46174,0.46823,0.47408,0.4781,0.48113,0.48345,0.48444,0.48418,0.48339,0.48184,0.47952,0.47673,0.47343,0.46944,0.4654,0.46118,0.4564,0.45174,0.44722,0.44246,0.43811,0.43395,0.42968,0.42613,0.42306,0.42021,0.4178,0.41583,0.41427,0.41326,0.41278,0.41213,0.41257,0.41347,0.41396,0.41559,0.4173,0.4189,0.42127,0.42335,0.42568,0.42815,0.4308,0.43337,0.43576,0.43848,0.44081,0.44293,0.44535,0.44709,0.4491,0.4508,0.45221,0.45371,0.45466,0.45564,0.4565,0.45701,0.45719,0.45751,0.45744,0.45725,0.45698,0.45636,0.45565,0.45499,0.4542,0.45322,0.45246,0.45142,0.4504,0.44927,0.44797,0.44701,0.44568,0.44468,0.44328,0.4421,0.44089,0.43955,0.43857,0.43726,0.43626,0.43521,0.43413,0.43321,0.43237,0.43147,0.43086,0.42994,0.42946,0.42885,0.42838,0.42783,0.42747,0.42733,0.42704,0.42673,0.42671,0.4265,0.42656,0.4265,0.42644,0.42632,0.42677,0.4267,0.4269,0.42707,0.42729,0.42758,0.42788,0.42807,0.42821,0.42824,0.42841,0.42844,0.42824,0.42836,0.42811,0.42805,0.42773,0.4277,0.42735,0.42703,0.42705,0.42687,0.42676,0.4268,0.42673,0.42646,0.42668,0.42659,0.42664,0.42701,0.42699,0.42726,0.42738,0.4279,0.42804,0.42862,0.42907,0.42951,0.42997,0.43051,0.43104,0.43159,0.4321,0.43267,0.43329,0.4339,0.43454,0.43525,0.43576,0.43636,0.43689,0.4373,0.43771,0.43813,0.43853,0.43882,0.43921,0.43934,0.43966,0.43991,0.44023,0.44064,0.44077,0.44106,0.44127,0.4412,0.44137,0.44148,0.44147,0.44173,0.44161,0.44156,0.44157,0.44155,0.44126,0.44121,0.44101,0.44081,0.44064,0.44052,0.44019,0.44015,0.43957,0.43975
0.49405,0.4944,0.49459,0.49463,0.49466,0.49474,0.49481,0.49487,0.49524,0.49557,0.49583,0.49618,0.49649,0.4967,0.49676,0.49684,0.4969,0.49684,0.49674,0.49668,0.4963,0.49585,0.49537,0.49489,0.49426,0.49381,0.4932,0.49255,0.49177,0.4913,0.49076,0.49024,0.48978,0.48951,0.48913,0.48877,0.48864,0.4885,0.48854,0.48858,0.48862,0.48867,0.48882,0.48877,0.48883,0.4889,0.4889,0.48891,0.48893,0.48884,0.48881,0.48876,0.48873,0.48975,0.49435,0.50368,0.51834,0.53807,0.56251,0.59119,0.62351,0.65908,0.69747,0.73853,0.78178,0.82654,0.87178,0.91717,0.96164,1.0047,1.046,1.0852,1.1224,1.1574,1.1904,1.2213,1.2501,1.2768,1.3012,1.3232,1.3434,1.3613,1.3773,1.3918,1.4046,1.4158,1.4259,1.4347,1.4424,1.449,1.4547,1.4594,1.4633,1.4666,1.4692,1.4714,1.4731,1.4746,1.4759,1.477,1.4779,1.4788,1.4794,1.48,1.4805,1.4808,1.4813,1.4818,1.4826,1.4832,1.4842,1.485,1.4857,1.4868,1.4877,1.4889,1.4899,1.491,1.4922,1.493,1.4938,1.4946,1.4952,1.4957,1.496,1.4963,1.4963,1.4962,1.4961,1.4958,1.4953,1.4949,1.4941,1.4932,1.4922,1.4909,1.4893,1.4876,1.4857,1.4836,1.4813,1.4791,1.4768,1.4743,1.4718,1.4694,1.4671,1.4649,1.4627,1.4606,1.4584,1.4563,1.4541,1.452,1.4501,1.4483,1.4467,1.4454,1.4441,1.4429,1.4418,1.4406,1.4395,1.4384,1.4376,1.4366,1.4362,1.4357,1.4354,1.4351,1.435,1.4348,1.4348,1.4347,1.4347,1.4347,1.4347,1.4347,1.4349,1.435,1.4353,1.4356,1.4359,1.4362,1.4365,1.4368,1.4371,1.4372,1.4373,1.4373,1.4373,1.4375,1.4375,1.4375,1.4375,1.4374,1.4373,1.4374,1.4373,1.4374,1.4374,1.4374,1.4373,1.4372,1.4371,1.437,1.4369,1.4369,1.4368,1.4368,1.4367,1.4366,1.4364,1.4364,1.4362,1.4362,1.4362,1.4363,1.4363,1.4365,1.4367,1.4369,1.4371,1.4373,1.4373,1.4373,1.4373,1.4374,1.4374,1.4374,1.4377,1.4377,1.4378,1.4378,1.4379,1.4379,1.4381,1.4382,1.4383,1.4385,1.4385,1.4385,1.4386,1.4387,1.4388,1.439,1.4392,1.4392,1.4393,1.4392,1.4392,1.439,1.439,1.4389,1.4389,1.439,1.439,1.439,1.4391,1.4392,1.4392,1.4394,1.4395,1.4396,1.4397,1.4397,1.4398,1.4398,1.4398,1.4398,1.4399,1.4399,1.4399,1.44,1.4399,1.44,1.44,1.4402,1.4403,1.4404,1.4406,1.4407,1.4405,1.4405,1.4404,1.4403,1.4404,1.4404,1.4406,1.4407,1.4407,1.4406,1.4406,1.4405,1.4404,1.4404,1.4403,1.4404,1.4404,1.4405,1.4406
