-0.51007,-0.5108,-0.5116,-0.5123,-0.51288,-0.51341,-0.51399,-0.51443,-0.51478,-0.51505,-0.51533,-0.51558,-0.51567,-0.51577,-0.51591,-0.51591,-0.51587,-0.51579,-0.51563,-0.51537,-0.51508,-0.51463,-0.51388,-0.51321,-0.51251,-0.5116,-0.51054,-0.50954,-0.5084,-0.50734,-0.5062,-0.50511,-0.50418,-0.50316,-0.50231,-0.50141,-0.5007,-0.5,-0.49926,-0.49861,-0.498,-0.49742,-0.49683,-0.49632,-0.49564,-0.4951,-0.49463,-0.49419,-0.49386,-0.49355,-0.49343,-0.49345,-0.49351,-0.49319,-0.4919,-0.48843,-0.48166,-0.47079,-0.45573,-0.43656,-0.41358,-0.38745,-0.35854,-0.32791,-0.29589,-0.2632,-0.23,-0.19689,-0.16385,-0.13127,-0.099419,-0.068432,-0.038566,-0.010276,0.016512,0.041514,0.064613,0.085664,0.1048,0.12168,0.13662,0.14938,0.16018,0.16896,0.17603,0.18138,0.18501,0.1873,0.18802,0.18804,0.18682,0.18485,0.18216,0.17921,0.17594,0.17246,0.16901,0.16586,0.16267,0.16002,0.15762,0.15583,0.15463,0.15405,0.15387,0.15478,0.15625,0.15851,0.16172,0.16584,0.17045,0.176,0.1823,0.18926,0.19703,0.20542,0.21447,0.22419,0.23448,0.24526,0.25656,0.26828,0.28007,0.29232,0.3046,0.317,0.32934,0.34169,0.35383,0.36577,0.37722,0.38846,0.39923,0.40947,0.41916,0.42825,0.43668,0.44462,0.45152,0.45794,0.46358,0.46858,0.47295,0.47641,0.47949,0.48188,0.48344,0.48472,0.48541,0.4857,0.48542,0.48478,0.48378,0.48252,0.48096,0.47917,0.47713,0.47502,0.4728,0.47045,0.46817,0.46595,0.4637,0.46153,0.45952,0.45775,0.4561,0.45454,0.45343,0.45238,0.45163,0.45107,0.45085,0.45091,0.45114,0.45162,0.45234,0.45314,0.45415,0.4552,0.45629,0.45748,0.45875,0.46,0.46131,0.46254,0.4638,0.46495,0.46607,0.46712,0.46816,0.46898,0.4698,0.47041,0.47099,0.47135,0.47164,0.47169,0.47168,0.47159,0.4713,0.47087,0.47035,0.46969,0.46892,0.46803,0.46702,0.46605,0.46489,0.4638,0.46256,0.46139,0.46024,0.45899,0.45791,0.45682,0.45582,0.45495,0.45407,0.45335,0.45269,0.45215,0.45168,0.45139,0.45098,0.4507,0.45036,0.45004,0.44974,0.44949,0.44922,0.449,0.44871,0.44843,0.44816,0.44791,0.44748,0.44722,0.44694,0.44676,0.44654,0.44639,0.44623,0.44606,0.44591,0.44567,0.44545,0.44517,0.44488,0.44463,0.44436,0.4441,0.44385,0.44366,0.44355,0.44346,0.44345,0.44352,0.4436,0.4437,0.44383,0.44388,0.44404,0.44411,0.44422,0.44444,0.44463,0.44486,0.44516,0.44549,0.44582,0.44612,0.44639,0.44663,0.44687,0.44701,0.44711,0.44716,0.44722,0.44721,0.44725,0.44734,0.44737,0.44747,0.44758,0.44771,0.44778,0.44789,0.44801,0.44814,0.44834,0.44854,0.44881,0.4491,0.44943,0.44979,0.45014,0.45055,0.45097,0.45136,0.45175
-0.52679,-0.52535,-0.52398,-0.52274,-0.52143,-0.52019,-0.51869,-0.51765,-0.5165,-0.51541,-0.51428,-0.51325,-0.51252,-0.51182,-0.51123,-0.51097,-0.51075,-0.51076,-0.51079,-0.51121,-0.51159,-0.51218,-0.51311,-0.51405,-0.51505,-0.51639,-0.51776,-0.51905,-0.52065,-0.52213,-0.52369,-0.52529,-0.52678,-0.5284,-0.5299,-0.53149,-0.53291,-0.53456,-0.53601,-0.53745,-0.53862,-0.54002,-0.5412,-0.54205,-0.54307,-0.5437,-0.54438,-0.54484,-0.54496,-0.54519,-0.54524,-0.54507,-0.54481,-0.54429,-0.54327,-0.54149,-0.53914,-0.53609,-0.53217,-0.52748,-0.52199,-0.51607,-0.50949,-0.50255,-0.49506,-0.48734,-0.47923,-0.47042,-0.46143,-0.45219,-0.44235,-0.43257,-0.42176,-0.41055,-0.39893,-0.38612,-0.37247,-0.35775,-0.34194,-0.32517,-0.30734,-0.28841,-0.26866,-0.24761,-0.22521,-0.20231,-0.1782,-0.15329,-0.12679,-0.10055,-0.073259,-0.045441,-0.017193,0.010908,0.038495,0.066227,0.093244,0.11992,0.14595,0.17082,0.19518,0.21847,0.24057,0.26146,0.28074,0.299,0.31555,0.33103,0.34473,0.35747,0.36818,0.37825,0.38616,0.39364,0.39881,0.4039,0.40732,0.41018,0.41192,0.41221,0.41227,0.41136,0.41077,0.40907,0.40728,0.40537,0.40326,0.40081,0.39844,0.39608,0.39414,0.39203,0.39069,0.38977,0.38891,0.38817,0.3882,0.38891,0.38987,0.39108,0.393,0.39524,0.39745,0.40079,0.40367,0.40718,0.41132,0.41535,0.4197,0.42416,0.42888,0.43388,0.43869,0.44362,0.44858,0.45334,0.45808,0.46242,0.46658,0.47051,0.47394,0.47733,0.48,0.48234,0.4844,0.48585,0.48707,0.48807,0.48856,0.48853,0.48845,0.48789,0.4871,0.48612,0.48504,0.48363,0.48219,0.48041,0.47843,0.47651,0.47405,0.47158,0.46921,0.46675,0.4641,0.46157,0.45904,0.45653,0.45406,0.45145,0.44909,0.44695,0.44479,0.44308,0.44121,0.43934,0.43773,0.43642,0.43496,0.43376,0.43277,0.43181,0.4309,0.43009,0.42946,0.42893,0.42836,0.428,0.42746,0.42727,0.42717,0.4271,0.42679,0.42672,0.4268,0.42657,0.42648,0.42653,0.42639,0.42644,0.42632,0.42627,0.42606,0.42608,0.42586,0.42575,0.42573,0.42564,0.42557,0.42558,0.42543,0.42552,0.42543,0.42535,0.42531,0.42525,0.42529,0.42521,0.42523,0.42525,0.42534,0.42549,0.42563,0.42579,0.42603,0.42606,0.4261,0.42603,0.426,0.42588,0.42554,0.42531,0.42505,0.42486,0.42462,0.42427,0.42399,0.42372,0.42338,0.42318,0.42281,0.42233,0.42193,0.42146,0.42104,0.42056,0.42012,0.41962,0.41916,0.4189,0.41872,0.41853,0.41842,0.41848,0.41854,0.41857,0.41874,0.41885,0.41904,0.41913,0.41929,0.41941,0.41961,0.41977,0.41998,0.42016,0.4203,0.42039,0.42055,0.42058,0.42066,0.42068,0.42065,0.42063,0.42059,0.42058,0.42056,0.42036,0.42012,0.41973,0.41921
0.45328,0.45307,0.45293,0.45312,0.45314,0.45341,0.45372,0.45421,0.45451,0.45495,0.45543,0.4557,0.45614,0.45642,0.45662,0.4569,0.45706,0.45701,0.45688,0.45687,0.4568,0.45684,0.45708,0.45727,0.45755,0.45792,0.45819,0.45835,0.45858,0.45869,0.45895,0.45892,0.45882,0.45892,0.45876,0.45856,0.45837,0.45833,0.45824,0.45806,0.45801,0.45795,0.45779,0.4574,0.45717,0.45683,0.4563,0.45588,0.45546,0.45515,0.45484,0.45458,0.45439,0.45513,0.45908,0.46815,0.483,0.50361,0.52992,0.56166,0.5981,0.63865,0.6817,0.72744,0.77375,0.82094,0.86745,0.91291,0.9568,0.99872,1.0389,1.0769,1.1132,1.1476,1.1802,1.211,1.24,1.2674,1.2929,1.3166,1.3385,1.3588,1.3772,1.3939,1.4091,1.4226,1.4353,1.4472,1.4583,1.4687,1.4785,1.4878,1.4962,1.5042,1.5115,1.5185,1.525,1.531,1.5369,1.5424,1.548,1.5534,1.5587,1.5637,1.5687,1.5736,1.5782,1.5826,1.587,1.591,1.5947,1.5982,1.6014,1.6044,1.6069,1.6095,1.6116,1.6137,1.6153,1.6167,1.6178,1.6186,1.6191,1.6194,1.6193,1.6193,1.6188,1.6181,1.617,1.6157,1.6142,1.6125,1.6107,1.6088,1.6067,1.6044,1.6021,1.5995,1.5968,1.5938,1.5908,1.5874,1.584,1.5806,1.577,1.5735,1.5702,1.567,1.5638,1.5609,1.558,1.5551,1.5523,1.5494,1.5467,1.544,1.5415,1.539,1.5367,1.5347,1.5327,1.531,1.5295,1.5282,1.527,1.5259,1.5249,1.5239,1.5229,1.522,1.5213,1.5206,1.5199,1.5192,1.5186,1.518,1.5174,1.5167,1.5161,1.5153,1.5147,1.5139,1.5133,1.5126,1.512,1.5114,1.5108,1.5103,1.5097,1.509,1.5084,1.5077,1.5072,1.5065,1.5059,1.5053,1.5047,1.5039,1.5031,1.5023,1.5014,1.5007,1.4999,1.4994,1.4988,1.4982,1.4976,1.497,1.4964,1.4958,1.4952,1.4948,1.4945,1.4943,1.4941,1.494,1.4939,1.4938,1.4936,1.4934,1.4932,1.4929,1.4927,1.4926,1.4927,1.4929,1.4931,1.4934,1.4937,1.4939,1.4941,1.4943,1.4946,1.4949,1.4953,1.4958,1.4964,1.4969,1.4973,1.4976,1.4978,1.4978,1.4977,1.4977,1.4976,1.4975,1.4974,1.4975,1.4978,1.4982,1.4985,1.4991,1.4996,1.5001,1.5006,1.5009,1.5011,1.5012,1.5012,1.501,1.5008,1.5006,1.5004,1.5003,1.5003,1.5004,1.5005,1.5006,1.5007,1.5009,1.501,1.5011,1.5013,1.5015,1.5016,1.5017,1.5017,1.5016,1.5014,1.5011,1.5008,1.5005,1.5002,1.4998,1.4996,1.4995,1.4994,1.4994,1.4995,1.4997,1.4999,1.5001,1.5002,1.5002,1.5002,1.5001,1.5,1.4998,1.4996,1.4993,1.499
