n_hidden,Tini,Q_x_y,Q_z,Q_yaw,R_thrust,R_roll_pitch,R_yaw,P_x_y,P_xy_ang,P_z,P_roll_pitch,P_yaw,svd_weighing,svd_cutoff,lambda1_g,lambda2_g,lambda1_s,lambda2_s,solve_time,input_cost,output_cost,opt_input_cost,opt_output_cost,opt_cost_lambda1_g,opt_cost_lambda2_g,opt_cost_lambda1_s,opt_cost_lambda2_s
0,3,40,40,40,160,4,2,0,0,0,0,0,0,0,0,0,0,0,0.064923,43.653,37.494,-18092,-1.8286e+05,0,0,0,0
1,3,40,40,40,160,4,2,0,0,0,0,0,0,0,0,0,0,0,0.069347,43.648,37.566,-17908,-1.8278e+05,0,0,0,0
2,3,40,40,40,160,4,2,0,0,0,0,0,0,0,0,0,0,0,0.084083,43.666,37.366,-18264,-1.8298e+05,0,0,0,0
3,3,40,40,40,160,4,2,0,0,0,0,0,0,0,0,0,0,0,0.087248,43.67,37.376,-18182,-1.8296e+05,0,0,0,0
4,3,40,40,40,160,4,2,0,0,0,0,0,0,0,0,0,0,0,0.10035,43.662,37.374,-18302,-1.8297e+05,0,0,0,0
5,3,40,40,40,160,4,2,0,0,0,0,0,0,0,0,0,0,0,0.10001,43.662,37.373,-18302,-1.8298e+05,0,0,0,0
6,3,40,40,40,160,4,2,0,0,0,0,0,0,0,0,0,0,0,0.099389,43.664,37.367,-18294,-1.8298e+05,0,0,0,0
7,3,40,40,40,160,4,2,0,0,0,0,0,0,0,0,0,0,0,0.11312,43.664,37.368,-18295,-1.8298e+05,0,0,0,0
8,3,40,40,40,160,4,2,0,0,0,0,0,0,0,0,0,0,0,0.12029,43.662,37.373,-18302,-1.8298e+05,0,0,0,0
9,3,40,40,40,160,4,2,0,0,0,0,0,0,0,0,0,0,0,0.12772,43.662,37.377,-18301,-1.8297e+05,0,0,0,0
10,3,40,40,40,160,4,2,0,0,0,0,0,0,0,0,0,0,0,0.12067,43.661,37.38,-18300,-1.8297e+05,0,0,0,0
11,3,40,40,40,160,4,2,0,0,0,0,0,0,0,0,0,0,0,0.12524,43.662,37.374,-18302,-1.8297e+05,0,0,0,0
12,3,40,40,40,160,4,2,0,0,0,0,0,0,0,0,0,0,0,0.12993,43.664,37.369,-18298,-1.8298e+05,0,0,0,0
13,3,40,40,40,160,4,2,0,0,0,0,0,0,0,0,0,0,0,0.13571,43.664,37.368,-18297,-1.8298e+05,0,0,0,0
14,3,40,40,40,160,4,2,0,0,0,0,0,0,0,0,0,0,0,0.12995,43.664,37.369,-18298,-1.8298e+05,0,0,0,0
15,3,40,40,40,160,4,2,0,0,0,0,0,0,0,0,0,0,0,0.14642,43.664,37.368,-18297,-1.8298e+05,0,0,0,0
16,3,40,40,40,160,4,2,0,0,0,0,0,0,0,0,0,0,0,0.16166,43.663,37.371,-18300,-1.8298e+05,0,0,0,0
17,3,40,40,40,160,4,2,0,0,0,0,0,0,0,0,0,0,0,0.15897,43.664,37.369,-18298,-1.8298e+05,0,0,0,0
18,3,40,40,40,160,4,2,0,0,0,0,0,0,0,0,0,0,0,0.17549,43.664,37.369,-18298,-1.8298e+05,0,0,0,0
19,3,40,40,40,160,4,2,0,0,0,0,0,0,0,0,0,0,0,0.17065,43.664,37.368,-18297,-1.8298e+05,0,0,0,0
20,3,40,40,40,160,4,2,0,0,0,0,0,0,0,0,0,0,0,0.16347,43.664,37.367,-18292,-1.8298e+05,0,0,0,0
21,3,40,40,40,160,4,2,0,0,0,0,0,0,0,0,0,0,0,0.16991,43.664,37.367,-18292,-1.8298e+05,0,0,0,0
22,3,40,40,40,160,4,2,0,0,0,0,0,0,0,0,0,0,0,0.17516,43.664,37.367,-18292,-1.8298e+05,0,0,0,0
23,3,40,40,40,160,4,2,0,0,0,0,0,0,0,0,0,0,0,0.1812,43.664,37.367,-18292,-1.8298e+05,0,0,0,0
24,3,40,40,40,160,4,2,0,0,0,0,0,0,0,0,0,0,0,0.19226,43.664,37.367,-18292,-1.8298e+05,0,0,0,0
25,3,40,40,40,160,4,2,0,0,0,0,0,0,0,0,0,0,0,0.19608,43.664,37.367,-18292,-1.8298e+05,0,0,0,0
26,3,40,40,40,160,4,2,0,0,0,0,0,0,0,0,0,0,0,0.22141,43.664,37.367,-18292,-1.8298e+05,0,0,0,0
27,3,40,40,40,160,4,2,0,0,0,0,0,0,0,0,0,0,0,0.15069,43.664,37.367,-18292,-1.8298e+05,0,0,0,0
28,3,40,40,40,160,4,2,0,0,0,0,0,0,0,0,0,0,0,0.1657,43.664,37.367,-18292,-1.8298e+05,0,0,0,0
29,3,40,40,40,160,4,2,0,0,0,0,0,0,0,0,0,0,0,0.14166,43.664,37.367,-18292,-1.8298e+05,0,0,0,0
30,3,40,40,40,160,4,2,0,0,0,0,0,0,0,0,0,0,0,0.14744,43.664,37.367,-18292,-1.8298e+05,0,0,0,0
31,3,40,40,40,160,4,2,0,0,0,0,0,0,0,0,0,0,0,0.14841,43.664,37.367,-18292,-1.8298e+05,0,0,0,0
32,3,40,40,40,160,4,2,0,0,0,0,0,0,0,0,0,0,0,0.14868,43.664,37.367,-18292,-1.8298e+05,0,0,0,0
33,3,40,40,40,160,4,2,0,0,0,0,0,0,0,0,0,0,0,0.1534,43.664,37.367,-18292,-1.8298e+05,0,0,0,0
34,3,40,40,40,160,4,2,0,0,0,0,0,0,0,0,0,0,0,0.16276,43.664,37.367,-18291,-1.8298e+05,0,0,0,0
35,3,40,40,40,160,4,2,0,0,0,0,0,0,0,0,0,0,0,0.16737,43.664,37.367,-18292,-1.8298e+05,0,0,0,0
36,3,40,40,40,160,4,2,0,0,0,0,0,0,0,0,0,0,0,0.16845,43.664,37.367,-18292,-1.8298e+05,0,0,0,0
37,3,40,40,40,160,4,2,0,0,0,0,0,0,0,0,0,0,0,0.17146,43.664,37.367,-18292,-1.8298e+05,0,0,0,0
38,3,40,40,40,160,4,2,0,0,0,0,0,0,0,0,0,0,0,0.17706,43.664,37.367,-18291,-1.8298e+05,0,0,0,0
39,3,40,40,40,160,4,2,0,0,0,0,0,0,0,0,0,0,0,0.18462,43.664,37.367,-18291,-1.8298e+05,0,0,0,0
40,3,40,40,40,160,4,2,0,0,0,0,0,0,0,0,0,0,0,0.17248,43.664,37.367,-18291,-1.8298e+05,0,0,0,0
41,3,40,40,40,160,4,2,0,0,0,0,0,0,0,0,0,0,0,0.20964,43.664,37.367,-18291,-1.8298e+05,0,0,0,0
42,3,40,40,40,160,4,2,0,0,0,0,0,0,0,0,0,0,0,0.22385,43.664,37.367,-18291,-1.8298e+05,0,0,0,0
43,3,40,40,40,160,4,2,0,0,0,0,0,0,0,0,0,0,0,0.21428,43.664,37.367,-18291,-1.8298e+05,0,0,0,0
44,3,40,40,40,160,4,2,0,0,0,0,0,0,0,0,0,0,0,0.19773,43.664,37.367,-18291,-1.8298e+05,0,0,0,0
45,3,40,40,40,160,4,2,0,0,0,0,0,0,0,0,0,0,0,0.1875,43.664,37.367,-18291,-1.8298e+05,0,0,0,0
46,3,40,40,40,160,4,2,0,0,0,0,0,0,0,0,0,0,0,0.18535,43.665,37.367,-18290,-1.8298e+05,0,0,0,0
47,3,40,40,40,160,4,2,0,0,0,0,0,0,0,0,0,0,0,0.22659,43.665,37.367,-18290,-1.8298e+05,0,0,0,0
48,3,40,40,40,160,4,2,0,0,0,0,0,0,0,0,0,0,0,0.2286,43.665,37.367,-18291,-1.8298e+05,0,0,0,0
49,3,40,40,40,160,4,2,0,0,0,0,0,0,0,0,0,0,0,0.19084,43.664,37.367,-18291,-1.8298e+05,0,0,0,0
50,3,40,40,40,160,4,2,0,0,0,0,0,0,0,0,0,0,0,0.19303,43.664,37.367,-18291,-1.8298e+05,0,0,0,0
51,3,40,40,40,160,4,2,0,0,0,0,0,0,0,0,0,0,0,0.19603,43.664,37.367,-18291,-1.8298e+05,0,0,0,0
52,3,40,40,40,160,4,2,0,0,0,0,0,0,0,0,0,0,0,0.23192,43.664,37.367,-18291,-1.8298e+05,0,0,0,0
53,3,40,40,40,160,4,2,0,0,0,0,0,0,0,0,0,0,0,0.25277,43.664,37.367,-18291,-1.8298e+05,0,0,0,0
54,3,40,40,40,160,4,2,0,0,0,0,0,0,0,0,0,0,0,0.22197,43.664,37.367,-18291,-1.8298e+05,0,0,0,0
55,3,40,40,40,160,4,2,0,0,0,0,0,0,0,0,0,0,0,0.20793,43.664,37.367,-18291,-1.8298e+05,0,0,0,0
56,3,40,40,40,160,4,2,0,0,0,0,0,0,0,0,0,0,0,0.26,43.664,37.367,-18291,-1.8298e+05,0,0,0,0
57,3,40,40,40,160,4,2,0,0,0,0,0,0,0,0,0,0,0,0.24437,43.664,37.367,-18291,-1.8298e+05,0,0,0,0
58,3,40,40,40,160,4,2,0,0,0,0,0,0,0,0,0,0,0,0.26788,43.665,37.367,-18291,-1.8298e+05,0,0,0,0
59,3,40,40,40,160,4,2,0,0,0,0,0,0,0,0,0,0,0,0.22334,43.664,37.367,-18291,-1.8298e+05,0,0,0,0
60,3,40,40,40,160,4,2,0,0,0,0,0,0,0,0,0,0,0,0.21994,43.664,37.367,-18291,-1.8298e+05,0,0,0,0
61,3,40,40,40,160,4,2,0,0,0,0,0,0,0,0,0,0,0,0.25205,43.664,37.367,-18291,-1.8298e+05,0,0,0,0
62,3,40,40,40,160,4,2,0,0,0,0,0,0,0,0,0,0,0,0.2551,43.664,37.367,-18291,-1.8298e+05,0,0,0,0
63,3,40,40,40,160,4,2,0,0,0,0,0,0,0,0,0,0,0,0.2563,43.664,37.367,-18291,-1.8298e+05,0,0,0,0
64,3,40,40,40,160,4,2,0,0,0,0,0,0,0,0,0,0,0,0.26006,43.664,37.367,-18291,-1.8298e+05,0,0,0,0
65,3,40,40,40,160,4,2,0,0,0,0,0,0,0,0,0,0,0,0.27108,43.664,37.367,-18291,-1.8298e+05,0,0,0,0
66,3,40,40,40,160,4,2,0,0,0,0,0,0,0,0,0,0,0,0.27741,43.664,37.367,-18291,-1.8298e+05,0,0,0,0
67,3,40,40,40,160,4,2,0,0,0,0,0,0,0,0,0,0,0,0.26102,43.664,37.367,-18291,-1.8298e+05,0,0,0,0
68,3,40,40,40,160,4,2,0,0,0,0,0,0,0,0,0,0,0,0.26393,43.664,37.367,-18291,-1.8298e+05,0,0,0,0
69,3,40,40,40,160,4,2,0,0,0,0,0,0,0,0,0,0,0,0.23093,43.664,37.367,-18292,-1.8298e+05,0,0,0,0
70,3,40,40,40,160,4,2,0,0,0,0,0,0,0,0,0,0,0,0.29238,43.664,37.367,-18292,-1.8298e+05,0,0,0,0
71,3,40,40,40,160,4,2,0,0,0,0,0,0,0,0,0,0,0,0.23341,43.664,37.367,-18292,-1.8298e+05,0,0,0,0
72,3,40,40,40,160,4,2,0,0,0,0,0,0,0,0,0,0,0,0.24804,43.664,37.367,-18292,-1.8298e+05,0,0,0,0
73,3,40,40,40,160,4,2,0,0,0,0,0,0,0,0,0,0,0,0.23718,43.664,37.367,-18292,-1.8298e+05,0,0,0,0
74,3,40,40,40,160,4,2,0,0,0,0,0,0,0,0,0,0,0,0.24081,43.664,37.367,-18292,-1.8298e+05,0,0,0,0
75,3,40,40,40,160,4,2,0,0,0,0,0,0,0,0,0,0,0,0.24161,43.664,37.367,-18292,-1.8298e+05,0,0,0,0
76,3,40,40,40,160,4,2,0,0,0,0,0,0,0,0,0,0,0,0.27539,43.664,37.367,-18292,-1.8298e+05,0,0,0,0
77,3,40,40,40,160,4,2,0,0,0,0,0,0,0,0,0,0,0,0.30524,43.664,37.367,-18292,-1.8298e+05,0,0,0,0
78,3,40,40,40,160,4,2,0,0,0,0,0,0,0,0,0,0,0,0.30448,43.664,37.367,-18292,-1.8298e+05,0,0,0,0
79,3,40,40,40,160,4,2,0,0,0,0,0,0,0,0,0,0,0,0.24929,43.664,37.367,-18292,-1.8298e+05,0,0,0,0
80,3,40,40,40,160,4,2,0,0,0,0,0,0,0,0,0,0,0,0.27232,43.664,37.367,-18292,-1.8298e+05,0,0,0,0
81,3,40,40,40,160,4,2,0,0,0,0,0,0,0,0,0,0,0,0.31729,43.664,37.367,-18292,-1.8298e+05,0,0,0,0
82,3,40,40,40,160,4,2,0,0,0,0,0,0,0,0,0,0,0,0.25953,43.664,37.367,-18292,-1.8298e+05,0,0,0,0
83,3,40,40,40,160,4,2,0,0,0,0,0,0,0,0,0,0,0,0.25771,43.664,37.367,-18292,-1.8298e+05,0,0,0,0
84,3,40,40,40,160,4,2,0,0,0,0,0,0,0,0,0,0,0,0.26096,43.664,37.367,-18292,-1.8298e+05,0,0,0,0
85,3,40,40,40,160,4,2,0,0,0,0,0,0,0,0,0,0,0,0.27083,43.664,37.367,-18292,-1.8298e+05,0,0,0,0
86,3,40,40,40,160,4,2,0,0,0,0,0,0,0,0,0,0,0,0.26768,43.664,37.367,-18292,-1.8298e+05,0,0,0,0
87,3,40,40,40,160,4,2,0,0,0,0,0,0,0,0,0,0,0,0.31851,43.664,37.367,-18292,-1.8298e+05,0,0,0,0
88,3,40,40,40,160,4,2,0,0,0,0,0,0,0,0,0,0,0,0.30153,43.665,37.367,-18291,-1.8298e+05,0,0,0,0
89,3,40,40,40,160,4,2,0,0,0,0,0,0,0,0,0,0,0,0.31497,43.664,37.367,-18291,-1.8298e+05,0,0,0,0
90,3,40,40,40,160,4,2,0,0,0,0,0,0,0,0,0,0,0,0.27168,43.664,37.367,-18291,-1.8298e+05,0,0,0,0
91,3,40,40,40,160,4,2,0,0,0,0,0,0,0,0,0,0,0,0.27413,43.664,37.367,-18291,-1.8298e+05,0,0,0,0
92,3,40,40,40,160,4,2,0,0,0,0,0,0,0,0,0,0,0,0.33832,43.664,37.367,-18291,-1.8298e+05,0,0,0,0
93,3,40,40,40,160,4,2,0,0,0,0,0,0,0,0,0,0,0,0.27551,43.664,37.367,-18291,-1.8298e+05,0,0,0,0
94,3,40,40,40,160,4,2,0,0,0,0,0,0,0,0,0,0,0,0.27847,43.664,37.367,-18291,-1.8298e+05,0,0,0,0
95,3,40,40,40,160,4,2,0,0,0,0,0,0,0,0,0,0,0,0.35305,43.664,37.367,-18291,-1.8298e+05,0,0,0,0
96,3,40,40,40,160,4,2,0,0,0,0,0,0,0,0,0,0,0,0.33246,43.664,37.367,-18291,-1.8298e+05,0,0,0,0
97,3,40,40,40,160,4,2,0,0,0,0,0,0,0,0,0,0,0,0.33575,43.665,37.367,-18291,-1.8298e+05,0,0,0,0
98,3,40,40,40,160,4,2,0,0,0,0,0,0,0,0,0,0,0,0.3391,43.664,37.367,-18291,-1.8298e+05,0,0,0,0
99,3,40,40,40,160,4,2,0,0,0,0,0,0,0,0,0,0,0,0.35513,43.664,37.367,-18291,-1.8298e+05,0,0,0,0
100,3,40,40,40,160,4,2,0,0,0,0,0,0,0,0,0,0,0,0.34212,43.664,37.367,-18291,-1.8298e+05,0,0,0,0
