0.29977,0.2992,0.30162,0.30121,0.30158,0.30049,0.29995,0.30294,0.30168,0.29924,0.30177,0.29978,0.29965,0.30141,0.30108,0.30126,0.29843,0.29738,0.30006,0.30335,0.29963,0.29938,0.30191,0.30196,0.30047,0.29993,0.30141,0.30003,0.29944,0.29941,0.29796,0.30263,0.30128,0.30016,0.30269,0.30243,0.3043,0.30186,0.2989,0.30019,0.30292,0.30157,0.30069,0.3023,0.30006,0.3017,0.30191,0.30069,0.29863,0.30404,0.29997,0.32294,0.32974,0.3291,0.32829,0.31783,0.31578,0.31491,0.31345,0.30922,0.30788,0.3089,0.30907,0.30577,0.30662,0.30865,0.30469,0.30647,0.30501,0.30224,0.30375,0.30345,0.30255,0.30294,0.30073,0.29974,0.30094,0.29927,0.3012,0.2996,0.29827,0.30182,0.29409,0.29623,0.30165,0.29462,0.29858,0.29887,0.29764,0.29418,0.29912,0.29883,0.29757,0.29888,0.29613,0.29791,0.29753,0.29478,0.30057,0.29996,0.29658,0.30127,0.29727,0.30078,0.29722,0.29889,0.30128,0.29896,0.29777,0.30066,0.29976,0.29929,0.29915,0.29811,0.29902,0.29983,0.30108,0.30228,0.30167,0.30075,0.30246,0.30429,0.29971,0.30051,0.30388,0.302,0.30078,0.30292,0.30358,0.30352,0.30231,0.30291,0.30502,0.30295,0.30062,0.30372,0.30411,0.30365,0.30169,0.30154,0.30603,0.29982,0.30244,0.30184,0.29934,0.30431,0.30109,0.30088,0.30198,0.30198,0.30116,0.30245,0.30323,0.30529,0.30174,0.30132,0.30361,0.30398,0.30435,0.30309,0.30354,0.30557,0.30284,0.30256,0.30453,0.30023,0.30388,0.30287,0.30089,0.30206,0.30338,0.30406,0.30098,0.3042,0.30342,0.30171,0.3006,0.30194,0.30311,0.30061,0.30211,0.30202,0.30141,0.30247,0.302,0.30185,0.30027,0.3002,0.30165,0.30141,0.30384,0.30191,0.30161,0.302,0.30425,0.30329,0.30025,0.30363,0.30424,0.30025,0.30307,0.30597,0.30085,0.30326,0.30442,0.30151,0.30417,0.30261,0.30261,0.30102,0.3041,0.29956,0.30333,0.30127,0.29973,0.30113,0.29935,0.30367,0.30021,0.30015,0.29766,0.30034,0.30199,0.29899,0.29952,0.2966,0.2975,0.29856,0.2975,0.29825,0.29646,0.29803,0.29815,0.29551,0.29871,0.30031,0.29602,0.29528,0.2999,0.29889,0.29697,0.29817,0.2979,0.29768,0.29639,0.29901,0.29633,0.29615,0.29802,0.29718,0.29977,0.29609,0.29649,0.29874
-0.0017999,0.0011967,-0.0033695,0.0063356,-0.0097872,-0.00041059,0.0048534,-0.0051848,0.0025153,0.014499,-0.0030322,0.0028562,0.014477,0.016351,0.018378,0.0096315,0.014777,0.025891,0.033397,0.01259,0.026136,0.028064,0.0086151,0.024739,0.027417,0.025802,0.019633,0.031951,0.021417,0.017103,0.029535,0.019052,0.030371,0.020879,0.011034,0.031991,0.022611,0.032572,0.018314,0.040405,0.015649,0.031723,0.018141,0.02079,0.023745,0.025964,0.01611,0.019743,0.042257,0.014776,0.018266,-0.23575,-0.21491,-0.18321,-0.15363,-0.11534,-0.13174,-0.081267,-0.074959,-0.048703,-0.03384,-0.024522,-0.026766,-0.015317,0.0111,0.0074855,0.01863,0.024749,0.028723,0.032816,0.034486,0.045093,0.046715,0.044786,0.049807,0.059903,0.050225,0.070502,0.037314,0.065968,0.061503,0.041213,0.068303,0.048475,0.031233,0.074817,0.032674,0.054164,0.012215,0.079102,0.02274,0.024718,0.040189,0.029878,0.029367,0.035671,0.030913,0.029379,0.013926,0.019005,0.038736,0.0079512,0.044166,-0.015606,0.032287,0.03598,0.014818,0.011183,0.02952,0.022349,0.005802,-0.0061775,0.018091,0.0020197,-0.0025595,-0.0081499,0.0049943,-0.012925,-0.013859,-0.011823,-0.0042624,-0.039104,-0.020557,-0.018833,-0.037727,-0.045133,-0.023528,-0.040303,-0.033869,-0.037185,-0.048072,-0.021253,-0.048792,-0.04298,-0.037087,-0.042063,-0.031522,-0.031005,-0.034577,-0.01991,-0.036824,0.011136,-0.026977,-0.0003964,0.001205,0.013952,0.013321,0.018333,0.0247,0.024038,0.039746,0.037667,0.048766,0.049272,0.05262,0.047823,0.069031,0.060118,0.059309,0.067895,0.055657,0.060022,0.066305,0.062359,0.034112,0.065377,0.043376,0.054497,0.024788,0.058508,0.034662,0.013205,0.055775,0.027632,0.020186,0.023225,0.023274,0.031162,0.010372,0.023427,0.0063428,-0.007153,-0.00055631,0.0018718,0.0016381,-0.0074919,0.01347,-0.0036299,-0.015221,-0.018032,-0.018263,-0.015576,-0.021138,-0.011474,-0.029496,-0.025594,-0.022035,-0.045114,-0.026711,-0.026315,-0.046147,-0.04985,-0.01343,-0.050462,-0.019938,-0.052849,-0.017479,-0.055477,-0.032336,-0.050309,-0.044331,-0.030582,-0.052,-0.036519,-0.054559,-0.041226,-0.043598,-0.054741,-0.038,-0.046464,-0.041443,-0.057872,-0.052359,-0.03181,-0.044723,-0.040596,-0.048873,-0.037547,-0.035467,-0.031409,-0.033666,-0.029126,-0.03521,-0.024659,-0.017119,-0.024538,-0.044246,-0.018405,-0.025738,-0.011077,-0.03156,-0.019629,-0.021445,-0.020607,-0.0033193,-0.019803,-0.0062153,-0.028806,-0.024292,-0.015542,-0.027472,-0.018595,-0.02074,-0.026159
-0.018268,-0.0095904,-0.028526,-0.022768,-0.023453,-0.01143,-0.01162,-0.012875,-0.0069286,-0.0049911,-0.0079476,-0.00011866,-0.0024494,0.0063696,0.0025798,0.00091358,0.010117,0.023183,0.022282,0.0022608,0.011907,0.026399,0.029582,0.0052487,0.011254,0.014995,0.0072563,2.3929e-05,-0.0059111,0.004034,0.0014532,-0.022752,-0.028015,-0.030582,-0.030315,-0.030279,-0.047387,-0.041475,-0.045532,-0.030186,-0.055089,-0.026775,-0.058711,-0.024378,-0.051566,-0.025704,-0.037215,-0.024849,0.00052686,-0.012379,-0.0012972,0.54636,0.51229,0.43623,0.33956,0.31506,0.27058,0.2118,0.15301,0.10117,0.065065,0.018405,-0.036396,-0.062915,-0.098313,-0.12225,-0.14825,-0.18854,-0.19223,-0.22238,-0.23136,-0.22746,-0.23329,-0.22794,-0.21043,-0.21688,-0.1905,-0.17668,-0.16927,-0.13528,-0.1276,-0.086311,-0.08115,-0.041127,-0.040646,-0.015459,-0.0069735,0.01237,0.0091848,0.044522,0.038976,0.081088,0.055065,0.09432,0.11152,0.080015,0.098481,0.089146,0.097576,0.10038,0.085812,0.085971,0.086285,0.0573,0.088347,0.048409,0.066759,0.015792,0.023823,0.012409,0.0050043,0.0029219,-0.0092502,0.0072896,-0.011284,-0.0095806,-0.021669,-0.012596,-0.023876,-0.0069061,-0.012428,-0.023042,0.00082213,-0.016731,0.020555,-0.01073,0.011695,0.02077,0.0056472,0.0099033,0.0094234,0.024945,0.0010764,0.011251,0.0033722,0.024665,0.0084856,-0.012877,0.020198,-0.010016,0.0075803,-0.0093382,-0.01379,0.00012176,-0.02741,-0.0087121,-0.043023,-0.021029,-0.031442,-0.033812,-0.031705,-0.037992,-0.019046,-0.043338,-0.019147,-0.031464,-0.013749,-0.024742,-0.029102,-0.016223,-0.021107,-0.013527,-0.033728,-0.00070278,-0.034904,0.0083214,-0.028741,-0.00091853,-0.026329,0.001491,-0.0071369,0.010372,-0.012565,0.0064946,-0.0053352,-0.0092919,0.0078873,0.001546,-0.0027877,-0.0004095,-0.012631,0.0032817,0.0005013,0.0059472,0.0095748,0.0061531,-5.5653e-05,-0.0042281,0.0077519,-0.0060383,0.0082719,0.0012073,-0.0056402,-0.00028025,-0.00157,-0.001708,0.0091451,-0.0015316,-0.0088623,-0.0014988,0.00037737,-0.0097597,-0.0035087,-0.0027529,0.0053086,-0.016361,0.020822,-0.024974,0.031865,-0.018218,0.020889,0.012072,0.005655,0.017206,0.006299,0.025749,0.026308,0.031613,0.0194,0.018672,0.022917,0.01605,0.015473,0.023038,0.0011706,0.018674,-0.0031494,0.026597,0.0076189,0.0087925,0.0016733,0.0010945,-0.0066788,0.0083565,-0.01504,-0.016182,-0.02411,-0.014929,-0.010694,-0.017212,-0.033062,-0.012895,-0.027053,-0.0072837,-0.0079164,-0.023027,-0.010527,-0.026213,0.0037526,-0.00030646,-0.0026493,-0.0095957,0.0014107,0.0023429
0.09641,0.10087,0.11348,0.1218,0.11779,0.10557,0.10471,0.10607,0.10621,0.097272,0.09117,0.086589,0.082884,0.089472,0.082702,0.07495,0.061148,0.05981,0.056867,0.049094,0.040963,0.02501,0.018302,0.019781,0.020471,0.026494,0.042525,0.045071,0.049681,0.063448,0.064589,0.062645,0.067293,0.061742,0.068005,0.059471,0.052131,0.045929,0.044569,0.029982,0.016543,0.0069982,-0.0095066,-0.029615,-0.019558,-0.042841,-0.047079,-0.025527,-0.036856,-0.035293,-0.020096,-0.0014391,0.0030073,-0.0029431,0.0069363,0.00025899,-0.0024208,-0.003343,0.0013295,0.0045531,0.0097679,-0.00090179,-0.0059412,-0.0076934,-0.0085827,-0.020165,-0.026284,-0.025608,-0.043699,-0.052524,-0.069291,-0.069753,-0.088586,-0.092189,-0.096313,-0.10504,-0.10177,-0.12693,-0.11972,-0.13812,-0.13379,-0.13003,-0.12071,-0.12734,-0.10991,-0.07941,-0.088953,-0.091046,-0.074384,-0.071052,-0.08562,-0.068177,-0.059264,-0.050103,-0.056374,-0.052936,-0.036813,-0.026113,-0.041213,-0.045191,-0.04202,-0.040968,-0.065769,-0.071243,-0.072504,-0.073298,-0.078608,-0.087192,-0.073937,-0.072704,-0.059238,-0.072965,-0.050927,-0.058078,-0.043938,-0.027424,-0.018596,-0.011216,-0.0088243,0.019613,0.017174,0.0083173,0.026131,0.028117,0.026934,0.017072,0.027772,0.030832,0.026068,0.023194,0.028878,0.030868,0.030004,0.034855,0.015133,0.030413,0.02106,0.015559,0.018611,0.0041728,0.018196,0.00068029,0.0096995,0.028584,0.033375,0.045011,0.052799,0.067924,0.071738,0.081813,0.077784,0.077915,0.082913,0.08264,0.072114,0.06647,0.071692,0.044203,0.054814,0.042036,0.039186,0.041476,0.024953,0.022924,0.012013,0.017529,0.0066392,-0.0033178,-0.00086562,-0.0086211,-0.033843,-0.027988,-0.025871,-0.028389,-0.047697,-0.05894,-0.065148,-0.060723,-0.056727,-0.067716,-0.062567,-0.066347,-0.073304,-0.078987,-0.09614,-0.086785,-0.083782,-0.069858,-0.077365,-0.07194,-0.068663,-0.074674,-0.064043,-0.060629,-0.063126,-0.050454,-0.049898,-0.057817,-0.034205,-0.025031,-0.032383,-0.019224,-0.021784,0.0016994,-0.0088191,0.0080052,0.0035354,0.022675,0.031564,0.033229,0.046879,0.043651,0.048356,0.050311,0.066231,0.059332,0.058913,0.061813,0.070621,0.083236,0.078986,0.075406,0.087265,0.087343,0.10749,0.10564,0.09464,0.09897,0.10322,0.10494,0.11186,0.097368,0.091683,0.11093,0.11941,0.10914,0.089724,0.094213,0.10017,0.10205,0.10016,0.090788,0.070197,0.071275,0.075637,0.074221,0.068687,0.062053,0.062522,0.052639,0.047566,0.050106,0.042984,0.029999
