-0.49513,-0.49594,-0.49665,-0.4973,-0.498,-0.49871,-0.49933,-0.49986,-0.50038,-0.50098,-0.50143,-0.50183,-0.50223,-0.50252,-0.50287,-0.5031,-0.50338,-0.50356,-0.50385,-0.50403,-0.50427,-0.5045,-0.5048,-0.50516,-0.50552,-0.50591,-0.50637,-0.50697,-0.50768,-0.50832,-0.50902,-0.50989,-0.51075,-0.51155,-0.51237,-0.51318,-0.51401,-0.51475,-0.51544,-0.51615,-0.51674,-0.51723,-0.5176,-0.51781,-0.51784,-0.51782,-0.5176,-0.5173,-0.51697,-0.51654,-0.51598,-0.51539,-0.51472,-0.51353,-0.51102,-0.50595,-0.49665,-0.48185,-0.46072,-0.43278,-0.39806,-0.35712,-0.3106,-0.25955,-0.20523,-0.14887,-0.091389,-0.033726,0.023615,0.079727,0.13484,0.18868,0.24011,0.28981,0.33695,0.38157,0.42344,0.46225,0.49703,0.52757,0.55336,0.57481,0.59219,0.60585,0.61564,0.62157,0.62452,0.62398,0.62064,0.61389,0.60478,0.59297,0.57857,0.56349,0.54615,0.52826,0.50949,0.49044,0.47183,0.45329,0.43555,0.41887,0.40329,0.38894,0.37563,0.36419,0.35438,0.34582,0.33947,0.33454,0.33151,0.32995,0.33048,0.33228,0.3351,0.33959,0.34525,0.35188,0.35948,0.36794,0.37703,0.38669,0.39698,0.40753,0.41822,0.42933,0.44015,0.45106,0.46165,0.47192,0.48199,0.49156,0.5008,0.50913,0.51718,0.52453,0.53117,0.53703,0.54225,0.54666,0.55021,0.55329,0.55544,0.55695,0.55778,0.55802,0.55762,0.55676,0.55521,0.55336,0.551,0.54826,0.54519,0.54194,0.53843,0.53482,0.53113,0.52742,0.52365,0.5201,0.51658,0.51309,0.50991,0.50674,0.50386,0.501,0.49859,0.4963,0.49443,0.49278,0.49143,0.49024,0.48935,0.48866,0.48822,0.48784,0.48772,0.48772,0.48794,0.48824,0.4886,0.48912,0.48976,0.49047,0.49133,0.49206,0.49308,0.49404,0.4951,0.49625,0.49738,0.49857,0.49971,0.50081,0.50198,0.50296,0.50391,0.5047,0.50547,0.50609,0.50654,0.50696,0.50724,0.5074,0.50748,0.50742,0.50724,0.50692,0.50645,0.50583,0.50515,0.50441,0.50348,0.50275,0.50207,0.50127,0.50069,0.50011,0.49963,0.49917,0.49891,0.49872,0.49858,0.49849,0.49834,0.49815,0.498,0.49787,0.49776,0.49774,0.49768,0.49769,0.49762,0.49762,0.49762,0.4977,0.49779,0.49792,0.49799,0.49806,0.49812,0.49815,0.49816,0.4982,0.49813,0.49803,0.49794,0.49783,0.49766,0.49752,0.49734,0.49721,0.49706,0.49697,0.49683,0.49675,0.49673,0.49671,0.49663,0.49658,0.49655,0.49644,0.49639,0.49626,0.49613,0.49604,0.49597,0.49589,0.49582,0.49577,0.49573,0.4957,0.49563,0.49549,0.49538,0.49516,0.49495,0.49477,0.49454,0.49432,0.49413,0.49402,0.49395,0.494,0.4941,0.49432,0.49456,0.49481,0.49516,0.49546,0.49573,0.49598,0.49623,0.49636,0.49646,0.49651,0.49651,0.49641,0.49626,0.49603,0.49572
-0.54601,-0.54616,-0.54648,-0.54689,-0.54721,-0.54751,-0.54782,-0.54822,-0.54853,-0.54876,-0.54917,-0.54933,-0.54959,-0.54986,-0.55004,-0.55025,-0.55049,-0.55067,-0.55088,-0.55106,-0.55115,-0.55112,-0.5512,-0.55113,-0.55113,-0.55113,-0.55079,-0.55082,-0.5505,-0.55032,-0.55016,-0.5499,-0.54987,-0.54963,-0.54946,-0.54941,-0.54925,-0.54922,-0.54916,-0.54903,-0.5491,-0.54895,-0.54904,-0.54903,-0.54922,-0.54941,-0.54964,-0.54987,-0.55017,-0.55041,-0.55084,-0.5512,-0.5514,-0.55128,-0.55046,-0.54768,-0.5432,-0.53627,-0.52734,-0.5157,-0.50223,-0.48674,-0.46965,-0.45165,-0.43264,-0.41431,-0.39529,-0.37609,-0.35702,-0.3386,-0.32027,-0.30079,-0.28226,-0.26454,-0.24589,-0.22752,-0.20982,-0.19423,-0.17717,-0.15872,-0.14,-0.12026,-0.099469,-0.078737,-0.057579,-0.0347,-0.01195,0.011593,0.035138,0.059657,0.08435,0.10999,0.13633,0.16101,0.18676,0.21208,0.23637,0.26078,0.28514,0.30916,0.33299,0.35611,0.37895,0.40017,0.41958,0.4394,0.45747,0.4731,0.48913,0.50254,0.51535,0.52631,0.5369,0.54516,0.55152,0.55748,0.56211,0.56554,0.56757,0.56864,0.56838,0.56734,0.56491,0.56186,0.5582,0.55357,0.54858,0.54362,0.5382,0.53281,0.52724,0.5219,0.51655,0.51137,0.50623,0.50162,0.49775,0.49368,0.49059,0.48755,0.48523,0.48364,0.48217,0.48135,0.48097,0.4811,0.48176,0.48288,0.4843,0.48614,0.48815,0.49069,0.49331,0.49629,0.4993,0.50253,0.50578,0.50931,0.51258,0.51598,0.51906,0.52243,0.52538,0.52819,0.53112,0.53344,0.53599,0.53806,0.5402,0.54194,0.54356,0.54521,0.54619,0.54714,0.54797,0.5483,0.54862,0.54852,0.54824,0.54774,0.54687,0.54586,0.54474,0.54318,0.54175,0.54004,0.53821,0.53639,0.53461,0.53292,0.53124,0.52956,0.52798,0.52641,0.52496,0.52378,0.52239,0.52132,0.52019,0.51919,0.51843,0.51777,0.51718,0.51675,0.51646,0.51625,0.51612,0.51614,0.51595,0.51574,0.51565,0.5156,0.5154,0.51535,0.51513,0.51485,0.51477,0.51454,0.5143,0.51401,0.51385,0.51364,0.51332,0.51304,0.51292,0.51277,0.51266,0.51244,0.51219,0.51219,0.51199,0.51185,0.51184,0.51184,0.51178,0.51179,0.51184,0.51194,0.51216,0.51241,0.51263,0.51288,0.51308,0.51317,0.51335,0.5135,0.51355,0.51367,0.51351,0.51353,0.51337,0.51318,0.513,0.51284,0.51252,0.51225,0.51196,0.51168,0.51131,0.51102,0.51072,0.51019,0.51004,0.50969,0.50945,0.50927,0.50916,0.50912,0.50911,0.50918,0.50936,0.5095,0.50979,0.51003,0.51035,0.51055,0.51064,0.51082,0.51102,0.51116,0.51126,0.51139,0.5115,0.51154,0.51153,0.51142,0.51132,0.51136,0.51121,0.51118,0.51108,0.51103,0.5108,0.51076,0.51055,0.51038,0.51009,0.50976,0.50947,0.50889,0.50858
0.47836,0.47831,0.47837,0.4784,0.47832,0.47817,0.47799,0.47773,0.47744,0.47726,0.47723,0.47711,0.47709,0.47706,0.47696,0.47695,0.47689,0.47697,0.47707,0.47725,0.47755,0.47786,0.47831,0.47878,0.47914,0.47954,0.47968,0.48,0.48012,0.48026,0.48037,0.48045,0.48065,0.48081,0.4811,0.48142,0.48175,0.48198,0.48226,0.48241,0.48271,0.48291,0.48312,0.48327,0.48347,0.48368,0.48385,0.48416,0.48442,0.48473,0.485,0.48529,0.48543,0.48663,0.49089,0.49957,0.51334,0.5317,0.55479,0.58206,0.61352,0.64924,0.68922,0.73394,0.78321,0.83708,0.89387,0.95296,1.0127,1.0722,1.1299,1.1845,1.236,1.2833,1.3272,1.3673,1.4043,1.4386,1.4712,1.502,1.5308,1.5574,1.5815,1.6023,1.6204,1.6355,1.6479,1.6577,1.6653,1.6712,1.6753,1.6781,1.6797,1.6799,1.6791,1.6774,1.6746,1.6711,1.6666,1.6615,1.6559,1.6501,1.6439,1.6378,1.6322,1.6266,1.6211,1.616,1.6113,1.6071,1.6033,1.6006,1.5978,1.5957,1.5939,1.5926,1.5915,1.591,1.5908,1.5911,1.5917,1.5926,1.5934,1.5943,1.5951,1.5957,1.5963,1.5968,1.5971,1.5971,1.5969,1.5963,1.5954,1.5941,1.5924,1.5904,1.588,1.5856,1.5828,1.5799,1.5767,1.5734,1.5699,1.5663,1.5628,1.5591,1.5555,1.552,1.5486,1.5453,1.5421,1.5389,1.5359,1.5329,1.5301,1.5275,1.525,1.5227,1.5206,1.5187,1.517,1.5154,1.5142,1.5132,1.5122,1.5115,1.511,1.5107,1.5106,1.5108,1.5111,1.5117,1.5125,1.5132,1.5142,1.5151,1.5161,1.5171,1.5181,1.5192,1.5203,1.5215,1.5227,1.5238,1.525,1.5263,1.5273,1.5282,1.5292,1.53,1.5308,1.5314,1.5321,1.5325,1.5331,1.5334,1.5337,1.5341,1.5343,1.5344,1.5345,1.5344,1.5343,1.534,1.5337,1.5334,1.5329,1.5324,1.5319,1.5315,1.5311,1.5308,1.5304,1.5301,1.5297,1.5293,1.529,1.5286,1.5283,1.528,1.5278,1.5277,1.5276,1.5275,1.5276,1.5276,1.5277,1.5278,1.5279,1.528,1.5281,1.5281,1.5284,1.5287,1.5289,1.5292,1.5295,1.5297,1.53,1.5302,1.5303,1.5304,1.5304,1.5304,1.5305,1.5306,1.5306,1.5308,1.5308,1.5308,1.5309,1.5309,1.5309,1.5309,1.5309,1.5309,1.5309,1.5309,1.531,1.5311,1.5311,1.5311,1.5313,1.5313,1.5313,1.5315,1.5316,1.5318,1.5319,1.5319,1.5319,1.5319,1.5319,1.5319,1.5319,1.5319,1.5319,1.5319,1.5319,1.5319,1.5319,1.5318,1.5318,1.5318,1.5319,1.532,1.5322,1.5323,1.5324,1.5326,1.5327,1.5328,1.5327,1.5327,1.5327,1.5327,1.5327,1.5326,1.5326,1.5325,1.5324
