-0.052924,-0.0522386,-0.0507247,-0.0479072,-0.0447693,-0.0410619,-0.0370938,-0.0331796,-0.0292786,-0.025036,-0.0207839,-0.0167282,-0.0129263,-0.0101237,-0.00728261,-0.00502755,-0.00338018,-0.00210092,-0.00151157,-0.00183528,-0.00266877,-0.00406232,-0.0062047,-0.00886444,-0.011831,-0.0149766,-0.0184188,-0.0218926,-0.0253978,-0.0287897,-0.0318537,-0.0347584,-0.0373051,-0.0395341,-0.0415299,-0.042936,-0.0440317,-0.0447754,-0.0451252,-0.0451682,-0.0447273,-0.0440931,-0.0431658,-0.0420234,-0.0406736,-0.0393343,-0.0377937,-0.0364032,-0.0351558,-0.0338317,-0.0327809,-0.0319532,-0.0313354,-0.0308508,-0.030805,-0.0309223,-0.0315477,-0.0322516,-0.033444,-0.0347136,-0.0363403,-0.0382725,-0.0401391,-0.0424358,-0.0445704,-0.0468206,-0.0491577,-0.0514316,-0.0535582,-0.0555678,-0.0575315,-0.0594017,-0.0608982,-0.0623152,-0.0636925,-0.0643201,-0.0655442,-0.0658859,-0.0669093,-0.0660035,-0.0659174,-0.0658895,-0.0659123,-0.0665543,-0.0678893,-0.0698942,-0.0727387,-0.0759861,-0.0795287,-0.082633,-0.0853992,-0.0839021,-0.0813078,-0.078143,-0.0745544,-0.0704373,-0.0689739,-0.0688076,-0.0679823,-0.0674805,-0.0673636,-0.0668987,-0.0668294,-0.0670723,-0.0678345,-0.0687705,-0.0685237,-0.0682829,-0.0685091,-0.0690504,-0.0700201,-0.0709658,-0.0720331,-0.0726863,-0.0731698,-0.0735768,-0.0737896
-0.196799,-0.196653,-0.195316,-0.190648,-0.185625,-0.18027,-0.17439,-0.168609,-0.162089,-0.154648,-0.146348,-0.137092,-0.126892,-0.117092,-0.105663,-0.0941197,-0.082672,-0.0711768,-0.0595891,-0.0482523,-0.0376509,-0.027197,-0.0175998,-0.00863868,-0.000314241,0.00703601,0.0133544,0.019154,0.0243641,0.0284035,0.0321607,0.0347621,0.0372574,0.0387143,0.0393396,0.0403248,0.040404,0.0405632,0.0402781,0.0398159,0.0394269,0.0390966,0.03874,0.0385558,0.0383368,0.0382054,0.0385081,0.0386092,0.0387588,0.0394815,0.0407039,0.0413642,0.0429153,0.0439233,0.0454069,0.0471918,0.0486704,0.0505365,0.0523591,0.0537014,0.0554197,0.0566858,0.0578527,0.0587869,0.0594021,0.0596466,0.0594143,0.0585969,0.0575177,0.0562004,0.0545499,0.0521846,0.0494474,0.0462945,0.0424038,0.0379398,0.0330966,0.027468,0.0254625,0.03331,0.041422,0.0499785,0.0579771,0.0658015,0.0736783,0.0812557,0.088609,0.0949078,0.100506,0.104581,0.109174,0.112089,0.114563,0.116895,0.118396,0.119049,0.120564,0.120793,0.119423,0.11855,0.118358,0.117575,0.116307,0.114989,0.113385,0.111767,0.111126,0.109792,0.108065,0.106177,0.104012,0.101975,0.0998861,0.097557,0.0948865,0.0920805,0.0889885
0.953873,0.953883,0.955274,0.958027,0.962208,0.965694,0.968264,0.970235,0.971326,0.971972,0.971384,0.969407,0.965783,0.961609,0.956039,0.950216,0.944577,0.939025,0.93378,0.928926,0.924559,0.920381,0.917002,0.913809,0.910827,0.908011,0.905139,0.902011,0.898472,0.894688,0.890077,0.884897,0.879087,0.872979,0.86633,0.858885,0.851212,0.843046,0.834554,0.825717,0.816552,0.807193,0.797666,0.787823,0.777837,0.767776,0.757334,0.746752,0.735959,0.724784,0.71294,0.700845,0.688061,0.674782,0.661044,0.646331,0.631092,0.614973,0.598083,0.580479,0.562078,0.542819,0.522884,0.502062,0.480136,0.457081,0.432845,0.407187,0.3802,0.351184,0.320449,0.287883,0.253552,0.216577,0.177621,0.136064,0.0923964,0.0467475,0.0140388,0.0325306,0.0471156,0.0572345,0.0630114,0.0676264,0.070505,0.0697759,0.0645124,0.0544697,0.0400891,0.0223713,0.0137562,0.0193271,0.0237868,0.025248,0.0229896,0.0168507,0.0144555,0.015948,0.0167467,0.0159766,0.0157845,0.0171442,0.0183862,0.0185531,0.0179507,0.0177732,0.0188508,0.0198372,0.0201859,0.0200451,0.0196962,0.0200428,0.0206012,0.0212889,0.0217011,0.0219626,0.0219612
-0.0958168,-0.176042,-0.241789,-0.104589,-0.0605326,-0.0597392,-0.0973426,-0.116236,-0.148835,-0.140252,-0.127161,-0.122346,-0.0953831,-0.131321,-0.101671,-0.078235,-0.0831443,-0.0739133,-0.0549014,-0.0533133,-0.0554156,-0.0280802,-0.0198159,-0.0348665,-0.0168441,-0.011784,-0.0146941,-0.0147374,-0.0168075,-0.045595,-0.0292446,-0.03351,-0.0263216,-0.0346403,-0.060744,-0.0476125,-0.0565897,-0.0559779,-0.0694477,-0.0724615,-0.0744734,-0.0727173,-0.0789895,-0.0787563,-0.0793897,-0.0811865,-0.0723762,-0.0820846,-0.0917038,-0.0887629,-0.0797399,-0.0862071,-0.0714128,-0.0774861,-0.0776126,-0.0655815,-0.0797496,-0.0567336,-0.0533219,-0.0482296,-0.0361536,-0.0397975,-0.0447365,-0.0273345,-0.023908,-0.0168286,-0.0146636,-0.0199654,-0.0213269,-0.0134708,-0.0171102,-0.0172161,0.00365719,0.0177452,0.00266519,0.0190318,0.0401928,0.0310717,-0.0839642,-0.0955613,-0.0877009,-0.0188773,-0.0286912,-0.0232737,-0.027148,-0.0124287,0.0287987,0.0560413,0.0719504,0.134509,-0.0210832,-0.0952252,-0.029872,0.072555,0.0859572,0.107906,0.00978263,0.0452732,0.0740036,0.0566776,0.0645637,0.104275,0.124561,0.125409,0.119339,0.122927,0.160504,0.189645,0.198399,0.186982,0.166455,0.185626,0.209042,0.229149,0.235858,0.244092,0.238483
0.0322483,0.0751508,0.117549,0.112851,0.0619101,0.0159268,0.0206339,0.0546168,0.070583,0.0520903,0.0197273,-0.00233931,-0.00038786,0.000766673,0.00897559,0.00688244,0.00194045,-0.00875552,-0.0143061,-0.0167516,-0.0163708,-0.0102679,-0.00238518,0.00576402,0.0114915,0.0166376,0.0218764,0.0270281,0.0325363,0.035747,0.0444583,0.0475426,0.0505544,0.052051,0.0493264,0.0508284,0.0505559,0.0537746,0.053299,0.0526253,0.0497031,0.0449942,0.0450379,0.0423562,0.0374258,0.0322396,0.0290381,0.0236658,0.0204057,0.0170594,0.0198194,0.0165782,0.0170229,0.0127468,0.0114795,0.00969847,0.00692861,0.0119887,0.00945385,0.0103763,0.0120542,0.0142592,0.0188249,0.0224469,0.0260914,0.0280146,0.0314949,0.0300255,0.0351351,0.0407317,0.0426557,0.0446698,0.0473937,0.045348,0.0542143,0.0582569,0.0566836,0.0564306,0.0266349,-0.00833869,-0.010764,-0.00170922,0.0197806,-0.00645097,-0.0488091,-0.0779385,-0.0560874,0.00139377,0.0712544,0.120862,0.0372559,0.0744342,0.086185,0.0641257,0.046943,0.057182,0.0450342,0.0528118,0.0532943,0.0535642,0.0516995,0.0590169,0.0675354,0.0755179,0.0661787,0.0555633,0.0589917,0.0520144,0.056094,0.0673969,0.0733261,0.0718588,0.065269,0.0647173,0.072886,0.0727648,0.0753604
-0.0025415,-0.0144367,-0.0278207,-0.017232,-0.00649559,-0.00462574,-0.00362687,-0.00138605,0.0036363,0.0082659,0.0141796,0.0100914,0.0173343,0.0107625,0.0189269,0.0158217,0.0156662,0.0141121,0.0156706,0.0128113,0.0106135,0.0143041,0.0113447,0.0142439,0.00847699,0.0150425,0.0177091,0.0151616,0.00912985,0.00120824,0.00856685,0.0102334,0.0066924,0.00520711,0.00248547,0.00322421,0.000397937,-0.00248472,-0.0016943,0.00148156,0.00167085,0.00519011,0.00744736,0.00588119,0.00416808,0.00582165,0.00704654,0.00749856,0.0106771,0.00639862,0.0080118,0.0119994,0.00947622,0.0100723,0.00809397,0.0104508,0.00823182,0.00847551,0.00647798,0.00397985,0.0037431,0.00401881,0.00454566,0.00316331,0.00366726,0.00197839,0.00213198,0.00223465,0.000248416,0.00523021,0.0052114,0.0045289,0.00525337,0.0036588,-0.000212819,0.00345843,-0.004462,-0.00132398,0.000642712,-0.00953009,-0.00779566,-0.0177908,-0.0109066,-0.0170844,-0.0179232,-0.0166834,-0.010363,0.00306179,0.0154664,0.0285949,0.01527,0.0166719,0.0389015,0.0529119,0.0582272,0.0683918,0.0571243,0.0589592,0.049888,0.0549026,0.0553735,0.0549006,0.0663258,0.0934054,0.12532,0.150873,0.151957,0.156214,0.178385,0.222381,0.27532,0.321386,0.35968,0.408485,0.463082,0.51728,0.579929
