-0.44449,-0.44509,-0.44578,-0.4466,-0.44725,-0.44803,-0.44894,-0.44969,-0.45051,-0.45124,-0.45196,-0.45268,-0.4532,-0.45366,-0.45408,-0.45446,-0.45474,-0.45496,-0.45504,-0.45511,-0.4551,-0.45505,-0.45495,-0.45488,-0.45475,-0.45467,-0.45457,-0.45454,-0.45455,-0.45456,-0.4547,-0.4549,-0.4551,-0.45544,-0.45571,-0.45603,-0.4563,-0.45655,-0.45676,-0.4569,-0.45691,-0.45688,-0.45671,-0.4565,-0.45632,-0.45603,-0.45575,-0.4555,-0.45522,-0.45495,-0.45476,-0.45458,-0.45437,-0.45363,-0.45158,-0.44694,-0.43815,-0.42369,-0.40274,-0.3749,-0.34018,-0.29887,-0.25186,-0.20001,-0.14422,-0.085517,-0.024894,0.036805,0.098667,0.16009,0.22065,0.27977,0.33728,0.39255,0.446,0.49558,0.5428,0.58609,0.62542,0.66008,0.69104,0.71791,0.74051,0.75891,0.77362,0.78418,0.79095,0.79433,0.79427,0.79074,0.78454,0.77557,0.76423,0.75109,0.73622,0.72015,0.7032,0.68569,0.66807,0.65007,0.63231,0.61492,0.59803,0.58171,0.56625,0.55148,0.538,0.52557,0.51416,0.50409,0.49507,0.48723,0.48054,0.47501,0.47035,0.46673,0.46399,0.46214,0.46097,0.46038,0.46053,0.46102,0.46207,0.46339,0.465,0.46707,0.46925,0.47183,0.4746,0.47754,0.48062,0.4839,0.48723,0.49075,0.49436,0.4979,0.50167,0.50534,0.50888,0.51244,0.51584,0.51909,0.5222,0.5251,0.52781,0.53021,0.53242,0.53434,0.53597,0.53728,0.53841,0.5392,0.5398,0.54019,0.54034,0.54022,0.53994,0.53955,0.53894,0.53826,0.53743,0.53643,0.53545,0.5344,0.53328,0.53223,0.53108,0.53011,0.52906,0.52819,0.52731,0.52658,0.52595,0.52544,0.52507,0.52474,0.52455,0.52435,0.52427,0.52423,0.52418,0.52429,0.52438,0.52453,0.52473,0.52502,0.52539,0.52576,0.52621,0.52663,0.52703,0.52738,0.52767,0.52787,0.52806,0.52817,0.52812,0.52805,0.52792,0.52778,0.52758,0.52742,0.5272,0.52695,0.52664,0.52633,0.52596,0.52555,0.52516,0.5247,0.52432,0.52397,0.52367,0.52338,0.52317,0.52284,0.52261,0.5224,0.52217,0.52205,0.52193,0.52187,0.52187,0.52188,0.52183,0.52183,0.5218,0.52175,0.52171,0.52164,0.52154,0.52142,0.52132,0.52127,0.52114,0.52106,0.52104,0.52111,0.52127,0.52153,0.52186,0.52215,0.52251,0.52288,0.52324,0.52353,0.52367,0.52383,0.5239,0.52389,0.52378,0.52368,0.52358,0.52346,0.52331,0.52315,0.523,0.52277,0.52254,0.52229,0.52198,0.52165,0.52133,0.52102,0.52068,0.52042,0.52016,0.51994,0.51981,0.5196,0.51943,0.51923,0.51904,0.5188,0.51862,0.5184,0.51815,0.51787,0.51756,0.51729,0.51687,0.51655,0.51621,0.51582,0.5154,0.51499,0.51446,0.51389,0.51335,0.51261,0.51196,0.51131,0.51065,0.51002,0.50922,0.50857,0.5078,0.50712,0.50643,0.50574,0.50514
-0.53625,-0.53574,-0.53546,-0.53521,-0.53497,-0.53485,-0.53461,-0.53468,-0.53445,-0.53424,-0.53415,-0.53412,-0.53417,-0.53391,-0.53393,-0.5338,-0.53371,-0.53345,-0.53333,-0.53304,-0.53284,-0.53257,-0.53235,-0.53196,-0.53179,-0.53153,-0.53115,-0.53097,-0.53047,-0.53005,-0.5296,-0.52902,-0.5286,-0.52796,-0.52745,-0.52699,-0.52649,-0.52597,-0.52555,-0.52519,-0.52479,-0.52437,-0.52399,-0.5237,-0.52327,-0.52306,-0.52291,-0.52274,-0.52262,-0.52257,-0.52245,-0.52234,-0.52209,-0.5216,-0.51972,-0.5166,-0.51073,-0.50266,-0.49212,-0.47912,-0.46395,-0.44696,-0.42861,-0.40923,-0.389,-0.36829,-0.34699,-0.32544,-0.30418,-0.28308,-0.26183,-0.24052,-0.21994,-0.19988,-0.18103,-0.1602,-0.1403,-0.12043,-0.10044,-0.078894,-0.058973,-0.038906,-0.019046,0.00095075,0.020106,0.039579,0.059113,0.078162,0.097104,0.11647,0.1357,0.15454,0.17378,0.19203,0.21069,0.22875,0.24666,0.2642,0.28134,0.29811,0.31448,0.33075,0.34636,0.36154,0.37631,0.39055,0.40421,0.41746,0.42973,0.44164,0.45242,0.46323,0.47302,0.48229,0.49039,0.49804,0.50443,0.51064,0.51533,0.51947,0.52296,0.52545,0.52733,0.52816,0.5287,0.52824,0.52778,0.52659,0.52484,0.52246,0.52004,0.51718,0.5144,0.51121,0.50808,0.50508,0.50195,0.49877,0.4957,0.49281,0.49002,0.4874,0.48502,0.48253,0.48051,0.47864,0.47693,0.47518,0.47378,0.47288,0.47169,0.47096,0.47028,0.46989,0.46957,0.46937,0.46952,0.4696,0.46995,0.47048,0.47083,0.47144,0.47171,0.47249,0.47329,0.47363,0.47442,0.4749,0.4758,0.47633,0.47675,0.47741,0.47793,0.47838,0.47881,0.47936,0.47976,0.48007,0.48028,0.48044,0.48068,0.48077,0.48075,0.4807,0.48062,0.48051,0.48046,0.48019,0.47996,0.47953,0.47941,0.47888,0.47862,0.47816,0.47774,0.47735,0.47658,0.47613,0.47556,0.47501,0.47433,0.47368,0.47293,0.47233,0.47165,0.47102,0.47081,0.47033,0.46992,0.46972,0.46948,0.46934,0.46945,0.46939,0.46945,0.46984,0.47005,0.47035,0.47063,0.47101,0.47152,0.47181,0.47219,0.47281,0.47303,0.47329,0.47359,0.47381,0.47404,0.47405,0.47415,0.4741,0.47404,0.47408,0.47385,0.47371,0.47347,0.47318,0.4727,0.47214,0.47146,0.47096,0.47026,0.46952,0.46884,0.46804,0.46731,0.46649,0.4656,0.46494,0.4643,0.46377,0.46304,0.46234,0.46183,0.4614,0.46119,0.46098,0.46085,0.46092,0.46097,0.46105,0.46119,0.46137,0.46164,0.46194,0.46244,0.46299,0.46349,0.46441,0.46515,0.46596,0.46685,0.46755,0.46827,0.46912,0.46983,0.47063,0.47142,0.47204,0.47272,0.47326,0.47366,0.47405,0.47445,0.47452,0.47498,0.47494,0.47495,0.47467,0.47457,0.47426,0.4739,0.47334,0.47309,0.47274,0.47225,0.4717,0.47108,0.47026,0.46967
0.4319,0.4323,0.43279,0.4332,0.43359,0.43409,0.4345,0.43495,0.43537,0.43572,0.43617,0.4365,0.43695,0.43716,0.43751,0.4378,0.43803,0.4381,0.43826,0.43835,0.43843,0.43852,0.43867,0.43875,0.43896,0.43918,0.43937,0.43978,0.44018,0.44059,0.44101,0.44135,0.44188,0.44233,0.44293,0.44345,0.44392,0.44459,0.44498,0.44536,0.44556,0.44564,0.4456,0.44553,0.44536,0.44534,0.44538,0.44539,0.44538,0.44553,0.44567,0.44578,0.44593,0.44721,0.45129,0.46019,0.47368,0.49174,0.514,0.54014,0.56941,0.60171,0.63698,0.67511,0.71613,0.75972,0.80554,0.85265,0.90034,0.94785,0.99447,1.0392,1.0818,1.1216,1.1581,1.1928,1.2242,1.2534,1.2802,1.3054,1.3281,1.3486,1.3668,1.383,1.3971,1.409,1.4191,1.4273,1.4342,1.4398,1.4445,1.4482,1.4512,1.4534,1.4551,1.4562,1.4567,1.4567,1.4565,1.4558,1.4547,1.4536,1.4522,1.4507,1.4492,1.4478,1.4465,1.4453,1.4444,1.4435,1.4431,1.4427,1.4425,1.4426,1.4429,1.4435,1.4444,1.4455,1.4469,1.4486,1.4504,1.4524,1.4545,1.4565,1.4585,1.4604,1.4624,1.4644,1.4662,1.4681,1.4699,1.4717,1.4732,1.4746,1.4758,1.477,1.478,1.4787,1.4794,1.4799,1.4804,1.4806,1.4808,1.4809,1.481,1.4809,1.4807,1.4805,1.48,1.4795,1.4789,1.4782,1.4774,1.4767,1.476,1.4751,1.4743,1.4734,1.4726,1.4719,1.4711,1.4703,1.4697,1.469,1.4683,1.4678,1.4672,1.4666,1.4661,1.4657,1.4652,1.4649,1.4645,1.4643,1.4641,1.4639,1.4636,1.4635,1.4633,1.4631,1.4631,1.4631,1.463,1.463,1.463,1.4632,1.4631,1.4632,1.4632,1.4632,1.4632,1.4631,1.4632,1.4632,1.4632,1.4634,1.4635,1.4637,1.4638,1.4639,1.464,1.4639,1.4639,1.4639,1.4637,1.4635,1.4634,1.4632,1.463,1.463,1.4628,1.4627,1.4626,1.4624,1.4622,1.4621,1.4621,1.462,1.4619,1.4618,1.462,1.462,1.4621,1.4622,1.4622,1.4622,1.4622,1.4622,1.4623,1.4624,1.4626,1.4627,1.4628,1.463,1.463,1.4632,1.4634,1.4634,1.4636,1.4637,1.4637,1.4638,1.4638,1.4639,1.4639,1.4638,1.4637,1.4636,1.4634,1.4632,1.4631,1.463,1.4628,1.4626,1.4626,1.4626,1.4626,1.4626,1.4626,1.4627,1.4626,1.4627,1.4626,1.4624,1.4622,1.462,1.4619,1.4618,1.4618,1.4619,1.462,1.4621,1.4622,1.4623,1.4623,1.4624,1.4623,1.4623,1.4625,1.4626,1.4629,1.4632,1.4634,1.4636,1.4639,1.4641,1.4645,1.4648,1.465,1.4652,1.4655,1.4656,1.4659,1.466,1.4663,1.4667,1.467,1.4671,1.4672,1.4672,1.4671
