0.273374,0.27338,0.273389,0.273397,0.273404,0.273412,0.273419,0.273427,0.273433,0.27344,0.273446,0.273451,0.273457,0.273461,0.273466,0.273469,0.273472,0.273475,0.273477,0.273479,0.273478,0.273478,0.273476,0.273475,0.273472,0.273469,0.273466,0.273458,0.273453,0.273446,0.273436,0.273429,0.273417,0.273405,0.273391,0.273377,0.273363,0.273352,0.273347,0.273347,0.273341,0.273329,0.273323
0.00220298,0.00218719,0.00216985,0.00214963,0.00212506,0.00210006,0.00207314,0.00204208,0.00200649,0.00196812,0.00192878,0.00188507,0.00183702,0.00178613,0.00173533,0.00167707,0.0016181,0.00155862,0.0014918,0.00142621,0.00135932,0.0012877,0.00121694,0.00114586,0.00107117,0.000994131,0.000919996,0.000844911,0.000762995,0.00069022,0.000614171,0.000529837,0.000457159,0.000380295,0.000305112,0.000228264,0.000151378,7.24655e-05,-1.32971e-06,-1.32971e-06,-8.27476e-05,-0.000334671,-0.000507715
-0.00032456,-0.000324433,-0.000325066,-0.000328897,-0.000327221,-0.000327713,-0.000326287,-0.000327108,-0.000327656,-0.00032573,-0.000323997,-0.000322055,-0.000319319,-0.000315762,-0.000310509,-0.000307843,-0.000299176,-0.000293984,-0.000288599,-0.00027721,-0.000271867,-0.000258621,-0.000253847,-0.000236047,-0.000231168,-0.000215108,-0.000203934,-0.000196452,-0.000176417,-0.000165211,-0.000157058,-0.00013867,-0.000126073,-0.000109849,-9.37234e-05,-7.71539e-05,-6.01746e-05,-3.74786e-05,-2.16791e-05,-2.16791e-05,-1.28694e-05,-1.57237e-05,-4.33789e-06
0.273954,0.273961,0.273967,0.27397,0.273975,0.273978,0.273982,0.273986,0.273988,0.273991,0.273993,0.273994,0.273995,0.273996,0.273997,0.273996,0.273996,0.273994,0.273992,0.273991,0.273986,0.273984,0.273977,0.273976,0.273968,0.273964,0.273957,0.273948,0.273943,0.273934,0.273922,0.273915,0.273902,0.273891,0.273879,0.273866,0.273854,0.273845,0.273841,0.273841,0.273834,0.273811,0.273799
0.000719628,0.000705651,0.000693279,0.000679472,0.000669162,0.000658871,0.000649301,0.00063665,0.000624405,0.00061266,0.000601044,0.000588803,0.000574952,0.000561925,0.000550256,0.000534049,0.000522434,0.000508556,0.000491969,0.000482002,0.000464417,0.000454683,0.00043857,0.000429609,0.000412455,0.000401091,0.000390553,0.000377684,0.000364487,0.000357507,0.000344612,0.000334377,0.000324627,0.000318773,0.000310201,0.000302956,0.000293151,0.000285517,0.000282298,0.000282298,0.000250924,0.000180553,0.000125519
0.000474052,0.00047178,0.00046886,0.000469768,0.000470093,0.000470671,0.000473794,0.000477407,0.000483082,0.000488601,0.000496399,0.000506734,0.000517765,0.000529684,0.000543614,0.000561495,0.000577285,0.000595276,0.000618942,0.000637176,0.000663047,0.000687626,0.000713819,0.000740142,0.000769727,0.000799736,0.000826393,0.000863608,0.000895184,0.000925674,0.000964902,0.000999625,0.00103586,0.0010768,0.00111754,0.00115663,0.00119783,0.00123572,0.00126415,0.00126415,0.00129839,0.00137312,0.00143938
0.274547,0.274551,0.274554,0.274555,0.274557,0.274558,0.27456,0.274562,0.274564,0.274566,0.274567,0.27457,0.274572,0.274573,0.274575,0.274578,0.274579,0.27458,0.274583,0.274585,0.274585,0.274589,0.274588,0.274591,0.274591,0.274594,0.274594,0.274595,0.274597,0.274596,0.274596,0.274599,0.274597,0.274599,0.274598,0.274598,0.274598,0.274601,0.274605,0.274605,0.274604,0.274607,0.274618
-0.000227216,-0.000238966,-0.000248004,-0.000252794,-0.000254494,-0.00025297,-0.000251462,-0.000248671,-0.000243331,-0.000235885,-0.000225751,-0.000214432,-0.000201574,-0.000186097,-0.000168142,-0.000149676,-0.000128296,-0.000105029,-8.12047e-05,-5.34343e-05,-2.50573e-05,5.81273e-06,3.71464e-05,7.14093e-05,0.000105195,0.000140472,0.000179693,0.000217504,0.000257201,0.000299188,0.000341182,0.000383193,0.000429665,0.000477261,0.000522849,0.000569863,0.000615675,0.000659741,0.000694703,0.000694703,0.000726137,0.000798855,0.000859153
0.000584667,0.000582755,0.000582947,0.000581837,0.000581469,0.000579546,0.000581709,0.000583168,0.000584984,0.000585688,0.000589144,0.000593773,0.000596323,0.0006008,0.000608085,0.000614194,0.000620449,0.000627122,0.000637345,0.000644724,0.000653622,0.000667707,0.000672926,0.000688613,0.000696646,0.000710187,0.000720231,0.000739354,0.00074862,0.000762381,0.000779603,0.00079371,0.000807941,0.000832154,0.00084651,0.000861897,0.00087915,0.000897655,0.000911987,0.000911987,0.000910179,0.00092349,0.000963005
0.274873,0.274875,0.274875,0.274875,0.274874,0.274872,0.274872,0.274871,0.274871,0.274869,0.274868,0.274867,0.274866,0.274864,0.274863,0.274862,0.27486,0.274858,0.274858,0.274855,0.274853,0.274853,0.27485,0.274849,0.274847,0.274846,0.274843,0.274843,0.274841,0.274838,0.274837,0.274836,0.274834,0.274834,0.274832,0.274831,0.274831,0.274831,0.274829,0.274829,0.274828,0.27482,0.274828
-0.00110158,-0.00110818,-0.00110849,-0.00110659,-0.00109827,-0.00108818,-0.001076,-0.00106276,-0.00104567,-0.00102445,-0.00100108,-0.000975945,-0.00094813,-0.000916423,-0.000881784,-0.000848305,-0.000807142,-0.000767578,-0.000725186,-0.000677457,-0.000631668,-0.000581592,-0.000531085,-0.000475734,-0.000427827,-0.000367225,-0.000312448,-0.000253749,-0.000196034,-0.000135923,-7.53601e-05,-1.42627e-05,5.04571e-05,0.000112665,0.000174995,0.000237406,0.000301821,0.000364504,0.000421946,0.000421946,0.000469941,0.000621457,0.000722761
-0.000110399,-0.000108544,-0.000107734,-0.000104464,-0.000102218,-0.000100114,-9.05187e-05,-8.41554e-05,-7.70183e-05,-7.04768e-05,-6.10031e-05,-5.09974e-05,-4.14396e-05,-3.0139e-05,-1.70898e-05,-3.84258e-06,8.36843e-06,2.29263e-05,3.99649e-05,5.254e-05,7.16729e-05,8.67453e-05,0.000104958,0.000121002,0.000139229,0.000158089,0.000175096,0.000200046,0.000211931,0.0002327,0.000257375,0.000272043,0.000296204,0.000318169,0.000337513,0.000356605,0.000379252,0.000398461,0.000414099,0.000414099,0.000429722,0.000490921,0.000548629
0.2749,0.2749,0.2749,0.274899,0.274898,0.274896,0.274896,0.274895,0.274895,0.274893,0.274892,0.274891,0.274889,0.274888,0.274887,0.274886,0.274884,0.274882,0.274882,0.274879,0.274878,0.274877,0.274875,0.274874,0.274872,0.274871,0.274868,0.274869,0.274867,0.274864,0.274864,0.274864,0.274861,0.274862,0.274861,0.274861,0.27486,0.27486,0.274859,0.274859,0.274856,0.274854,0.274863
-0.00103636,-0.00103655,-0.0010335,-0.00102686,-0.00101477,-0.00100132,-0.000985445,-0.000966978,-0.000942363,-0.000914766,-0.000885394,-0.000852329,-0.000815728,-0.000774497,-0.000732894,-0.000687195,-0.000636747,-0.000587916,-0.000531957,-0.000473569,-0.000418481,-0.000352784,-0.000292002,-0.000226416,-0.000163434,-9.10679e-05,-2.20316e-05,4.87877e-05,0.00012112,0.000193121,0.000267107,0.000347357,0.000420465,0.000500331,0.000573875,0.00065288,0.000729768,0.000804846,0.000868008,0.000868008,0.000920375,0.00115462,0.00131461
9.49053e-06,1.17212e-05,1.3422e-05,1.51047e-05,1.70515e-05,2.12954e-05,2.79534e-05,3.2174e-05,3.78912e-05,4.18111e-05,4.75543e-05,5.46381e-05,5.97868e-05,6.66004e-05,7.44022e-05,8.16545e-05,8.94258e-05,9.45914e-05,0.000106274,0.000112325,0.000118428,0.000131866,0.000135003,0.000145883,0.000150328,0.000163928,0.000167056,0.000182355,0.00018378,0.000193647,0.000205025,0.000212657,0.000218861,0.000232664,0.000238657,0.000245414,0.000254339,0.000264502,0.000273633,0.000273633,0.000261502,0.000310403,0.000350651
0.274905,0.274904,0.274903,0.274902,0.2749,0.274898,0.274897,0.274895,0.274893,0.27489,0.274887,0.274885,0.274881,0.274877,0.274874,0.274871,0.274866,0.274861,0.274858,0.274852,0.274848,0.274843,0.274838,0.274833,0.274828,0.274823,0.274817,0.274814,0.274807,0.274801,0.274798,0.274792,0.274786,0.274782,0.274777,0.274773,0.274768,0.274763,0.274756,0.274756,0.274751,0.274739,0.274736
-0.00110225,-0.00109962,-0.00109507,-0.00108805,-0.00107941,-0.00106911,-0.00105615,-0.00104291,-0.00102521,-0.00100675,-0.000987093,-0.000965409,-0.000941264,-0.000915421,-0.000889441,-0.000860712,-0.00083024,-0.000801259,-0.000765594,-0.000734307,-0.000698164,-0.000664354,-0.000625129,-0.000591437,-0.000555374,-0.000511301,-0.000477258,-0.00043314,-0.000398578,-0.000360689,-0.00031464,-0.000277763,-0.000234671,-0.000196502,-0.00015649,-0.000117114,-7.53562e-05,-4.06447e-05,-1.50093e-05,-1.50093e-05,2.63633e-05,0.000181574,0.000275953
0.00033476,0.000335636,0.000334399,0.000332627,0.000333301,0.000332439,0.000333346,0.000332655,0.00033139,0.000328639,0.000327834,0.000326316,0.000322988,0.000320976,0.000319308,0.000316942,0.000312016,0.000309094,0.000307663,0.000300255,0.000299303,0.000294074,0.000289459,0.000283118,0.00027962,0.000274778,0.000267935,0.000268252,0.000255226,0.000253277,0.00025182,0.00024158,0.000239593,0.000237478,0.000230634,0.000223628,0.000220644,0.00021396,0.000200625,0.000200625,0.000183137,0.000195177,0.000214809
0.274835,0.274834,0.274833,0.274831,0.274829,0.274827,0.274826,0.274824,0.27482,0.274816,0.274812,0.274807,0.274802,0.274796,0.27479,0.274783,0.274776,0.274769,0.274761,0.274752,0.274744,0.274736,0.274726,0.274717,0.274708,0.274698,0.274687,0.274678,0.274667,0.274657,0.274647,0.274635,0.274624,0.274614,0.274603,0.274592,0.274581,0.27457,0.27456,0.27456,0.274549,0.274519,0.274503
-0.000708968,-0.000704173,-0.000699359,-0.000696409,-0.000690746,-0.000685038,-0.000678635,-0.000672769,-0.000665434,-0.000658178,-0.000651396,-0.000644006,-0.00063713,-0.000629013,-0.000622284,-0.000615908,-0.00060752,-0.000602799,-0.000595387,-0.000587866,-0.000586555,-0.00057574,-0.000574992,-0.000569029,-0.000567983,-0.000559958,-0.000557086,-0.000555806,-0.000555649,-0.000551782,-0.000552503,-0.000548292,-0.000552191,-0.000550102,-0.000553826,-0.000554789,-0.00055754,-0.000556349,-0.00055416,-0.00055416,-0.000571788,-0.000520816,-0.000496225
0.000455549,0.000455386,0.000452282,0.000452099,0.000449784,0.000446347,0.000444198,0.000439094,0.000433082,0.000425582,0.000418116,0.000409166,0.000398535,0.000388052,0.000376834,0.000363052,0.000349513,0.000333562,0.000319008,0.000301504,0.000283243,0.000266908,0.000244626,0.000226798,0.000204194,0.00018574,0.000161768,0.000141979,0.00011646,9.59945e-05,7.31713e-05,4.8518e-05,2.59049e-05,3.76541e-06,-2.23007e-05,-4.76622e-05,-7.12998e-05,-9.56283e-05,-0.000124752,-0.000124752,-0.000160347,-0.000197036,-0.000217852
0.274795,0.274794,0.274792,0.274792,0.27479,0.274789,0.274787,0.274785,0.274782,0.274779,0.274776,0.274772,0.274767,0.274763,0.274758,0.274753,0.274747,0.274742,0.274735,0.274728,0.274722,0.274715,0.274708,0.274701,0.274694,0.274685,0.274678,0.274669,0.274662,0.274654,0.274645,0.274637,0.274629,0.274621,0.274612,0.274603,0.274595,0.274587,0.274578,0.274578,0.274571,0.274547,0.274533
-0.000124476,-0.000122419,-0.000122373,-0.000123333,-0.000123245,-0.000123276,-0.000124228,-0.000125576,-0.000127129,-0.000128177,-0.000130205,-0.000133486,-0.00013623,-0.000139033,-0.000143282,-0.000148547,-0.000152976,-0.000159046,-0.000165217,-0.000172231,-0.000178519,-0.000187357,-0.000196275,-0.000204558,-0.00021529,-0.000222116,-0.00023303,-0.000246145,-0.000255667,-0.000268074,-0.000279435,-0.000291458,-0.000302001,-0.000314981,-0.000328882,-0.000341991,-0.000353696,-0.000367756,-0.000393876,-0.000393876,-0.000402057,-0.000402768,-0.000401823
0.000559409,0.000556957,0.000556057,0.000553862,0.000550514,0.000547611,0.000543536,0.000537959,0.000532118,0.000523838,0.000515713,0.000507134,0.000496573,0.000485435,0.00047367,0.000461686,0.000446622,0.000431878,0.000418591,0.000399465,0.000384788,0.000365934,0.000348624,0.000328362,0.000310793,0.000291263,0.000267636,0.00025299,0.000227991,0.000208516,0.00019076,0.000166128,0.000146095,0.000125375,0.000103178,8.02717e-05,5.99213e-05,3.57592e-05,1.11588e-05,1.11588e-05,-1.35516e-05,-5.47301e-05,-8.09609e-05
0.274721,0.274721,0.27472,0.27472,0.27472,0.27472,0.274719,0.274719,0.274718,0.274716,0.274715,0.274713,0.274711,0.274709,0.274707,0.274704,0.274702,0.274699,0.274696,0.274693,0.27469,0.274686,0.274682,0.274679,0.274676,0.274672,0.274668,0.274663,0.274661,0.274656,0.274652,0.274648,0.274643,0.274639,0.274634,0.27463,0.274625,0.274621,0.274618,0.274618,0.274617,0.274607,0.274599
0.000422775,0.000422331,0.000421446,0.000418485,0.000417033,0.000415161,0.000411583,0.000406912,0.00040145,0.000396867,0.000390365,0.000382325,0.000374486,0.000366105,0.000356179,0.000343452,0.000333798,0.000320323,0.000305175,0.000293585,0.00027556,0.000261024,0.000241971,0.000227955,0.000205935,0.000189869,0.000171126,0.000147009,0.000130826,0.000109574,8.57717e-05,6.80456e-05,4.59813e-05,2.29592e-05,-4.82148e-07,-2.18523e-05,-4.44958e-05,-6.58178e-05,-8.95857e-05,-8.95857e-05,-0.000112672,-0.000155594,-0.000184809
0.00074292,0.000741258,0.000737172,0.000731558,0.000725477,0.000718635,0.000711465,0.000700789,0.00068975,0.000676222,0.000662324,0.000647333,0.000629553,0.000611126,0.000592167,0.000570478,0.000548488,0.000525494,0.000500025,0.000475843,0.000447583,0.000421522,0.000393779,0.000364926,0.000335887,0.000304562,0.000274942,0.00024605,0.000211353,0.000184618,0.00015217,0.000118433,8.7258e-05,5.55756e-05,2.27057e-05,-8.52209e-06,-4.17947e-05,-7.45985e-05,-9.77044e-05,-9.77044e-05,-0.000144138,-0.000240773,-0.000307223
0.274632,0.274633,0.274633,0.274633,0.274633,0.274633,0.274632,0.274631,0.27463,0.274628,0.274626,0.274624,0.274622,0.27462,0.274616,0.274614,0.27461,0.274607,0.274603,0.274599,0.274595,0.27459,0.274585,0.27458,0.274577,0.27457,0.274566,0.274559,0.274556,0.274549,0.274543,0.274538,0.274531,0.274524,0.274518,0.274512,0.274505,0.274499,0.274496,0.274496,0.274495,0.274481,0.274469
0.000629398,0.000627632,0.000625248,0.000622824,0.000621432,0.000619413,0.000615114,0.000611881,0.000608349,0.000605206,0.000600938,0.000596439,0.00059228,0.000587583,0.000581721,0.000576152,0.000570487,0.000563765,0.000556975,0.000550774,0.000542327,0.000535489,0.000527179,0.000520191,0.000511199,0.000502725,0.000494767,0.000485227,0.000479526,0.000469095,0.000460343,0.000455328,0.000445126,0.000437063,0.000428587,0.000421482,0.000412647,0.000402821,0.000390947,0.000390947,0.000380275,0.000364195,0.000355444
0.000184267,0.000179225,0.000173995,0.000170131,0.000164397,0.000160153,0.000155694,0.000148326,0.000141603,0.000132488,0.00012401,0.000115394,0.000105044,9.34759e-05,8.2547e-05,7.13637e-05,5.84537e-05,4.59521e-05,3.35734e-05,1.86618e-05,6.39159e-06,-8.79361e-06,-1.92373e-05,-3.71551e-05,-4.83552e-05,-6.35297e-05,-8.00645e-05,-8.9918e-05,-0.000109635,-0.000119933,-0.000132068,-0.000152136,-0.000163522,-0.000179874,-0.000190386,-0.000204531,-0.000218845,-0.000235479,-0.000244686,-0.000244686,-0.000265115,-0.000322527,-0.000375712
0.274665,0.274665,0.274666,0.274665,0.274664,0.274663,0.27466,0.274658,0.274655,0.274652,0.274648,0.274644,0.274639,0.274634,0.274628,0.274623,0.274617,0.27461,0.274603,0.274596,0.274588,0.27458,0.274572,0.274564,0.274556,0.274546,0.274538,0.274528,0.27452,0.27451,0.274499,0.27449,0.274479,0.274468,0.274458,0.274448,0.274437,0.274427,0.27442,0.27442,0.274415,0.274389,0.274364
0.000435778,0.000432739,0.000430672,0.00042825,0.000425994,0.00042474,0.000420159,0.000416714,0.000412934,0.000410915,0.000407848,0.000403715,0.00040028,0.000397395,0.000393878,0.000388371,0.000385579,0.000382404,0.000375084,0.000374443,0.000368221,0.00036363,0.000359877,0.000356947,0.000350424,0.000344397,0.000344676,0.000336475,0.000334904,0.000330571,0.000324463,0.00032324,0.000320048,0.000316306,0.000311613,0.000310111,0.000305573,0.000299865,0.000293087,0.000293087,0.000282264,0.000262897,0.000255158
0.000249518,0.000242096,0.000236493,0.000230026,0.000222981,0.000218914,0.000213752,0.000205551,0.000198225,0.000188902,0.000180854,0.000172979,0.000162348,0.000151892,0.000142899,0.000132917,0.000121888,0.000112874,0.000100946,9.14481e-05,8.07914e-05,7.20662e-05,6.30373e-05,5.16572e-05,4.54407e-05,3.24512e-05,2.51877e-05,1.69835e-05,5.09044e-06,3.0702e-06,-6.68621e-06,-1.79864e-05,-2.45121e-05,-2.89263e-05,-3.40225e-05,-3.97837e-05,-4.83327e-05,-5.49473e-05,-5.44721e-05,-5.44721e-05,-8.14893e-05,-0.000155512,-0.000204856
0.274592,0.274593,0.274593,0.274593,0.274592,0.274591,0.274589,0.274587,0.274585,0.274584,0.274581,0.274579,0.274576,0.274573,0.27457,0.274567,0.274563,0.27456,0.274555,0.274552,0.274548,0.274543,0.274539,0.274534,0.27453,0.274524,0.274521,0.274514,0.274511,0.274505,0.274498,0.274494,0.274488,0.274481,0.274476,0.274471,0.274464,0.274459,0.274455,0.274455,0.274454,0.274443,0.274427
-0.000603469,-0.000604105,-0.000602067,-0.000599644,-0.000594526,-0.000589814,-0.000585805,-0.000580181,-0.000573322,-0.000564096,-0.000555779,-0.000547161,-0.000535826,-0.000524209,-0.000513337,-0.000501571,-0.000486603,-0.000473607,-0.000460384,-0.000442722,-0.000429744,-0.000412983,-0.000396716,-0.000379355,-0.000364546,-0.00034615,-0.000326725,-0.000314043,-0.000291417,-0.00027605,-0.000260494,-0.000238476,-0.000221571,-0.00020627,-0.000188275,-0.000168951,-0.000152756,-0.00013636,-0.000123686,-0.000123686,-0.000104183,-4.79762e-05,-1.63069e-05
-0.000234952,-0.000241698,-0.00024668,-0.000251076,-0.00025255,-0.000252481,-0.000250672,-0.000251317,-0.000249136,-0.000248138,-0.000244508,-0.000239623,-0.000235708,-0.000230754,-0.000222246,-0.000214811,-0.000204889,-0.000195451,-0.000183553,-0.000171001,-0.000157094,-0.000140764,-0.000125587,-0.000107278,-9.0963e-05,-7.03147e-05,-5.44793e-05,-3.01286e-05,-1.142e-05,1.2826e-05,3.67479e-05,5.49221e-05,8.22694e-05,0.00010901,0.00013629,0.000161156,0.000186253,0.000210842,0.000232919,0.000232919,0.000245276,0.000245504,0.000254531
0.274579,0.27458,0.27458,0.27458,0.27458,0.274578,0.274576,0.274576,0.274574,0.274574,0.274572,0.274571,0.27457,0.274568,0.274567,0.274565,0.274564,0.274562,0.27456,0.274558,0.274556,0.274554,0.274552,0.27455,0.274547,0.274546,0.274544,0.274541,0.274539,0.274536,0.274533,0.274531,0.274528,0.274525,0.274522,0.274519,0.274516,0.274513,0.27451,0.27451,0.274515,0.274512,0.274502
-0.000987881,-0.00098531,-0.000980853,-0.000975403,-0.000967546,-0.000960553,-0.000952982,-0.000943814,-0.000932282,-0.000919442,-0.000907236,-0.000892864,-0.000877085,-0.000860957,-0.00084453,-0.00082633,-0.000806211,-0.00078837,-0.000766755,-0.000745364,-0.000724977,-0.000701249,-0.000680478,-0.000655302,-0.000635159,-0.000607372,-0.000587178,-0.000563474,-0.000535735,-0.000516616,-0.000492448,-0.000465162,-0.000445434,-0.000421284,-0.000398283,-0.000375716,-0.000352823,-0.00032887,-0.000307442,-0.000307442,-0.000277195,-0.000209865,-0.000167047
-0.000911265,-0.000916203,-0.000917212,-0.000914072,-0.00090916,-0.000900916,-0.00088934,-0.000878578,-0.000865674,-0.000852169,-0.000835222,-0.000816216,-0.000796699,-0.000774846,-0.000750595,-0.000723008,-0.000696758,-0.000665514,-0.000634086,-0.000601152,-0.000564687,-0.000527795,-0.000489405,-0.000451229,-0.00040658,-0.000369362,-0.000324237,-0.000281952,-0.000235611,-0.000188779,-0.000144749,-9.81551e-05,-5.02937e-05,4.45739e-08,4.78164e-05,9.715e-05,0.000144878,0.000194515,0.000239635,0.000239635,0.000276849,0.000353143,0.000433753
0.274475,0.274476,0.274477,0.274479,0.274479,0.274479,0.274478,0.27448,0.27448,0.274481,0.274482,0.274482,0.274483,0.274483,0.274484,0.274485,0.274485,0.274486,0.274486,0.274486,0.274487,0.274486,0.274487,0.274486,0.274487,0.274486,0.274488,0.274485,0.274486,0.274485,0.274483,0.274483,0.274482,0.27448,0.274478,0.274477,0.274475,0.274475,0.274474,0.274474,0.27448,0.274487,0.274488
-0.000260489,-0.000258714,-0.000255121,-0.000252236,-0.000249284,-0.000243801,-0.000240316,-0.000234834,-0.000228422,-0.000219837,-0.000210719,-0.00020201,-0.000191539,-0.000179713,-0.000167589,-0.000155825,-0.00014194,-0.000126279,-0.00011377,-9.64692e-05,-7.96149e-05,-6.61833e-05,-4.47105e-05,-3.03205e-05,-1.13276e-05,5.04818e-06,2.77102e-05,4.43258e-05,6.18109e-05,8.37762e-05,0.000103162,0.00012098,0.000145422,0.000162274,0.000182645,0.000203294,0.000223343,0.000240806,0.0002596,0.0002596,0.000277973,0.000334096,0.000366287
-0.000643504,-0.000646776,-0.000645145,-0.000642579,-0.00063794,-0.000631505,-0.000618697,-0.000610548,-0.000598428,-0.000587688,-0.000574428,-0.000557789,-0.000541751,-0.000524768,-0.000504482,-0.000482773,-0.000459389,-0.000438,-0.000409445,-0.000383813,-0.000356866,-0.000324072,-0.000296846,-0.000261886,-0.000233657,-0.000195826,-0.000169154,-0.000128371,-9.33269e-05,-6.10929e-05,-2.17004e-05,1.44171e-05,4.97979e-05,9.09203e-05,0.000129305,0.000166956,0.000204864,0.000243741,0.000280529,0.000280529,0.000311282,0.000362424,0.000420968
0.2746,0.274602,0.274603,0.274604,0.274604,0.274603,0.274602,0.274602,0.274601,0.274602,0.274601,0.2746,0.2746,0.274599,0.274599,0.274597,0.274596,0.274595,0.274593,0.274592,0.27459,0.274587,0.274584,0.274583,0.274579,0.274577,0.274575,0.274571,0.274569,0.274564,0.27456,0.274557,0.274553,0.274549,0.274544,0.274539,0.274536,0.274532,0.274527,0.274527,0.274532,0.274534,0.274531
-0.00100094,-0.000995602,-0.000989333,-0.000984053,-0.000973216,-0.00096393,-0.000954509,-0.000942989,-0.000928636,-0.00091159,-0.00089556,-0.000878124,-0.000858054,-0.000836472,-0.000815238,-0.000793726,-0.000766127,-0.000744283,-0.000717472,-0.00068785,-0.000664741,-0.000631945,-0.00060752,-0.000574104,-0.000550564,-0.000513094,-0.00048623,-0.000458854,-0.000423227,-0.000394673,-0.000367184,-0.000330518,-0.000302989,-0.000272975,-0.000243641,-0.000213679,-0.000183647,-0.000150788,-0.000124151,-0.000124151,-9.88403e-05,1.46868e-05,7.87675e-05
-0.000527175,-0.000527261,-0.000525115,-0.000521398,-0.000517186,-0.000507945,-0.000497267,-0.000487281,-0.000476395,-0.000466783,-0.000453443,-0.000438151,-0.000423852,-0.000408013,-0.00039046,-0.000368576,-0.000352031,-0.000329058,-0.000305127,-0.000284928,-0.000257897,-0.000232945,-0.000205265,-0.000182665,-0.000148734,-0.000126452,-9.56199e-05,-6.39182e-05,-3.79556e-05,-5.70927e-06,2.62362e-05,5.51188e-05,8.58783e-05,0.000120333,0.000151671,0.000183663,0.000214332,0.000245905,0.000278444,0.000278444,0.000297833,0.000357503,0.00042485
0.274685,0.274688,0.274689,0.27469,0.27469,0.27469,0.274689,0.27469,0.27469,0.274691,0.274691,0.274691,0.274691,0.274692,0.274691,0.274691,0.27469,0.27469,0.27469,0.274688,0.274688,0.274686,0.274685,0.274682,0.274681,0.274679,0.274678,0.274675,0.274672,0.274669,0.274667,0.274665,0.274661,0.274657,0.274654,0.27465,0.274647,0.274644,0.274642,0.274642,0.274646,0.274661,0.274664
-0.000557349,-0.000552399,-0.000547265,-0.000541275,-0.000533539,-0.000527688,-0.000521269,-0.00051154,-0.000500648,-0.000487919,-0.000475928,-0.000462861,-0.000447415,-0.000431163,-0.000416091,-0.000398068,-0.000380213,-0.000362464,-0.000341831,-0.000322973,-0.000301689,-0.000282015,-0.000261568,-0.000239784,-0.000218656,-0.000195307,-0.000175094,-0.000154246,-0.000126987,-0.000109661,-8.73519e-05,-6.1e-05,-4.0666e-05,-1.85845e-05,1.5292e-06,2.30828e-05,4.65893e-05,6.78964e-05,7.79208e-05,7.79208e-05,0.000109369,0.0002009,0.000270326
-0.000305857,-0.000305797,-0.00030497,-0.000304246,-0.00030146,-0.00029633,-0.000290785,-0.000288614,-0.000285674,-0.000282562,-0.00027865,-0.00027483,-0.000271542,-0.000267282,-0.00026194,-0.000258233,-0.000252256,-0.000247406,-0.000242345,-0.000235826,-0.000230295,-0.000223147,-0.000218239,-0.000209974,-0.000205803,-0.000196872,-0.000191487,-0.000185348,-0.000178406,-0.000170641,-0.000164539,-0.000158411,-0.000150022,-0.000142058,-0.000135254,-0.00012851,-0.000121498,-0.000113865,-0.000111071,-0.000111071,-0.000113451,-0.00010768,-9.28107e-05
0.274852,0.274854,0.274854,0.274853,0.274851,0.274849,0.274846,0.274843,0.274839,0.274836,0.274832,0.274826,0.274821,0.274815,0.274809,0.274801,0.274794,0.274786,0.274777,0.274768,0.274759,0.274747,0.274737,0.274726,0.274715,0.274703,0.274692,0.274678,0.274665,0.274652,0.274639,0.274625,0.274612,0.274597,0.274583,0.274568,0.274555,0.274541,0.274529,0.274529,0.274524,0.274505,0.274484
-0.000103062,-9.76004e-05,-9.22816e-05,-8.90517e-05,-8.50624e-05,-8.32241e-05,-8.07127e-05,-7.65602e-05,-7.22635e-05,-6.72675e-05,-6.36247e-05,-5.982e-05,-5.52231e-05,-5.04212e-05,-4.66188e-05,-4.3854e-05,-3.84541e-05,-3.70706e-05,-3.29758e-05,-2.87767e-05,-2.90358e-05,-2.44883e-05,-2.64147e-05,-1.99274e-05,-2.47395e-05,-1.96879e-05,-2.13576e-05,-2.06211e-05,-1.74965e-05,-2.29082e-05,-2.37856e-05,-2.00943e-05,-2.45246e-05,-2.55743e-05,-3.11091e-05,-3.35131e-05,-3.529e-05,-3.67621e-05,-4.13257e-05,-4.13257e-05,-3.98545e-05,-1.53222e-05,1.25475e-05
8.07588e-05,8.1158e-05,8.19891e-05,8.47268e-05,8.9402e-05,9.47822e-05,9.97903e-05,0.000104511,0.000111355,0.000116544,0.000122893,0.000130968,0.000138796,0.000147159,0.000155577,0.000167249,0.000176778,0.00018617,0.000200905,0.000210453,0.000222998,0.000238038,0.000250199,0.000262266,0.000277942,0.000293465,0.000304473,0.000322959,0.000336586,0.000352365,0.000370464,0.000386704,0.000401538,0.000420587,0.000437481,0.000454032,0.000470111,0.00048509,0.000495502,0.000495502,0.000503328,0.000560807,0.000600038
0.275166,0.275166,0.275165,0.275163,0.275159,0.275155,0.27515,0.275146,0.275141,0.275135,0.275128,0.275121,0.275114,0.275106,0.275097,0.275088,0.275078,0.275068,0.275057,0.275046,0.275034,0.275021,0.27501,0.274996,0.274983,0.27497,0.274956,0.274943,0.274927,0.274914,0.274901,0.274886,0.274872,0.274856,0.274843,0.274828,0.274814,0.2748,0.274789,0.274789,0.27478,0.274753,0.274723
-0.000427661,-0.000421178,-0.000415903,-0.000412101,-0.000407308,-0.00040439,-0.000401228,-0.00039496,-0.00038993,-0.000383985,-0.000379071,-0.000374156,-0.000368212,-0.000362061,-0.000357913,-0.000352507,-0.000347952,-0.000343961,-0.000338764,-0.000335082,-0.000332719,-0.00032879,-0.00032837,-0.000324212,-0.000324226,-0.000322311,-0.000320131,-0.000321005,-0.000317873,-0.000323001,-0.00032443,-0.000320105,-0.000325902,-0.000327789,-0.000334112,-0.000336297,-0.000338375,-0.000339719,-0.000344706,-0.000344706,-0.000341331,-0.000299771,-0.000257409
0.000160153,0.000160302,0.000160732,0.00016259,0.000163422,0.000162825,0.000163755,0.000163083,0.000162187,0.000158996,0.000156321,0.00015412,0.000150097,0.000145771,0.000141262,0.000137952,0.000131051,0.000125769,0.000120723,0.000112865,0.000106769,0.000100686,9.11027e-05,8.40957e-05,7.80175e-05,6.73616e-05,5.84377e-05,5.02877e-05,4.25927e-05,3.2363e-05,2.32391e-05,1.44436e-05,2.51394e-06,-3.27737e-06,-1.56025e-05,-2.5677e-05,-3.68658e-05,-4.67122e-05,-5.868e-05,-5.868e-05,-6.81211e-05,-0.000107049,-0.00011071
0.27526,0.275259,0.275256,0.275253,0.275249,0.275244,0.275238,0.275232,0.275226,0.275219,0.275212,0.275204,0.275196,0.275187,0.275177,0.275167,0.275156,0.275146,0.275135,0.275122,0.275111,0.275098,0.275086,0.275072,0.275061,0.275047,0.275034,0.275021,0.275006,0.274995,0.274982,0.274967,0.274955,0.274942,0.274929,0.274916,0.274904,0.274891,0.274881,0.274881,0.274869,0.274834,0.274803
-0.00012594,-0.000120925,-0.000118471,-0.000117624,-0.00011707,-0.0001196,-0.000121001,-0.000122274,-0.000124951,-0.000127396,-0.000131936,-0.00013718,-0.000142314,-0.00014839,-0.000156271,-0.000165543,-0.000173742,-0.000185638,-0.000196038,-0.000208157,-0.000223026,-0.00023601,-0.000253742,-0.000266159,-0.000287796,-0.000300874,-0.000320823,-0.000339649,-0.00035753,-0.000382779,-0.000402902,-0.000420848,-0.000446193,-0.000469062,-0.000494078,-0.00051731,-0.000539437,-0.000561534,-0.000586375,-0.000586375,-0.000601497,-0.000618294,-0.00062772
0.000267731,0.000267348,0.000268137,0.000268367,0.000266377,0.000265736,0.000265969,0.000263735,0.000261297,0.000256889,0.000253411,0.0002498,0.000244596,0.000238737,0.000234111,0.000227889,0.000221294,0.000214483,0.000207734,0.000199718,0.000192368,0.00018379,0.000175756,0.00016818,0.000158225,0.000149277,0.000138335,0.000132907,0.00012095,0.000111137,0.000104055,9.1168e-05,8.31369e-05,7.31802e-05,6.29434e-05,5.24925e-05,4.20912e-05,3.11824e-05,2.58034e-05,2.58034e-05,1.83404e-05,-3.34329e-05,-5.45115e-05
0.275163,0.27516,0.275157,0.275154,0.275149,0.275144,0.275139,0.275134,0.275128,0.275122,0.275115,0.275108,0.275101,0.275093,0.275085,0.275076,0.275067,0.275058,0.275049,0.275039,0.275029,0.275019,0.275009,0.274999,0.274989,0.274978,0.274967,0.274958,0.274947,0.274937,0.274928,0.274916,0.274907,0.274898,0.274889,0.274879,0.27487,0.27486,0.274851,0.274851,0.274843,0.274804,0.274776
0.000344474,0.000347046,0.000347325,0.000345609,0.000343156,0.000338607,0.000334719,0.000330661,0.000326525,0.000320629,0.000313726,0.00030726,0.000299335,0.000290821,0.000281118,0.000271102,0.000260372,0.000246807,0.000236355,0.000222163,0.000205875,0.000194407,0.000175845,0.000161601,0.000141926,0.000128263,0.000108518,9.38185e-05,7.23976e-05,5.14711e-05,3.49613e-05,1.71693e-05,-6.88741e-06,-2.33723e-05,-4.51272e-05,-6.49818e-05,-8.5192e-05,-0.000104951,-0.000123548,-0.000123548,-0.000147723,-0.000167674,-0.000183919
-0.000181765,-0.000180083,-0.000177881,-0.000177325,-0.000173913,-0.000171685,-0.000168456,-0.000165132,-0.000162193,-0.000159978,-0.000156509,-0.000152147,-0.000149365,-0.000145701,-0.000141004,-0.000136281,-0.000132097,-0.000127832,-0.00012191,-0.000116808,-0.000113915,-0.000104074,-0.000102502,-9.45867e-05,-8.98834e-05,-8.44122e-05,-7.87267e-05,-7.11073e-05,-6.68567e-05,-5.96288e-05,-5.4946e-05,-4.68168e-05,-4.48991e-05,-3.50668e-05,-3.03933e-05,-2.50119e-05,-2.07923e-05,-1.18876e-05,2.40311e-06,2.40311e-06,-7.97412e-06,-9.81361e-07,1.32317e-05
0.274874,0.274872,0.27487,0.274868,0.274866,0.274864,0.274862,0.274861,0.274859,0.274857,0.274855,0.274854,0.274852,0.27485,0.274848,0.274846,0.274844,0.274843,0.274841,0.274839,0.274838,0.274836,0.274835,0.274834,0.274833,0.274831,0.27483,0.27483,0.274828,0.274828,0.274828,0.274827,0.274827,0.274827,0.274827,0.274827,0.274827,0.274827,0.274829,0.274829,0.274829,0.274817,0.27481
-1.32919e-06,-5.9544e-08,-9.88732e-07,-2.25625e-06,-4.68267e-06,-7.58151e-06,-1.14237e-05,-1.36672e-05,-1.80201e-05,-2.26744e-05,-2.72148e-05,-3.30731e-05,-3.93913e-05,-4.58055e-05,-5.31392e-05,-6.07662e-05,-7.04487e-05,-7.86578e-05,-8.83285e-05,-9.97838e-05,-0.000109229,-0.000120856,-0.000133829,-0.000146202,-0.000157665,-0.000172009,-0.000182983,-0.000198814,-0.00021353,-0.000227964,-0.000242754,-0.000257999,-0.000273052,-0.000286935,-0.000304002,-0.000319704,-0.000334926,-0.000349824,-0.000371339,-0.000371339,-0.000384372,-0.00040488,-0.000409899
9.33352e-06,9.29431e-06,8.46723e-06,8.55633e-06,8.08386e-06,8.56196e-06,8.54802e-06,8.49756e-06,8.20488e-06,9.08307e-06,1.0784e-05,1.16819e-05,1.27367e-05,1.52809e-05,1.89467e-05,2.06229e-05,2.4242e-05,2.88817e-05,3.17387e-05,3.70754e-05,4.34011e-05,4.76686e-05,5.34347e-05,6.10853e-05,6.5967e-05,7.27408e-05,8.11581e-05,8.83491e-05,9.57765e-05,0.000104413,0.000112974,0.000119981,0.000132157,0.000143078,0.000151671,0.00016087,0.000171501,0.000179778,0.000179897,0.000179897,0.000183212,0.000193026,0.000212542
0.2748,0.274799,0.274798,0.274797,0.274796,0.274795,0.274794,0.274794,0.274794,0.274793,0.274793,0.274793,0.274793,0.274793,0.274794,0.274794,0.274795,0.274796,0.274797,0.274797,0.274799,0.2748,0.274802,0.274804,0.274805,0.274807,0.274809,0.274813,0.274814,0.274817,0.27482,0.274822,0.274826,0.274829,0.274833,0.274836,0.274839,0.274842,0.274846,0.274846,0.274845,0.274848,0.274851
-8.31466e-05,-8.29168e-05,-8.32518e-05,-8.41217e-05,-8.4272e-05,-8.60425e-05,-8.59274e-05,-8.75851e-05,-8.92931e-05,-9.03931e-05,-9.24198e-05,-9.50308e-05,-9.75028e-05,-0.000100059,-0.00010274,-0.000107755,-0.000109894,-0.000115338,-0.000119603,-0.000123998,-0.000129622,-0.000134721,-0.000142264,-0.000145299,-0.000156144,-0.000157647,-0.000167561,-0.000174403,-0.000181122,-0.000190441,-0.000197515,-0.000205405,-0.000213,-0.000221614,-0.000230425,-0.00023975,-0.000246671,-0.000254268,-0.000266637,-0.000266637,-0.000271038,-0.000277925,-0.000286034
-0.000277885,-0.000277798,-0.000274763,-0.000272596,-0.000268761,-0.000263568,-0.000259023,-0.000253964,-0.00024789,-0.000240501,-0.000232854,-0.000225239,-0.000215788,-0.000205454,-0.000195189,-0.000184728,-0.000171534,-0.000159661,-0.000147161,-0.000131532,-0.000118943,-0.000103066,-8.89459e-05,-7.21022e-05,-5.76908e-05,-4.05401e-05,-2.27637e-05,-9.35434e-06,1.10799e-05,2.81087e-05,4.34495e-05,6.32809e-05,8.22212e-05,9.90192e-05,0.000116197,0.000135162,0.00015248,0.000170319,0.000182545,0.000182545,0.000198901,0.000249085,0.000286998
0.274649,0.274648,0.274648,0.274648,0.274648,0.274648,0.274649,0.274649,0.27465,0.27465,0.274651,0.274652,0.274653,0.274654,0.274656,0.274657,0.274658,0.27466,0.274661,0.274663,0.274665,0.274666,0.274669,0.274671,0.274673,0.274675,0.274678,0.27468,0.274682,0.274685,0.274688,0.27469,0.274694,0.274696,0.274698,0.274701,0.274704,0.274706,0.274708,0.274708,0.274709,0.274719,0.274724
0.00034444,0.00034435,0.000343554,0.000343794,0.000343116,0.000344047,0.000343177,0.000343751,0.000344524,0.000345207,0.000346109,0.000347201,0.000348704,0.000350632,0.000351475,0.000354461,0.000355371,0.000357752,0.00036074,0.000362293,0.000364852,0.000367744,0.000371245,0.000371415,0.000377007,0.000377883,0.000383057,0.00038637,0.000388398,0.000393111,0.000397466,0.000402467,0.000405873,0.000411107,0.000415227,0.00042066,0.000424619,0.000427005,0.000427077,0.000427077,0.000423858,0.000457333,0.000476836
-0.000594573,-0.000591599,-0.000588142,-0.000584138,-0.000577366,-0.000572393,-0.000565056,-0.000557993,-0.000549123,-0.000540498,-0.000531786,-0.000521018,-0.000509869,-0.000498856,-0.000487148,-0.000473708,-0.000459961,-0.000448338,-0.000431358,-0.000418221,-0.000403406,-0.000386632,-0.000373155,-0.00035508,-0.000341522,-0.00032097,-0.000310686,-0.000290989,-0.000272594,-0.00026053,-0.000242214,-0.00022422,-0.000210988,-0.000194078,-0.00017813,-0.000163523,-0.000146954,-0.000129786,-0.000114068,-0.000114068,-9.04177e-05,-4.56423e-05,-1.18938e-05
0.274547,0.274547,0.274548,0.274548,0.274549,0.274549,0.27455,0.274551,0.274551,0.274552,0.274552,0.274552,0.274553,0.274553,0.274553,0.274553,0.274553,0.274553,0.274553,0.274553,0.274552,0.274552,0.274552,0.274551,0.274551,0.274551,0.274549,0.274548,0.274548,0.274547,0.274545,0.274545,0.274543,0.274541,0.27454,0.274539,0.274537,0.274536,0.274535,0.274535,0.274536,0.274535,0.274533
9.28624e-05,9.28562e-05,9.23977e-05,9.12881e-05,9.05438e-05,8.86123e-05,8.5819e-05,8.25854e-05,7.8504e-05,7.44971e-05,6.97233e-05,6.38597e-05,5.76904e-05,5.09645e-05,4.39623e-05,3.51639e-05,2.70118e-05,1.77709e-05,7.63341e-06,-2.64394e-06,-1.2947e-05,-2.5093e-05,-3.67839e-05,-4.8464e-05,-6.23497e-05,-7.41398e-05,-8.82012e-05,-0.000101606,-0.000116202,-0.000130518,-0.000144482,-0.000160552,-0.000174372,-0.000190264,-0.00020532,-0.000221858,-0.000237306,-0.000254209,-0.000272682,-0.000272682,-0.000285866,-0.000318898,-0.000346736
0.000257778,0.000257367,0.000257738,0.000258264,0.000256181,0.000257086,0.000256202,0.000255816,0.000253915,0.000253109,0.000253097,0.00025167,0.000250325,0.000249818,0.000249335,0.000247953,0.000245894,0.000247656,0.000243845,0.000244196,0.000244291,0.000240799,0.000243036,0.000239691,0.000241907,0.000235371,0.000241165,0.000237719,0.000235625,0.000238693,0.00023655,0.000235011,0.000238028,0.000236648,0.00023601,0.00023695,0.000236461,0.000235339,0.000237345,0.000237345,0.00023039,0.000219733,0.000221741
0.274765,0.274765,0.274765,0.274764,0.274763,0.274763,0.274762,0.27476,0.274759,0.274757,0.274755,0.274754,0.274751,0.274749,0.274747,0.274744,0.274741,0.274738,0.274735,0.274732,0.274728,0.274725,0.274721,0.274718,0.274714,0.27471,0.274706,0.274702,0.274699,0.274694,0.27469,0.274686,0.274682,0.274678,0.274674,0.274669,0.274665,0.274661,0.274659,0.274659,0.274655,0.274638,0.274629
3.12308e-05,3.11946e-05,3.14064e-05,3.16857e-05,3.12801e-05,3.12135e-05,2.95285e-05,2.83855e-05,2.60866e-05,2.45473e-05,2.24414e-05,1.91553e-05,1.59997e-05,1.28561e-05,9.02028e-06,3.98004e-06,-5.02651e-07,-4.88833e-06,-1.19729e-05,-1.64675e-05,-2.34715e-05,-3.00273e-05,-3.72499e-05,-4.43658e-05,-5.15326e-05,-6.08525e-05,-6.61898e-05,-7.76985e-05,-8.53643e-05,-9.23248e-05,-0.000103947,-0.000112289,-0.000121344,-0.000131829,-0.000142374,-0.000152428,-0.000163307,-0.00017286,-0.000181032,-0.000181032,-0.000192453,-0.000211118,-0.000228097
-0.000345455,-0.000344304,-0.000342144,-0.000341657,-0.000337929,-0.000334929,-0.00033151,-0.00032901,-0.000324741,-0.000319558,-0.000315125,-0.000310069,-0.000303981,-0.000297574,-0.000291033,-0.000285442,-0.000275547,-0.000270413,-0.000261691,-0.000251873,-0.000246207,-0.0002346,-0.000228187,-0.000215837,-0.00021176,-0.000196385,-0.000190466,-0.000180646,-0.00016916,-0.000161139,-0.000151756,-0.000139789,-0.000131092,-0.000121689,-0.000111515,-0.000101797,-9.18872e-05,-8.1558e-05,-7.46002e-05,-7.46002e-05,-6.86032e-05,-3.17218e-05,-1.57306e-05
