-0.504685,-0.504446,-0.504343,-0.503972,-0.503562,-0.503167,-0.502868,-0.502688,-0.50254,-0.502469,-0.5026,-0.502758,-0.503085,-0.503461,-0.503971,-0.504368,-0.50505,-0.505581,-0.506607,-0.507013,-0.507584,-0.508879,-0.509823,-0.511152,-0.511291,-0.512539,-0.51492,-0.516592,-0.519034,-0.521669,-0.52497,-0.528031,-0.531082,-0.533849,-0.537224,-0.540381,-0.543135,-0.549823,-0.552359,-0.55432,-0.556462,-0.559585,-0.562259
-0.62802,-0.625639,-0.621306,-0.614173,-0.603883,-0.59138,-0.576556,-0.558815,-0.538612,-0.516487,-0.491828,-0.464258,-0.434191,-0.402845,-0.367823,-0.331282,-0.292975,-0.251032,-0.208756,-0.163648,-0.117692,-0.068743,-0.0207929,0.030463,0.08314,0.135572,0.189903,0.245138,0.299889,0.356598,0.414603,0.471992,0.528993,0.586708,0.644969,0.704268,0.762917,0.818748,0.877559,0.950096,1.03656,1.13939,1.24221
0.455102,0.456104,0.458801,0.462564,0.465509,0.468133,0.470303,0.471055,0.470759,0.469667,0.467645,0.46419,0.459447,0.454199,0.44725,0.439275,0.430613,0.420019,0.408661,0.396075,0.382461,0.36677,0.351474,0.334389,0.31639,0.297438,0.276531,0.254872,0.232736,0.208265,0.18276,0.155998,0.128321,0.0995114,0.0693012,0.0389698,0.0115343,-0.00894681,-0.0273032,-0.0530769,-0.0869782,-0.129437,-0.170124
-0.0643056,-0.192639,-0.269941,-0.239958,-0.241803,-0.256909,-0.26215,-0.261202,-0.275979,-0.273589,-0.280645,-0.277519,-0.279184,-0.289504,-0.298299,-0.278477,-0.274827,-0.259137,-0.266496,-0.272743,-0.250585,-0.235034,-0.245795,-0.191289,-0.186509,-0.207249,-0.171552,-0.181099,-0.204906,-0.154297,-0.110515,-0.104371,-0.0896114,-0.11564,-0.114991,-0.112291,-0.173092,-0.241392,-0.126759,-0.0639551,-0.146252,-0.81365,-0.781627
0.00316798,0.0169695,0.00834587,0.00637398,0.00477831,0.00486381,0.00446615,0.00194019,0.00151898,0.000500756,0.00233905,0.00249062,0.000674105,0.00787559,0.00214719,0.00594098,0.00753409,0.00199118,0.00589015,0.00315438,0.0194659,-0.00432655,0.00949764,0.00778043,-0.000305636,0.0024046,0.00275595,-0.0101807,0.00629669,0.00908962,0.00865579,0.00357642,0.0144584,0.0107109,0.00292052,-0.00101942,0.0129885,-0.00548895,-0.039817,-0.0538793,-0.038199,-0.0221625,-0.0148973
0.0141273,0.0226704,0.0132605,0.0202091,0.0137279,0.0134879,0.0155622,0.010759,0.0105479,0.0084869,0.0126026,0.00987513,0.00578607,0.0159419,0.00975586,0.0179803,0.0188454,0.00822375,0.0163164,0.00866323,0.0365532,0.00155379,0.0417468,0.0375826,0.0214282,0.02642,0.02093,0.00540433,0.00917289,0.0066129,-0.021759,-0.014928,-0.0217811,-0.0094961,-0.00332723,-0.0158188,-0.0231357,-0.0271957,-0.0259846,-0.0127805,-0.0280741,-0.0507652,-0.0567017
