-0.52225,-0.52202,-0.52185,-0.52177,-0.52168,-0.52167,-0.52166,-0.5218,-0.52194,-0.5222,-0.5225,-0.52288,-0.52332,-0.52389,-0.52433,-0.52501,-0.52583,-0.52672,-0.5278,-0.52878,-0.52993,-0.53112,-0.53233,-0.5335,-0.53453,-0.53536,-0.53624,-0.53682,-0.53732,-0.53771,-0.53787,-0.53798,-0.53794,-0.53771,-0.53733,-0.5368,-0.53621,-0.53551,-0.53466,-0.53388,-0.53297,-0.53216,-0.53136,-0.53056,-0.5299,-0.52925,-0.52862,-0.52799,-0.52741,-0.52671,-0.52617,-0.52558,-0.52491,-0.52431,-0.52369,-0.52254,-0.52032,-0.51606,-0.50865,-0.49759,-0.48235,-0.46277,-0.43884,-0.41066,-0.37825,-0.34218,-0.30267,-0.26013,-0.21497,-0.16786,-0.11913,-0.069059,-0.018204,0.033011,0.084184,0.13478,0.18428,0.23257,0.27897,0.32337,0.36542,0.40518,0.44202,0.47594,0.507,0.53504,0.55964,0.58127,0.59952,0.61462,0.6267,0.63572,0.64143,0.64455,0.64469,0.64214,0.63721,0.62991,0.62049,0.60911,0.59597,0.5815,0.5659,0.54938,0.53218,0.51451,0.49665,0.47896,0.46152,0.44434,0.42825,0.41254,0.39792,0.38408,0.37143,0.35974,0.34964,0.34073,0.33317,0.3275,0.3231,0.32023,0.31865,0.3188,0.31996,0.32244,0.32644,0.33116,0.33699,0.34399,0.35194,0.36048,0.36961,0.37942,0.3896,0.40025,0.4113,0.42243,0.43376,0.44522,0.45651,0.46782,0.47892,0.48999,0.50062,0.51087,0.52072,0.53015,0.53905,0.54707,0.55471,0.56145,0.56757,0.57304,0.57766,0.58146,0.58449,0.58671,0.5881,0.58871,0.58856,0.58777,0.58622,0.58414,0.58139,0.57812,0.57427,0.57,0.56543,0.56046,0.55523,0.54975,0.54407,0.53819,0.5322,0.52621,0.52023,0.5143,0.50857,0.50293,0.49748,0.49232,0.48725,0.48258,0.47829,0.47422,0.47063,0.46742,0.46451,0.46213,0.46,0.45831,0.45702,0.45613,0.45575,0.45575,0.45604,0.45676,0.45799,0.45946,0.46128,0.46345,0.46586,0.4686,0.47149,0.47473,0.47804,0.48151,0.48509,0.48891,0.4928,0.49658,0.50055,0.50434,0.50835,0.51203,0.51573,0.51915,0.52251,0.52555,0.52843,0.53124,0.53368,0.536,0.53806,0.53983,0.54139,0.54262,0.54357,0.54418,0.54451,0.54457,0.54439,0.5438,0.54289,0.54182,0.54038,0.53865,0.53677,0.5346,0.53234,0.52984,0.52718,0.52447,0.52147,0.51861,0.51555,0.51268,0.50963,0.50677,0.50384,0.50098,0.49835,0.49568,0.49328,0.49088,0.48874,0.48656,0.48468,0.48289,0.48135,0.48001,0.47893,0.47803,0.47756,0.4773,0.4773,0.47754,0.47804,0.47878,0.47984,0.48111,0.48258,0.4843,0.48622,0.48821,0.49045,0.49264,0.49505,0.49737,0.49983,0.50224,0.5047,0.50719,0.50933,0.51161,0.51368,0.51578,0.51766,0.51948,0.52119,0.52261,0.52401,0.52517,0.52615,0.52688,0.52748,0.52782,0.52792,0.52788,0.52764
-0.47166,-0.47134,-0.47123,-0.47092,-0.47063,-0.47015,-0.46973,-0.46908,-0.46849,-0.46784,-0.46709,-0.46653,-0.46573,-0.46472,-0.464,-0.46318,-0.46229,-0.46154,-0.46085,-0.46026,-0.45993,-0.45965,-0.45957,-0.45969,-0.45981,-0.46042,-0.46134,-0.46223,-0.4634,-0.4649,-0.46639,-0.46802,-0.46979,-0.47168,-0.4737,-0.47569,-0.47796,-0.48,-0.48208,-0.48422,-0.48626,-0.48835,-0.49032,-0.49224,-0.49406,-0.49577,-0.49733,-0.4989,-0.50014,-0.50128,-0.50228,-0.50298,-0.5035,-0.50386,-0.50386,-0.5035,-0.50236,-0.50043,-0.49729,-0.49275,-0.48718,-0.48013,-0.47218,-0.46325,-0.45363,-0.44383,-0.43363,-0.42316,-0.41274,-0.40231,-0.39249,-0.38281,-0.37343,-0.36478,-0.35644,-0.34854,-0.34119,-0.33416,-0.32758,-0.32133,-0.31519,-0.30909,-0.30322,-0.29753,-0.29185,-0.2859,-0.27958,-0.27293,-0.26592,-0.25789,-0.25002,-0.24059,-0.23065,-0.21983,-0.20826,-0.1952,-0.18144,-0.16632,-0.15049,-0.13351,-0.11546,-0.096323,-0.076378,-0.05564,-0.033976,-0.011825,0.011177,0.035148,0.059075,0.083377,0.10862,0.13329,0.15825,0.18244,0.20688,0.22982,0.25298,0.27498,0.29611,0.3164,0.33623,0.35444,0.37183,0.38778,0.40188,0.41499,0.42685,0.43673,0.44522,0.45245,0.45808,0.46162,0.46399,0.4649,0.46465,0.46257,0.45933,0.45495,0.44975,0.44322,0.43572,0.42727,0.41824,0.40855,0.39841,0.38805,0.3772,0.36624,0.3551,0.3438,0.33309,0.32239,0.31238,0.30289,0.29368,0.2854,0.27752,0.27065,0.26453,0.25919,0.25459,0.25094,0.24828,0.24657,0.24566,0.24579,0.24667,0.24852,0.25107,0.25459,0.25865,0.26356,0.26928,0.27536,0.28203,0.28933,0.2971,0.30513,0.31352,0.32236,0.33111,0.34005,0.34871,0.35759,0.36625,0.37469,0.3829,0.39049,0.39813,0.40517,0.41149,0.41724,0.42285,0.42759,0.43185,0.43557,0.43815,0.44019,0.44186,0.44248,0.44257,0.44191,0.44072,0.43892,0.43663,0.43353,0.43017,0.42616,0.42168,0.4168,0.4116,0.40629,0.40087,0.39511,0.38942,0.3836,0.37772,0.37199,0.36654,0.36132,0.35626,0.35138,0.34686,0.34255,0.33877,0.33521,0.33212,0.32933,0.32697,0.32514,0.32361,0.32264,0.32219,0.32213,0.32255,0.32328,0.32458,0.32605,0.32798,0.33009,0.33264,0.33526,0.33837,0.34148,0.34476,0.3481,0.35171,0.35517,0.35859,0.36211,0.36534,0.3686,0.37169,0.37442,0.37735,0.37987,0.3823,0.38428,0.38626,0.38793,0.38925,0.39052,0.3914,0.39198,0.39222,0.39242,0.39225,0.3918,0.391,0.39006,0.3888,0.38743,0.38571,0.38398,0.38207,0.37996,0.37781,0.37546,0.37328,0.37079,0.3686,0.36618,0.3638,0.36151,0.35908,0.35706,0.35497,0.35305,0.35107,0.34934,0.34787,0.34651,0.34521,0.344,0.34304,0.34226,0.34154,0.34114,0.34093,0.34088,0.34099
0.23366,0.2337,0.23384,0.23385,0.2339,0.23389,0.23398,0.23405,0.23403,0.23402,0.23392,0.23409,0.23427,0.2342,0.23435,0.23455,0.23469,0.23491,0.23516,0.23544,0.23586,0.23625,0.23646,0.23664,0.23656,0.23644,0.23622,0.23581,0.23532,0.23479,0.23431,0.23362,0.23299,0.23251,0.2319,0.23136,0.23111,0.23071,0.23045,0.23031,0.23036,0.23043,0.23042,0.23063,0.2307,0.23101,0.23112,0.23134,0.23148,0.23163,0.23176,0.2318,0.23173,0.23137,0.2307,0.23102,0.23478,0.24371,0.25809,0.27806,0.30365,0.33423,0.36913,0.40797,0.44944,0.49298,0.53809,0.58447,0.63164,0.6786,0.72617,0.7734,0.82019,0.86647,0.91199,0.95669,1.0002,1.0426,1.0836,1.1231,1.1609,1.1971,1.231,1.263,1.2927,1.3205,1.3462,1.3697,1.3912,1.4106,1.4281,1.4438,1.4579,1.4702,1.4811,1.4909,1.4994,1.5069,1.5136,1.5195,1.5248,1.5295,1.5335,1.5373,1.5405,1.5433,1.5458,1.5478,1.5496,1.551,1.5521,1.5529,1.5536,1.5541,1.5547,1.555,1.5553,1.5554,1.5555,1.5555,1.5555,1.5558,1.5562,1.5566,1.5575,1.5584,1.5596,1.5611,1.5629,1.5652,1.5676,1.5701,1.573,1.5761,1.5792,1.5825,1.5859,1.5894,1.5929,1.5965,1.6002,1.604,1.6078,1.6117,1.6156,1.6197,1.6236,1.6273,1.631,1.6344,1.6376,1.6406,1.6432,1.6456,1.6475,1.6491,1.6504,1.6513,1.652,1.6523,1.6524,1.6522,1.6516,1.6509,1.65,1.6488,1.6476,1.6462,1.6447,1.6431,1.6413,1.6396,1.6378,1.6361,1.6345,1.6328,1.6312,1.6295,1.6278,1.6261,1.6245,1.623,1.6216,1.6204,1.6192,1.618,1.617,1.6161,1.6153,1.6146,1.6141,1.6137,1.6135,1.6135,1.6137,1.6141,1.6146,1.6151,1.6157,1.6164,1.6171,1.6179,1.6189,1.62,1.6214,1.6227,1.6241,1.6255,1.6268,1.6281,1.6292,1.6304,1.6314,1.6325,1.6335,1.6345,1.6356,1.6366,1.6376,1.6385,1.6395,1.6403,1.641,1.6417,1.6422,1.6425,1.6428,1.643,1.6432,1.6432,1.6432,1.6431,1.6429,1.6427,1.6423,1.6419,1.6415,1.6409,1.6404,1.6397,1.6388,1.638,1.6371,1.6363,1.6354,1.6346,1.6337,1.6328,1.632,1.6312,1.6305,1.6298,1.6291,1.6285,1.6279,1.6274,1.627,1.6267,1.6266,1.6266,1.6267,1.6269,1.627,1.6272,1.6274,1.6276,1.6278,1.628,1.6283,1.6285,1.6287,1.6289,1.6289,1.6289,1.6288,1.6289,1.629,1.6293,1.6296,1.63,1.6302,1.6304,1.6307,1.6309,1.6312,1.6315,1.6318,1.632,1.6323,1.6327,1.633,1.6333,1.6337,1.6339,1.634,1.6341,1.6343,1.6345,1.6345,1.6345,1.6344
