0.273415,0.273419,0.273425,0.27343,0.273434,0.273437,0.273438,0.273439,0.273437,0.273435,0.273432,0.273427,0.273421,0.273413,0.273405,0.273395,0.273384,0.273371,0.273359,0.273344,0.273329,0.273312,0.273295,0.273276,0.273257,0.273236,0.273214,0.273192,0.273168,0.273168,0.273143,0.273091,0.273064,0.273035,0.273007,0.272976,0.272946,0.272914,0.272881,0.272848,0.272814,0.272779,0.272743,0.272707,0.272667
0.00190859,0.00190607,0.00190465,0.00190614,0.00190961,0.00191409,0.00192126,0.0019272,0.00193621,0.00194587,0.00195756,0.00197017,0.00198576,0.00200143,0.00201887,0.00203825,0.00205861,0.00208003,0.00210144,0.00212797,0.00215066,0.00217912,0.00220601,0.00223571,0.00226765,0.00229887,0.00233383,0.00236879,0.00240582,0.00240582,0.00244385,0.00252397,0.00256288,0.00260696,0.00264842,0.00269303,0.00273841,0.00278381,0.00282949,0.00287735,0.00292285,0.00297469,0.00301978,0.00306509,0.00312742
-0.000305414,-0.000304812,-0.000305264,-0.000305192,-0.000306004,-0.000306597,-0.000306666,-0.000306017,-0.000305364,-0.000303701,-0.000301383,-0.000297738,-0.000295999,-0.000290761,-0.000286577,-0.000282356,-0.000276531,-0.000271539,-0.000265643,-0.000259392,-0.00025324,-0.000246904,-0.000240305,-0.000232992,-0.00022526,-0.00021798,-0.00021059,-0.000200755,-0.000195106,-0.000195106,-0.000184699,-0.000168108,-0.000160439,-0.000150644,-0.00014121,-0.000133786,-0.000122024,-0.00011425,-0.000106608,-9.41832e-05,-8.37664e-05,-7.62533e-05,-6.58513e-05,-5.50535e-05,-4.95921e-05
0.273968,0.273972,0.273976,0.273979,0.273981,0.273982,0.273983,0.273983,0.273982,0.27398,0.273978,0.273975,0.273971,0.273967,0.273962,0.273956,0.27395,0.273943,0.273936,0.273927,0.273919,0.273909,0.273899,0.273889,0.273877,0.273866,0.273853,0.273841,0.273827,0.273827,0.273813,0.273784,0.273769,0.273753,0.273737,0.273719,0.273703,0.273684,0.273666,0.273647,0.273628,0.273608,0.273588,0.273568,0.273544
0.000637841,0.000636196,0.000636368,0.000638436,0.000640549,0.000643387,0.000647019,0.000650107,0.000653867,0.000658036,0.000663201,0.000669035,0.000675175,0.000682299,0.000689049,0.000697605,0.00070573,0.000713311,0.000723541,0.00073252,0.000742132,0.000753078,0.00076322,0.000775776,0.000787149,0.000800161,0.000812856,0.000826856,0.000840629,0.000840629,0.000854755,0.000884379,0.00089948,0.000915198,0.000930321,0.000947566,0.000963215,0.000980015,0.000998597,0.00101287,0.00103235,0.00105174,0.00106418,0.00108447,0.00111201
0.000529609,0.000527947,0.000525571,0.000521722,0.00051922,0.000517028,0.000515903,0.000514385,0.000513946,0.000514878,0.000516345,0.000518162,0.000521147,0.000524853,0.000529056,0.000533792,0.00053894,0.000545541,0.000551427,0.000558198,0.000566298,0.000573808,0.000582227,0.000591705,0.000601014,0.000611326,0.000621717,0.000632134,0.000644239,0.000644239,0.000655895,0.000680574,0.00069312,0.000706794,0.000720705,0.000735352,0.00074946,0.000765889,0.000782179,0.000798605,0.000815657,0.000833064,0.000852245,0.000870357,0.000888394
0.274557,0.274559,0.27456,0.27456,0.27456,0.27456,0.274559,0.274559,0.274558,0.274557,0.274556,0.274554,0.274553,0.274551,0.274549,0.274548,0.274546,0.274543,0.274542,0.274538,0.274537,0.274533,0.274531,0.274528,0.274525,0.274522,0.274518,0.274515,0.274512,0.274512,0.274508,0.2745,0.274497,0.274493,0.274489,0.274485,0.274481,0.274476,0.274472,0.274467,0.274464,0.274458,0.274454,0.27445,0.274442
-0.000161873,-0.000162568,-0.00016249,-0.000161665,-0.000160756,-0.000160363,-0.000157596,-0.000157235,-0.000156074,-0.000154315,-0.000151837,-0.00015003,-0.000146689,-0.000143819,-0.000140766,-0.000137271,-0.000134002,-0.000130262,-0.000127156,-0.000122844,-0.000119318,-0.000115565,-0.000110716,-0.000106914,-0.000101728,-9.76071e-05,-9.30403e-05,-8.80845e-05,-8.39056e-05,-8.39056e-05,-7.91511e-05,-7.06285e-05,-6.58916e-05,-6.16642e-05,-5.64996e-05,-5.25394e-05,-4.71625e-05,-4.14678e-05,-3.7722e-05,-3.15423e-05,-2.52346e-05,-2.12919e-05,-1.5089e-05,-8.92568e-06,2.05505e-06
0.000599668,0.000598711,0.000596445,0.000594198,0.00059367,0.000593035,0.000593288,0.000593062,0.00059337,0.000595058,0.000596688,0.000598338,0.000600976,0.000604151,0.000607035,0.00061076,0.000614912,0.000618805,0.00062399,0.000627658,0.00063479,0.000638866,0.00064449,0.000652411,0.000657617,0.000665958,0.000671813,0.000679795,0.000688477,0.000688477,0.000695612,0.000713137,0.000722563,0.000731407,0.000741589,0.000752086,0.000761334,0.000773965,0.000785635,0.000793803,0.00081026,0.000821673,0.00083144,0.000847222,0.000865093
0.27486,0.274861,0.27486,0.274859,0.274859,0.274858,0.274858,0.274858,0.274858,0.274859,0.274859,0.27486,0.274861,0.274862,0.274863,0.274865,0.274867,0.274869,0.274871,0.274873,0.274876,0.274878,0.274881,0.274884,0.274887,0.27489,0.274893,0.274897,0.274901,0.274901,0.274905,0.274913,0.274918,0.274922,0.274927,0.274931,0.274936,0.274942,0.274947,0.274952,0.274958,0.274963,0.274969,0.274975,0.27498
-0.000945277,-0.000944622,-0.000943524,-0.000941827,-0.00094148,-0.000941095,-0.000940931,-0.00094266,-0.000944317,-0.000946978,-0.000949966,-0.000953278,-0.000957799,-0.000961798,-0.000968359,-0.000973102,-0.000980241,-0.000988093,-0.000995492,-0.00100281,-0.00101421,-0.00102186,-0.00103337,-0.00104281,-0.00105458,-0.0010675,-0.00107934,-0.00109304,-0.001108,-0.001108,-0.00112131,-0.0011528,-0.00117159,-0.00118587,-0.00120607,-0.00122169,-0.00124003,-0.00126044,-0.00127762,-0.00129583,-0.00131718,-0.00133381,-0.00135682,-0.00137464,-0.00139071
-6.49674e-05,-6.64588e-05,-6.7981e-05,-6.88572e-05,-6.89069e-05,-6.83093e-05,-6.83807e-05,-6.95975e-05,-6.93642e-05,-6.93282e-05,-6.9644e-05,-7.03852e-05,-6.95572e-05,-7.05822e-05,-7.11842e-05,-7.06633e-05,-7.17975e-05,-7.20275e-05,-7.31829e-05,-7.29803e-05,-7.47566e-05,-7.506e-05,-7.69376e-05,-7.70139e-05,-7.85145e-05,-8.00803e-05,-8.10865e-05,-8.35716e-05,-8.36636e-05,-8.36636e-05,-8.60931e-05,-8.83345e-05,-9.16561e-05,-9.25555e-05,-9.56397e-05,-9.53353e-05,-9.84415e-05,-9.93374e-05,-0.00010057,-0.000103086,-0.000104623,-0.000103461,-0.000106928,-0.000108053,-0.000105449
0.274886,0.274886,0.274885,0.274884,0.274884,0.274883,0.274883,0.274883,0.274883,0.274884,0.274884,0.274885,0.274886,0.274888,0.274889,0.274891,0.274892,0.274894,0.274897,0.274899,0.274902,0.274904,0.274907,0.27491,0.274913,0.274917,0.27492,0.274924,0.274928,0.274928,0.274932,0.27494,0.274945,0.274949,0.274954,0.274959,0.274964,0.274969,0.274975,0.27498,0.274986,0.274991,0.274998,0.275004,0.275009
-0.000845385,-0.000844601,-0.000843952,-0.000844185,-0.00084486,-0.000846322,-0.00084787,-0.000850035,-0.000853973,-0.000857662,-0.000861874,-0.000867169,-0.00087271,-0.000878606,-0.000886081,-0.000892732,-0.000901472,-0.000910557,-0.000917635,-0.000930181,-0.000938644,-0.000950918,-0.000961484,-0.000973102,-0.00098764,-0.000999677,-0.00101488,-0.00102952,-0.00104505,-0.00104505,-0.00106161,-0.00109667,-0.00111181,-0.0011319,-0.00114971,-0.00116764,-0.00118848,-0.00120646,-0.00122378,-0.00124681,-0.00126262,-0.00128555,-0.00130539,-0.00131814,-0.00134017
2.42118e-05,2.34877e-05,2.34597e-05,2.2916e-05,2.42948e-05,2.44509e-05,2.46349e-05,2.47036e-05,2.47097e-05,2.49399e-05,2.46114e-05,2.44552e-05,2.42829e-05,2.33879e-05,2.27948e-05,2.29229e-05,2.14059e-05,1.98586e-05,2.08949e-05,1.71535e-05,1.74556e-05,1.57423e-05,1.23405e-05,1.37789e-05,8.97599e-06,8.97686e-06,5.86e-06,2.98126e-06,2.82579e-06,2.82579e-06,-1.44194e-06,-4.81738e-06,-7.65148e-06,-1.06016e-05,-1.36337e-05,-1.29819e-05,-1.92506e-05,-2.00186e-05,-1.92123e-05,-2.84794e-05,-2.56879e-05,-2.60854e-05,-3.49939e-05,-3.13624e-05,-3.26538e-05
0.274881,0.27488,0.27488,0.274879,0.274879,0.274879,0.274879,0.274879,0.27488,0.274881,0.274882,0.274884,0.274886,0.274887,0.274889,0.274891,0.274894,0.274897,0.274899,0.274902,0.274905,0.274908,0.274912,0.274916,0.274919,0.274924,0.274927,0.274932,0.274937,0.274937,0.274941,0.274951,0.274957,0.274962,0.274967,0.274973,0.274978,0.274985,0.274991,0.274996,0.275003,0.275009,0.275016,0.275022,0.275028
-0.000992549,-0.000991412,-0.000990306,-0.000988662,-0.000987774,-0.000987736,-0.000986413,-0.000987902,-0.000989157,-0.000991227,-0.000993784,-0.00099757,-0.00100056,-0.00100534,-0.00101156,-0.00101563,-0.00102343,-0.00102986,-0.0010378,-0.00104503,-0.00105626,-0.00106353,-0.00107491,-0.00108507,-0.0010969,-0.00110983,-0.00112111,-0.0011364,-0.00114978,-0.00114978,-0.00116362,-0.00119439,-0.00121278,-0.00122771,-0.00124807,-0.00126234,-0.00128173,-0.00130056,-0.00131762,-0.00133666,-0.00135959,-0.00137549,-0.0013953,-0.00141466,-0.00143631
0.000291031,0.000290659,0.000289694,0.000290289,0.000290895,0.0002918,0.000294093,0.00029544,0.000298069,0.000300828,0.000303887,0.000307116,0.000311419,0.000315084,0.000319746,0.000325127,0.000329341,0.000335193,0.000340798,0.000346194,0.000352464,0.000358592,0.000364478,0.000372726,0.00037839,0.000386337,0.000393519,0.000400682,0.000410422,0.000410422,0.000417043,0.000436038,0.000443684,0.000453497,0.000462608,0.00047423,0.000481542,0.000494011,0.000504573,0.000512324,0.000526352,0.000538174,0.000545359,0.000559613,0.000572648
0.274804,0.274804,0.274804,0.274804,0.274804,0.274805,0.274805,0.274806,0.274807,0.274808,0.274809,0.27481,0.274811,0.274812,0.274814,0.274815,0.274817,0.274818,0.27482,0.274821,0.274824,0.274825,0.274827,0.27483,0.274832,0.274834,0.274836,0.274839,0.274842,0.274842,0.274844,0.27485,0.274853,0.274856,0.27486,0.274862,0.274865,0.274869,0.274872,0.274875,0.274879,0.274882,0.274885,0.274888,0.274891
-0.000687484,-0.000685651,-0.000682399,-0.000679897,-0.000677844,-0.000675497,-0.000674816,-0.000674145,-0.00067518,-0.000676727,-0.000679148,-0.000681547,-0.00068579,-0.000690584,-0.000695732,-0.00070124,-0.000708447,-0.000716725,-0.000722023,-0.000733973,-0.000741251,-0.000752229,-0.000763259,-0.000773071,-0.000787467,-0.000798144,-0.000812736,-0.000826271,-0.000840087,-0.000840087,-0.000856639,-0.000887529,-0.000902587,-0.000921756,-0.000938373,-0.000954658,-0.000975383,-0.000992937,-0.00101008,-0.00103607,-0.00105071,-0.00107163,-0.00109645,-0.00111104,-0.0011371
0.00037408,0.000373703,0.000375267,0.000375716,0.000377861,0.000380421,0.000382715,0.000385266,0.000388202,0.000391192,0.00039455,0.000397806,0.000401707,0.000405128,0.000409628,0.000413867,0.000417882,0.00042237,0.000427624,0.000431586,0.000436809,0.000442119,0.000446476,0.00045349,0.000457767,0.000464245,0.000470072,0.000476076,0.000483487,0.000483487,0.000489289,0.000504327,0.000510899,0.000518769,0.000526437,0.00053519,0.000541458,0.000550555,0.000559167,0.000565293,0.000576694,0.000584665,0.000589503,0.000601375,0.000610834
0.274773,0.274773,0.274773,0.274773,0.274773,0.274774,0.274774,0.274774,0.274775,0.274776,0.274776,0.274777,0.274777,0.274778,0.274779,0.27478,0.274781,0.274782,0.274782,0.274784,0.274785,0.274786,0.274787,0.274788,0.274789,0.274791,0.274792,0.274794,0.274795,0.274795,0.274797,0.2748,0.274802,0.274804,0.274806,0.274807,0.274809,0.274811,0.274812,0.274815,0.274817,0.274818,0.27482,0.274822,0.274823
-0.000170192,-0.000168189,-0.000166835,-0.00016492,-0.00016263,-0.000161276,-0.000158349,-0.000156592,-0.000154987,-0.000153183,-0.000151082,-0.000149314,-0.0001478,-0.00014537,-0.000143924,-0.00014211,-0.000140598,-0.000138276,-0.000137607,-0.000135303,-0.000134641,-0.000133216,-0.00013117,-0.000130706,-0.000128954,-0.000128287,-0.000126813,-0.000125056,-0.000125372,-0.000125372,-0.000122913,-0.000120929,-0.000120905,-0.000119151,-0.000118281,-0.000118151,-0.000115833,-0.000115121,-0.000117289,-0.000113902,-0.000113824,-0.00011571,-0.000112444,-0.000112127,-0.000118079
0.00048331,0.00048479,0.000484731,0.000485775,0.000488055,0.000489584,0.000491711,0.000493722,0.000496422,0.000499199,0.000501915,0.000504831,0.000508209,0.000511684,0.000515062,0.000519605,0.000522791,0.00052746,0.000531697,0.000536011,0.000540732,0.000546027,0.000550266,0.000556775,0.000561407,0.000567641,0.000573646,0.000579168,0.00058705,0.00058705,0.000593197,0.000608374,0.000614424,0.000623324,0.000630118,0.00064001,0.00064568,0.000654932,0.000664649,0.000671855,0.000681247,0.000691431,0.000697266,0.000706968,0.000717397
0.274716,0.274716,0.274716,0.274716,0.274717,0.274717,0.274716,0.274716,0.274716,0.274715,0.274715,0.274714,0.274714,0.274713,0.274712,0.274711,0.27471,0.27471,0.274709,0.274707,0.274707,0.274705,0.274704,0.274703,0.274702,0.274701,0.274699,0.274698,0.274697,0.274697,0.274696,0.274693,0.274692,0.27469,0.274689,0.274687,0.274686,0.274684,0.274683,0.274681,0.27468,0.274678,0.274677,0.274675,0.274672
0.000363911,0.000364961,0.000366932,0.000369369,0.000370954,0.000372559,0.000374445,0.000375707,0.00037635,0.000376893,0.000377421,0.000377838,0.000377509,0.000377897,0.000377496,0.00037685,0.000376761,0.000375549,0.000374976,0.000374213,0.000372723,0.000371714,0.000370928,0.000369414,0.000368451,0.000366837,0.000365714,0.000365252,0.000362501,0.000362501,0.000362489,0.00035928,0.000358319,0.000357301,0.000356277,0.000354033,0.000354456,0.000351622,0.000349536,0.000350205,0.000348307,0.000345065,0.000344802,0.00034353,0.000340195
0.000643852,0.000643773,0.000644347,0.000646495,0.00064842,0.000651144,0.000652976,0.000656032,0.000659751,0.000663285,0.000666848,0.000671015,0.000675913,0.000680201,0.00068499,0.000691544,0.000696364,0.000701742,0.000708909,0.000714784,0.000721472,0.000729048,0.00073546,0.000744324,0.000751846,0.000760729,0.000769296,0.000778204,0.000789062,0.000789062,0.000797935,0.00081936,0.000829956,0.000840948,0.000851563,0.000865098,0.000874179,0.000886371,0.000901006,0.000910126,0.000923798,0.000938578,0.000945389,0.000959069,0.000979634
0.274628,0.274628,0.274628,0.274628,0.274628,0.274628,0.274627,0.274627,0.274627,0.274626,0.274626,0.274625,0.274624,0.274623,0.274621,0.27462,0.274619,0.274617,0.274616,0.274614,0.274613,0.27461,0.274609,0.274607,0.274605,0.274603,0.274601,0.274599,0.274596,0.274596,0.274594,0.274589,0.274587,0.274584,0.274582,0.274579,0.274576,0.274573,0.27457,0.274568,0.274565,0.27456,0.274558,0.274555,0.274549
0.000594736,0.000595676,0.000597026,0.000597644,0.00059828,0.000598806,0.000599744,0.000600262,0.000600299,0.000600693,0.000601148,0.000601421,0.000601773,0.000602494,0.000603006,0.000602953,0.000604006,0.000604244,0.000605129,0.00060529,0.000606716,0.000606879,0.000608786,0.000609479,0.000610723,0.000612319,0.000613734,0.000615749,0.000617138,0.000617138,0.000619414,0.000622729,0.000626649,0.00062851,0.000631923,0.000633575,0.0006373,0.000639998,0.000643667,0.000647785,0.000651005,0.000652662,0.000658558,0.000662464,0.000666367
0.000125756,0.00012582,0.000126559,0.000127957,0.000130027,0.000132062,0.000134641,0.000137223,0.000141495,0.000145017,0.000149029,0.000153767,0.00015951,0.000163804,0.000169822,0.000177161,0.000182108,0.000189048,0.000196002,0.000203821,0.000209425,0.000219606,0.000225291,0.000235116,0.000243604,0.00025205,0.000262409,0.000270195,0.000282166,0.000282166,0.000291187,0.00031336,0.000321339,0.000333576,0.000342446,0.000356822,0.000364686,0.000376041,0.000390359,0.000399369,0.000409077,0.00042666,0.000432042,0.000442437,0.00046085
0.274649,0.274649,0.274649,0.274649,0.274649,0.274649,0.274648,0.274648,0.274648,0.274648,0.274648,0.274648,0.274647,0.274647,0.274646,0.274646,0.274646,0.274645,0.274644,0.274644,0.274644,0.274643,0.274643,0.274642,0.274641,0.274641,0.27464,0.27464,0.274639,0.274639,0.274639,0.274637,0.274637,0.274636,0.274636,0.274635,0.274634,0.274633,0.274632,0.274632,0.27463,0.274629,0.274628,0.274626,0.274625
0.000414443,0.000415303,0.000415859,0.00041719,0.000417799,0.000418222,0.000419469,0.000420409,0.000421129,0.000421999,0.000423205,0.000424061,0.000425425,0.000427306,0.000428004,0.000429478,0.000431575,0.000432561,0.000434211,0.000436643,0.000438086,0.000439674,0.000443381,0.000444447,0.000447855,0.000449957,0.000452852,0.000456691,0.000458348,0.000458348,0.000462533,0.000467705,0.000472894,0.000476147,0.000480068,0.000482445,0.000488395,0.000491658,0.000495537,0.000501971,0.000505029,0.00050761,0.00051454,0.00051886,0.000528611
0.00020308,0.000203214,0.000203054,0.000204651,0.000206488,0.000209138,0.000211661,0.000215206,0.000219695,0.000224368,0.000229538,0.000235888,0.000242321,0.000249075,0.000256615,0.000265879,0.00027301,0.000281952,0.000291894,0.00030067,0.0003113,0.000321774,0.000332033,0.000344256,0.000355984,0.000368942,0.000380814,0.000394117,0.000408687,0.000408687,0.000420934,0.000450277,0.00046402,0.000478191,0.000493522,0.000510459,0.000522745,0.000540133,0.000557143,0.000569168,0.000588664,0.000607052,0.000616874,0.000634371,0.000657849
0.274585,0.274585,0.274586,0.274585,0.274585,0.274584,0.274584,0.274584,0.274583,0.274583,0.274582,0.274582,0.274581,0.274581,0.274581,0.27458,0.27458,0.274579,0.274578,0.274578,0.274578,0.274577,0.274577,0.274576,0.274575,0.274575,0.274574,0.274574,0.274573,0.274573,0.274572,0.274571,0.274571,0.27457,0.27457,0.274568,0.274568,0.274567,0.274565,0.274565,0.274564,0.274561,0.274562,0.27456,0.274558
-0.000539998,-0.00053919,-0.000537255,-0.000535786,-0.000535474,-0.000535318,-0.000535124,-0.000535745,-0.000537317,-0.000539313,-0.000541368,-0.000544347,-0.000547397,-0.000551317,-0.000555353,-0.000560677,-0.000565357,-0.000571369,-0.000577349,-0.000583633,-0.00059111,-0.000598287,-0.000605207,-0.000614552,-0.000622399,-0.000632176,-0.000641076,-0.000650807,-0.000662341,-0.000662341,-0.00067213,-0.000696233,-0.000706681,-0.000719757,-0.000731798,-0.000746263,-0.000757377,-0.000772186,-0.000786293,-0.000798161,-0.000814537,-0.00083086,-0.000841797,-0.000857115,-0.000873762
-0.000199829,-0.000200591,-0.000201223,-0.000200841,-0.000199486,-0.000197921,-0.000195982,-0.000193927,-0.000190507,-0.000186886,-0.00018278,-0.000178517,-0.000173147,-0.000167815,-0.000162524,-0.000154882,-0.000149757,-0.000142455,-0.000136085,-0.000127543,-0.000121671,-0.000111889,-0.000105651,-9.58906e-05,-8.65688e-05,-7.83271e-05,-6.85469e-05,-5.97116e-05,-4.97141e-05,-4.97141e-05,-3.94868e-05,-1.90942e-05,-1.23653e-05,-2.02851e-07,8.3884e-06,2.09604e-05,2.98228e-05,4.05646e-05,5.18223e-05,6.27175e-05,7.34034e-05,8.79861e-05,9.46007e-05,0.000105104,0.000123838
0.274577,0.274577,0.274577,0.274576,0.274575,0.274574,0.274574,0.274574,0.274573,0.274573,0.274572,0.274572,0.274571,0.274571,0.274571,0.27457,0.27457,0.274569,0.274569,0.274569,0.274568,0.274568,0.274568,0.274567,0.274567,0.274566,0.274567,0.274566,0.274565,0.274565,0.274565,0.274564,0.274564,0.274564,0.274563,0.274562,0.274563,0.274562,0.274561,0.274561,0.274559,0.274558,0.274559,0.274558,0.274556
-0.000894923,-0.00089241,-0.000890326,-0.000889009,-0.000889029,-0.000889107,-0.000889503,-0.000890947,-0.000894045,-0.000897011,-0.000901019,-0.000905286,-0.000911961,-0.000916708,-0.000924752,-0.00093225,-0.000940461,-0.000949581,-0.000959057,-0.000969855,-0.000980306,-0.000992241,-0.00100434,-0.00101741,-0.00103128,-0.00104525,-0.00106058,-0.00107568,-0.0010935,-0.0010935,-0.00110875,-0.00114543,-0.00116422,-0.00118288,-0.00120323,-0.00122354,-0.00124323,-0.00126546,-0.00128705,-0.00130808,-0.00133151,-0.00135503,-0.00137566,-0.00139899,-0.00142965
-0.000785507,-0.000785499,-0.000785553,-0.000784683,-0.000783291,-0.000782237,-0.000782155,-0.000782096,-0.000782193,-0.00078206,-0.000782799,-0.000783425,-0.000784636,-0.000786062,-0.00078727,-0.000789104,-0.000791984,-0.000793972,-0.000797237,-0.000801051,-0.000802939,-0.000808907,-0.00081172,-0.000816943,-0.000820865,-0.000825924,-0.00083291,-0.000837765,-0.000844411,-0.000844411,-0.000852036,-0.000866979,-0.00087436,-0.000884364,-0.000890286,-0.000900427,-0.000910024,-0.000917848,-0.000929182,-0.000938112,-0.000944491,-0.000957668,-0.000967067,-0.000977318,-0.000988727
0.274483,0.274483,0.274483,0.274482,0.274482,0.274481,0.27448,0.274479,0.274478,0.274477,0.274475,0.274474,0.274472,0.27447,0.274469,0.274465,0.274464,0.274462,0.274459,0.274456,0.274454,0.274451,0.274449,0.274445,0.274442,0.274438,0.274435,0.274432,0.274428,0.274428,0.274423,0.274415,0.274412,0.274407,0.274404,0.274398,0.274395,0.27439,0.274384,0.274379,0.274375,0.274368,0.274365,0.27436,0.274352
-0.000198218,-0.000197238,-0.000197044,-0.000196619,-0.000197227,-0.00019791,-0.000198106,-0.000199834,-0.000200892,-0.000203025,-0.000204974,-0.000207437,-0.000209269,-0.000212544,-0.000215886,-0.000218453,-0.000222309,-0.000226123,-0.000230456,-0.00023297,-0.000239481,-0.000242675,-0.000247305,-0.000253007,-0.000257159,-0.000263834,-0.000268365,-0.000274805,-0.000281042,-0.000281042,-0.000287116,-0.000300422,-0.000307704,-0.000314035,-0.000322346,-0.000328795,-0.000335671,-0.000343964,-0.000351323,-0.000357414,-0.00036775,-0.00037317,-0.000381016,-0.000389665,-0.00039234
-0.000539609,-0.000539342,-0.000539032,-0.000538289,-0.000536318,-0.000534784,-0.000534961,-0.000534968,-0.000535035,-0.000534507,-0.000535269,-0.000536007,-0.000537118,-0.000537704,-0.000540422,-0.000540873,-0.000543887,-0.000546328,-0.000549174,-0.000552173,-0.000555651,-0.000558905,-0.000564318,-0.000567136,-0.00057171,-0.000576629,-0.000582109,-0.000587808,-0.000593725,-0.000593725,-0.000598767,-0.000612475,-0.000621584,-0.000627833,-0.000636809,-0.000642784,-0.000651902,-0.000661027,-0.000667811,-0.00067626,-0.000685592,-0.000692232,-0.000702656,-0.000712738,-0.000720511
0.274597,0.274597,0.274597,0.274597,0.274596,0.274595,0.274595,0.274594,0.274592,0.274591,0.27459,0.274589,0.274587,0.274586,0.274584,0.274582,0.274581,0.274579,0.274576,0.274575,0.274573,0.274571,0.274569,0.274566,0.274563,0.274561,0.274558,0.274556,0.274553,0.274553,0.27455,0.274544,0.274542,0.274539,0.274536,0.274531,0.27453,0.274526,0.274522,0.27452,0.274515,0.274511,0.274509,0.274505,0.2745
-0.000892756,-0.000891629,-0.000890247,-0.000889618,-0.000890462,-0.000891467,-0.000892799,-0.000894538,-0.000898189,-0.000902275,-0.000906686,-0.00091148,-0.000918663,-0.000924705,-0.00093224,-0.000940599,-0.000949295,-0.000959287,-0.000967794,-0.000979905,-0.000990908,-0.0010023,-0.00101557,-0.0010278,-0.00104303,-0.00105714,-0.00107253,-0.00108826,-0.00110615,-0.00110615,-0.00112232,-0.00115905,-0.00117793,-0.00119685,-0.00121688,-0.00123682,-0.00125725,-0.00127956,-0.00130005,-0.00132234,-0.00134323,-0.0013669,-0.00139003,-0.00140853,-0.00143877
-0.00043421,-0.000433589,-0.000433276,-0.000432222,-0.000430107,-0.000428934,-0.00043011,-0.000430361,-0.000430441,-0.000430636,-0.000432133,-0.000433307,-0.000434474,-0.000437552,-0.000439068,-0.000441557,-0.000445397,-0.000448411,-0.000451824,-0.000457331,-0.000459388,-0.000466421,-0.000470462,-0.000475709,-0.000481431,-0.000486556,-0.000494362,-0.00050083,-0.000506117,-0.000506117,-0.000516078,-0.000530931,-0.000537995,-0.000549248,-0.000555383,-0.000564186,-0.000575645,-0.000582469,-0.000591652,-0.000604135,-0.000609771,-0.000620333,-0.000631297,-0.000640926,-0.000650689
0.274685,0.274684,0.274684,0.274683,0.274682,0.274681,0.27468,0.274679,0.274677,0.274675,0.274673,0.274671,0.274669,0.274667,0.274665,0.274661,0.27466,0.274657,0.274654,0.274651,0.274648,0.274645,0.274642,0.274639,0.274635,0.274632,0.274628,0.274625,0.274621,0.274621,0.274617,0.274609,0.274607,0.274602,0.274599,0.274594,0.27459,0.274587,0.274582,0.274577,0.274573,0.274568,0.274566,0.274562,0.274555
-0.000487272,-0.000486028,-0.000485556,-0.00048611,-0.000487521,-0.000488777,-0.000489449,-0.000491353,-0.000494645,-0.000497394,-0.00050062,-0.000504474,-0.00050969,-0.000513041,-0.000518548,-0.000524744,-0.000530101,-0.000535729,-0.000542764,-0.000550042,-0.000556154,-0.000565196,-0.000571577,-0.000581091,-0.000589933,-0.00059895,-0.000609092,-0.00061835,-0.000630372,-0.000630372,-0.000639759,-0.00066342,-0.000674074,-0.000685811,-0.000697089,-0.000711343,-0.000722247,-0.000735088,-0.0007499,-0.000759688,-0.000772894,-0.000790997,-0.000798754,-0.00081145,-0.00083464
-0.000280419,-0.000279883,-0.000278749,-0.00027635,-0.000273544,-0.000272412,-0.000272046,-0.000270197,-0.000268402,-0.00026691,-0.000265752,-0.000264199,-0.000263668,-0.000262254,-0.000261965,-0.000260515,-0.000260755,-0.000260357,-0.000260329,-0.000259842,-0.000260825,-0.000260687,-0.000261521,-0.000261502,-0.000261895,-0.00026313,-0.000264081,-0.000264558,-0.000266623,-0.000266623,-0.000267183,-0.000270105,-0.000273775,-0.000274587,-0.000277086,-0.000278489,-0.000280875,-0.000283694,-0.000286736,-0.000288429,-0.000290781,-0.000293086,-0.000297755,-0.000300315,-0.00030356
0.274819,0.274819,0.274819,0.274818,0.274818,0.274817,0.274816,0.274815,0.274815,0.274814,0.274813,0.274812,0.274812,0.274811,0.274811,0.274809,0.274809,0.274809,0.274808,0.274808,0.274807,0.274807,0.274806,0.274806,0.274805,0.274805,0.274805,0.274805,0.274804,0.274804,0.274804,0.274804,0.274804,0.274804,0.274804,0.274804,0.274805,0.274805,0.274804,0.274805,0.274805,0.274805,0.274806,0.274806,0.274804
-9.27405e-05,-9.13939e-05,-9.06158e-05,-9.0961e-05,-9.13558e-05,-9.16893e-05,-9.18838e-05,-9.31857e-05,-9.56824e-05,-9.76717e-05,-0.000100366,-0.000103889,-0.000107688,-0.000110725,-0.000115841,-0.000120916,-0.000124893,-0.000130892,-0.000136058,-0.000142285,-0.000147839,-0.000154991,-0.000161319,-0.000168404,-0.00017641,-0.000183886,-0.000192188,-0.000199986,-0.000209656,-0.000209656,-0.000216991,-0.000236369,-0.000244195,-0.000253454,-0.000263354,-0.000274134,-0.000282267,-0.000293674,-0.00030348,-0.000312194,-0.000323357,-0.000336573,-0.000344105,-0.000353742,-0.000366901
0.000126259,0.000126779,0.000127674,0.000128046,0.000128395,0.000127818,0.000126878,0.000127182,0.000126812,0.000126522,0.000125853,0.000124902,0.000124102,0.000122449,0.000121643,0.000120455,0.000117947,0.000116731,0.000115722,0.000111932,0.000111512,0.000108927,0.000106479,0.000105318,0.000101854,0.000100568,9.74917e-05,9.43271e-05,9.3074e-05,9.3074e-05,8.90486e-05,8.38908e-05,8.13072e-05,7.74645e-05,7.55489e-05,7.39036e-05,6.83798e-05,6.73606e-05,6.60595e-05,6.02538e-05,6.07983e-05,5.79095e-05,5.38105e-05,5.40934e-05,4.9718e-05
0.275122,0.275121,0.27512,0.275119,0.275118,0.275117,0.275116,0.275116,0.275115,0.275115,0.275115,0.275116,0.275116,0.275116,0.275118,0.275119,0.27512,0.275121,0.275123,0.275125,0.275127,0.27513,0.275132,0.275135,0.275138,0.275141,0.275145,0.275148,0.275152,0.275152,0.275156,0.275166,0.27517,0.275175,0.27518,0.275186,0.275191,0.275197,0.275203,0.275208,0.275214,0.275222,0.275227,0.275234,0.275241
-0.000417026,-0.000415502,-0.000414712,-0.000414778,-0.000415116,-0.000415299,-0.000416008,-0.000417345,-0.000420106,-0.000422431,-0.000425758,-0.00042956,-0.00043396,-0.000438206,-0.000443238,-0.000449924,-0.000454583,-0.000461435,-0.000467612,-0.00047592,-0.000481375,-0.000491735,-0.000498262,-0.000507952,-0.000517815,-0.000526796,-0.000537865,-0.000547385,-0.000558971,-0.000558971,-0.00056999,-0.000594231,-0.000603113,-0.000617266,-0.00062812,-0.000643319,-0.000654511,-0.000667974,-0.000682147,-0.000695089,-0.000708298,-0.000727464,-0.000736678,-0.000750054,-0.000771752
0.000145669,0.000147257,0.000148541,0.000149248,0.000150465,0.00015173,0.00015212,0.000153611,0.000154125,0.000155572,0.000156051,0.000156299,0.000156291,0.000156994,0.000156709,0.000156523,0.000156167,0.000156349,0.00015555,0.000153938,0.000155881,0.000152696,0.000153581,0.000152078,0.000151543,0.000151668,0.000149138,0.000149524,0.000148222,0.000148222,0.000147029,0.000144632,0.000144935,0.000142229,0.000143381,0.000140743,0.000139515,0.000139922,0.000136697,0.000135483,0.000137592,0.000132058,0.0001329,0.000131086,0.000126457
0.275211,0.27521,0.275209,0.275207,0.275206,0.275205,0.275205,0.275205,0.275205,0.275206,0.275207,0.275208,0.27521,0.275212,0.275215,0.275218,0.275221,0.275225,0.275229,0.275233,0.275238,0.275243,0.275248,0.275254,0.27526,0.275266,0.275273,0.27528,0.275288,0.275288,0.275295,0.275312,0.275321,0.27533,0.275339,0.275349,0.275358,0.275369,0.275379,0.275388,0.2754,0.275411,0.275421,0.275433,0.275445
-0.000180528,-0.000179333,-0.000178213,-0.000177817,-0.000177331,-0.000176835,-0.000176124,-0.000175903,-0.00017646,-0.000176591,-0.000177113,-0.000177683,-0.000178821,-0.000178895,-0.000180507,-0.000182078,-0.000182338,-0.000184289,-0.000185493,-0.000187238,-0.000188815,-0.000191197,-0.000192941,-0.000195266,-0.000198258,-0.000200606,-0.000203215,-0.00020547,-0.000209268,-0.000209268,-0.000210839,-0.000217444,-0.000219661,-0.000222608,-0.000226483,-0.000230635,-0.0002322,-0.000237044,-0.000240708,-0.000243583,-0.000249325,-0.000255004,-0.000256146,-0.000260379,-0.000270095
0.000251935,0.000253168,0.00025348,0.000254072,0.000255564,0.000256466,0.00025718,0.000257684,0.000258933,0.000259972,0.000260268,0.000260305,0.000261517,0.000261523,0.000261125,0.000262225,0.000262077,0.000262049,0.000261358,0.000262888,0.000261577,0.000262544,0.000261633,0.000262057,0.000262891,0.000262082,0.000262722,0.000262314,0.000262914,0.000262914,0.000263599,0.000264123,0.000263051,0.000264379,0.000263263,0.000264678,0.00026488,0.00026399,0.000265008,0.000266425,0.000264114,0.000267161,0.000266326,0.000263217,0.000269749
0.275119,0.275118,0.275117,0.275116,0.275115,0.275114,0.275115,0.275115,0.275116,0.275117,0.275119,0.275121,0.275124,0.275126,0.27513,0.275133,0.275137,0.275142,0.275146,0.275152,0.275157,0.275163,0.275168,0.275175,0.275182,0.275189,0.275196,0.275204,0.275212,0.275212,0.275221,0.275239,0.275248,0.275257,0.275267,0.275277,0.275287,0.275298,0.275309,0.27532,0.275331,0.275343,0.275354,0.275364,0.275379
0.000277561,0.000278301,0.000278374,0.000277801,0.000277444,0.000277656,0.000278197,0.000278768,0.000278814,0.000279777,0.00028061,0.000281582,0.000283003,0.000284719,0.000285859,0.000288059,0.000290364,0.000292052,0.000295836,0.000296663,0.000301048,0.000303115,0.000306092,0.000310204,0.00031196,0.000317081,0.000320138,0.000324099,0.000329058,0.000329058,0.000332952,0.000342412,0.000348928,0.000352841,0.000357853,0.000364256,0.000368892,0.000375531,0.000383238,0.000385021,0.000392852,0.000399015,0.000404631,0.00041344,0.000418483
-0.000151671,-0.000150871,-0.000150295,-0.000149747,-0.000149252,-0.000148931,-0.000149432,-0.000149246,-0.000149845,-0.000150476,-0.000151881,-0.000152757,-0.000154633,-0.000156863,-0.000158249,-0.000160942,-0.000163262,-0.000166909,-0.000167943,-0.000173629,-0.000174423,-0.000179499,-0.000183505,-0.000185763,-0.000191628,-0.000194238,-0.000200239,-0.000204555,-0.00020824,-0.00020824,-0.000215355,-0.000225463,-0.0002295,-0.000237133,-0.00024137,-0.000247007,-0.000255062,-0.000260059,-0.000264192,-0.000275653,-0.000277364,-0.000284358,-0.000295027,-0.00029829,-0.000303927
0.274864,0.274863,0.274862,0.274861,0.27486,0.27486,0.27486,0.27486,0.27486,0.274861,0.274861,0.274862,0.274863,0.274864,0.274865,0.274867,0.274868,0.27487,0.274872,0.274874,0.274876,0.274879,0.274881,0.274884,0.274887,0.27489,0.274893,0.274896,0.2749,0.2749,0.274903,0.274911,0.274915,0.274919,0.274923,0.274927,0.274931,0.274936,0.274941,0.274945,0.27495,0.274956,0.27496,0.274964,0.274972
-5.74088e-05,-5.71453e-05,-5.69758e-05,-5.71477e-05,-5.6839e-05,-5.60533e-05,-5.46047e-05,-5.35093e-05,-5.23234e-05,-5.06031e-05,-4.85611e-05,-4.66645e-05,-4.4053e-05,-4.18016e-05,-3.83394e-05,-3.61963e-05,-3.25434e-05,-2.88147e-05,-2.57649e-05,-2.23806e-05,-1.75499e-05,-1.5186e-05,-9.81266e-06,-6.54975e-06,-2.11653e-06,2.63337e-06,6.63569e-06,1.21284e-05,1.68014e-05,1.68014e-05,2.11741e-05,3.18628e-05,3.83309e-05,4.22378e-05,4.96135e-05,5.33294e-05,6.01465e-05,6.73761e-05,7.02976e-05,7.61847e-05,8.41957e-05,8.66003e-05,9.51169e-05,0.000101334,0.000103098
1.67785e-05,1.6584e-05,1.60448e-05,1.59347e-05,1.59138e-05,1.57493e-05,1.70119e-05,1.80665e-05,1.9672e-05,2.15964e-05,2.41383e-05,2.65636e-05,2.95362e-05,3.36903e-05,3.67785e-05,4.10999e-05,4.54223e-05,5.03483e-05,5.42844e-05,6.07375e-05,6.51779e-05,7.08825e-05,7.73958e-05,8.31516e-05,9.02099e-05,9.61933e-05,0.00010321,0.000110916,0.000117067,0.000117067,0.000125442,0.000140471,0.000147437,0.000156793,0.000164536,0.000172328,0.000182027,0.00019096,0.000198009,0.000209409,0.00021829,0.000226431,0.000236522,0.000246135,0.000258731
0.274799,0.274799,0.274798,0.274797,0.274797,0.274796,0.274797,0.274796,0.274797,0.274797,0.274797,0.274798,0.274799,0.2748,0.274801,0.274802,0.274804,0.274805,0.274807,0.274808,0.27481,0.274812,0.274814,0.274817,0.274819,0.274821,0.274824,0.274826,0.274829,0.274829,0.274832,0.274838,0.274841,0.274844,0.274847,0.274851,0.274854,0.274858,0.274862,0.274865,0.274869,0.274874,0.274876,0.274881,0.274888
-0.000110371,-0.000110178,-0.000109899,-0.00010957,-0.000108943,-0.000108317,-0.000107165,-0.000106585,-0.000106024,-0.000105421,-0.000104691,-0.000103848,-0.000103752,-0.000102166,-0.000102282,-0.000101243,-0.000100514,-9.98998e-05,-9.96065e-05,-9.80676e-05,-9.88707e-05,-9.72448e-05,-9.74814e-05,-9.65424e-05,-9.62035e-05,-9.62408e-05,-9.52187e-05,-9.46477e-05,-9.53787e-05,-9.53787e-05,-9.32868e-05,-9.25067e-05,-9.39925e-05,-9.161e-05,-9.3017e-05,-9.21461e-05,-9.08371e-05,-9.19439e-05,-9.23675e-05,-9.05245e-05,-9.22858e-05,-9.15245e-05,-9.14532e-05,-9.15987e-05,-9.44032e-05
-0.000221098,-0.000221189,-0.000220662,-0.00022076,-0.000220603,-0.000220936,-0.00022135,-0.000221913,-0.000222926,-0.000224176,-0.000225368,-0.000227486,-0.00022894,-0.00023159,-0.000233506,-0.00023656,-0.000239254,-0.000242319,-0.000245715,-0.000248917,-0.000252929,-0.000256704,-0.000260263,-0.000265145,-0.000268945,-0.000274254,-0.000278862,-0.000283812,-0.000289832,-0.000289832,-0.000294924,-0.000307206,-0.000312535,-0.000319304,-0.000324663,-0.000332342,-0.000337657,-0.000344822,-0.000352627,-0.000357423,-0.000364308,-0.00037345,-0.000378315,-0.000384944,-0.000392228
0.274653,0.274653,0.274653,0.274653,0.274652,0.274652,0.274652,0.274652,0.274653,0.274653,0.274653,0.274653,0.274653,0.274653,0.274653,0.274654,0.274654,0.274655,0.274655,0.274655,0.274655,0.274656,0.274657,0.274657,0.274658,0.274658,0.274659,0.274659,0.27466,0.27466,0.27466,0.274661,0.274662,0.274662,0.274663,0.274664,0.274664,0.274665,0.274665,0.274666,0.274666,0.274668,0.274668,0.274669,0.274671
0.000341914,0.000341332,0.000340887,0.000340355,0.00034003,0.000339754,0.000339706,0.00033957,0.000339321,0.00033923,0.000339493,0.000339455,0.000340408,0.000340094,0.000341472,0.000341712,0.000342478,0.000343416,0.000345186,0.000344839,0.000347506,0.000347845,0.000350189,0.000351675,0.000352698,0.00035542,0.00035698,0.000358794,0.000362183,0.000362183,0.000362914,0.000368067,0.000372922,0.000373859,0.000378392,0.000381294,0.000383491,0.000388748,0.00039322,0.000394551,0.000400977,0.000403611,0.000408214,0.000415024,0.000419851
-0.000527099,-0.000525952,-0.000525223,-0.000524743,-0.000524532,-0.000524838,-0.000525382,-0.000526722,-0.000529026,-0.000531151,-0.000534383,-0.000537695,-0.000542695,-0.000546412,-0.000552323,-0.000557835,-0.000564083,-0.000570656,-0.000577757,-0.000585674,-0.000593299,-0.000601706,-0.000611388,-0.000620054,-0.000630484,-0.000640552,-0.000651591,-0.000662963,-0.000675191,-0.000675191,-0.00068619,-0.000712004,-0.000726343,-0.000738865,-0.000753719,-0.000767346,-0.000782025,-0.00079794,-0.000812465,-0.000827242,-0.000843827,-0.000859361,-0.000874674,-0.000891412,-0.000913524
0.27455,0.27455,0.27455,0.27455,0.274551,0.274551,0.274551,0.274551,0.274551,0.27455,0.27455,0.27455,0.274549,0.274548,0.274547,0.274546,0.274545,0.274544,0.274543,0.274542,0.27454,0.274539,0.274537,0.274536,0.274534,0.274532,0.27453,0.274528,0.274526,0.274526,0.274524,0.274519,0.274517,0.274514,0.274512,0.274509,0.274506,0.274503,0.2745,0.274497,0.274494,0.274491,0.274488,0.274485,0.27448
5.3313e-05,5.33321e-05,5.42076e-05,5.54307e-05,5.68015e-05,5.76872e-05,5.93999e-05,6.04825e-05,6.18334e-05,6.29598e-05,6.44646e-05,6.57902e-05,6.71185e-05,6.87598e-05,6.99828e-05,7.13903e-05,7.28967e-05,7.44153e-05,7.54273e-05,7.76908e-05,7.81045e-05,8.05107e-05,8.16174e-05,8.33134e-05,8.49677e-05,8.61919e-05,8.84803e-05,8.99949e-05,9.14761e-05,9.14761e-05,9.38443e-05,9.76359e-05,9.84772e-05,0.000101618,0.000102496,0.000104603,0.000106958,0.000108441,0.000109934,0.000112507,0.000112878,0.000115452,0.000116779,0.00011794,0.000120313
0.00025498,0.000254556,0.000254327,0.000254553,0.000254644,0.000254958,0.00025534,0.000255139,0.000255836,0.000256024,0.000256463,0.000256902,0.000258329,0.000258325,0.000259722,0.000260529,0.000261809,0.000262703,0.000263748,0.000265788,0.000266834,0.000267894,0.000270586,0.000271445,0.000274171,0.000275571,0.00027771,0.000280098,0.000282681,0.000282681,0.000284021,0.000289083,0.000292873,0.000294646,0.000298426,0.000300527,0.000303994,0.000307453,0.000310223,0.000314134,0.000317694,0.000320875,0.00032436,0.000327416,0.00033712
0.274754,0.274755,0.274755,0.274755,0.274755,0.274755,0.274755,0.274755,0.274755,0.274756,0.274756,0.274756,0.274756,0.274757,0.274757,0.274758,0.274758,0.274759,0.274759,0.27476,0.274761,0.274761,0.274762,0.274762,0.274763,0.274764,0.274765,0.274766,0.274767,0.274767,0.274768,0.27477,0.274771,0.274772,0.274773,0.274774,0.274775,0.274777,0.274778,0.274779,0.27478,0.274781,0.274783,0.274784,0.274785
1.44279e-05,1.50597e-05,1.62075e-05,1.73412e-05,1.80705e-05,1.85962e-05,1.93091e-05,1.95702e-05,1.95946e-05,1.92033e-05,1.90014e-05,1.85603e-05,1.78732e-05,1.67085e-05,1.62669e-05,1.44802e-05,1.35186e-05,1.18132e-05,1.04834e-05,8.50941e-06,6.89961e-06,4.70225e-06,3.04498e-06,5.9964e-07,-1.68222e-06,-3.98015e-06,-6.56475e-06,-8.82894e-06,-1.1618e-05,-1.1618e-05,-1.4854e-05,-2.05055e-05,-2.26724e-05,-2.63368e-05,-2.85688e-05,-3.26694e-05,-3.55332e-05,-3.87379e-05,-4.2839e-05,-4.65947e-05,-4.91004e-05,-5.40319e-05,-5.81132e-05,-6.11264e-05,-6.47279e-05
-0.000314703,-0.000314669,-0.000314121,-0.000313828,-0.000313451,-0.000313417,-0.000313505,-0.000313518,-0.000314005,-0.000314609,-0.000315064,-0.000315666,-0.00031687,-0.000317469,-0.000318981,-0.000319983,-0.000321509,-0.000323494,-0.000324557,-0.000326581,-0.000329511,-0.000330351,-0.000333913,-0.000335395,-0.000338731,-0.000341697,-0.000344137,-0.000347656,-0.000351552,-0.000351552,-0.000353935,-0.000361704,-0.000366605,-0.000369446,-0.000375031,-0.000378312,-0.000382682,-0.000388506,-0.00039175,-0.000396546,-0.000402423,-0.000406174,-0.000412303,-0.000415694,-0.000421914
