0.30834,0.30852,0.30425,0.30193,0.3039,0.30658,0.30349,0.30218,0.30233,0.30212,0.30872,0.29969,0.30536,0.30056,0.30433,0.30471,0.30599,0.30251,0.30283,0.30412,0.30966,0.30686,0.30551,0.30514,0.30786,0.30581,0.30876,0.30881,0.30483,0.30669,0.30496,0.30585,0.30432,0.30141,0.3087,0.30752,0.30464,0.30739,0.30512,0.30698,0.30561,0.30237,0.30575,0.30722,0.30474,0.30354,0.30688,0.30274,0.30467,0.30769,0.30362,0.39316,0.41723,0.42188,0.41723,0.39819,0.38259,0.36337,0.34933,0.33616,0.32885,0.32001,0.31999,0.31472,0.30975,0.31131,0.30661,0.29936,0.30698,0.29689,0.29234,0.29574,0.29096,0.28628,0.288,0.29051,0.28534,0.28697,0.28123,0.28747,0.28513,0.28544,0.28829,0.29425,0.29185,0.2873,0.29684,0.30039,0.28974,0.2989,0.29646,0.2944,0.30257,0.30238,0.29747,0.29523,0.29901,0.29579,0.29444,0.29635,0.29057,0.29654,0.29917,0.29394,0.29921,0.30257,0.29725,0.30686,0.30281,0.30562,0.3006,0.30416,0.30706,0.30308,0.30601,0.31023,0.30646,0.30741,0.30774,0.30304,0.30414,0.30471,0.30253,0.29969,0.30002,0.30144,0.30297,0.3055,0.30206,0.30046,0.30015,0.30047,0.29916,0.30257,0.30141,0.30321,0.30304,0.30484,0.30679,0.30668,0.29944,0.30432,0.30546,0.30204,0.29922,0.30323,0.30279,0.30318,0.2992,0.30346,0.29968,0.30123,0.30053,0.3014,0.29873,0.30074,0.3015,0.29751,0.30473,0.30213,0.29938,0.30422,0.30544,0.29908,0.3035,0.30769,0.30061,0.30401,0.30338,0.30573,0.30476,0.30085,0.30388,0.30314,0.29685,0.30287,0.30205,0.3,0.29879,0.30484,0.29922,0.30039,0.30105,0.30361,0.29929,0.30174,0.30086,0.30293,0.29928,0.3039,0.30266,0.30137,0.30282,0.30324,0.30521,0.30489,0.30061,0.30466,0.30163,0.30568,0.3025,0.30545,0.30245,0.30339,0.30117,0.30405,0.30207,0.30231,0.30474,0.30454,0.29926,0.30375,0.30416,0.29933,0.3029,0.30377,0.30148,0.30201,0.30532,0.30378,0.30253,0.30369,0.30119,0.30503,0.30174,0.30312,0.30382,0.3048,0.30169,0.29943,0.30625,0.30344,0.30154,0.30196,0.30221,0.30159,0.29975,0.30514,0.30321,0.30281,0.30219,0.30242,0.30655,0.3036,0.30007,0.30406,0.30554,0.30261,0.30159,0.30501,0.304,0.30345,0.30167,0.30442,0.30367,0.30087,0.30471,0.30329,0.30274,0.3019,0.30123,0.30455,0.30464,0.30048,0.30411,0.30575,0.30125,0.30025,0.30372,0.30439,0.30137,0.30058,0.30582,0.30138,0.30094,0.30436,0.3029,0.30043,0.30254,0.30259,0.3044
0.0085754,-0.0077467,0.0044859,0.016933,0.014663,0.0056029,0.027076,0.0080982,0.032419,0.016897,0.034,0.027494,0.016674,0.047319,0.015221,0.044866,0.0072905,0.015809,0.015189,0.016663,0.012814,0.0044872,-0.0016875,-0.0037306,0.0011928,0.010393,-1.1887e-05,0.0029955,0.00087799,-0.0069525,-0.0030933,-0.00537,-0.0048333,-0.002696,-0.018315,0.0065542,-0.015922,-0.010088,-0.016278,-0.016293,-0.016063,-0.013563,-0.020257,-0.016136,-0.00090765,-0.030183,-0.017972,-0.020871,-0.0080857,-0.036805,-0.012795,-0.49967,-0.45634,-0.4306,-0.36371,-0.31911,-0.28379,-0.22118,-0.16732,-0.14776,-0.092235,-0.080407,-0.055751,-0.03464,-0.025305,-0.0066785,0.023846,0.045786,0.034623,0.09667,0.092299,0.10836,0.12962,0.13242,0.14597,0.14616,0.13712,0.1488,0.16343,0.13751,0.15324,0.14984,0.15794,0.13855,0.16079,0.14954,0.12154,0.12502,0.12176,0.093274,0.10644,0.090188,0.076444,0.063629,0.07285,0.048073,0.04781,0.045607,0.018778,0.027114,0.020486,-0.00091536,0.0050126,0.0053277,-0.031191,0.00619,-0.032813,-0.030756,-0.058505,-0.050323,-0.055528,-0.04929,-0.052697,-0.069715,-0.078407,-0.078841,-0.066031,-0.070625,-0.063575,-0.060779,-0.071759,-0.081001,-0.094929,-0.067233,-0.068406,-0.063244,-0.060846,-0.070051,-0.058915,-0.03997,-0.04715,-0.032415,-0.030998,-0.016946,-0.024924,-0.0066938,-0.011311,0.0018579,-0.009107,0.0058711,0.017801,0.016857,0.0049988,0.018061,0.029486,0.040837,0.023214,0.042879,0.0326,0.043505,0.036349,0.055945,0.036415,0.049073,0.050522,0.02828,0.053051,0.050724,0.028498,0.044892,0.040064,0.027536,0.026218,0.029957,0.0097809,0.013018,0.015026,0.0054484,0.012733,0.0027616,-0.0062407,-0.0041431,-0.022267,-0.016101,-0.013028,-0.02414,-0.036835,-0.020031,-0.04166,-0.042399,-0.039499,-0.041714,-0.039603,-0.044625,-0.028071,-0.033425,-0.032947,-0.030061,-0.026461,-0.024598,-0.022753,-0.018321,-0.010522,-0.0032294,-0.019653,0.0046744,-0.012202,0.0086996,-0.010047,0.013993,-0.0011052,0.0015763,0.010424,0.0037665,0.017388,0.0075132,0.027363,0.006136,0.0032249,0.024924,0.0049219,-0.0018881,0.016791,0.014173,0.0085885,-0.00464,0.012991,0.012738,0.0056638,0.009058,-0.0077231,0.0064331,-0.0015592,0.0051359,0.0045293,-0.00067329,-0.0036319,-0.014758,0.00072727,-0.010045,-0.008042,-0.019221,-0.014598,-0.011717,-0.022243,0.00052228,-0.017198,-0.017912,-0.019982,-0.022368,0.0015859,-0.013556,-0.01968,-0.014049,-0.0095523,-0.016735,-0.023398,-0.0080147,-0.012518,-0.0062301,-0.016928,-0.0050874,-0.0074767,-0.0026532,4.4887e-05,-0.0092643,-0.00044855,0.0035217,0.0028941,0.0071864,0.0085177,0.001572,0.011279,0.010446,0.0022683,0.0069782,0.016926,0.0096729,0.01699,0.0075844,0.019308,0.01038,0.010557,0.011975,5.0301e-05,0.0028517,0.0067459,0.0091903,0.0039533,-0.0029693,-0.0065816
-0.0054796,0.0030241,0.011686,0.023649,0.027166,0.025858,0.039063,0.023826,0.044008,0.057078,0.035792,0.063544,0.036032,0.078404,0.044484,0.070505,0.021191,0.053429,0.033151,0.052968,0.027888,0.034618,0.030785,0.024317,0.010886,0.015994,0.0060396,0.0038557,-0.0096924,-0.012632,-0.0081802,-0.043351,-0.038291,-0.030554,-0.045563,-0.039286,-0.049273,-0.037925,-0.043568,-0.045144,-0.064047,-0.0175,-0.059661,-0.023099,-0.051916,-0.028195,-0.040835,-0.022591,-0.014161,-0.036926,0.0063336,0.89137,0.83177,0.72122,0.61571,0.52617,0.45104,0.37835,0.26378,0.17559,0.072517,-0.0026124,-0.093131,-0.18211,-0.24017,-0.31528,-0.36627,-0.3811,-0.44861,-0.43106,-0.45671,-0.46497,-0.45828,-0.46509,-0.4261,-0.42273,-0.37817,-0.36318,-0.29245,-0.30467,-0.21704,-0.21682,-0.1138,-0.13897,-0.059375,-0.011809,0.00088389,0.05963,0.094452,0.10792,0.15819,0.1935,0.21328,0.22198,0.25154,0.25565,0.26519,0.27534,0.27525,0.2703,0.27552,0.24828,0.23553,0.21594,0.1904,0.15887,0.17272,0.10972,0.11065,0.061565,0.064737,0.022158,-0.013497,-0.034333,-0.051858,-0.076509,-0.092063,-0.11881,-0.13822,-0.13797,-0.15773,-0.16296,-0.18024,-0.16917,-0.18903,-0.17794,-0.17118,-0.17535,-0.14963,-0.15295,-0.13426,-0.12076,-0.10398,-0.087647,-0.069481,-0.054856,-0.037745,-0.018419,-0.016133,0.0061417,0.031032,0.025735,0.046774,0.063649,0.070204,0.077225,0.081199,0.10105,0.091045,0.1068,0.10258,0.10905,0.088038,0.10665,0.089126,0.079454,0.078039,0.079762,0.043707,0.065834,0.04356,0.036561,0.015557,0.023563,0.0006933,-0.0055287,-0.0044307,-0.022007,-0.019273,-0.031303,-0.035076,-0.026814,-0.04898,-0.048699,-0.040408,-0.069776,-0.067708,-0.061167,-0.066199,-0.078506,-0.059681,-0.065944,-0.060569,-0.065489,-0.040051,-0.06566,-0.034865,-0.043693,-0.020775,-0.037077,-0.023532,-0.0077498,-0.0098064,0.0049785,-0.0065921,0.010746,0.010426,0.013356,0.021515,0.018397,0.022995,0.029803,0.028064,0.024544,0.036749,0.021177,0.034875,0.037177,0.029062,0.019914,0.021008,0.018619,0.011808,0.010596,-0.0024499,0.011939,0.00074084,0.0044383,-0.01576,-0.0014662,-0.0048879,-0.0097293,-0.0090661,-0.029295,-0.0091006,-0.026357,-0.021067,-0.039198,-0.030607,-0.018499,-0.032849,-0.024258,-0.032774,-0.024501,-0.029284,-0.023765,-0.026778,-0.037868,-0.021941,-0.015322,-0.015164,-0.0070279,-0.014236,0.0034417,-0.004101,0.0071809,0.0050194,0.016366,0.0093524,0.011866,0.015132,0.021293,0.014559,0.013202,0.018198,0.025434,0.016109,0.02617,0.0071943,0.016345,0.017589,0.010026,0.00071103,0.015413,0.013762,0.011687,0.016426,0.010207,0.0084729,0.0080159,0.0010723,0.0086962,-0.018985,0.0033946,-0.0085036,-0.0047064,-0.014755,-0.0080131,-0.026267,-0.011181,-0.019075
-0.033151,-0.052239,-0.059209,-0.070973,-0.082168,-0.10397,-0.1092,-0.11905,-0.11598,-0.12275,-0.13167,-0.13725,-0.14864,-0.15172,-0.15641,-0.16038,-0.18707,-0.20578,-0.21365,-0.23528,-0.25299,-0.26455,-0.28165,-0.29558,-0.30032,-0.30538,-0.30299,-0.30661,-0.30706,-0.30349,-0.31526,-0.31294,-0.30375,-0.30622,-0.29169,-0.28258,-0.27026,-0.26404,-0.24877,-0.24579,-0.23453,-0.22982,-0.22348,-0.20614,-0.20166,-0.19263,-0.18949,-0.1693,-0.17297,-0.15662,-0.15494,-0.1401,-0.14439,-0.14255,-0.13675,-0.1372,-0.13603,-0.15071,-0.16324,-0.16162,-0.15579,-0.15487,-0.14585,-0.12713,-0.12234,-0.11017,-0.080496,-0.086036,-0.062875,-0.058458,-0.05417,-0.028124,-0.011798,-0.0097544,0.0067466,0.014078,0.039684,0.046786,0.046289,0.028506,0.021326,0.029669,0.0084022,0.013853,0.020231,-0.0036204,0.006024,0.01508,0.013734,0.019039,0.019461,0.047773,0.047798,0.057218,0.055622,0.074541,0.093816,0.091479,0.098476,0.099645,0.090091,0.073866,0.069545,0.031099,0.038516,0.029631,0.045589,0.014736,0.029809,0.024614,0.016216,0.013185,0.025717,0.013133,-0.002161,-0.0051144,-0.019121,-0.022518,-0.019997,-0.025269,-0.016372,-0.034554,-0.047736,-0.052012,-0.048817,-0.044297,-0.058413,-0.046317,-0.021024,-0.031905,-0.015003,-0.022014,-0.016433,-0.020837,-0.023129,-0.0099095,-0.013635,-0.019052,-0.014237,0.0075224,0.0089602,0.010298,0.018965,0.022276,0.026354,0.016928,0.029134,0.020424,0.025324,0.024441,0.027685,0.024042,0.037144,0.045654,0.035883,0.046343,0.050074,0.035882,0.028338,0.040175,0.029312,0.03892,0.03973,0.035813,0.036425,0.033137,0.037664,0.032757,0.026891,0.029314,0.031558,0.012944,0.0090267,0.014282,0.0070391,0.00058805,0.014885,0.010856,0.0078454,0.0080196,0.021611,0.017632,0.012145,0.031158,0.026588,0.019903,0.031599,0.041572,0.037664,0.04139,0.050267,0.048451,0.060488,0.052304,0.065725,0.060474,0.073969,0.060886,0.074614,0.080306,0.08449,0.073555,0.078528,0.070645,0.065385,0.063642,0.067024,0.053067,0.067487,0.07348,0.062535,0.085195,0.095206,0.090725,0.089647,0.096062,0.10639,0.10186,0.1141,0.10733,0.1199,0.11845,0.11998,0.11867,0.12291,0.11897,0.10524,0.1126,0.10538,0.11123,0.10732,0.095635,0.10521,0.09764,0.099543,0.10067,0.098029,0.095164,0.094473,0.11382,0.10257,0.10312,0.11148,0.1156,0.1115,0.10977,0.12113,0.11933,0.12425,0.11396,0.11843,0.11833,0.10991,0.1186,0.11015,0.11267,0.11329,0.10073,0.1079,0.11683,0.11566,0.1094,0.11578,0.11264,0.10393,0.11735,0.11152,0.10255,0.090769,0.10231,0.10018,0.10533,0.11832,0.1159,0.1036,0.10157,0.10304,0.11221,0.1136,0.11019,0.1045
