0.274628,0.274632,0.274636,0.27464,0.274645,0.274646,0.274647,0.274647,0.274645,0.274641,0.274637,0.274631,0.274623,0.274614,0.274604,0.274592,0.27458,0.274565,0.27455,0.274532,0.274514,0.274495,0.274474,0.274452,0.274428,0.274403,0.274378,0.27435,0.274323,0.274293,0.274262,0.274231,0.274197,0.274165,0.274128,0.274093,0.274054,0.274016,0.273976,0.273935,0.273893,0.273849,0.273806,0.273762,0.273715,0.273668,0.274116,0.27362,0.273521,0.27347,0.273418,0.273365,0.273311,0.273256
-6.62234e-05,-6.84109e-05,-6.46018e-05,-6.15038e-05,-5.73193e-05,-4.70742e-05,-3.91775e-05,-2.93783e-05,-1.67812e-05,-3.27296e-06,1.23054e-05,3.0464e-05,4.98283e-05,7.1008e-05,9.3761e-05,0.000118375,0.0001446,0.000172661,0.000200883,0.000233913,0.000265342,0.00029961,0.000335995,0.000372505,0.000413227,0.000453874,0.000495915,0.000540631,0.000585242,0.000634119,0.000681068,0.000729967,0.000785245,0.000832823,0.00088983,0.000943753,0.000999799,0.00105563,0.00111765,0.00117454,0.00123284,0.00129728,0.00135713,0.00141836,0.0014831,0.00154433,0.000582093,0.00161094,0.00173788,0.00180375,0.00186824,0.001932,0.0019974,0.00206048
-6.85545e-06,-3.13584e-06,-2.12692e-06,-7.1244e-07,3.08433e-06,1.80076e-06,6.08909e-06,1.0015e-05,1.40937e-05,1.97773e-05,2.65431e-05,3.32659e-05,4.23976e-05,5.13709e-05,6.23179e-05,7.29904e-05,8.5958e-05,9.73875e-05,0.000113015,0.000126181,0.000141655,0.000157903,0.000173961,0.000191694,0.000209892,0.000227493,0.000246878,0.000264454,0.000286129,0.000304035,0.000325588,0.000346822,0.000365212,0.000390138,0.000409768,0.000431432,0.000454864,0.000478955,0.000500623,0.000523198,0.000548643,0.000568944,0.000595354,0.000618006,0.000638171,0.00066672,0.00052871,0.000689301,0.000737435,0.000762361,0.000785212,0.00081084,0.00083751,0.000863645
-0.0149778,0.0344125,0.00606968,0.00438179,0.022415,0.00799683,-0.00308994,-0.00176967,-0.00443575,0.00507357,-0.0038353,-0.0032499,-0.00920799,-0.0064931,0.0129503,0.0222035,0.0234633,0.0335048,0.0558116,0.0243436,0.0426076,0.0655358,0.0702503,0.0651541,0.033291,0.050324,0.034088,0.0258153,0.0229766,0.0139915,0.0253294,0.00139335,-0.0201105,-0.0257856,0.00184882,-0.0284771,0.0147743,-3.69014e-05,-0.0210389,-0.0173336,0.00709876,-0.0208189,-0.0762351,-0.0253597,-0.0611843,-0.029829,-0.0333315,-0.112238,-0.130411,-0.160035,-0.144815,-0.10935,-0.0438668,0.0498876
