-0.0328633,-0.032827,-0.0329723,-0.0314758,-0.0297264,-0.0270742,-0.0238058,-0.020042,-0.0157825,-0.0107072,-0.00513137,0.00116453,0.00790943,0.0153273,0.0231161,0.031814,0.040629,0.0503104,0.0602163,0.070766,0.0816552,0.0928791,0.104791,0.116801,0.12901,0.1416,0.154158,0.167495,0.180619,0.193444,0.207636,0.220493,0.234393,0.247998,0.262286,0.275158,0.289804,0.303623,0.316843,0.330305,0.343152,0.356497,0.369898,0.382439,0.394201,0.407068,0.407068,0.419065,0.44202,0.453401,0.464585,0.475289,0.48705,0.497852
0.0302985,0.0304481,0.0293424,0.0283873,0.0270769,0.0250531,0.0227515,0.0198937,0.0165926,0.0130234,0.00902152,0.00454847,-0.000407281,-0.00560566,-0.011211,-0.0171385,-0.023631,-0.03031,-0.0373228,-0.0450569,-0.0527835,-0.0609334,-0.0695108,-0.0782745,-0.0879199,-0.097698,-0.107775,-0.118131,-0.128892,-0.140309,-0.151687,-0.163286,-0.175867,-0.187862,-0.20068,-0.213525,-0.226637,-0.2397,-0.25378,-0.267288,-0.280843,-0.295199,-0.309408,-0.323321,-0.337685,-0.352105,-0.352105,-0.366796,-0.395104,-0.409373,-0.423415,-0.437252,-0.451056,-0.464062
0.966384,0.966933,0.968518,0.969729,0.972336,0.974004,0.975,0.975664,0.975704,0.974972,0.973928,0.971949,0.969507,0.966217,0.962597,0.958047,0.953469,0.947494,0.941735,0.934998,0.927619,0.91991,0.911274,0.902326,0.893092,0.882866,0.872602,0.860917,0.8498,0.837701,0.824532,0.812053,0.797601,0.783969,0.768831,0.75345,0.73713,0.720588,0.703835,0.685477,0.667772,0.648684,0.629827,0.610703,0.58926,0.568899,0.568899,0.547665,0.502727,0.479966,0.456121,0.4316,0.40615,0.380273
-0.0138549,-0.0138245,-0.0139142,-0.0129888,-0.0119895,-0.0106728,-0.00917686,-0.00744294,-0.00553763,-0.00315793,-0.000617461,0.00221761,0.00525149,0.00855689,0.0120223,0.0159657,0.0198325,0.0241255,0.0285177,0.0331973,0.0379465,0.0428821,0.0481849,0.0534002,0.0587269,0.0642358,0.0696623,0.0755826,0.0812992,0.086716,0.0931532,0.098544,0.104635,0.110636,0.116892,0.122236,0.128847,0.134913,0.140388,0.146229,0.151855,0.157716,0.163654,0.168897,0.173795,0.179783,0.179783,0.184883,0.194738,0.199882,0.204704,0.209282,0.214764,0.219332
0.0129701,0.0129718,0.0122046,0.0117936,0.0111336,0.0102278,0.00934078,0.0081563,0.00687423,0.00560186,0.00408048,0.0024601,0.000649231,-0.00115595,-0.00314931,-0.00514859,-0.00751495,-0.00971378,-0.0121607,-0.0148481,-0.0174345,-0.0202189,-0.0230852,-0.0260622,-0.0294482,-0.0327087,-0.0361992,-0.0395839,-0.04334,-0.0473085,-0.0509489,-0.0550868,-0.0593343,-0.0632848,-0.0676689,-0.0721165,-0.0763094,-0.0806981,-0.0857565,-0.0899562,-0.0945893,-0.0994369,-0.10415,-0.108795,-0.113585,-0.118276,-0.118276,-0.123234,-0.132313,-0.136999,-0.141506,-0.145899,-0.150078,-0.154061
0.988713,0.989281,0.989933,0.99058,0.991541,0.991982,0.99206,0.992141,0.991984,0.991541,0.990993,0.990121,0.989051,0.98775,0.986309,0.984564,0.982758,0.980533,0.978347,0.975828,0.973053,0.970242,0.967023,0.963713,0.960336,0.956565,0.952828,0.94856,0.944465,0.940053,0.935279,0.930683,0.925456,0.920485,0.915011,0.909289,0.903562,0.897372,0.891381,0.884754,0.878354,0.871463,0.86463,0.85786,0.849925,0.842748,0.842748,0.834972,0.818985,0.810787,0.802206,0.793427,0.784393,0.775104
0.000568986,0.000538726,0.000394944,0.000748816,0.000932327,0.000999412,0.00103728,0.00119863,0.00135565,0.00166077,0.00188259,0.00216266,0.00244971,0.00280511,0.00315031,0.00364516,0.00394076,0.00446039,0.0049057,0.00542757,0.00587429,0.00643677,0.00706955,0.00754513,0.00809473,0.00870729,0.00922089,0.0100183,0.0105202,0.0109881,0.0119588,0.0122956,0.0130548,0.0137782,0.0145265,0.0148376,0.0159655,0.0166549,0.0169304,0.0178824,0.0185346,0.0193278,0.020079,0.0206355,0.0211821,0.0223057,0.0223057,0.022911,0.0243777,0.0252423,0.0258837,0.0266151,0.0278761,0.0285035
0.0033669,0.00328865,0.00283063,0.00277982,0.00248056,0.0023497,0.00187764,0.00156583,0.00124467,0.000847372,0.000384338,-4.85312e-05,-0.00062694,-0.00108209,-0.00167992,-0.00221808,-0.00296101,-0.00348214,-0.00425895,-0.00494826,-0.00570239,-0.00643245,-0.00721963,-0.00805729,-0.00897302,-0.00984631,-0.0107752,-0.0115746,-0.0126693,-0.013603,-0.0145678,-0.0156514,-0.0165674,-0.0177159,-0.0186439,-0.0198578,-0.0206611,-0.0219153,-0.0230338,-0.0239226,-0.0251205,-0.0260745,-0.0273017,-0.0282141,-0.0293019,-0.0303466,-0.0303466,-0.031376,-0.0331911,-0.0342593,-0.0351655,-0.036044,-0.0368316,-0.037614
0.998639,0.998973,0.999211,0.999342,0.999545,0.999354,0.999209,0.999167,0.999031,0.998863,0.998747,0.998501,0.998309,0.998068,0.997845,0.997529,0.997313,0.996914,0.996697,0.996278,0.995943,0.995595,0.995127,0.99477,0.994329,0.99387,0.993499,0.992889,0.992537,0.991969,0.991369,0.991092,0.990196,0.989942,0.989162,0.988652,0.9879,0.987384,0.986695,0.985947,0.98546,0.984567,0.983978,0.983397,0.982344,0.981776,0.981776,0.981004,0.979433,0.978582,0.977703,0.97683,0.975852,0.975038
0.00513256,0.00510532,0.00506316,0.00508572,0.0048027,0.00435908,0.00389759,0.00349472,0.00300292,0.0024544,0.00180565,0.0011175,0.000385126,-0.000369645,-0.001194,-0.00206914,-0.00304857,-0.00397702,-0.00499502,-0.00607223,-0.00717122,-0.00825007,-0.00942849,-0.0106431,-0.0118446,-0.013051,-0.0142622,-0.0154681,-0.0167933,-0.0180415,-0.0192262,-0.0205455,-0.0217459,-0.0229668,-0.0242707,-0.025485,-0.026542,-0.0278746,-0.0290799,-0.0300141,-0.0310806,-0.0321553,-0.0332404,-0.0342177,-0.035055,-0.0357904,-0.0357904,-0.0368347,-0.0380988,-0.0388786,-0.0396089,-0.0401285,-0.0406248,-0.0412826
-0.0015587,-0.00170675,-0.00172901,-0.00169349,-0.00154948,-0.00169239,-0.00148741,-0.00135876,-0.00128002,-0.00116917,-0.00100126,-0.000883686,-0.000686664,-0.000524556,-0.000329926,-0.00017167,9.08362e-05,0.000253192,0.000563061,0.000723381,0.00105839,0.00131744,0.00157851,0.00193869,0.00220694,0.00255237,0.0029812,0.00329418,0.00378733,0.00410571,0.00457623,0.00515324,0.00545473,0.00611322,0.00649422,0.00717261,0.00761054,0.0082393,0.00879188,0.00933879,0.0100761,0.010569,0.0112852,0.0118552,0.0125479,0.0133256,0.0133256,0.0138845,0.0153227,0.0159157,0.016622,0.0173606,0.0179485,0.0186711
1.00053,1.00074,1.00079,1.00079,1.00074,1.00049,1.00059,1.00067,1.00075,1.00093,1.00116,1.0014,1.00175,1.00213,1.00257,1.00307,1.00361,1.00418,1.00487,1.00552,1.00627,1.00707,1.00791,1.00879,1.0097,1.01068,1.0117,1.01277,1.01389,1.01491,1.01623,1.01738,1.01857,1.02001,1.02124,1.02256,1.02408,1.02553,1.02684,1.02844,1.03002,1.03154,1.03321,1.03471,1.03629,1.03825,1.03825,1.0398,1.04333,1.04509,1.04684,1.04867,1.05066,1.05247
0.00285388,0.00291572,0.00301322,0.00292285,0.00265407,0.00230117,0.00213746,0.00183706,0.00148564,0.00109187,0.000640517,0.000143631,-0.000344331,-0.000904129,-0.00149727,-0.00217887,-0.00282829,-0.00353979,-0.00426987,-0.00510201,-0.00582288,-0.00667814,-0.0075678,-0.00840318,-0.00931486,-0.0101516,-0.0110242,-0.0119963,-0.0129112,-0.0137791,-0.0147222,-0.015572,-0.016568,-0.0173737,-0.0184344,-0.0190908,-0.0201616,-0.0209922,-0.0218354,-0.022538,-0.0233273,-0.02424,-0.0249675,-0.0256752,-0.0261752,-0.0270021,-0.0270021,-0.0276734,-0.028702,-0.0293945,-0.0298753,-0.0302853,-0.0309504,-0.0313803
-0.00337292,-0.00340266,-0.0032586,-0.00304478,-0.00310284,-0.00281687,-0.00248296,-0.0023561,-0.00213603,-0.0018551,-0.00163504,-0.00133177,-0.00103921,-0.000757913,-0.00047013,-0.00013745,0.000171965,0.000561046,0.000846343,0.00123002,0.00164606,0.0019571,0.00238699,0.00275976,0.00316671,0.00365948,0.00404392,0.00452733,0.00490489,0.00543224,0.00600606,0.0062816,0.00696669,0.00734586,0.00789082,0.00841434,0.00889627,0.00933879,0.00984426,0.010462,0.010794,0.0113203,0.0118152,0.0121937,0.0129111,0.0131146,0.0131146,0.0135392,0.0143639,0.0147137,0.0151497,0.0154689,0.0156852,0.0158487
1.0033,1.00334,1.00318,1.00293,1.00256,1.00233,1.0022,1.00198,1.0018,1.00165,1.0015,1.00138,1.00129,1.0012,1.00116,1.00112,1.00111,1.00112,1.00116,1.0012,1.0013,1.0014,1.00153,1.00169,1.00189,1.00209,1.00234,1.00259,1.0029,1.00322,1.00362,1.00392,1.00444,1.00484,1.0053,1.00588,1.00645,1.00696,1.00769,1.00836,1.00912,1.00985,1.01064,1.0114,1.01243,1.01336,1.01336,1.01415,1.01633,1.01744,1.01856,1.01977,1.02097,1.02217
-0.00129973,-0.00115563,-0.000973172,-0.00100365,-0.00103531,-0.000936944,-0.000786329,-0.000770624,-0.000727116,-0.000731229,-0.000743216,-0.000747676,-0.000773808,-0.000838272,-0.000913506,-0.00100567,-0.00108122,-0.00120117,-0.00136136,-0.00145468,-0.00163122,-0.00182684,-0.00200368,-0.00221382,-0.00237197,-0.00257797,-0.00283989,-0.0031046,-0.00336072,-0.00352859,-0.00388308,-0.00417363,-0.00440464,-0.00477343,-0.00508534,-0.00538486,-0.00579985,-0.00617077,-0.0064549,-0.00685877,-0.00735376,-0.00769371,-0.00811953,-0.00855313,-0.0089742,-0.0095373,-0.0095373,-0.00990095,-0.0110233,-0.0115324,-0.0120362,-0.0126389,-0.0132943,-0.0139415
-0.0037791,-0.00364556,-0.0034237,-0.00342301,-0.00313898,-0.00292416,-0.0028277,-0.00279309,-0.00276004,-0.00280889,-0.00283554,-0.00294694,-0.00309583,-0.00331561,-0.00353388,-0.00383359,-0.00409118,-0.00452175,-0.00488107,-0.00531967,-0.00582275,-0.00634454,-0.00692918,-0.00752271,-0.0081415,-0.0088687,-0.00956868,-0.0104104,-0.0111181,-0.0119417,-0.0129565,-0.0137433,-0.0148031,-0.0157511,-0.0168424,-0.0178973,-0.0191469,-0.0203243,-0.0214635,-0.0228974,-0.0241951,-0.0255774,-0.0269671,-0.0283413,-0.030004,-0.0315675,-0.0315675,-0.0331344,-0.0365955,-0.0383127,-0.0401255,-0.0420846,-0.0441409,-0.0461125
1.00261,1.00245,1.00224,1.00195,1.00177,1.00159,1.0015,1.00129,1.00114,1.00101,1.00087,1.00073,1.00063,1.00052,1.00044,1.00035,1.0003,1.00023,1.0002,1.00012,1.00016,1.00011,1.00011,1.00016,1.00014,1.00022,1.00027,1.0003,1.0004,1.00053,1.00059,1.00079,1.00083,1.00109,1.00117,1.0015,1.00157,1.00194,1.00212,1.00252,1.00281,1.00304,1.00344,1.00386,1.00433,1.00455,1.00455,1.00514,1.00614,1.00663,1.00724,1.00786,1.00835,1.00916
0.000240642,0.000279629,0.000259394,7.92257e-05,9.65991e-05,0.000158396,8.31558e-05,-5.37062e-06,-0.000101208,-0.000261421,-0.000380925,-0.000549518,-0.000739152,-0.000975108,-0.00118362,-0.00146808,-0.00168013,-0.00204212,-0.00230715,-0.00265046,-0.0030227,-0.00338284,-0.00380006,-0.00418821,-0.00458116,-0.0051169,-0.00555362,-0.00613181,-0.00655012,-0.00709542,-0.00776337,-0.00825579,-0.00886956,-0.00953961,-0.010152,-0.0108095,-0.011525,-0.0122658,-0.0127959,-0.0137564,-0.0144278,-0.0151902,-0.0159525,-0.0167361,-0.0176389,-0.0184292,-0.0184292,-0.0192636,-0.0210634,-0.0218693,-0.0227637,-0.0236652,-0.0246469,-0.0255187
-0.00105421,-0.000967442,-0.00108851,-0.00102658,-0.000907295,-0.000968935,-0.000862555,-0.000882201,-0.00085621,-0.000775599,-0.000688145,-0.000631492,-0.000530294,-0.00045703,-0.000325109,-0.000234547,-6.46157e-05,6.69495e-06,0.000231446,0.000272582,0.000514384,0.000640407,0.000785713,0.0010094,0.0011241,0.00128694,0.00151659,0.00161945,0.00192001,0.00198329,0.0022507,0.00244523,0.00251109,0.0028731,0.00294663,0.00316986,0.0033349,0.00354289,0.00368153,0.00381804,0.00407513,0.00407429,0.00441065,0.0045282,0.00456484,0.0047781,0.0047781,0.00481441,0.0051227,0.00520993,0.00532863,0.0054372,0.00543365,0.00560737
0.999179,0.999054,0.998888,0.998959,0.998916,0.999123,0.999227,0.999337,0.999554,0.999828,1.00007,1.0004,1.00075,1.00114,1.00155,1.00202,1.00248,1.00304,1.00355,1.00413,1.00479,1.00538,1.00607,1.00677,1.00748,1.00825,1.00897,1.00976,1.01056,1.01139,1.01231,1.01298,1.01402,1.01485,1.01574,1.01667,1.01766,1.0185,1.01955,1.02053,1.02138,1.02235,1.02341,1.02433,1.02532,1.02628,1.02628,1.02717,1.02919,1.03017,1.03122,1.03219,1.03317,1.03416
0.00167096,0.0015535,0.0013554,0.00121279,0.00123852,0.0012022,0.00100208,0.000939779,0.000851869,0.000782925,0.000733923,0.000680531,0.000613673,0.000594104,0.000555646,0.000560661,0.000516199,0.000535714,0.000519553,0.00053929,0.000532358,0.000570013,0.000606753,0.000637867,0.000626096,0.000653501,0.000670272,0.000757278,0.000761954,0.000773664,0.000792016,0.000891802,0.00086662,0.000910192,0.00100048,0.00102741,0.00105226,0.00120799,0.00118252,0.00123632,0.0013464,0.00144164,0.00145462,0.0015973,0.00166837,0.0017299,0.0017299,0.00188657,0.00212679,0.00230166,0.00246745,0.0026256,0.00289142,0.00319803
-0.000359694,-0.000488459,-0.000444205,-0.000446488,-0.000530734,-0.000243817,-0.000380865,-0.000171594,0.000103453,0.000340744,0.000654471,0.00110163,0.00146048,0.00201718,0.00251047,0.0031927,0.00373606,0.00457336,0.00514632,0.00616414,0.00685537,0.00781875,0.00883401,0.00974432,0.0108674,0.0119761,0.0130547,0.014458,0.0155143,0.0170096,0.0182274,0.0195928,0.0213212,0.0224218,0.0243056,0.0256528,0.0274238,0.0289624,0.0307917,0.0324887,0.0340786,0.0362907,0.0378103,0.0398108,0.0417159,0.0435108,0.0435108,0.0457186,0.0495765,0.0516919,0.0537474,0.0556829,0.0579461,0.0599551
0.99924,0.99909,0.999156,0.999155,0.999262,0.999482,0.999495,0.999717,0.999978,1.0002,1.0005,1.00087,1.00121,1.00163,1.00205,1.00254,1.00303,1.00359,1.00408,1.00479,1.00532,1.006,1.00672,1.00739,1.00818,1.00891,1.00966,1.01056,1.01134,1.0123,1.01304,1.01403,1.01504,1.01579,1.01695,1.01787,1.01885,1.01993,1.02103,1.022,1.02297,1.02425,1.02518,1.02635,1.02748,1.02843,1.02843,1.02981,1.0319,1.03311,1.03425,1.03534,1.03656,1.03777
-0.000660789,-0.000735589,-0.000832728,-0.000656249,-0.000564105,-0.000604017,-0.00050141,-0.000408195,-0.000310597,-0.000161607,-2.40326e-05,0.000134241,0.000317945,0.000516438,0.000729683,0.000962492,0.00118479,0.00145052,0.00173629,0.00198831,0.00230219,0.00261498,0.00293998,0.00326076,0.00358253,0.00394305,0.00431086,0.00470771,0.00506332,0.00539253,0.00589757,0.00622929,0.00663663,0.00709439,0.00751962,0.00787822,0.00841795,0.00884771,0.00916302,0.00971659,0.0101546,0.0105647,0.0110435,0.011451,0.0119125,0.0124156,0.0124156,0.0128189,0.0137712,0.0141759,0.0145822,0.0150677,0.0155746,0.0159822
-0.000513885,-0.000437942,-0.000451081,-0.000438937,-0.000162273,-0.000392654,-0.000354786,-0.000180648,-0.000129175,-2.9876e-05,0.000126213,0.000156494,0.00034368,0.000464463,0.000677946,0.000783256,0.00104368,0.00110924,0.00149018,0.00159846,0.00185605,0.00217266,0.00237169,0.00269036,0.00299788,0.00330087,0.00376665,0.00401452,0.00453471,0.00478196,0.00523675,0.00591531,0.00598191,0.00682987,0.00711461,0.00766052,0.00811061,0.00888086,0.00919453,0.00976291,0.0106648,0.0109892,0.0117455,0.0123662,0.0127783,0.0137343,0.0137343,0.0143926,0.0157308,0.0164094,0.0168959,0.0176417,0.0183486,0.0190218
0.998986,0.998989,0.999039,0.999201,0.999338,0.9993,0.999519,0.999642,0.999736,0.999855,1.00001,1.00014,1.0003,1.00044,1.0006,1.00073,1.00092,1.00103,1.00127,1.00135,1.00156,1.00172,1.00187,1.00207,1.0022,1.00232,1.00254,1.00264,1.00287,1.00289,1.00312,1.00327,1.00332,1.00353,1.00363,1.00369,1.00389,1.00397,1.00403,1.00406,1.00421,1.00419,1.00436,1.00432,1.00427,1.00447,1.00447,1.00441,1.00443,1.00436,1.00432,1.00435,1.00433,1.00431
-0.000225446,-0.000274625,-0.000195347,-8.35085e-05,-0.000194834,-0.000257888,-0.000152701,-0.00022913,-0.000282927,-0.000315886,-0.000384644,-0.000455079,-0.000520356,-0.00061405,-0.000721041,-0.000835869,-0.000948118,-0.00107315,-0.001208,-0.0013982,-0.00148477,-0.00169702,-0.00187261,-0.0020252,-0.00224669,-0.00239898,-0.00259684,-0.00283244,-0.00301268,-0.00324407,-0.00338839,-0.00367586,-0.00389028,-0.0040376,-0.00437501,-0.00451289,-0.00476415,-0.0050561,-0.00526393,-0.00545195,-0.00572514,-0.00603091,-0.00617957,-0.00647893,-0.00669035,-0.00690038,-0.00690038,-0.00728053,-0.00767931,-0.00800574,-0.00818611,-0.00843364,-0.00877124,-0.00903635
0.00184278,0.00174246,0.00173204,0.00183852,0.0015482,0.0014364,0.00151002,0.00151285,0.0015743,0.00171297,0.00175589,0.00193113,0.00214281,0.00239844,0.00262904,0.00295524,0.00321373,0.00368945,0.00401447,0.00445567,0.00498943,0.00544685,0.00601763,0.00656316,0.0071774,0.00794481,0.00857405,0.0093666,0.00999689,0.0108415,0.0118977,0.0124466,0.0135923,0.0145053,0.0154097,0.0164445,0.0176997,0.0185984,0.019688,0.021211,0.0222093,0.0234686,0.0247882,0.0259484,0.0275254,0.0289757,0.0289757,0.030193,0.0333464,0.0347075,0.0363054,0.03797,0.0396606,0.0411378
1.00085,1.00086,1.00093,1.00092,1.00077,1.00081,1.00084,1.00076,1.0007,1.00064,1.00058,1.00054,1.00045,1.00039,1.00027,1.00023,1.0001,1.00006,0.999881,0.999841,0.999713,0.999572,0.999505,0.999364,0.999224,0.999145,0.998961,0.998925,0.998724,0.998643,0.998549,0.998354,0.998352,0.998135,0.998097,0.997985,0.997895,0.997787,0.997701,0.997646,0.997485,0.997571,0.997432,0.997324,0.997399,0.99733,0.99733,0.99731,0.997262,0.997286,0.997399,0.997378,0.997477,0.997493
-0.000919256,-0.000820559,-0.000694272,-0.000750249,-0.000789548,-0.000662925,-0.000598965,-0.000606669,-0.000558777,-0.000529522,-0.000494329,-0.000443188,-0.000411501,-0.000390745,-0.000361508,-0.00032825,-0.00028609,-0.000263049,-0.000262982,-0.00019474,-0.000189955,-0.000185108,-0.000139863,-0.000128417,-8.06394e-05,-5.53733e-05,-5.84065e-05,-2.4525e-05,-1.97552e-06,8.92823e-05,5.11839e-05,8.30213e-05,0.000173659,0.000128473,0.000203353,0.000244169,0.000212191,0.00026156,0.000332224,0.000327339,0.000289313,0.000392079,0.0003807,0.000391555,0.00046443,0.000351353,0.000351353,0.000476347,0.000371762,0.000415015,0.000434632,0.000366062,0.000286725,0.000248452
0.000849045,0.000893747,0.0010139,0.00087945,0.000733778,0.000758758,0.00065922,0.000550151,0.000433922,0.000210531,-8.93527e-06,-0.000235107,-0.000496788,-0.000818232,-0.00114902,-0.00153834,-0.00188228,-0.00231259,-0.00279053,-0.00318501,-0.00371175,-0.00423233,-0.00477359,-0.0053263,-0.00581754,-0.00641927,-0.00704775,-0.00772246,-0.00834918,-0.0088428,-0.0097248,-0.0103217,-0.0109327,-0.0118003,-0.0125067,-0.013075,-0.0140454,-0.0148091,-0.0153089,-0.0162315,-0.0170584,-0.0177689,-0.0186405,-0.0193808,-0.0200294,-0.0210587,-0.0210587,-0.0217708,-0.023479,-0.0242406,-0.025007,-0.0258513,-0.0268226,-0.0276522
1.00015,1.00028,1.00027,1.0002,1.00029,1.00021,1.00007,0.999897,0.999666,0.999417,0.999103,0.998688,0.998265,0.997747,0.997247,0.996644,0.996036,0.995292,0.994631,0.993826,0.992988,0.992154,0.991236,0.99028,0.989314,0.98827,0.987239,0.986105,0.985023,0.983822,0.982628,0.981449,0.980086,0.978913,0.977521,0.976164,0.974742,0.973432,0.971887,0.970423,0.969099,0.967501,0.96602,0.964486,0.962883,0.961381,0.961381,0.959787,0.956528,0.955014,0.953262,0.95158,0.94989,0.948125
-0.000251437,-0.000197181,-0.00022571,-0.000293901,-0.000208162,-0.000240453,-0.000202869,-0.000230404,-0.000248639,-0.000284182,-0.000289915,-0.000335352,-0.00037262,-0.000432667,-0.000467433,-0.000539533,-0.000569764,-0.000691785,-0.00071899,-0.000826704,-0.000919969,-0.00100598,-0.00111664,-0.00120869,-0.00132071,-0.00148579,-0.00158949,-0.00176545,-0.00183621,-0.00203194,-0.00222242,-0.00232186,-0.0025625,-0.00268611,-0.00290342,-0.00310681,-0.00329701,-0.0034967,-0.00369968,-0.00399812,-0.0041675,-0.00442076,-0.00462932,-0.00488992,-0.00524328,-0.00539903,-0.00539903,-0.00567355,-0.00626288,-0.00651988,-0.00683376,-0.00714239,-0.00745712,-0.00772532
0.000350168,0.00035426,0.000401378,0.00029237,0.000394512,0.000331369,0.000393663,0.000348979,0.000265744,0.000197589,0.000130366,-9.19411e-06,-0.000102134,-0.000287091,-0.000418425,-0.000632007,-0.000771055,-0.00107592,-0.00121784,-0.00155045,-0.00179988,-0.00211059,-0.00244984,-0.00275739,-0.00316155,-0.00360814,-0.00403918,-0.00458878,-0.00498049,-0.00561625,-0.00620632,-0.00669457,-0.00754293,-0.00802626,-0.00884169,-0.00948569,-0.0104008,-0.0109731,-0.0119306,-0.0128451,-0.0136258,-0.0147139,-0.0155343,-0.0165115,-0.0175814,-0.0186228,-0.0186228,-0.0196415,-0.0218846,-0.0229422,-0.0240947,-0.0252016,-0.0263641,-0.0273669
1.00145,1.00139,1.00127,1.00125,1.00118,1.00101,1.00075,1.00055,1.00036,1.00013,0.999822,0.999506,0.999164,0.998836,0.998467,0.998062,0.997613,0.997207,0.996742,0.996225,0.995764,0.995256,0.994692,0.994148,0.993566,0.993023,0.992444,0.991826,0.991178,0.990587,0.989969,0.989295,0.988617,0.988053,0.987279,0.986623,0.986012,0.985252,0.984517,0.984029,0.983307,0.982532,0.981868,0.981284,0.980562,0.979905,0.979905,0.979209,0.978056,0.977319,0.976659,0.976064,0.97539,0.974783
0.00119657,0.00112152,0.00100003,0.000955152,0.000885144,0.000839902,0.000739752,0.00071474,0.000679232,0.000665962,0.000666326,0.000675651,0.000692896,0.000742968,0.000788169,0.000868259,0.000924134,0.0010344,0.00113569,0.00124696,0.00138189,0.00153559,0.00170517,0.00187843,0.00202924,0.00223027,0.00244151,0.00270797,0.00292702,0.00314304,0.003439,0.00372479,0.00400461,0.00431694,0.00464331,0.00498779,0.00536601,0.00574506,0.00607895,0.00651117,0.00694942,0.00739797,0.0078072,0.00825314,0.00878301,0.00931942,0.00931942,0.00977565,0.0109246,0.0114704,0.0120578,0.0126734,0.0133464,0.014012
0.000884435,0.000903202,0.000772053,0.00082182,0.000684675,0.000858981,0.000757332,0.000716159,0.000706887,0.000668975,0.000616138,0.000656089,0.000553708,0.000577691,0.000500919,0.000547777,0.000407374,0.000499853,0.000335397,0.000386836,0.00026865,0.000233821,0.0002153,9.34662e-05,3.0239e-06,-0.000129607,-0.000314974,-0.00030275,-0.000596612,-0.000720452,-0.000860157,-0.00125611,-0.0011799,-0.00171835,-0.00168611,-0.00220546,-0.0021685,-0.00270627,-0.00289237,-0.00321778,-0.00373436,-0.00381864,-0.00433104,-0.00464963,-0.00506472,-0.00545485,-0.00545485,-0.00587882,-0.00665731,-0.00705728,-0.00740129,-0.00782569,-0.00803334,-0.00843911
0.998467,0.998471,0.998496,0.998567,0.998666,0.998699,0.998738,0.998936,0.999126,0.999266,0.99948,0.99971,0.999967,1.00026,1.00056,1.00085,1.00122,1.00158,1.00197,1.00239,1.00282,1.00329,1.00373,1.00424,1.00479,1.00532,1.00592,1.00645,1.00707,1.00774,1.00828,1.00904,1.00968,1.01035,1.01103,1.01181,1.0125,1.01316,1.01406,1.01476,1.01549,1.01626,1.01701,1.01787,1.0186,1.01939,1.01939,1.02018,1.02178,1.02245,1.02323,1.02401,1.02468,1.02546
-0.000469418,-0.00050757,-0.000517989,-0.000459186,-0.000435515,-0.000407184,-0.000485219,-0.000421914,-0.000386796,-0.000353366,-0.000341975,-0.000307308,-0.000300183,-0.000252434,-0.000238361,-0.00018965,-0.000205225,-0.000118953,-0.000128518,-6.04581e-05,-4.23844e-05,2.09224e-05,7.17803e-05,8.69372e-05,0.000135902,0.000215968,0.000272088,0.00040216,0.000382912,0.000491898,0.000599115,0.000646359,0.00079361,0.000811353,0.000986616,0.00102873,0.00117793,0.00124948,0.00131433,0.00150063,0.00158392,0.00174324,0.00177063,0.00193641,0.0021278,0.00217325,0.00217325,0.00230568,0.00259694,0.00269339,0.00278572,0.00290234,0.0030497,0.0030844
0.000566401,0.000556773,0.000471057,0.000361638,0.000440254,0.000400883,0.000292696,0.000215124,7.69989e-05,-7.09806e-05,-0.000161805,-0.00033418,-0.000496259,-0.000696365,-0.00087394,-0.00112788,-0.00129682,-0.00160901,-0.00179842,-0.00213094,-0.00238229,-0.00266934,-0.00301247,-0.00327406,-0.00363499,-0.00402285,-0.0042898,-0.00471628,-0.00497647,-0.0054123,-0.00584617,-0.00604417,-0.00658173,-0.00692234,-0.00729946,-0.00761986,-0.00816382,-0.00845248,-0.00878115,-0.00938769,-0.00958394,-0.0100639,-0.0104201,-0.0107786,-0.0111826,-0.0116019,-0.0116019,-0.0119416,-0.0126943,-0.0130249,-0.0133646,-0.0136729,-0.0141242,-0.0143362
0.998627,0.998607,0.998726,0.998742,0.998805,0.998958,0.99908,0.999356,0.999588,0.999886,1.00023,1.00061,1.00104,1.00148,1.00197,1.0025,1.00307,1.00366,1.0043,1.00499,1.00567,1.00641,1.00718,1.00797,1.00881,1.00965,1.01052,1.01142,1.01235,1.01327,1.01423,1.01522,1.01624,1.01718,1.01827,1.01936,1.02029,1.02143,1.0226,1.02349,1.02467,1.02575,1.02684,1.02791,1.02907,1.03011,1.03011,1.03113,1.03328,1.03445,1.03552,1.03658,1.0377,1.03874
-0.00155575,-0.00151466,-0.00140701,-0.00132418,-0.00126575,-0.00117719,-0.00117522,-0.00105573,-0.000972123,-0.000920642,-0.000868912,-0.000817864,-0.000778655,-0.000733526,-0.000695924,-0.000676608,-0.000650559,-0.000619337,-0.000618258,-0.000570689,-0.00058926,-0.000552407,-0.000571814,-0.000585223,-0.000531453,-0.000529862,-0.000502543,-0.000518081,-0.000538361,-0.000471889,-0.000522141,-0.000503973,-0.000465145,-0.000544891,-0.000504504,-0.00053397,-0.000580105,-0.000663641,-0.000576532,-0.000685915,-0.000706683,-0.000757614,-0.00085722,-0.000842048,-0.000945477,-0.00108412,-0.00108412,-0.00116991,-0.00139881,-0.00151983,-0.00171483,-0.00189867,-0.0021246,-0.00242252
-0.000906923,-0.000968412,-0.00100151,-0.000867647,-0.00077365,-0.000785255,-0.000662757,-0.000655439,-0.000616005,-0.000509312,-0.00044902,-0.000374002,-0.00031105,-0.000226905,-0.000171503,-5.39998e-05,-1.8291e-05,0.000103525,0.000153303,0.000238273,0.000341793,0.000393907,0.000514772,0.000579209,0.000608835,0.000748112,0.000789405,0.000936549,0.000957663,0.00100248,0.00121108,0.00117883,0.00126516,0.00140213,0.00147677,0.00146554,0.00162145,0.0017299,0.0015946,0.00181393,0.00181605,0.00189232,0.00196419,0.00194727,0.00198494,0.00204733,0.00204733,0.00210248,0.0021103,0.00211786,0.00215645,0.00211509,0.00217088,0.00212182
1.00049,1.00051,1.00054,1.00049,1.00046,1.0005,1.0005,1.00054,1.00058,1.00061,1.00066,1.00074,1.00076,1.00085,1.00091,1.00103,1.00108,1.00122,1.00127,1.00146,1.00149,1.00165,1.0018,1.00188,1.00205,1.00215,1.00225,1.00247,1.0025,1.00268,1.00278,1.00288,1.00311,1.00305,1.00341,1.00331,1.00355,1.00369,1.00375,1.00386,1.0039,1.00419,1.00417,1.00431,1.00441,1.00439,1.00439,1.00474,1.00476,1.00495,1.00502,1.00511,1.00534,1.00544
-0.000349743,-0.000335593,-0.000216506,-0.000293033,-0.000274282,-0.000193914,-0.000114848,-6.41184e-06,0.00011228,0.000221482,0.000380312,0.000553494,0.000756597,0.0009619,0.00120625,0.00143387,0.00174178,0.00200409,0.00231891,0.00266511,0.00299072,0.00335993,0.00372007,0.004125,0.00458695,0.004992,0.00545164,0.00586052,0.00636461,0.00689595,0.00730415,0.00787775,0.00840433,0.00887658,0.00946158,0.010038,0.0105189,0.0111208,0.0118337,0.0122952,0.0129246,0.013528,0.0141396,0.0147841,0.0153794,0.0159293,0.0159293,0.0166576,0.0178304,0.0185093,0.0191354,0.0197787,0.0203737,0.0210402
-0.0012676,-0.00121354,-0.00114422,-0.00103099,-0.00103832,-0.000923299,-0.00108037,-0.00108161,-0.00110231,-0.00117754,-0.0012808,-0.00140232,-0.00156434,-0.0017277,-0.00191275,-0.00211505,-0.00236953,-0.00261227,-0.00290481,-0.003145,-0.00352275,-0.00380339,-0.00415228,-0.00455605,-0.004864,-0.00525727,-0.00563924,-0.00601831,-0.00645929,-0.00681026,-0.00727275,-0.0077182,-0.00807212,-0.008585,-0.00900976,-0.00953139,-0.00992365,-0.0105256,-0.0109366,-0.0114436,-0.0119328,-0.012374,-0.012977,-0.0134492,-0.0140172,-0.0144639,-0.0144639,-0.0150734,-0.016165,-0.0166923,-0.0173668,-0.0180326,-0.018637,-0.0194531
1.00153,1.00154,1.00143,1.00141,1.0013,1.00112,1.00114,1.00096,1.00075,1.00056,1.00035,1.00007,0.999834,0.999529,0.999229,0.998878,0.998559,0.998137,0.997824,0.99731,0.99696,0.996481,0.995991,0.995557,0.994998,0.994486,0.99398,0.993348,0.992875,0.992165,0.991669,0.991051,0.99028,0.989873,0.98902,0.988448,0.98779,0.987124,0.986373,0.985722,0.985126,0.984274,0.983742,0.982952,0.982174,0.981725,0.981725,0.980834,0.979567,0.97883,0.978186,0.977566,0.976885,0.976284
0.000841146,0.000851672,0.00079679,0.00073172,0.000764719,0.000736659,0.000834933,0.000853397,0.000904806,0.000997089,0.00110526,0.00122078,0.00138897,0.00154621,0.00173497,0.0019317,0.00217939,0.00239315,0.00267798,0.00292275,0.00324673,0.00351944,0.00384666,0.00420691,0.00452912,0.00489548,0.00523961,0.00558166,0.00600619,0.00635125,0.00676526,0.00717847,0.0075017,0.00802554,0.00837261,0.00883516,0.00923557,0.00979671,0.0101544,0.0106491,0.0111035,0.0115189,0.012088,0.012506,0.0129443,0.0134679,0.0134679,0.0140444,0.0149759,0.0154972,0.0160606,0.01662,0.0171929,0.0178695
0.000608494,0.000609637,0.000644249,0.000496192,0.000594711,0.000167249,0.000264113,0.00014115,2.01327e-05,-9.53662e-05,-0.000188852,-0.00037355,-0.000441701,-0.000608317,-0.000687564,-0.000910515,-0.000935802,-0.00120212,-0.00118474,-0.00148683,-0.00150132,-0.00166369,-0.00186363,-0.00190828,-0.00207224,-0.00219409,-0.00220297,-0.00248164,-0.00240022,-0.00259045,-0.00267285,-0.0025711,-0.00293448,-0.00264983,-0.00297939,-0.00280431,-0.00298591,-0.00287221,-0.00295818,-0.00289123,-0.00270263,-0.00295507,-0.00269539,-0.00266806,-0.00262352,-0.00244815,-0.00244815,-0.00237329,-0.00204158,-0.00201312,-0.00189098,-0.00163167,-0.00168406,-0.00137895
1.00065,1.0006,1.00056,1.00054,1.00045,1.00045,1.00054,1.0004,1.00033,1.00029,1.00021,1.00016,1.0001,1.00003,0.999938,0.999877,0.99978,0.999726,0.999607,0.999513,0.999454,0.999306,0.999243,0.999127,0.998992,0.998926,0.998759,0.998685,0.99852,0.99842,0.998369,0.99813,0.998089,0.997962,0.997808,0.997731,0.997639,0.997508,0.997303,0.997385,0.997136,0.997077,0.996979,0.996794,0.996905,0.996728,0.996728,0.996628,0.996536,0.99641,0.99643,0.996404,0.996346,0.996308
0.000734595,0.000711297,0.000613433,0.000698899,0.000678787,0.000650438,0.000658806,0.000604094,0.000561022,0.000540198,0.000478515,0.000427261,0.000368852,0.000298694,0.000214718,0.000155527,4.446e-05,-3.76953e-05,-0.000140603,-0.000262081,-0.000370525,-0.000514987,-0.000624621,-0.000777701,-0.000951736,-0.0011116,-0.00132671,-0.00148944,-0.00169849,-0.00196515,-0.00209097,-0.00244593,-0.00264789,-0.0028679,-0.0031806,-0.00350104,-0.00366056,-0.00400718,-0.00439028,-0.00461467,-0.00499339,-0.00530713,-0.00559787,-0.00603633,-0.00639703,-0.00659702,-0.00659702,-0.00707045,-0.00776845,-0.0081405,-0.0084907,-0.00884947,-0.00911249,-0.00949485
-8.54774e-05,-5.77099e-05,-0.000130161,-4.13985e-05,-0.000235874,-0.000223429,-2.9977e-05,5.56418e-05,0.00019307,0.000402905,0.00060752,0.000877279,0.00119534,0.00154991,0.00189608,0.00236244,0.00277728,0.0033206,0.00380284,0.0043941,0.00501101,0.0055951,0.00631254,0.0069977,0.00768192,0.00851866,0.00921754,0.0101002,0.0108988,0.0117556,0.012733,0.0135487,0.0145127,0.0155692,0.0164271,0.0175253,0.0185711,0.0196459,0.0205967,0.0218689,0.0228375,0.0240139,0.0251747,0.0262257,0.027456,0.028754,0.028754,0.0298205,0.0322969,0.033464,0.0347823,0.0359726,0.0373343,0.038591
0.997998,0.998061,0.998136,0.998285,0.998453,0.99856,0.998576,0.998563,0.998523,0.998438,0.998335,0.99818,0.99799,0.997759,0.997495,0.997199,0.996858,0.996471,0.996064,0.995626,0.995106,0.994599,0.994034,0.993414,0.992791,0.992118,0.991399,0.990662,0.989884,0.98909,0.988207,0.987379,0.986399,0.985526,0.98449,0.983474,0.982414,0.981327,0.980132,0.979028,0.97779,0.976565,0.975276,0.974055,0.972655,0.971321,0.971321,0.969903,0.967027,0.965505,0.963944,0.962327,0.960726,0.959041
0.00125429,0.00122413,0.0011926,0.00120384,0.00113991,0.000973094,0.000843495,0.000650874,0.000419983,0.000166653,-0.000128825,-0.000470477,-0.000842461,-0.00124989,-0.00168683,-0.00215593,-0.00267257,-0.00321437,-0.00377233,-0.00439783,-0.00502793,-0.00568646,-0.00638127,-0.0071047,-0.00787952,-0.00866054,-0.00946598,-0.0102888,-0.0111437,-0.0120484,-0.0129299,-0.0138449,-0.0148274,-0.0157325,-0.0167629,-0.0177385,-0.0187424,-0.0197679,-0.0208748,-0.0218762,-0.0229145,-0.0240118,-0.0250985,-0.0261795,-0.0272505,-0.0283003,-0.0283003,-0.0294727,-0.0316016,-0.032709,-0.0338135,-0.0349006,-0.0359864,-0.0370809
-0.000824826,-0.000874037,-0.000772078,-0.000858685,-0.000910046,-0.000635772,-0.000583666,-0.000510136,-0.000375726,-0.000253125,-0.000137609,5.50866e-05,0.000217305,0.000374609,0.000584005,0.000775605,0.000994298,0.00122907,0.00144068,0.00172317,0.00194849,0.00222519,0.00251058,0.00275879,0.0031253,0.00337478,0.00368634,0.00402183,0.0043093,0.00471179,0.00502657,0.00525156,0.00585594,0.00591904,0.0064678,0.00677795,0.00716796,0.00739849,0.00796391,0.00823581,0.00853692,0.00897935,0.00927086,0.0096219,0.010208,0.010304,0.010304,0.0106454,0.0113622,0.0117557,0.0120487,0.012417,0.0126901,0.0129088
0.999647,0.999671,0.999773,0.999763,0.999839,0.999788,0.999736,0.999735,0.999718,0.999678,0.999668,0.999642,0.999614,0.999578,0.999566,0.99951,0.999499,0.999433,0.999429,0.999364,0.999318,0.999302,0.999226,0.999189,0.999168,0.999074,0.999084,0.999001,0.999001,0.998946,0.998882,0.998882,0.998855,0.998779,0.998783,0.998736,0.998724,0.998611,0.998707,0.998565,0.998603,0.998552,0.998535,0.998552,0.998494,0.99849,0.99849,0.998404,0.998433,0.998404,0.99834,0.998346,0.998273,0.998221
-2.14422e-05,2.30184e-05,5.32231e-05,8.88646e-05,9.72582e-06,4.67092e-05,-8.36275e-05,-0.000149495,-0.000242483,-0.000347879,-0.000497654,-0.000647377,-0.000845011,-0.00102534,-0.00124817,-0.00146335,-0.00176142,-0.00198776,-0.00231502,-0.00260055,-0.00294902,-0.00326888,-0.00362961,-0.00402978,-0.00442199,-0.00481551,-0.00524518,-0.00563402,-0.00614593,-0.00657011,-0.00703169,-0.00754692,-0.00799289,-0.00854559,-0.00901924,-0.00957308,-0.0100835,-0.0106682,-0.0112275,-0.0117463,-0.0123264,-0.0128888,-0.0135371,-0.0140461,-0.0146189,-0.0152785,-0.0152785,-0.0159217,-0.0170571,-0.0176711,-0.0183137,-0.0189505,-0.0195535,-0.0202412
-0.000133635,-0.000127443,-0.000144526,-0.000212711,-0.000107252,2.22439e-05,-0.000103768,-6.88581e-05,-5.10954e-05,-0.000101249,-0.000100546,-0.000104698,-0.000174201,-0.000176039,-0.000240752,-0.000277354,-0.000350388,-0.00037732,-0.000507909,-0.000524357,-0.000652264,-0.000727419,-0.000841116,-0.000943639,-0.0010727,-0.00121286,-0.0013673,-0.00150016,-0.00169796,-0.00179035,-0.00214146,-0.0021886,-0.00244892,-0.00274709,-0.00286458,-0.00313132,-0.00348434,-0.00368964,-0.00388647,-0.00428993,-0.00462932,-0.00485942,-0.00528031,-0.00541038,-0.005896,-0.00643351,-0.00643351,-0.00656743,-0.00742408,-0.00781076,-0.0081552,-0.00861974,-0.00905709,-0.00932992
1.00123,1.00122,1.00118,1.00104,1.00091,1.0009,1.00072,1.00073,1.00075,1.00074,1.00081,1.00091,1.00097,1.00113,1.00126,1.00145,1.00164,1.00191,1.00211,1.00245,1.00273,1.00308,1.00344,1.00384,1.00425,1.00469,1.00516,1.0057,1.00619,1.00682,1.0073,1.00799,1.00869,1.00918,1.01005,1.01074,1.01145,1.01222,1.01318,1.01388,1.01475,1.01578,1.01658,1.01761,1.01862,1.01945,1.01945,1.02065,1.02272,1.02385,1.02504,1.02618,1.02733,1.02861
-0.000859338,-0.000806342,-0.00076643,-0.000826059,-0.000743743,-0.000684872,-0.000703672,-0.000649995,-0.000582244,-0.000562148,-0.000502814,-0.000437509,-0.000393023,-0.000324096,-0.000255693,-0.0002152,-0.000127754,-6.43434e-05,3.24978e-06,8.32443e-05,0.000159283,0.000253741,0.000310936,0.000410637,0.000526092,0.000598323,0.000742823,0.00082143,0.000944073,0.00111437,0.00115587,0.00135485,0.00150639,0.00156166,0.00179143,0.0019141,0.00204738,0.0021532,0.00243565,0.00251205,0.00267224,0.00285568,0.00298954,0.00324006,0.00337972,0.00342684,0.00342684,0.00371417,0.00401457,0.00414606,0.00430213,0.00447253,0.00451994,0.00469317
-0.00153115,-0.00151868,-0.00153466,-0.00131546,-0.00114256,-0.00102615,-0.000843655,-0.000589211,-0.000340375,-4.50649e-05,0.000301443,0.000664877,0.00106184,0.00149928,0.0019514,0.00244871,0.00296618,0.00350609,0.00409204,0.00469626,0.0053101,0.00597119,0.00665188,0.00734558,0.00806775,0.00879788,0.0095701,0.0103617,0.0111632,0.0119128,0.0128083,0.0136329,0.0144651,0.0153502,0.0163,0.0170395,0.0180651,0.0189884,0.0198311,0.0207189,0.0216545,0.022608,0.0235767,0.0244509,0.0252168,0.0262858,0.0262858,0.0272817,0.0289889,0.0299014,0.0307739,0.0316675,0.0326648,0.0335343
0.999598,0.999591,0.999551,0.999499,0.999614,0.999619,0.999637,0.999815,0.999933,1.00013,1.00034,1.00053,1.00079,1.00105,1.00136,1.00169,1.00203,1.00238,1.0028,1.00322,1.00363,1.00411,1.00461,1.0051,1.00562,1.00618,1.00674,1.00735,1.00797,1.00853,1.00921,1.00992,1.01047,1.01127,1.01194,1.01266,1.01331,1.01426,1.01483,1.01558,1.01649,1.01722,1.01803,1.0188,1.01955,1.02045,1.02045,1.02129,1.02285,1.02379,1.02455,1.02534,1.0263,1.02711
-0.000906525,-0.000929599,-0.000933004,-0.000943588,-0.000875855,-0.000789542,-0.000696842,-0.000544656,-0.000381183,-0.000198133,4.52485e-05,0.000298777,0.000595148,0.000906232,0.0012417,0.00160232,0.00202543,0.00242962,0.00288051,0.00336396,0.00387591,0.00438464,0.00493602,0.00553653,0.00613462,0.00676906,0.00742479,0.00807322,0.00881209,0.00953199,0.0102273,0.0110574,0.0117948,0.0126112,0.0134112,0.0143194,0.0150685,0.0159954,0.0169462,0.0177415,0.0186761,0.0196012,0.0205585,0.0214827,0.022406,0.0233618,0.0233618,0.0243604,0.026234,0.0272136,0.0282332,0.0291805,0.0301214,0.0311487
0.00161952,0.00156927,0.00159688,0.00157701,0.00149575,0.00136747,0.00127983,0.0011587,0.000996045,0.000860955,0.000684685,0.000484831,0.000292747,6.96889e-05,-0.000170017,-0.000414718,-0.000686057,-0.000960922,-0.00124852,-0.00156924,-0.00186387,-0.00220339,-0.00254025,-0.00287639,-0.003239,-0.00357717,-0.00394251,-0.00432709,-0.00468969,-0.00510413,-0.00541113,-0.00586105,-0.00622766,-0.00657183,-0.00703252,-0.00736823,-0.00773939,-0.00815236,-0.00849203,-0.00887752,-0.00916751,-0.00955621,-0.00984915,-0.0102692,-0.0105767,-0.0107328,-0.0107328,-0.0112018,-0.0117012,-0.0119422,-0.0121717,-0.0124016,-0.0125936,-0.0128647
1.00076,1.00071,1.00055,1.00068,1.00054,1.00042,1.00045,1.00031,1.00023,1.00018,1.00001,0.999885,0.999739,0.999587,0.999426,0.999243,0.999021,0.998857,0.998643,0.998355,0.998199,0.99792,0.997655,0.997385,0.997094,0.996851,0.99656,0.99624,0.995885,0.995542,0.995398,0.994811,0.994583,0.994262,0.993848,0.993385,0.993216,0.992666,0.992216,0.992049,0.991574,0.991071,0.990785,0.990313,0.98992,0.989543,0.989543,0.989026,0.988328,0.987836,0.987412,0.987072,0.986632,0.986138
-0.000200759,-0.000252347,-0.0002506,-0.000249052,-0.000233603,-0.000288292,-0.000129962,-0.000109032,-5.89377e-05,4.79441e-05,0.000145993,0.000243731,0.000393259,0.00050103,0.000665983,0.000826616,0.00102897,0.00118127,0.00142946,0.00161319,0.00186893,0.00208536,0.00235984,0.00262792,0.00289342,0.00318243,0.00347416,0.00376892,0.00412928,0.00438539,0.00479729,0.00508674,0.00541988,0.00584841,0.00614827,0.0065407,0.00691627,0.00735571,0.00765294,0.00807558,0.00850622,0.00886588,0.00935149,0.00963058,0.0101027,0.01059,0.01059,0.0109475,0.0117624,0.0122244,0.0126371,0.0130669,0.0135114,0.013918
0.0018905,0.00193385,0.00190948,0.00177943,0.00165812,0.00155849,0.00130485,0.00113334,0.000943055,0.000715661,0.000433848,0.000140101,-0.000173488,-0.000525286,-0.000872654,-0.00126992,-0.00168118,-0.00211164,-0.0025697,-0.00302086,-0.00353613,-0.00402598,-0.00454782,-0.00510555,-0.00562739,-0.00620194,-0.00679412,-0.00738006,-0.0080164,-0.00856995,-0.00925431,-0.00987686,-0.0104781,-0.0111943,-0.0118294,-0.012444,-0.0131837,-0.0137915,-0.0144597,-0.0150984,-0.015725,-0.016387,-0.0171081,-0.0177369,-0.0182216,-0.0189989,-0.0189989,-0.019555,-0.0207875,-0.0212976,-0.0219204,-0.0224595,-0.0230333,-0.0235915
1.00038,1.00029,1.00034,1.00029,1.00011,1.00019,1.0002,1.00013,1.00012,1.00004,0.999992,0.999959,0.999902,0.99986,0.999781,0.999718,0.999674,0.999619,0.999501,0.99948,0.999411,0.999303,0.999234,0.999186,0.99913,0.999078,0.998973,0.998872,0.998824,0.998867,0.998653,0.998648,0.998625,0.998523,0.998409,0.998488,0.998338,0.99823,0.998386,0.998295,0.998148,0.998211,0.998149,0.998155,0.998135,0.998086,0.998086,0.998126,0.998075,0.998037,0.998165,0.998116,0.99802,0.998115
0.000875796,0.00085621,0.00081352,0.000852578,0.000701338,0.000597262,0.000611476,0.000445045,0.000311445,0.000168341,-2.13783e-05,-0.000213308,-0.000430997,-0.000654008,-0.000908168,-0.00115057,-0.00145196,-0.00172415,-0.00204446,-0.00237536,-0.00269958,-0.00307049,-0.00341818,-0.00381109,-0.00423374,-0.00461451,-0.00506777,-0.00547152,-0.00594729,-0.00640842,-0.00683042,-0.00737338,-0.00785597,-0.00829276,-0.00886746,-0.00939611,-0.00983868,-0.0104077,-0.0110584,-0.0114291,-0.0120629,-0.0125898,-0.0131434,-0.0137271,-0.0142639,-0.0147672,-0.0147672,-0.0153595,-0.0164247,-0.0170309,-0.0175613,-0.0181233,-0.0186556,-0.0192107
-0.000191954,-0.000191631,-0.000190523,-0.000171039,-8.06872e-05,-0.000219384,-0.000244377,-0.000278348,-0.0003526,-0.000490176,-0.000629477,-0.000816774,-0.00102648,-0.00124057,-0.00149079,-0.00177844,-0.00208357,-0.0024238,-0.00275387,-0.00315436,-0.00356931,-0.00397174,-0.00445152,-0.00492868,-0.00544653,-0.00599968,-0.00654774,-0.00715375,-0.00776213,-0.00841717,-0.0091297,-0.00974046,-0.0105777,-0.0112297,-0.0120549,-0.0128828,-0.0136555,-0.0145068,-0.0154603,-0.0162861,-0.0172156,-0.0181918,-0.0191724,-0.0200723,-0.0212043,-0.0221492,-0.0221492,-0.023162,-0.0252901,-0.0264498,-0.0275981,-0.0287095,-0.0298414,-0.0309463
0.99905,0.999041,0.999195,0.999045,0.999184,0.999417,0.999526,0.999742,0.999959,1.00017,1.00049,1.00084,1.00121,1.00159,1.00204,1.00249,1.00303,1.00351,1.00408,1.00472,1.00525,1.00593,1.00661,1.00728,1.00806,1.00871,1.00947,1.01027,1.01109,1.01191,1.01262,1.01357,1.01449,1.01516,1.01622,1.01712,1.01796,1.01895,1.02001,1.02073,1.02173,1.02282,1.02365,1.02458,1.02569,1.02657,1.02657,1.02762,1.02945,1.03054,1.03147,1.03246,1.0335,1.03451
-0.000111059,-7.33721e-05,-4.49439e-05,-7.14066e-05,9.09453e-06,8.43621e-05,-2.63524e-05,4.88449e-05,7.4878e-05,8.20696e-05,0.000110536,0.000138679,0.000154626,0.000188011,0.000213083,0.000228727,0.000246743,0.000276179,0.000284978,0.000326004,0.00031114,0.000361824,0.000355575,0.000365734,0.00040858,0.000394536,0.000423305,0.000425569,0.000415997,0.000448467,0.000398424,0.000442766,0.000455499,0.000367092,0.00044368,0.000408302,0.00037425,0.000352129,0.000432567,0.000306624,0.000332629,0.000313247,0.0002403,0.000289684,0.000226814,0.00013927,0.00013927,0.00013351,5.03159e-05,3.49833e-05,-3.98683e-05,-6.74951e-05,-9.82599e-05,-0.000152266
-0.00102538,-0.00102379,-0.00102747,-0.00100713,-0.00104092,-0.000914586,-0.000763063,-0.00069645,-0.000579114,-0.000404837,-0.000207324,2.6551e-05,0.000285037,0.000553236,0.000853075,0.00119037,0.00155434,0.00193572,0.00233768,0.00275968,0.00324128,0.00368654,0.00420084,0.00472845,0.00525793,0.00583859,0.00642407,0.00703817,0.00768493,0.00831711,0.0090438,0.00967879,0.0104384,0.0111528,0.0119059,0.0126928,0.0134592,0.0142298,0.015075,0.0158719,0.016679,0.0175335,0.0184321,0.0192378,0.0201584,0.0210082,0.0210082,0.0218253,0.023634,0.0245112,0.0254513,0.026328,0.0271918,0.0280659
1.0001,1.0002,1.00013,1.00028,1.00036,1.00018,1.00012,1.00002,0.999864,0.999729,0.999507,0.999236,0.998956,0.998649,0.998304,0.997927,0.99749,0.997058,0.996612,0.996043,0.995561,0.994992,0.994383,0.993772,0.99307,0.992435,0.991746,0.991012,0.990259,0.989414,0.988739,0.987872,0.986927,0.986253,0.985251,0.984329,0.983458,0.982541,0.981398,0.980567,0.979607,0.978455,0.977538,0.976526,0.975364,0.974404,0.974404,0.973257,0.971184,0.970034,0.968901,0.967801,0.966694,0.965549
-0.000700127,-0.000726511,-0.000787039,-0.000768946,-0.000379326,-1.76034e-05,-0.000570744,-0.000115011,0.000215339,0.000453738,0.00079587,0.00123578,0.00155732,0.0020607,0.00249248,0.00294599,0.00342763,0.0040646,0.00447889,0.0051885,0.00569728,0.00639926,0.0069517,0.00761688,0.00838602,0.00897281,0.00972338,0.010396,0.0109592,0.0118622,0.0123195,0.0131311,0.0140451,0.0141614,0.0154914,0.0158984,0.0165409,0.017194,0.0184025,0.0185531,0.0192946,0.0200751,0.0205507,0.021576,0.0220274,0.0220713,0.0220713,0.0232551,0.0241405,0.0248531,0.025452,0.0261345,0.0266799,0.0274138
-0.00127927,-0.00145862,-0.00143887,-0.00168406,-0.00160704,-0.00112901,-0.00118502,-0.00115159,-0.000923022,-0.000681312,-0.000327079,0.000145436,0.000510864,0.00101814,0.00153745,0.00222993,0.00284462,0.00362685,0.00422398,0.00526591,0.00597161,0.00689223,0.00796418,0.00888426,0.0100221,0.0111401,0.012244,0.0136783,0.0148344,0.0163897,0.0176267,0.0190823,0.0208971,0.0220176,0.0240892,0.0255036,0.027199,0.0289659,0.0308707,0.0325444,0.0342416,0.0366431,0.0383035,0.0403699,0.0424805,0.0440904,0.0440904,0.0466211,0.0504965,0.0528378,0.0550448,0.0569514,0.0591157,0.061191
0.99909,0.999302,0.999486,0.999658,0.999713,0.999118,0.999254,0.999063,0.998927,0.998714,0.99838,0.997953,0.997645,0.997185,0.996759,0.996169,0.99572,0.995035,0.994541,0.993826,0.993262,0.992544,0.991794,0.991119,0.990508,0.989949,0.989327,0.988476,0.987997,0.987453,0.986886,0.986352,0.985581,0.985629,0.984585,0.984275,0.983819,0.983392,0.982811,0.982813,0.982435,0.981884,0.981983,0.981687,0.981102,0.981346,0.981346,0.981269,0.980962,0.980722,0.980499,0.980319,0.979966,0.979591
