n_hidden,Tini,Q_x_y,Q_z,Q_yaw,R_thrust,R_roll_pitch,R_yaw,P_x_y,P_xy_ang,P_z,P_roll_pitch,P_yaw,svd_weighing,svd_cutoff,lambda1_g,lambda2_g,lambda1_s,lambda2_s,solve_time,input_cost,output_cost,opt_input_cost,opt_output_cost,opt_cost_lambda1_g,opt_cost_lambda2_g,opt_cost_lambda1_s,opt_cost_lambda2_s
0,6,40,40,40,160,4,2,0,0,0,0,0,0,0,0,0,0,0,0.42378,19.044,330.71,-13848,-1.286e+05,0,0,0,0
0,6,40,40,40,160,4,2,0,0,0,0,0,0,0,0,0.0001,0,0,0.42006,19.066,330.05,-13864,-1.2876e+05,0,64.458,0,0
0,6,40,40,40,160,4,2,0,0,0,0,0,0,0,0,0.001,0,0,0.41445,18.826,324.97,-13989,-1.2992e+05,0,630.89,0,0
0,6,40,40,40,160,4,2,0,0,0,0,0,0,0,0,0.01,0,0,0.35281,13.405,291.79,-15024,-1.3853e+05,0,5194.6,0,0
0,6,40,40,40,160,4,2,0,0,0,0,0,0,0,0,0.1,0,0,0.14606,21.964,65.632,-18244,-1.7943e+05,0,-5474.2,0,0
0,6,40,40,40,160,4,2,0,0,0,0,0,0,0,0,1,0,0,0.097474,42.135,44.963,-17328,-1.7857e+05,0,-81755,0,0
0,6,40,40,40,160,4,2,0,0,0,0,0,0,0,0,10,0,0,0.070072,35.216,116.32,-763.73,-1.6019e+05,0,-8.808e+05,0,0
0,6,40,40,40,160,4,2,0,0,0,0,0,0,0,0,100,0,0,0.090283,34.651,275.01,15385,-1.0582e+05,0,-8.8519e+06,0,0
0,6,40,40,40,160,4,2,0,0,0,0,0,0,0,0,1000,0,0,0.18454,40.494,353.61,16637,-69819,0,-8.8223e+07,0,0
0,6,40,40,40,160,4,2,0,0,0,0,0,0,0,0,10000,0,0,0.26329,41.152,364.02,16740,-64813,0,-8.8177e+08,0,0
