-0.49999,-0.49984,-0.49996,-0.5,-0.50007,-0.49989,-0.5,-0.5001,-0.50014,-0.50008,-0.50018,-0.50022,-0.50003,-0.50011,-0.49999,-0.49993,-0.49973,-0.49958,-0.4997,-0.49978,-0.49978,-0.49964,-0.49983,-0.50011,-0.50012,-0.50048,-0.50063,-0.50102,-0.50138,-0.50172,-0.50205,-0.50231,-0.50259,-0.50277,-0.50295,-0.50298,-0.50294,-0.50299,-0.50285,-0.50261,-0.50236,-0.50235,-0.50201,-0.50191,-0.50182,-0.50162,-0.50158,-0.50129,-0.50125,-0.50125,-0.50102,-0.50111,-0.49955,-0.49506,-0.48636,-0.47094,-0.44777,-0.41544,-0.37365,-0.32426,-0.26946,-0.21019,-0.14863,-0.086088,-0.022735,0.041506,0.10605,0.17113,0.23685,0.30254,0.36814,0.43335,0.49782,0.56125,0.62294,0.68275,0.74006,0.79463,0.84614,0.8937,0.9376,0.97612,1.0089,1.0342,1.0512,1.0589,1.0567,1.0444,1.0218,0.98952,0.94888,0.90134,0.84864,0.79222,0.73339,0.67327,0.61358,0.55501,0.4983,0.44447,0.39497,0.35067,0.31251,0.28198,0.25907,0.24516,0.24001,0.24304,0.2538,0.27123,0.29329,0.31883,0.34642,0.37491,0.40373,0.43264,0.46102,0.48849,0.51441,0.53927,0.56212,0.5825,0.6007,0.61565,0.62762,0.63633,0.64191,0.64415,0.64342,0.6397,0.63355,0.62493,0.61443,0.60245,0.58961,0.57589,0.56185,0.54769,0.53413,0.52099,0.50851,0.49724,0.48703,0.47819,0.47087,0.46452,0.45934,0.45524,0.45232,0.45013,0.44876,0.44803,0.44781,0.44822,0.44901,0.45029,0.45154,0.4536,0.4554,0.4579,0.4602,0.46262,0.46543,0.46845,0.47163,0.47472,0.47802,0.48151,0.48473,0.48818,0.49188,0.49504,0.49843,0.50178,0.50511,0.50824,0.51148,0.51417,0.51641,0.51843,0.52037,0.5216,0.52282,0.52335,0.52333,0.52322,0.52267,0.52153,0.52028,0.51804,0.51623,0.5137,0.51098,0.50824,0.50524,0.50223,0.49909,0.49626,0.49323,0.49073,0.48798,0.48556,0.48363,0.48197,0.48054,0.47956,0.47882,0.47856,0.47889,0.47896,0.4797,0.48055,0.48188,0.48361,0.48538,0.48728,0.4895,0.49151,0.49389,0.496,0.49819,0.50035,0.50246,0.5044,0.50618,0.5077,0.50917,0.51014,0.51116,0.51186,0.51222,0.51228,0.51237,0.51197,0.5116,0.51105,0.51009,0.50908,0.50812,0.50685,0.50561,0.50428,0.50279,0.50184,0.50066,0.49954,0.49833,0.49749,0.49632,0.4955,0.49479,0.49429,0.49402,0.49363,0.49363,0.4934,0.49364,0.49381,0.49431,0.4942,0.49492,0.49531,0.4959,0.49684,0.49751,0.4982,0.49909,0.4996,0.50036,0.50112,0.50186,0.50248,0.50319,0.50375,0.50416,0.5045,0.50479,0.50524,0.50527,0.50529,0.5052,0.50521,0.50505,0.50487,0.50467,0.50423,0.50378,0.50342,0.5033,0.50276,0.50236,0.50204,0.50156,0.50135,0.50066,0.5004,0.49997,0.49984,0.49939,0.49918,0.49893
-0.49995,-0.49981,-0.50001,-0.49986,-0.49989,-0.49992,-0.49996,-0.50006,-0.50013,-0.50007,-0.50025,-0.50057,-0.50059,-0.50062,-0.50092,-0.50096,-0.50093,-0.50111,-0.50115,-0.5011,-0.50123,-0.50124,-0.50117,-0.50144,-0.50132,-0.50162,-0.50159,-0.50182,-0.50185,-0.50173,-0.50165,-0.50177,-0.50176,-0.50158,-0.50154,-0.50156,-0.50144,-0.50139,-0.50121,-0.50113,-0.50097,-0.501,-0.50046,-0.50057,-0.50048,-0.50019,-0.50009,-0.4999,-0.49977,-0.49974,-0.49972,-0.4995,-0.49864,-0.49644,-0.49217,-0.48534,-0.47548,-0.46248,-0.44692,-0.42925,-0.41033,-0.3903,-0.37049,-0.35101,-0.33186,-0.313,-0.2951,-0.27792,-0.2613,-0.24606,-0.23208,-0.21929,-0.20829,-0.19803,-0.18966,-0.1824,-0.1762,-0.17104,-0.16668,-0.16326,-0.16,-0.15716,-0.15406,-0.15075,-0.14656,-0.14101,-0.13359,-0.12337,-0.11039,-0.093644,-0.073115,-0.049222,-0.021956,0.0081646,0.040043,0.073509,0.10782,0.14288,0.17792,0.21304,0.24793,0.28192,0.31471,0.34633,0.37588,0.40325,0.42851,0.4511,0.4714,0.48948,0.50572,0.52033,0.53356,0.54583,0.55672,0.56714,0.57585,0.58366,0.58933,0.59331,0.59526,0.59479,0.59204,0.58637,0.57865,0.56863,0.5565,0.54283,0.52759,0.51127,0.49462,0.47741,0.46052,0.44455,0.4297,0.4162,0.40423,0.39446,0.38706,0.38201,0.3793,0.37924,0.38166,0.38659,0.39419,0.40351,0.41453,0.42683,0.44024,0.45434,0.46866,0.48298,0.49707,0.51054,0.52331,0.53494,0.54533,0.55472,0.56197,0.56791,0.57219,0.57492,0.57579,0.57537,0.57333,0.56982,0.56526,0.55929,0.55275,0.54544,0.53721,0.52853,0.51971,0.51095,0.50229,0.49379,0.48583,0.47853,0.47175,0.4657,0.46047,0.45615,0.45292,0.45067,0.44931,0.44909,0.44957,0.45102,0.4532,0.45591,0.45958,0.46328,0.46747,0.47208,0.47653,0.48138,0.48597,0.49068,0.49513,0.4993,0.50325,0.50675,0.50988,0.51284,0.5152,0.5173,0.51867,0.5198,0.52037,0.52032,0.52016,0.51925,0.51828,0.51733,0.51583,0.51391,0.51221,0.51005,0.50808,0.50572,0.50361,0.50154,0.4994,0.49751,0.49565,0.49387,0.4923,0.49094,0.48972,0.48869,0.48789,0.48699,0.4867,0.48642,0.48622,0.48645,0.4868,0.48718,0.48773,0.48854,0.48927,0.49017,0.4911,0.49225,0.49358,0.49481,0.4962,0.49733,0.49863,0.49971,0.50062,0.50197,0.50282,0.50361,0.50446,0.50516,0.50573,0.50624,0.50671,0.50656,0.50686,0.5068,0.50672,0.50651,0.50617,0.50591,0.50533,0.50477,0.50402,0.50345,0.50295,0.50213,0.50158,0.50079,0.49998,0.49956,0.49876,0.49826,0.49762,0.49718,0.49678,0.49653,0.49631,0.49624,0.49598,0.49588,0.4956,0.49574,0.49589,0.49601,0.49631,0.49674,0.49694,0.49765,0.49802,0.49835,0.49909,0.49963,0.5,0.50062,0.50094
0.50005,0.49723,0.49349,0.49061,0.4887,0.48768,0.48708,0.48682,0.48703,0.48757,0.48884,0.4894,0.49036,0.49128,0.4925,0.49352,0.49445,0.49542,0.49632,0.49698,0.49775,0.49835,0.49903,0.49918,0.49971,0.50007,0.50021,0.50029,0.50061,0.50056,0.50048,0.50053,0.50041,0.50071,0.50054,0.50039,0.50063,0.50037,0.50042,0.50027,0.50031,0.50015,0.50027,0.50018,0.50008,0.50006,0.49997,0.50007,0.50011,0.49998,0.50006,0.5037,0.51829,0.54428,0.58133,0.62905,0.68712,0.75515,0.83253,0.91795,1.0092,1.1036,1.1986,1.2904,1.3767,1.4568,1.53,1.5965,1.6566,1.7097,1.7565,1.7967,1.8301,1.8568,1.8766,1.8894,1.8957,1.8947,1.8866,1.8712,1.8485,1.8192,1.7852,1.7473,1.707,1.6647,1.6221,1.5807,1.5428,1.5097,1.482,1.4605,1.4443,1.4323,1.4236,1.4164,1.4099,1.4037,1.3971,1.391,1.3852,1.3798,1.3755,1.3733,1.374,1.3782,1.3869,1.4004,1.419,1.4422,1.4693,1.4988,1.5289,1.5581,1.5844,1.6071,1.6251,1.6398,1.6499,1.6577,1.6613,1.6622,1.6606,1.6564,1.6502,1.6418,1.6321,1.6213,1.61,1.598,1.5855,1.5722,1.5589,1.5454,1.5318,1.5184,1.5049,1.492,1.4796,1.4683,1.4582,1.4494,1.4426,1.438,1.4354,1.4346,1.4358,1.4385,1.4424,1.4475,1.4541,1.4611,1.4687,1.4765,1.4838,1.4911,1.4983,1.5052,1.5116,1.5173,1.5226,1.5273,1.5316,1.5352,1.5381,1.5404,1.5419,1.5429,1.5432,1.5427,1.5421,1.5407,1.5384,1.5358,1.5327,1.5293,1.5262,1.5225,1.5189,1.5149,1.5109,1.5069,1.5036,1.5005,1.4978,1.4955,1.4933,1.491,1.4896,1.4883,1.4875,1.4867,1.4862,1.4859,1.4861,1.4866,1.4872,1.4881,1.4891,1.4899,1.4907,1.4916,1.4928,1.4939,1.4955,1.4971,1.4986,1.5,1.5015,1.5027,1.5042,1.5052,1.506,1.5068,1.5072,1.5083,1.5094,1.5099,1.5102,1.5102,1.5101,1.5099,1.5098,1.5093,1.5086,1.5079,1.507,1.5061,1.5055,1.5048,1.5038,1.5031,1.5019,1.5008,1.4997,1.4992,1.4984,1.4977,1.497,1.496,1.4953,1.4951,1.4948,1.4947,1.4945,1.4943,1.4945,1.4946,1.4949,1.495,1.4955,1.4955,1.4961,1.4968,1.4976,1.4982,1.4987,1.4991,1.4995,1.4999,1.5007,1.5016,1.502,1.5023,1.5028,1.5033,1.5031,1.5035,1.5036,1.5036,1.5035,1.5034,1.5031,1.5029,1.5028,1.5027,1.5025,1.5019,1.5012,1.5004,1.5,1.5001,1.4997,1.4998,1.4996,1.4991,1.4984,1.4981,1.4978,1.4974,1.4975,1.4976,1.4974,1.4973,1.4971,1.4971,1.4971,1.4975,1.4975,1.498,1.4982
