-0.48227,-0.48222,-0.48219,-0.48224,-0.48226,-0.48233,-0.48242,-0.4824,-0.48242,-0.48233,-0.48222,-0.48205,-0.48189,-0.48161,-0.48119,-0.48075,-0.48014,-0.47929,-0.47841,-0.47746,-0.47635,-0.47522,-0.47401,-0.47279,-0.47156,-0.4703,-0.46913,-0.46809,-0.46706,-0.46608,-0.46514,-0.46437,-0.46377,-0.46334,-0.4631,-0.46294,-0.46311,-0.46335,-0.46367,-0.46414,-0.46469,-0.46527,-0.46596,-0.46668,-0.46737,-0.46808,-0.46883,-0.46952,-0.47025,-0.4709,-0.47156,-0.47213,-0.47266,-0.47271,-0.47176,-0.46924,-0.46435,-0.45686,-0.44645,-0.43312,-0.41693,-0.39794,-0.37635,-0.35224,-0.326,-0.29774,-0.26808,-0.237,-0.2051,-0.17272,-0.14019,-0.10798,-0.076514,-0.045957,-0.016637,0.010983,0.036786,0.060447,0.081955,0.10112,0.11762,0.1317,0.14306,0.1518,0.15785,0.16145,0.16246,0.161,0.15728,0.15149,0.14367,0.13413,0.12304,0.11048,0.097072,0.082846,0.067847,0.052471,0.03692,0.021305,0.0058364,-0.0090611,-0.02335,-0.036829,-0.04957,-0.0611,-0.071664,-0.081035,-0.089204,-0.096049,-0.10168,-0.10605,-0.10908,-0.11103,-0.11182,-0.11146,-0.11017,-0.10786,-0.10469,-0.10081,-0.096195,-0.091119,-0.085589,-0.079708,-0.073416,-0.067034,-0.060566,-0.054073,-0.047602,-0.041468,-0.035375,-0.029611,-0.024143,-0.019001,-0.014331,-0.010035,-0.0062473,-0.003057,-0.00027448,0.001819,0.0034188,0.004535,0.0050775,0.0051016,0.0046319,0.0036785,0.0022898,0.00053038,-0.0015618,-0.0040141,-0.0066931,-0.009638,-0.01275,-0.015972,-0.019242,-0.022455,-0.025733,-0.028826,-0.031882,-0.034734,-0.03743,-0.039865,-0.042088,-0.044007,-0.045658,-0.04694,-0.047903,-0.048524,-0.04885,-0.048772,-0.04848,-0.047978,-0.047245,-0.046305,-0.045118,-0.04397,-0.04258,-0.04119,-0.039659,-0.038216,-0.036598,-0.035126,-0.033664,-0.032174,-0.030727,-0.029434,-0.028131,-0.026931,-0.025685,-0.024736,-0.023799,-0.022933,-0.02211,-0.021442,-0.020925,-0.020427,-0.020036,-0.019815,-0.019654,-0.019553,-0.019695,-0.019825,-0.020234,-0.020566,-0.021106,-0.021665,-0.022405,-0.023225,-0.024152,-0.025165,-0.026274,-0.027384,-0.02849,-0.029612,-0.030673,-0.031822,-0.032938,-0.03417,-0.035358,-0.036553,-0.037651,-0.038776,-0.039789,-0.040747,-0.041529,-0.042249,-0.0428,-0.043297,-0.043571,-0.043728,-0.043681,-0.043557
-0.46235,-0.46295,-0.46381,-0.46456,-0.46539,-0.46639,-0.46739,-0.46842,-0.46962,-0.47087,-0.4718,-0.47294,-0.47405,-0.47509,-0.47626,-0.47719,-0.47807,-0.47919,-0.48017,-0.48119,-0.48247,-0.48342,-0.48445,-0.48564,-0.48667,-0.48767,-0.48882,-0.4899,-0.49094,-0.49199,-0.49318,-0.49416,-0.49521,-0.49643,-0.49739,-0.49836,-0.49939,-0.50042,-0.5013,-0.50221,-0.50317,-0.5039,-0.50453,-0.50541,-0.50602,-0.50631,-0.50667,-0.5071,-0.5072,-0.5074,-0.50739,-0.50728,-0.50719,-0.50651,-0.5054,-0.50326,-0.50006,-0.49545,-0.48952,-0.48203,-0.47295,-0.46242,-0.45028,-0.43687,-0.42219,-0.40629,-0.38939,-0.37152,-0.35295,-0.33361,-0.3139,-0.29406,-0.27427,-0.25473,-0.2352,-0.21638,-0.19814,-0.18021,-0.16361,-0.14758,-0.1327,-0.11864,-0.10565,-0.093552,-0.082761,-0.073058,-0.064111,-0.056161,-0.049105,-0.042876,-0.037578,-0.033055,-0.02924,-0.025927,-0.023348,-0.020967,-0.019119,-0.017667,-0.016372,-0.015102,-0.013883,-0.012652,-0.011884,-0.010308,-0.0089625,-0.0072407,-0.0053717,-0.0033704,-0.00073675,0.0019429,0.0048638,0.0081462,0.011713,0.015525,0.01959,0.02381,0.028042,0.032705,0.037266,0.042035,0.046393,0.0513,0.055554,0.060204,0.064066,0.068246,0.072236,0.07556,0.078953,0.081864,0.084345,0.086879,0.088643,0.090303,0.091769,0.09267,0.093278,0.093618,0.093438,0.092947,0.092409,0.091438,0.090496,0.089002,0.087853,0.08612,0.084805,0.083059,0.08153,0.079854,0.07821,0.076725,0.075201,0.074107,0.072878,0.071692,0.070875,0.069959,0.069615,0.068992,0.068755,0.068839,0.068972,0.069354,0.069924,0.070686,0.071474,0.072506,0.073486,0.074654,0.075929,0.077006,0.078323,0.07972,0.080897,0.082027,0.08315,0.0845,0.085266,0.086196,0.086871,0.087546,0.088194,0.088611,0.088694,0.088896,0.088682,0.088647,0.088048,0.087617,0.08688,0.086043,0.084995,0.083986,0.082753,0.081552,0.080018,0.078625,0.077177,0.075478,0.074102,0.072479,0.071021,0.069555,0.067881,0.066683,0.065412,0.064069,0.062976,0.062146,0.060994,0.060337,0.059521,0.058953,0.058465,0.057843,0.057536,0.057126,0.056901,0.056652,0.056337,0.056163,0.05603,0.055736,0.055635,0.05557,0.055181,0.055242,0.054929,0.055049,0.054808,0.054776
0.27273,0.27313,0.27366,0.27405,0.27436,0.27454,0.27478,0.27484,0.27491,0.27493,0.27488,0.27478,0.27468,0.27444,0.27443,0.27449,0.27441,0.27446,0.27464,0.2747,0.27485,0.27507,0.27513,0.27525,0.27544,0.27575,0.27606,0.27618,0.2764,0.27649,0.27647,0.27646,0.27632,0.27629,0.2763,0.27623,0.2763,0.27649,0.27651,0.27662,0.27666,0.27654,0.27625,0.27593,0.27567,0.27524,0.27482,0.27457,0.2742,0.27413,0.27399,0.27388,0.27372,0.27367,0.27499,0.27894,0.28588,0.296,0.30858,0.32348,0.3402,0.35851,0.37776,0.39776,0.41839,0.43989,0.46177,0.48395,0.50673,0.52958,0.55288,0.57622,0.59948,0.62251,0.64536,0.6678,0.68976,0.71098,0.73138,0.75088,0.76918,0.78651,0.8027,0.81766,0.83177,0.84473,0.85665,0.86783,0.87814,0.88764,0.89631,0.9043,0.91154,0.91799,0.92396,0.9295,0.93432,0.93877,0.94282,0.94641,0.94954,0.95213,0.95434,0.95601,0.95715,0.95791,0.95824,0.9583,0.95816,0.95791,0.95747,0.95713,0.95671,0.95624,0.95594,0.95548,0.95511,0.95499,0.9549,0.95486,0.95492,0.95497,0.95508,0.95535,0.9558,0.95647,0.95708,0.95796,0.95893,0.95998,0.96113,0.96223,0.9633,0.96456,0.96564,0.96672,0.96799,0.96909,0.97014,0.97127,0.97228,0.97344,0.97433,0.9754,0.97636,0.97724,0.97792,0.97864,0.97924,0.9798,0.9802,0.98075,0.98124,0.98165,0.98198,0.98212,0.98211,0.98192,0.98184,0.98171,0.98143,0.98117,0.98094,0.98058,0.9802,0.97975,0.9793,0.97866,0.97816,0.97758,0.97693,0.97636,0.97579,0.97518,0.97468,0.97443,0.97407,0.97391,0.97395,0.97387,0.97389,0.97396,0.97392,0.97399,0.97408,0.97426,0.97452,0.97483,0.97517,0.9756,0.97595,0.97645,0.97696,0.97744,0.97811,0.97864,0.97942,0.97987,0.98045,0.98091,0.98126,0.98163,0.98191,0.98211,0.98248,0.98261,0.98288,0.98319,0.98339,0.98351,0.98372,0.98374,0.98382,0.98385,0.98375,0.98372,0.98338,0.98308,0.98276,0.9824,0.98208,0.98162,0.98127,0.98092,0.98057,0.98017,0.98003,0.9797,0.97948,0.97925,0.97896,0.9786
