0.0945741,0.172647,0.179234,0.19619,0.212361,0.226417,0.246295,0.457591,0.27019,0.464989,0.264599,0.456256,0.253653,0.440013,0.429674,0.220772,0.201285,0.387661,0.383517,0.175297,0.160895,0.156842,0.359599,0.172722,0.172301,0.176746,0.38496,0.20541,0.412192,0.413332,0.211829,0.396809,0.187394,0.173504,0.367418,0.372341,0.373108,0.170573,0.159209,0.344693,0.148865,0.147766,0.152326,0.164979,0.37877,0.201721,0.218549,0.426067,0.241426,0.437845,0.241293,0.232736,0.425907,0.228556,0.225195,0.410748,0.40938,0.206496,0.387299,0.378234,0.174208,0.3539,0.346766,0.346178,0.141765,0.11929,0.107895,0.307995,0.322752,0.334132,0.330988,0.12822,0.309736,0.107146,0.108433,0.121171,0.142536,0.169928,0.386855,0.403421,0.220762,0.421934,0.228946,0.418781,0.219092,0.213696,0.203648,0.399652,0.406706,0.219913,0.221199,0.412896,0.219133,0.41691,0.418698,0.414285,0.200223,0.377552,0.367207,0.158578,0.144893,0.140758,0.142392,0.350242,0.368218,0.374213,0.169873,0.356561,0.158216,0.351227,0.346028,0.340793,0.334117,0.127066,0.115611,0.313843,0.317341,0.320321,0.316501,0.308381,0.105566,0.297695,0.297405,0.296453,0.294563,0.291237,0.289413
1.6092,-1.08795,0.689193,0.700856,-1.3807,-1.61821,0.691054,-0.674298,1.48357,1.15969,0.855437,-1.47899,0.539632,0.790058,-1.35446,-1.83524,-1.82934,-1.151,1.53819,1.65613,1.29064,-1.25336,0.667392,-0.951836,1.33478,1.42737,1.1491,0.67241,-1.70629,-1.79431,0.578209,1.11923,1.10368,0.462696,0.195767,-1.88751,0.107497,0.219375,0.274948,-0.0456324,-0.246801,-0.225845,-2.31931,-2.29829,-1.70526,-0.902726,-0.328732,-0.183822,-0.164654,2.03575,0.137167,1.97552,-0.321232,1.58525,-0.573408,1.35131,1.38406,-0.846415,-1.33825,0.814016,1.38301,-0.730753,-1.45654,-1.57172,1.25163,-0.454542,-0.821809,-1.14733,1.25518,-0.314618,1.58084,1.41325,-0.949696,0.733233,-1.23584,-1.11369,1.27213,1.58245,1.37446,-1.40613,-1.56372,0.911319,-0.633588,-0.819494,-0.894487,-0.487231,1.96054,-0.0355594,-0.574785,1.28342,-0.362804,1.58343,-0.640046,-0.812144,1.35675,-0.623688,-0.577107,1.35548,1.68581,-0.599795,0.846501,0.620945,-1.48404,0.411048,0.505915,0.492312,-1.97594,-2.14135,-1.58979,1.07161,1.43664,0.947379,0.398349,-1.7839,0.347547,-1.6857,-1.24513,-0.994744,-0.580429,-0.265668,2.05922,2.12041,-0.286049,1.07705,-1.28466,0.934787,-0.774268
-1.36265,1.09711,-0.818474,-0.766088,1.386,-0.515801,1.50337,-0.703626,-0.887542,1.14409,-0.699458,-0.528387,1.61053,1.62455,-0.715433,0.87534,0.483941,-1.79543,0.235285,0.453649,0.632861,-1.68,-2.01518,-1.98513,0.761851,1.53272,1.95284,1.58044,-1.28158,0.324961,-1.76847,-1.54716,-1.19065,-0.722412,-0.346865,1.96777,2.14407,-0.0897038,1.5126,-0.908304,1.05403,-0.913973,-0.880319,-0.868251,1.38553,1.68622,-0.4914,-1.02475,0.641225,-1.34127,0.979013,1.18349,1.07036,-1.48069,0.0844533,0.0567334,-1.7865,-1.55892,-1.20885,-0.754336,1.77552,2.15252,2.05671,-0.703296,0.703528,-1.56291,0.696792,1.02719,1.16272,0.865322,-1.73376,-2.15546,0.112619,0.881349,1.53876,1.66917,1.14836,-1.79894,-0.290495,-0.227145,0.0833577,0.160499,-0.0944252,-0.308231,-2.46986,-2.39886,-1.93827,-1.16948,-0.530409,-0.179265,-0.0465471,2.22859,0.282385,2.25389,-0.063744,1.73885,-0.531622,1.358,1.30666,-0.81311,-1.10671,0.82568,1.06903,-0.875099,-1.14005,-1.28252,1.14842,-0.517739,-0.465756,-0.549752,1.59598,-0.298006,1.69233,1.46715,-0.982839,0.711337,-1.64619,-1.69487,0.611774,1.10167,1.14587,-1.41035,-2.05967,-0.192341,-1.88448,-1.32757,-0.877658
-0.339541,-0.352788,-0.371874,-0.394974,-0.424897,-0.438423,-0.463348,-0.487419,-0.493979,-0.524351,-0.533548,-0.556635,-0.568993,-0.597278,-0.61096,-0.639359,-0.694148,-0.702475,-0.700718,-0.734497,-0.752299,-0.748415,-0.732592,-0.699613,-0.684899,-0.652223,-0.631592,-0.612944,-0.623233,-0.640247,-0.628466,-0.629391,-0.634884,-0.624105,-0.60186,-0.584068,-0.568305,-0.557339,-0.574674,-0.579572,-0.579572,-0.563816,-0.553592,-0.516673,-0.487663,-0.492713,-0.446497,-0.370163,-0.302375,-0.334498,-0.371223,-0.406685,-0.40689,-0.419614,-0.431818,-0.4639,-0.481786,-0.512015,-0.502833,-0.494234,-0.470167,-0.499511,-0.509469,-0.560115,-0.589291,-0.587151,-0.578828,-0.551862,-0.536237,-0.523095,-0.475602,-0.448192,-0.431926,-0.370345,-0.315289,-0.282943,-0.260477,-0.249819,-0.249455,-0.23058,-0.194443,-0.171789,-0.162537,-0.174882,-0.187967,-0.195232,-0.242418,-0.303365,-0.315629,-0.326602,-0.336352,-0.341528,-0.320275,-0.352056,-0.350694,-0.36134,-0.350105,-0.355,-0.358661,-0.371124,-0.376453,-0.358445,-0.32114,-0.284244,-0.283615,-0.27893,-0.249275,-0.209175,-0.22193,-0.251771,-0.266024,-0.278816,-0.283688,-0.319591,-0.342726,-0.374963,-0.398329,-0.430044,-0.45816,-0.491207,-0.481651,-0.460374,-0.417151,-0.389394,-0.367309,-0.342942,-0.325678
