-0.49999,-0.49984,-0.49996,-0.5,-0.50007,-0.49989,-0.5,-0.5001,-0.50014,-0.50008,-0.50018,-0.50022,-0.50003,-0.50011,-0.49999,-0.49993,-0.49973,-0.49958,-0.4997,-0.49978,-0.49978,-0.49964,-0.49983,-0.50011,-0.50012,-0.50048,-0.50063,-0.50102,-0.50138,-0.50172,-0.50205,-0.50231,-0.50259,-0.50277,-0.50295,-0.50298,-0.50294,-0.50299,-0.50285,-0.50261,-0.50236,-0.50235,-0.50201,-0.50191,-0.50182,-0.50162,-0.50158,-0.50129,-0.50125,-0.50125,-0.50102,-0.50111,-0.49959,-0.49517,-0.48656,-0.47158,-0.44997,-0.42131,-0.38609,-0.34626,-0.30352,-0.25815,-0.21161,-0.16469,-0.11739,-0.069652,-0.022168,0.025229,0.072639,0.11945,0.16571,0.2112,0.25567,0.29894,0.34045,0.38017,0.41761,0.45261,0.48484,0.51361,0.53936,0.56102,0.57928,0.59353,0.60412,0.61082,0.61392,0.61383,0.6107,0.60489,0.59674,0.58668,0.57525,0.56278,0.54951,0.53562,0.52205,0.50877,0.49579,0.48333,0.47191,0.46144,0.45189,0.44379,0.43644,0.43079,0.42644,0.42314,0.42112,0.42052,0.42079,0.42221,0.4245,0.42743,0.43104,0.43547,0.44039,0.44565,0.45088,0.45684,0.46282,0.46861,0.47474,0.48035,0.48587,0.49106,0.49607,0.50061,0.50494,0.50883,0.51243,0.51536,0.51779,0.51978,0.52151,0.52262,0.5233,0.52344,0.52348,0.52298,0.52197,0.52085,0.51934,0.51772,0.51614,0.51411,0.51195,0.50973,0.5077,0.50556,0.50349,0.50145,0.49942,0.49766,0.49598,0.49458,0.49297,0.49204,0.49078,0.49017,0.48933,0.4886,0.48827,0.48815,0.48824,0.48825,0.48851,0.48902,0.4893,0.48988,0.49078,0.49121,0.49199,0.49283,0.49381,0.49474,0.49597,0.49687,0.49756,0.4983,0.49927,0.49985,0.50074,0.50127,0.50162,0.50222,0.50275,0.50302,0.50349,0.50325,0.50371,0.50367,0.50361,0.50365,0.5035,0.50338,0.50309,0.50304,0.50266,0.50264,0.50215,0.50174,0.50153,0.50129,0.50092,0.50064,0.50025,0.50001,0.50001,0.49942,0.49919,0.49877,0.49859,0.49859,0.49842,0.49822,0.49822,0.49795,0.49803,0.49783,0.49779,0.4978,0.49788,0.49794,0.49804,0.49807,0.49828,0.49824,0.4985,0.49868,0.49877,0.49881,0.49912,0.49917,0.49944,0.49971,0.49973,0.49984,0.5001,0.50014,0.50027,0.50032,0.50022,0.50062,0.50075,0.50087,0.5008,0.50101,0.50079,0.50081,0.50079,0.50086,0.501,0.50089,0.50103,0.50081,0.50095,0.50092,0.5011,0.50057,0.50079,0.50062,0.50059,0.50085,0.50081,0.50078,0.50095,0.50076,0.50086,0.50096,0.50109,0.50114,0.50134,0.50145,0.50148,0.5015,0.50155,0.50182,0.50173,0.50171,0.50163,0.50172,0.5017,0.50168,0.5017,0.50151,0.50136,0.50132,0.50153,0.50134,0.50125,0.50126,0.50111,0.50123,0.50084,0.50084,0.50066,0.50078,0.50052,0.50047,0.50036
-0.49995,-0.49981,-0.50001,-0.49986,-0.49989,-0.49992,-0.49996,-0.50006,-0.50013,-0.50007,-0.50025,-0.50057,-0.50059,-0.50062,-0.50092,-0.50096,-0.50093,-0.50111,-0.50115,-0.5011,-0.50123,-0.50124,-0.50117,-0.50144,-0.50132,-0.50162,-0.50159,-0.50182,-0.50185,-0.50173,-0.50165,-0.50177,-0.50176,-0.50158,-0.50154,-0.50156,-0.50144,-0.50139,-0.50121,-0.50113,-0.50097,-0.501,-0.50046,-0.50057,-0.50048,-0.50019,-0.50009,-0.4999,-0.49977,-0.49974,-0.49972,-0.49947,-0.49824,-0.49511,-0.48936,-0.48049,-0.46804,-0.4519,-0.43276,-0.41123,-0.38811,-0.36337,-0.33821,-0.31272,-0.28692,-0.2608,-0.23501,-0.20925,-0.18329,-0.15783,-0.13268,-0.10773,-0.083608,-0.059307,-0.03609,-0.013292,0.0089888,0.030615,0.051627,0.071726,0.09153,0.11061,0.12944,0.14766,0.16553,0.18311,0.20038,0.21773,0.23455,0.25144,0.26829,0.28482,0.30142,0.31805,0.3342,0.35028,0.36598,0.38153,0.39643,0.41099,0.42516,0.43854,0.45112,0.46326,0.47435,0.48453,0.49406,0.50245,0.51006,0.51676,0.52262,0.52753,0.53149,0.53472,0.53675,0.53853,0.53902,0.53932,0.53848,0.53731,0.53571,0.53352,0.53104,0.52774,0.52446,0.52088,0.51704,0.51332,0.50943,0.50552,0.50198,0.49815,0.49456,0.49139,0.4885,0.48583,0.48325,0.4812,0.47961,0.4783,0.47716,0.47645,0.476,0.47594,0.4766,0.47725,0.47815,0.4792,0.48056,0.48212,0.48373,0.48547,0.48737,0.48927,0.49131,0.49326,0.49517,0.49742,0.49896,0.50067,0.50224,0.5038,0.505,0.50633,0.50738,0.50817,0.50901,0.50938,0.50996,0.51038,0.51031,0.51008,0.5098,0.50951,0.50909,0.50847,0.50785,0.50725,0.50643,0.50553,0.50455,0.50355,0.50266,0.50177,0.50081,0.50007,0.49917,0.49846,0.49778,0.49702,0.49669,0.49599,0.49548,0.49519,0.49465,0.49453,0.49422,0.49422,0.49421,0.49423,0.49441,0.49453,0.49475,0.49525,0.49566,0.49628,0.49667,0.49725,0.49772,0.49798,0.49851,0.49861,0.49897,0.4996,0.4999,0.49997,0.50039,0.50043,0.50071,0.50061,0.50073,0.50084,0.50076,0.50082,0.50077,0.50065,0.50055,0.50048,0.50035,0.50019,0.50006,0.49962,0.49958,0.49936,0.49902,0.49894,0.4988,0.49855,0.49834,0.49827,0.49803,0.49787,0.49768,0.49767,0.49782,0.49785,0.49808,0.49804,0.49823,0.49826,0.49818,0.49865,0.4987,0.49879,0.49905,0.49927,0.49946,0.49971,0.50003,0.49985,0.50022,0.50033,0.50052,0.50067,0.50077,0.50102,0.50099,0.50104,0.50093,0.50103,0.50121,0.50108,0.50122,0.50108,0.50091,0.50108,0.50083,0.50083,0.50062,0.50056,0.50046,0.50044,0.50038,0.5004,0.50015,0.50001,0.4996,0.49955,0.49946,0.49929,0.49924,0.49929,0.49908,0.49936,0.49927,0.49914,0.49942,0.4995,0.49944,0.49964,0.49956
0.50005,0.49723,0.49349,0.49061,0.4887,0.48768,0.48708,0.48682,0.48703,0.48757,0.48884,0.4894,0.49036,0.49128,0.4925,0.49352,0.49445,0.49542,0.49632,0.49698,0.49775,0.49835,0.49903,0.49918,0.49971,0.50007,0.50021,0.50029,0.50061,0.50056,0.50048,0.50053,0.50041,0.50071,0.50054,0.50039,0.50063,0.50037,0.50042,0.50027,0.50031,0.50015,0.50027,0.50018,0.50008,0.50006,0.49997,0.50007,0.50011,0.49998,0.50006,0.50358,0.51793,0.5437,0.58063,0.6284,0.68687,0.75571,0.83335,0.91681,1.0028,1.0887,1.1725,1.2518,1.3259,1.395,1.4581,1.5144,1.5645,1.6076,1.6443,1.6747,1.699,1.7176,1.7308,1.7388,1.7428,1.7426,1.7393,1.733,1.7241,1.7132,1.701,1.6876,1.6739,1.6596,1.6454,1.6311,1.6173,1.6042,1.5915,1.5798,1.5686,1.5576,1.5474,1.5375,1.5283,1.5201,1.5125,1.506,1.5005,1.4953,1.4908,1.4873,1.4849,1.4834,1.4828,1.4829,1.4836,1.4846,1.4862,1.4881,1.4905,1.4934,1.4963,1.4995,1.5021,1.5052,1.5075,1.5106,1.5126,1.5145,1.5164,1.5179,1.5192,1.5198,1.5202,1.5203,1.5204,1.5203,1.5197,1.5185,1.5176,1.5165,1.5152,1.5141,1.5124,1.511,1.5095,1.5079,1.5063,1.5044,1.5029,1.5017,1.5006,1.4994,1.4985,1.4973,1.4962,1.4952,1.4949,1.4945,1.4943,1.4942,1.4939,1.4938,1.4939,1.4942,1.4944,1.4946,1.4949,1.4953,1.496,1.4967,1.4972,1.4977,1.4983,1.4989,1.4994,1.4999,1.5007,1.5013,1.5014,1.5018,1.5021,1.5023,1.5029,1.5031,1.5034,1.5033,1.5032,1.5028,1.5029,1.503,1.5031,1.5032,1.5031,1.5026,1.5025,1.5023,1.5022,1.5018,1.5014,1.5009,1.5007,1.5007,1.5004,1.5004,1.5003,1.4999,1.4995,1.4991,1.499,1.4987,1.4988,1.4989,1.4989,1.4988,1.499,1.4988,1.4991,1.499,1.4989,1.4987,1.4985,1.499,1.4994,1.4995,1.4996,1.4995,1.4996,1.4997,1.5,1.5001,1.4999,1.5,1.5,1.4999,1.5002,1.5004,1.5004,1.5007,1.5005,1.5004,1.5003,1.5007,1.5007,1.5007,1.5007,1.5003,1.5002,1.5004,1.5004,1.5005,1.5004,1.5003,1.5003,1.5003,1.5003,1.5,1.5001,1.4997,1.4997,1.5,1.5001,1.5,1.4999,1.4997,1.4996,1.4994,1.4996,1.4999,1.5,1.4998,1.4999,1.5001,1.4996,1.5,1.4999,1.4999,1.4999,1.4999,1.4997,1.4997,1.4999,1.5,1.5001,1.4999,1.4996,1.4992,1.4993,1.4997,1.4996,1.5,1.5001,1.4999,1.4996,1.4995,1.4996,1.4994,1.4996,1.4997,1.4996,1.4996,1.4993,1.4994,1.4993,1.4995,1.4994,1.4998,1.4996
