0.30114,0.30047,0.29918,0.29812,0.29815,0.29789,0.29798,0.29805,0.29789,0.29822,0.2976,0.29741,0.29808,0.29871,0.29925,0.29965,0.30053,0.30082,0.30058,0.30088,0.30104,0.30073,0.30024,0.29979,0.29922,0.29998,0.30041,0.30085,0.29917,0.30015,0.30025,0.30105,0.29983,0.29861,0.29954,0.29751,0.29622,0.29542,0.2958,0.29637,0.29605,0.29584,0.29452,0.29544,0.29562,0.29629,0.2964,0.29609,0.29594,0.29727,0.29781,0.30171,0.47913,0.47911,0.47911,0.4791,0.46906,0.45066,0.43812,0.41979,0.40217,0.38458,0.36671,0.34341,0.32428,0.30432,0.28884,0.23772,0.27173,0.22361,0.20839,0.26483,0.21668,0.20835,0.1597,0.1597,0.24845,0.22961,0.1846,0.1597,0.1597,0.1597,0.1597,0.1597,0.27447,0.25157,0.20697,0.15969
0.0020261,-0.0040196,-0.0052434,-0.0045966,-0.00012751,0.0003558,-0.0033853,0.00052512,0.0062135,0.00010559,-0.011566,-0.014301,-0.010808,-0.01156,-0.013715,-0.010145,-0.01061,-0.0096451,-0.0060474,-0.0025015,0.0066092,0.015534,0.021127,0.025688,0.027569,0.033584,0.034778,0.027338,0.026973,0.034169,0.033403,0.019115,0.020261,0.029799,0.019064,0.020964,0.0059814,0.020043,0.01852,0.026962,0.016548,0.019805,0.019697,0.01873,0.0091777,0.010936,0.0031226,-0.0031892,-0.0095359,-0.012091,-0.014084,-0.066476,-1.1284,-1.0441,-0.93676,-0.83628,-0.73405,-0.59759,-0.44622,-0.28947,-0.14301,-0.0051923,0.092375,0.16416,0.24082,0.2968,0.34518,0.643,0.38034,0.67263,0.22671,0.36511,0.65707,0.1983,0.20434,0.19927,0.38172,0.60143,0.10324,0.1225,0.066208,-0.044032,-0.47419,-0.45278,0.36867,0.56031,-0.083351,-0.014752
0.016738,0.0079715,0.012067,0.011101,0.0072457,0.0055551,0.00661,0.0021511,0.0061399,-0.0032857,0.00070804,-0.00065993,-0.0041831,-0.0090559,-0.013459,-0.012913,-0.020907,-0.019419,-0.02103,-0.013943,-0.00886,-0.0039897,-0.0064943,-0.0094849,-0.0074044,-0.007334,-0.0046446,-0.010805,-0.0031427,-0.01175,0.00041352,-0.00706,-0.00093068,0.0032255,-0.0038901,0.0065697,-0.0031558,0.012659,-0.0078334,0.014138,-0.0058038,0.0079077,-0.0080905,0.0037391,-0.00085104,0.0015322,-0.0016508,0.0071535,0.0038125,0.0074903,0.010719,0.068825,-0.53962,-0.43161,-0.33847,-0.34091,-0.29562,-0.26809,-0.23023,-0.18923,-0.21029,-0.22448,-0.25132,-0.3005,-0.40477,-0.35833,-0.45506,-1.1107,-0.50755,-1.2324,-0.69126,-0.52626,-1.3334,-0.72084,-1.1565,-0.90815,-0.80239,-1.3736,-0.75155,-1.3588,-1.0318,-0.87255,-0.56811,-0.63531,-1.314,-1.5709,-0.92405,-1.5708
-0.047285,-0.049379,-0.047465,-0.049917,-0.05361,-0.049847,-0.052992,-0.047883,-0.047501,-0.053601,-0.052843,-0.06275,-0.070902,-0.068942,-0.076399,-0.07952,-0.083607,-0.09629,-0.10635,-0.11256,-0.12553,-0.1451,-0.15389,-0.15895,-0.16498,-0.15167,-0.14209,-0.1419,-0.12372,-0.11021,-0.10447,-0.10415,-0.097595,-0.086785,-0.08116,-0.081935,-0.08596,-0.081633,-0.091765,-0.095615,-0.095488,-0.085347,-0.088435,-0.091014,-0.093038,-0.088796,-0.094845,-0.10215,-0.10197,-0.092763,-0.077177,-0.085655,-0.081571,-0.082774,-0.10462,-0.12556,-0.1603,-0.20935,-0.27358,-0.33434,-0.37468,-0.39461,-0.38125,-0.35781,-0.31167,-0.26125,-0.21786,-0.14459,-0.11051,-0.099225,-0.015698,0.020943,0.050604,0.076867,0.12364,0.14408,0.17955,0.21242,0.31635,0.33196,0.35419,0.36343,0.35913,0.36403,0.32729,0.33574,0.32048,0.37025
