0.30114,0.30047,0.29918,0.29812,0.29815,0.29789,0.29798,0.29805,0.29789,0.29822,0.2976,0.29741,0.29808,0.29871,0.29925,0.29965,0.30053,0.30082,0.30058,0.30088,0.30104,0.30073,0.30024,0.29979,0.29922,0.29998,0.30041,0.30085,0.29917,0.30015,0.30025,0.30105,0.29983,0.29861,0.29954,0.29751,0.29622,0.29542,0.2958,0.29637,0.29605,0.29584,0.29452,0.29544,0.29562,0.29629,0.2964,0.29609,0.29594,0.29727,0.29781,0.29781,0.47913,0.47911,0.47911,0.4791,0.46906,0.45066,0.43812,0.41979,0.40217,0.38458,0.36671,0.34341,0.32428,0.30432,0.28884,0.28884,0.27173,0.27173,0.27173,0.26483,0.26483,0.26483,0.26483,0.26483,0.24845,0.24845,0.24845,0.24845,0.24845,0.24845,0.24845,0.24845,0.27447,0.27447,0.27447,0.27447
0.0020261,-0.0040196,-0.0052434,-0.0045966,-0.00012751,0.0003558,-0.0033853,0.00052512,0.0062135,0.00010559,-0.011566,-0.014301,-0.010808,-0.01156,-0.013715,-0.010145,-0.01061,-0.0096451,-0.0060474,-0.0025015,0.0066092,0.015534,0.021127,0.025688,0.027569,0.033584,0.034778,0.027338,0.026973,0.034169,0.033403,0.019115,0.020261,0.029799,0.019064,0.020964,0.0059814,0.020043,0.01852,0.026962,0.016548,0.019805,0.019697,0.01873,0.0091777,0.010936,0.0031226,-0.0031892,-0.0095359,-0.012091,-0.014084,-0.014084,-1.1284,-1.0441,-0.93676,-0.83628,-0.73405,-0.59759,-0.44622,-0.28947,-0.14301,-0.0051923,0.092375,0.16416,0.24082,0.2968,0.34518,0.34518,0.38034,0.38034,0.38034,0.36511,0.36511,0.36511,0.36511,0.36511,0.38172,0.38172,0.38172,0.38172,0.38172,0.38172,0.38172,0.38172,0.36867,0.36867,0.36867,0.36867
0.016738,0.0079715,0.012067,0.011101,0.0072457,0.0055551,0.00661,0.0021511,0.0061399,-0.0032857,0.00070804,-0.00065993,-0.0041831,-0.0090559,-0.013459,-0.012913,-0.020907,-0.019419,-0.02103,-0.013943,-0.00886,-0.0039897,-0.0064943,-0.0094849,-0.0074044,-0.007334,-0.0046446,-0.010805,-0.0031427,-0.01175,0.00041352,-0.00706,-0.00093068,0.0032255,-0.0038901,0.0065697,-0.0031558,0.012659,-0.0078334,0.014138,-0.0058038,0.0079077,-0.0080905,0.0037391,-0.00085104,0.0015322,-0.0016508,0.0071535,0.0038125,0.0074903,0.010719,0.010719,-0.53962,-0.43161,-0.33847,-0.34091,-0.29562,-0.26809,-0.23023,-0.18923,-0.21029,-0.22448,-0.25132,-0.3005,-0.40477,-0.35833,-0.45506,-0.45506,-0.50755,-0.50755,-0.50755,-0.52626,-0.52626,-0.52626,-0.52626,-0.52626,-0.80239,-0.80239,-0.80239,-0.80239,-0.80239,-0.80239,-0.80239,-0.80239,-1.314,-1.314,-1.314,-1.314
0.30531,0.30442,0.30326,0.30202,0.30294,0.30281,0.30181,0.30188,0.30258,0.30226,0.30164,0.30103,0.30239,0.3032,0.30246,0.30373,0.30446,0.30413,0.30442,0.30526,0.30538,0.30558,0.30415,0.30304,0.30381,0.30389,0.30425,0.30416,0.30294,0.3024,0.30525,0.30418,0.30315,0.30276,0.30246,0.30205,0.30037,0.3007,0.29958,0.30211,0.29949,0.30013,0.29822,0.30042,0.29951,0.30052,0.30038,0.30028,0.30068,0.30198,0.30171,0.30171,0.45473,0.43505,0.4187,0.40249,0.38137,0.37056,0.36123,0.348,0.33276,0.31472,0.29698,0.2796,0.26286,0.24301,0.23772,0.23772,0.22361,0.22361,0.22361,0.21668,0.21668,0.21668,0.21668,0.21668,0.22961,0.22961,0.22961,0.22961,0.22961,0.22961,0.22961,0.22961,0.25157,0.25157,0.25157,0.25157
-0.05228,-0.055321,-0.053649,-0.051911,-0.05458,-0.053549,-0.055156,-0.049673,-0.046367,-0.059135,-0.063975,-0.059207,-0.063465,-0.06361,-0.062386,-0.062773,-0.061531,-0.061602,-0.057292,-0.052899,-0.047373,-0.040333,-0.032856,-0.031811,-0.03213,-0.021444,-0.027082,-0.03666,-0.021166,-0.022952,-0.033398,-0.035494,-0.038153,-0.023803,-0.042335,-0.041728,-0.04878,-0.040437,-0.035353,-0.045071,-0.037723,-0.048004,-0.033404,-0.047829,-0.05164,-0.04823,-0.053267,-0.065546,-0.063403,-0.069025,-0.066476,-0.066476,-0.60266,-0.49952,-0.40706,-0.32748,-0.22612,-0.10113,0.02423,0.15101,0.27446,0.3856,0.46408,0.52549,0.57817,0.62558,0.643,0.643,0.67263,0.67263,0.67263,0.65707,0.65707,0.65707,0.65707,0.65707,0.60143,0.60143,0.60143,0.60143,0.60143,0.60143,0.60143,0.60143,0.56031,0.56031,0.56031,0.56031
0.066992,0.065509,0.064792,0.068221,0.061853,0.057932,0.061682,0.06092,0.059145,0.054062,0.055271,0.060529,0.052555,0.049502,0.049303,0.045173,0.043479,0.040744,0.041313,0.04771,0.051395,0.053409,0.055426,0.051209,0.050166,0.051387,0.055485,0.045478,0.055061,0.056421,0.050873,0.057209,0.05697,0.062047,0.063601,0.053494,0.066767,0.05962,0.068228,0.053863,0.065215,0.055564,0.059445,0.05687,0.062902,0.05467,0.063919,0.061595,0.063888,0.065547,0.068825,0.068825,-1.0731,-1.0085,-1.0197,-0.98445,-1.0024,-0.96242,-0.94741,-0.93587,-0.9498,-0.98491,-1.0206,-1.0887,-1.0799,-1.1549,-1.1107,-1.1107,-1.2324,-1.2324,-1.2324,-1.3334,-1.3334,-1.3334,-1.3334,-1.3334,-1.3736,-1.3736,-1.3736,-1.3736,-1.3736,-1.3736,-1.3736,-1.3736,-1.5709,-1.5709,-1.5709,-1.5709
0.28146,0.28001,0.27901,0.27954,0.27949,0.27844,0.27863,0.27902,0.2792,0.27851,0.27794,0.27885,0.27923,0.279,0.27979,0.28044,0.28079,0.28077,0.28102,0.28205,0.2822,0.28127,0.28058,0.28008,0.27958,0.28079,0.27987,0.27873,0.27876,0.27971,0.27953,0.28047,0.27902,0.27909,0.27929,0.27857,0.27778,0.27849,0.27765,0.27779,0.27738,0.27671,0.27653,0.27732,0.2768,0.27777,0.27714,0.2779,0.27821,0.27816,0.27922,0.27922,0.4247,0.40468,0.39401,0.37111,0.35967,0.34593,0.33863,0.3245,0.30756,0.29182,0.27435,0.2589,0.23545,0.2312,0.21307,0.21307,0.20839,0.20839,0.20839,0.20835,0.20835,0.20835,0.20835,0.20835,0.1846,0.1846,0.1846,0.1846,0.1846,0.1846,0.1846,0.1846,0.20697,0.20697,0.20697,0.20697
0.0087876,0.0085551,0.0094781,0.0013428,0.0055512,0.0085619,0.003303,0.0038681,0.0047321,0.0022129,0.0019732,-0.005635,-0.0052104,-0.0022155,-0.0086172,-0.0053313,-0.0060547,-0.0045819,-0.0023463,-0.0012487,0.0044123,0.013794,0.016555,0.016976,0.021984,0.023681,0.022065,0.025966,0.02669,0.016882,0.025985,0.012168,0.017341,0.020142,0.0035292,0.018075,-0.0037528,0.018336,-0.0043664,0.018862,-0.0020579,0.01406,0.0029277,0.0045157,-0.0031307,0.0047645,-0.0073548,-0.0074814,-0.011828,-0.0091733,-0.01582,-0.01582,-0.63926,-0.54932,-0.46712,-0.38964,-0.32022,-0.22514,-0.14878,-0.044036,0.03713,0.11803,0.16127,0.19608,0.20813,0.23256,0.22502,0.22502,0.22671,0.22671,0.22671,0.1983,0.1983,0.1983,0.1983,0.1983,0.10324,0.10324,0.10324,0.10324,0.10324,0.10324,0.10324,0.10324,-0.083351,-0.083351,-0.083351,-0.083351
-0.083038,-0.087783,-0.088305,-0.089974,-0.090875,-0.091809,-0.092841,-0.099884,-0.095845,-0.096567,-0.09199,-0.096665,-0.099261,-0.10014,-0.1048,-0.10473,-0.11,-0.10908,-0.10894,-0.1024,-0.099314,-0.096176,-0.099722,-0.10184,-0.098405,-0.096637,-0.09769,-0.10193,-0.095088,-0.10487,-0.094882,-0.095062,-0.092279,-0.092486,-0.097155,-0.084673,-0.089098,-0.080395,-0.10153,-0.084146,-0.095514,-0.086616,-0.10033,-0.089571,-0.093659,-0.089399,-0.091674,-0.086748,-0.086792,-0.085139,-0.086454,-0.086454,-0.75638,-0.75564,-0.7182,-0.7394,-0.69318,-0.68654,-0.68619,-0.68317,-0.70679,-0.70895,-0.77195,-0.74351,-0.81562,-0.71222,-0.81998,-0.81998,-0.69126,-0.69126,-0.69126,-0.72084,-0.72084,-0.72084,-0.72084,-0.72084,-0.75155,-0.75155,-0.75155,-0.75155,-0.75155,-0.75155,-0.75155,-0.75155,-0.92405,-0.92405,-0.92405,-0.92405
0.27557,0.27414,0.27459,0.27484,0.2734,0.27321,0.27314,0.27314,0.27379,0.2729,0.27338,0.27436,0.27371,0.27429,0.27487,0.27489,0.27521,0.2752,0.27575,0.27642,0.27559,0.27437,0.27425,0.2732,0.27406,0.27415,0.27337,0.27214,0.27396,0.27288,0.27428,0.27447,0.27279,0.27388,0.27322,0.27302,0.27295,0.27239,0.27181,0.27181,0.2717,0.27046,0.27172,0.27134,0.27189,0.27189,0.27258,0.27301,0.2727,0.27307,0.27469,0.27469,0.36168,0.34422,0.32387,0.3102,0.29347,0.28115,0.27157,0.25007,0.23295,0.21621,0.20213,0.18014,0.17334,0.1597,0.15971,0.15971,0.1597,0.1597,0.1597,0.1597,0.1597,0.1597,0.1597,0.1597,0.1597,0.1597,0.1597,0.1597,0.1597,0.1597,0.1597,0.1597,0.15969,0.15969,0.15969,0.15969
-0.070456,-0.069764,-0.073142,-0.074153,-0.074585,-0.071886,-0.074638,-0.076189,-0.072695,-0.073397,-0.078164,-0.08088,-0.079669,-0.081499,-0.084226,-0.08464,-0.080162,-0.082684,-0.080808,-0.077816,-0.075316,-0.067851,-0.066045,-0.064947,-0.063739,-0.056629,-0.058871,-0.058591,-0.059397,-0.0606,-0.066681,-0.062797,-0.071476,-0.065732,-0.071097,-0.079889,-0.070743,-0.082606,-0.068518,-0.08482,-0.064373,-0.083262,-0.072527,-0.080764,-0.078914,-0.081152,-0.081859,-0.092958,-0.083744,-0.091982,-0.092722,-0.092722,-0.37686,-0.28969,-0.21155,-0.16463,-0.092347,-0.043821,0.055329,0.10992,0.17765,0.23742,0.27492,0.27784,0.30216,0.3088,0.27835,0.27835,0.27315,0.27315,0.27315,0.20434,0.20434,0.20434,0.20434,0.20434,0.1225,0.1225,0.1225,0.1225,0.1225,0.1225,0.1225,0.1225,-0.014752,-0.014752,-0.014752,-0.014752
-0.15465,-0.16119,-0.15925,-0.15249,-0.15998,-0.16191,-0.16076,-0.16051,-0.15794,-0.16388,-0.16409,-0.15914,-0.16573,-0.168,-0.16514,-0.16933,-0.16942,-0.17089,-0.16883,-0.16384,-0.16348,-0.1629,-0.15798,-0.16095,-0.16113,-0.16108,-0.16355,-0.16824,-0.1592,-0.1616,-0.1615,-0.15416,-0.16259,-0.15236,-0.14923,-0.15527,-0.14656,-0.15687,-0.14544,-0.158,-0.14442,-0.1612,-0.14879,-0.15757,-0.14904,-0.15612,-0.15312,-0.15253,-0.15002,-0.15624,-0.14786,-0.14786,-0.46803,-0.44849,-0.45888,-0.44101,-0.43256,-0.45583,-0.48529,-0.53685,-0.57247,-0.62791,-0.69863,-0.7903,-0.7925,-0.87605,-0.92471,-0.92471,-1.0293,-1.0293,-1.0293,-1.1565,-1.1565,-1.1565,-1.1565,-1.1565,-1.3588,-1.3588,-1.3588,-1.3588,-1.3588,-1.3588,-1.3588,-1.3588,-1.5708,-1.5708,-1.5708,-1.5708
0.25533,0.25505,0.25514,0.2547,0.2544,0.25311,0.25296,0.25369,0.25386,0.25355,0.25363,0.25417,0.25494,0.25459,0.25474,0.25516,0.25501,0.25563,0.25549,0.25526,0.25478,0.25359,0.25279,0.25353,0.25351,0.25288,0.2532,0.2534,0.25242,0.25397,0.25439,0.25333,0.25382,0.25299,0.25355,0.25321,0.25178,0.25229,0.25172,0.25281,0.25023,0.25175,0.25091,0.25228,0.25212,0.25231,0.25256,0.25345,0.25291,0.25407,0.25466,0.25466,0.28969,0.27086,0.25908,0.24414,0.23173,0.21853,0.20727,0.19126,0.17518,0.16114,0.1597,0.1597,0.1597,0.1597,0.1597,0.1597,0.1597,0.1597,0.1597,0.1597,0.1597,0.1597,0.1597,0.1597,0.1597,0.1597,0.1597,0.1597,0.1597,0.1597,0.1597,0.1597,0.1597,0.1597,0.1597,0.1597
-0.09364,-0.097906,-0.090783,-0.091681,-0.093431,-0.094894,-0.097675,-0.093506,-0.091635,-0.099901,-0.10275,-0.10158,-0.10038,-0.10188,-0.10729,-0.10282,-0.10318,-0.10324,-0.098589,-0.097177,-0.094831,-0.089492,-0.090728,-0.091244,-0.083204,-0.07993,-0.088294,-0.081977,-0.081273,-0.086109,-0.081115,-0.093943,-0.093914,-0.080947,-0.10269,-0.093581,-0.11025,-0.08884,-0.10741,-0.086076,-0.10343,-0.099932,-0.10118,-0.10071,-0.10159,-0.10241,-0.11453,-0.10783,-0.11216,-0.11375,-0.11129,-0.11129,-0.22133,-0.136,-0.088059,-0.026587,0.032453,0.12131,0.18579,0.23469,0.27865,0.31883,0.31196,0.31147,0.32488,0.32095,0.28814,0.28814,0.26914,0.26914,0.26914,0.19927,0.19927,0.19927,0.19927,0.19927,0.066208,0.066208,0.066208,0.066208,0.066208,0.066208,0.066208,0.066208,-0.039209,-0.039209,-0.039209,-0.039209
-0.20358,-0.20822,-0.20521,-0.206,-0.20508,-0.20897,-0.20592,-0.20716,-0.20853,-0.20925,-0.20888,-0.21028,-0.21144,-0.21368,-0.21225,-0.21238,-0.21444,-0.21055,-0.2143,-0.20938,-0.20556,-0.20603,-0.2068,-0.20437,-0.20377,-0.20436,-0.20427,-0.20362,-0.20913,-0.20385,-0.20242,-0.20439,-0.19764,-0.20302,-0.19725,-0.19703,-0.20473,-0.18998,-0.20659,-0.18265,-0.20416,-0.19029,-0.21033,-0.19231,-0.19458,-0.20052,-0.20484,-0.1908,-0.20331,-0.19585,-0.19758,-0.19758,-0.33548,-0.32478,-0.30804,-0.3111,-0.32429,-0.36998,-0.40021,-0.43507,-0.48343,-0.5421,-0.61206,-0.62087,-0.71216,-0.74995,-0.814,-0.814,-0.81706,-0.81706,-0.81706,-0.90815,-0.90815,-0.90815,-0.90815,-0.90815,-1.0318,-1.0318,-1.0318,-1.0318,-1.0318,-1.0318,-1.0318,-1.0318,-1.2691,-1.2691,-1.2691,-1.2691
0.24198,0.24171,0.2408,0.24121,0.23957,0.23845,0.24004,0.24073,0.23951,0.23964,0.23984,0.24166,0.24071,0.23971,0.24145,0.24109,0.24164,0.2418,0.24158,0.24137,0.24079,0.23908,0.23955,0.24002,0.23919,0.23967,0.23989,0.23968,0.23942,0.24127,0.23858,0.24123,0.24004,0.23875,0.24088,0.23789,0.24028,0.23756,0.24008,0.23599,0.23939,0.23725,0.23914,0.23809,0.23941,0.23859,0.23957,0.24001,0.24021,0.23996,0.2413,0.2413,0.28259,0.26487,0.25332,0.24177,0.23301,0.22066,0.21588,0.19956,0.1883,0.17712,0.1712,0.1597,0.1597,0.1597,0.1597,0.1597,0.1597,0.1597,0.1597,0.1597,0.1597,0.1597,0.1597,0.1597,0.1597,0.1597,0.1597,0.1597,0.1597,0.1597,0.1597,0.1597,0.1597,0.1597,0.1597,0.1597
-0.15283,-0.15153,-0.14553,-0.14601,-0.15401,-0.15444,-0.14946,-0.15136,-0.15239,-0.15652,-0.15742,-0.15329,-0.15582,-0.16099,-0.15756,-0.15996,-0.15588,-0.1542,-0.15648,-0.15397,-0.15523,-0.15437,-0.1532,-0.14765,-0.14734,-0.14029,-0.14514,-0.14274,-0.14303,-0.1359,-0.15468,-0.14815,-0.15141,-0.14828,-0.15285,-0.16892,-0.15564,-0.16226,-0.15205,-0.16327,-0.15122,-0.16598,-0.15973,-0.15951,-0.15739,-0.16928,-0.1666,-0.16854,-0.16871,-0.16997,-0.1675,-0.1675,0.075772,0.12618,0.18569,0.20544,0.29107,0.30054,0.33366,0.33655,0.35095,0.35717,0.33481,0.32398,0.29405,0.29474,0.21363,0.21363,0.2123,0.2123,0.2123,0.12847,0.12847,0.12847,0.12847,0.12847,-0.044032,-0.044032,-0.044032,-0.044032,-0.044032,-0.044032,-0.044032,-0.044032,-0.24508,-0.24508,-0.24508,-0.24508
-0.14416,-0.14425,-0.14138,-0.13705,-0.1412,-0.13898,-0.14397,-0.14924,-0.1404,-0.14544,-0.14543,-0.14452,-0.14546,-0.14287,-0.14424,-0.1486,-0.14403,-0.14837,-0.14654,-0.13847,-0.14216,-0.13893,-0.13803,-0.13962,-0.13656,-0.13423,-0.13834,-0.14656,-0.13487,-0.13829,-0.13857,-0.1296,-0.14255,-0.12904,-0.12821,-0.14069,-0.11643,-0.14064,-0.11336,-0.13959,-0.11619,-0.14573,-0.12568,-0.1323,-0.12882,-0.13906,-0.125,-0.13953,-0.12804,-0.13446,-0.13202,-0.13202,-0.4682,-0.4723,-0.45137,-0.46585,-0.48092,-0.4877,-0.50786,-0.55041,-0.57113,-0.61363,-0.62049,-0.62358,-0.65698,-0.67166,-0.68266,-0.68266,-0.70587,-0.70587,-0.70587,-0.7962,-0.7962,-0.7962,-0.7962,-0.7962,-0.87255,-0.87255,-0.87255,-0.87255,-0.87255,-0.87255,-0.87255,-0.87255,-1.0388,-1.0388,-1.0388,-1.0388
0.24967,0.24931,0.25004,0.24948,0.24792,0.24826,0.24847,0.2485,0.24822,0.24724,0.24878,0.24924,0.24851,0.24887,0.24917,0.24963,0.24907,0.24911,0.24986,0.24892,0.248,0.24781,0.24715,0.24733,0.24818,0.24717,0.24786,0.24884,0.24883,0.24766,0.24985,0.2487,0.24777,0.24919,0.24716,0.24809,0.24773,0.24621,0.24762,0.24661,0.24687,0.24562,0.24848,0.24648,0.24778,0.24717,0.24852,0.24837,0.24876,0.24819,0.25032,0.25032,0.19068,0.17843,0.16995,0.16499,0.1597,0.1597,0.15971,0.1597,0.1597,0.1597,0.1597,0.1597,0.1597,0.1597,0.1597,0.1597,0.1597,0.1597,0.1597,0.1597,0.1597,0.1597,0.1597,0.1597,0.1597,0.1597,0.1597,0.1597,0.1597,0.1597,0.1597,0.1597,0.1597,0.1597,0.1597,0.1597
-0.058106,-0.053751,-0.04656,-0.055696,-0.058024,-0.050656,-0.0557,-0.058412,-0.05736,-0.063125,-0.05678,-0.060754,-0.063547,-0.058006,-0.064287,-0.061416,-0.05795,-0.061415,-0.058311,-0.057187,-0.060963,-0.052952,-0.051435,-0.053992,-0.043147,-0.045739,-0.052717,-0.044775,-0.037048,-0.059204,-0.048846,-0.054178,-0.056948,-0.049371,-0.070293,-0.059987,-0.060326,-0.055171,-0.064494,-0.054431,-0.062886,-0.065039,-0.061145,-0.063085,-0.067995,-0.069653,-0.070599,-0.073944,-0.071538,-0.071211,-0.076405,-0.076405,-0.37546,-0.30712,-0.27139,-0.18364,-0.16821,-0.1194,-0.12643,-0.11369,-0.1074,-0.12738,-0.15555,-0.15869,-0.16479,-0.22743,-0.23525,-0.23525,-0.28038,-0.28038,-0.28038,-0.42152,-0.42152,-0.42152,-0.42152,-0.42152,-0.47419,-0.47419,-0.47419,-0.47419,-0.47419,-0.47419,-0.47419,-0.47419,-0.69837,-0.69837,-0.69837,-0.69837
-0.24077,-0.24499,-0.24596,-0.24413,-0.24215,-0.2491,-0.24814,-0.24313,-0.24786,-0.24563,-0.24674,-0.24292,-0.24506,-0.24872,-0.24421,-0.24183,-0.24531,-0.24261,-0.24082,-0.24057,-0.23595,-0.24036,-0.23549,-0.2326,-0.23223,-0.23181,-0.24037,-0.23715,-0.23832,-0.23707,-0.23727,-0.23688,-0.22994,-0.23673,-0.23725,-0.21933,-0.23835,-0.20995,-0.2429,-0.21601,-0.24079,-0.22157,-0.23492,-0.22845,-0.23511,-0.22543,-0.24476,-0.22386,-0.23687,-0.23631,-0.23725,-0.23725,-0.064913,-0.071792,-0.087049,-0.11088,-0.099179,-0.13651,-0.16805,-0.17785,-0.18864,-0.18334,-0.18746,-0.18114,-0.20299,-0.227,-0.22825,-0.22825,-0.26615,-0.26615,-0.26615,-0.35363,-0.35363,-0.35363,-0.35363,-0.35363,-0.56811,-0.56811,-0.56811,-0.56811,-0.56811,-0.56811,-0.56811,-0.56811,-0.86061,-0.86061,-0.86061,-0.86061
0.23131,0.23214,0.23179,0.23096,0.23083,0.22999,0.23011,0.23031,0.22928,0.23012,0.23046,0.23072,0.23123,0.23077,0.23122,0.23089,0.23044,0.23125,0.23067,0.22966,0.22991,0.22895,0.22865,0.22961,0.22885,0.22876,0.23062,0.23069,0.22909,0.2316,0.23053,0.22953,0.23132,0.22926,0.23037,0.22953,0.22879,0.22925,0.22948,0.22838,0.22757,0.22985,0.22892,0.22908,0.22923,0.22987,0.23023,0.23064,0.23004,0.2314,0.23156,0.23156,0.15971,0.15971,0.15971,0.1597,0.1597,0.15971,0.1597,0.1597,0.1597,0.1597,0.1597,0.1597,0.1597,0.1597,0.1597,0.1597,0.1597,0.1597,0.1597,0.1597,0.1597,0.1597,0.1597,0.1597,0.1597,0.1597,0.1597,0.1597,0.1597,0.1597,0.1597,0.1597,0.1597,0.1597,0.1597,0.1597
-0.084185,-0.078555,-0.081183,-0.085022,-0.084075,-0.084935,-0.087462,-0.087963,-0.091417,-0.088112,-0.089249,-0.092099,-0.088004,-0.09146,-0.092626,-0.090105,-0.091803,-0.090772,-0.088924,-0.09348,-0.090019,-0.086273,-0.085786,-0.079929,-0.082726,-0.084864,-0.080726,-0.074134,-0.0852,-0.081572,-0.083348,-0.089883,-0.086896,-0.09044,-0.095796,-0.091062,-0.093658,-0.090803,-0.089485,-0.096213,-0.098878,-0.096158,-0.091981,-0.098817,-0.10299,-0.10002,-0.1033,-0.10346,-0.10028,-0.10485,-0.10481,-0.10481,-0.261,-0.20712,-0.11481,-0.10509,-0.065807,-0.068455,-0.071367,-0.071221,-0.097142,-0.11579,-0.13288,-0.15015,-0.21461,-0.20775,-0.27904,-0.27904,-0.26501,-0.26501,-0.26501,-0.36835,-0.36835,-0.36835,-0.36835,-0.36835,-0.45278,-0.45278,-0.45278,-0.45278,-0.45278,-0.45278,-0.45278,-0.45278,-0.60114,-0.60114,-0.60114,-0.60114
-0.086787,-0.089359,-0.087957,-0.084557,-0.095201,-0.092674,-0.089054,-0.092477,-0.08926,-0.0914,-0.088614,-0.087108,-0.093885,-0.091914,-0.085948,-0.091632,-0.089037,-0.087408,-0.087088,-0.084426,-0.088465,-0.090457,-0.083389,-0.081178,-0.083169,-0.087395,-0.081052,-0.088441,-0.082168,-0.081115,-0.082275,-0.074525,-0.08632,-0.081905,-0.070714,-0.085776,-0.066122,-0.095007,-0.06346,-0.093332,-0.071599,-0.092726,-0.072062,-0.083939,-0.075913,-0.09122,-0.071736,-0.083154,-0.080922,-0.084926,-0.076641,-0.076641,0.01518,-0.034842,-0.087078,-0.084649,-0.11957,-0.16769,-0.15807,-0.18845,-0.18574,-0.19395,-0.17001,-0.24548,-0.24894,-0.29887,-0.31158,-0.31158,-0.42762,-0.42762,-0.42762,-0.46833,-0.46833,-0.46833,-0.46833,-0.46833,-0.63531,-0.63531,-0.63531,-0.63531,-0.63531,-0.63531,-0.63531,-0.63531,-0.72269,-0.72269,-0.72269,-0.72269
0.22958,0.23016,0.22967,0.22959,0.22856,0.22772,0.22804,0.22828,0.22775,0.22814,0.22814,0.229,0.22933,0.22882,0.2283,0.22805,0.22856,0.22829,0.22825,0.22784,0.2272,0.22654,0.22632,0.22646,0.22659,0.22774,0.22785,0.22848,0.22864,0.22975,0.22789,0.22898,0.22832,0.22842,0.22827,0.22648,0.22803,0.2268,0.22799,0.22486,0.22781,0.22653,0.22803,0.22693,0.22813,0.22798,0.22898,0.22794,0.22943,0.22944,0.2296,0.2296,0.15971,0.1597,0.15971,0.15968,0.15971,0.15969,0.15971,0.1597,0.1597,0.1597,0.1597,0.1597,0.1597,0.1597,0.1597,0.1597,0.1597,0.1597,0.1597,0.1597,0.1597,0.1597,0.1597,0.1597,0.1597,0.1597,0.1597,0.1597,0.1597,0.1597,0.1597,0.1597,0.18021,0.18021,0.18021,0.18021
-0.075107,-0.074768,-0.070822,-0.068942,-0.077186,-0.077938,-0.077074,-0.07641,-0.079417,-0.083431,-0.083141,-0.07767,-0.081041,-0.082737,-0.081151,-0.085081,-0.082994,-0.08164,-0.080974,-0.080288,-0.079457,-0.081336,-0.074159,-0.076782,-0.078518,-0.072941,-0.073839,-0.078062,-0.068743,-0.069677,-0.079472,-0.079445,-0.080866,-0.076302,-0.083623,-0.087138,-0.084919,-0.078267,-0.078438,-0.093565,-0.086423,-0.089522,-0.079445,-0.09288,-0.090497,-0.091912,-0.092511,-0.093188,-0.092327,-0.09389,-0.089473,-0.089473,0.045666,0.13702,0.13923,0.17799,0.20653,0.21561,0.23679,0.19615,0.16904,0.15435,0.13765,0.051675,0.090815,0.046127,0.047337,0.047337,-0.059064,-0.059064,-0.059064,-0.089333,-0.089333,-0.089333,-0.089333,-0.089333,-0.092118,-0.092118,-0.092118,-0.092118,-0.092118,-0.092118,-0.092118,-0.092118,-0.09896,-0.09896,-0.09896,-0.09896
-0.16148,-0.16104,-0.15913,-0.15879,-0.15546,-0.16171,-0.16518,-0.15932,-0.16117,-0.16199,-0.16674,-0.16381,-0.15713,-0.16071,-0.16028,-0.15843,-0.16129,-0.15704,-0.1563,-0.15912,-0.15381,-0.15535,-0.15457,-0.14948,-0.15195,-0.15136,-0.1494,-0.1466,-0.15376,-0.14077,-0.1428,-0.15468,-0.1442,-0.1456,-0.14818,-0.142,-0.15924,-0.13761,-0.14826,-0.13773,-0.15808,-0.14244,-0.14854,-0.14711,-0.15144,-0.14522,-0.15624,-0.14771,-0.15447,-0.15188,-0.1514,-0.1514,-0.43245,-0.46847,-0.45906,-0.46008,-0.4513,-0.43842,-0.40549,-0.38296,-0.36251,-0.32862,-0.32525,-0.37206,-0.3754,-0.42042,-0.46419,-0.46419,-0.56601,-0.56601,-0.56601,-0.6568,-0.6568,-0.6568,-0.6568,-0.6568,-0.86013,-0.86013,-0.86013,-0.86013,-0.86013,-0.86013,-0.86013,-0.86013,-0.95578,-0.95578,-0.95578,-0.95578
0.23324,0.23387,0.23407,0.23184,0.2315,0.23218,0.23142,0.23111,0.23141,0.23131,0.23279,0.23199,0.23228,0.23219,0.23068,0.23163,0.23131,0.2311,0.23142,0.23065,0.22999,0.23076,0.22987,0.22973,0.23167,0.23029,0.23124,0.233,0.2331,0.22978,0.2333,0.23134,0.23234,0.23152,0.22959,0.23187,0.23115,0.23096,0.22881,0.23136,0.22932,0.2314,0.23026,0.23118,0.23049,0.23204,0.23183,0.23192,0.23271,0.23318,0.23232,0.23232,0.15972,0.15971,0.15969,0.15973,0.1597,0.15971,0.1597,0.15969,0.1597,0.1597,0.1597,0.1597,0.1597,0.1597,0.1597,0.1597,0.1597,0.1597,0.1597,0.1597,0.1597,0.1597,0.1597,0.1597,0.17194,0.17194,0.17194,0.17194,0.17194,0.17194,0.17194,0.17194,0.17803,0.17803,0.17803,0.17803
-0.11279,-0.10879,-0.10731,-0.11811,-0.11875,-0.11336,-0.11388,-0.12029,-0.12187,-0.11967,-0.11311,-0.11923,-0.12149,-0.11901,-0.1233,-0.12286,-0.11863,-0.11914,-0.12243,-0.11904,-0.12097,-0.11755,-0.11573,-0.1189,-0.11253,-0.11088,-0.11479,-0.11024,-0.10572,-0.12409,-0.12057,-0.11762,-0.11555,-0.12542,-0.13126,-0.12603,-0.12429,-0.11629,-0.13757,-0.1214,-0.13101,-0.1199,-0.13598,-0.12469,-0.13301,-0.12962,-0.1331,-0.13032,-0.13161,-0.1248,-0.13564,-0.13564,0.18136,0.23724,0.2597,0.29555,0.29567,0.30406,0.27405,0.26339,0.25696,0.24164,0.21144,0.21214,0.18766,0.15139,0.12524,0.12524,0.10983,0.10983,0.10983,0.030025,0.030025,0.030025,0.030025,0.030025,0.066894,0.066894,0.066894,0.066894,0.066894,0.066894,0.066894,0.066894,0.016859,0.016859,0.016859,0.016859
-0.1836,-0.18311,-0.18376,-0.18057,-0.18777,-0.18769,-0.18284,-0.18409,-0.18698,-0.18785,-0.18559,-0.17934,-0.18698,-0.1875,-0.18106,-0.18667,-0.18089,-0.18151,-0.18279,-0.17829,-0.18055,-0.18388,-0.17614,-0.17678,-0.17825,-0.17111,-0.1749,-0.18095,-0.16892,-0.16921,-0.18467,-0.16709,-0.17416,-0.17456,-0.16842,-0.18175,-0.16277,-0.17516,-0.16295,-0.18662,-0.1629,-0.17889,-0.16737,-0.17545,-0.17144,-0.17757,-0.17147,-0.17664,-0.17345,-0.17637,-0.17607,-0.17607,-0.28604,-0.26811,-0.2725,-0.25852,-0.23501,-0.21008,-0.16479,-0.12832,-0.058303,-0.0026348,0.048455,0.065783,0.12025,0.1073,0.13396,0.13396,0.035134,0.035134,0.035134,-0.030218,-0.030218,-0.030218,-0.030218,-0.030218,-0.16748,-0.16748,-0.16748,-0.16748,-0.16748,-0.16748,-0.16748,-0.16748,-0.12579,-0.12579,-0.12579,-0.12579
0.21829,0.21845,0.21706,0.217,0.21699,0.2159,0.21718,0.21777,0.21614,0.21695,0.21677,0.21701,0.21693,0.21587,0.2164,0.21643,0.21645,0.2167,0.21606,0.21573,0.21633,0.21597,0.21637,0.21709,0.21567,0.21602,0.21692,0.2179,0.21574,0.21792,0.21615,0.21733,0.21751,0.21574,0.21781,0.2165,0.21628,0.21687,0.21695,0.21602,0.21649,0.21771,0.21675,0.21689,0.21742,0.21728,0.21699,0.21795,0.21777,0.21782,0.21777,0.21777,0.15971,0.1597,0.15972,0.15966,0.15971,0.15967,0.15971,0.1597,0.1597,0.1597,0.1597,0.1597,0.15969,0.1597,0.15969,0.15969,0.1597,0.1597,0.1597,0.1597,0.1597,0.1597,0.1597,0.1597,0.1597,0.1597,0.1597,0.1597,0.1597,0.1597,0.1597,0.1597,0.16864,0.16864,0.16864,0.16864
0.020224,0.023043,0.018834,0.015343,0.013917,0.016079,0.013812,0.01144,0.011573,0.014183,0.014343,0.010522,0.01214,0.012388,0.007374,0.011286,0.013024,0.0086634,0.013237,0.012106,0.011075,0.016645,0.015282,0.014505,0.017998,0.014555,0.014725,0.021957,0.016349,0.00802,0.015437,0.015351,0.0065283,0.0093712,0.0026772,0.0047262,0.011349,0.00074876,0.0066101,-0.0011358,0.0065571,-0.0040313,0.0055881,-0.0012199,-0.0008575,-0.0016631,0.0015461,-0.0036056,0.0055004,-0.00086306,-0.00029782,-0.00029782,0.15323,0.17926,0.22317,0.22702,0.23148,0.22729,0.21666,0.21734,0.20342,0.17308,0.15692,0.13601,0.085163,0.063712,0.030588,0.030588,0.03065,0.03065,0.03065,-0.0082312,-0.0082312,-0.0082312,-0.0082312,-0.0082312,0.004645,0.004645,0.004645,0.004645,0.004645,0.004645,0.004645,0.004645,0.047299,0.047299,0.047299,0.047299
-0.1356,-0.13716,-0.13221,-0.13717,-0.13614,-0.13266,-0.13731,-0.13873,-0.13792,-0.13901,-0.13441,-0.14023,-0.13778,-0.13486,-0.14017,-0.13337,-0.13627,-0.13664,-0.13194,-0.13528,-0.13661,-0.13078,-0.13347,-0.13176,-0.12263,-0.12966,-0.13168,-0.11765,-0.12328,-0.13582,-0.11437,-0.12782,-0.12776,-0.12104,-0.13565,-0.11612,-0.131,-0.11954,-0.13572,-0.11183,-0.13235,-0.12379,-0.12582,-0.12502,-0.12754,-0.12545,-0.13203,-0.12498,-0.12721,-0.13076,-0.13037,-0.13037,-0.83033,-0.82467,-0.80153,-0.7803,-0.75266,-0.73782,-0.70414,-0.64627,-0.60326,-0.54779,-0.50183,-0.4098,-0.38155,-0.25711,-0.23725,-0.23725,-0.14776,-0.14776,-0.14776,-0.091429,-0.091429,-0.091429,-0.091429,-0.091429,-0.20487,-0.20487,-0.20487,-0.20487,-0.20487,-0.20487,-0.20487,-0.20487,-0.16993,-0.16993,-0.16993,-0.16993
0.22831,0.22761,0.22802,0.22722,0.22706,0.22864,0.22805,0.22655,0.22729,0.22699,0.22748,0.22622,0.22642,0.22709,0.2262,0.22656,0.22689,0.22623,0.22623,0.22697,0.22668,0.22777,0.22756,0.22621,0.22746,0.22712,0.22777,0.22779,0.22813,0.22551,0.22886,0.22785,0.22668,0.22768,0.22704,0.22712,0.22814,0.22749,0.22737,0.22841,0.22818,0.22776,0.2274,0.22808,0.22767,0.22736,0.22823,0.22773,0.22826,0.22826,0.22795,0.22795,0.15969,0.1597,0.15969,0.15973,0.15969,0.15971,0.1597,0.15969,0.1597,0.1597,0.1597,0.15969,0.1597,0.15969,0.1597,0.1597,0.1597,0.1597,0.1597,0.1597,0.1597,0.1597,0.1597,0.1597,0.1597,0.1597,0.1597,0.1597,0.1597,0.1597,0.1597,0.1597,0.15969,0.15969,0.15969,0.15969
-0.0090655,-0.01037,-0.010844,-0.011575,-0.015374,-0.016924,-0.012508,-0.010998,-0.016205,-0.017616,-0.015881,-0.012642,-0.016798,-0.020839,-0.01522,-0.014815,-0.018747,-0.014158,-0.013509,-0.015219,-0.010358,-0.012486,-0.0092777,-0.0083775,-0.013484,-0.014344,-0.0098882,-0.01365,-0.013615,-0.012424,-0.016707,-0.020561,-0.013705,-0.020364,-0.023093,-0.017466,-0.025345,-0.014408,-0.023877,-0.022619,-0.030507,-0.01944,-0.022494,-0.026023,-0.028881,-0.024047,-0.02951,-0.02171,-0.027465,-0.026717,-0.021972,-0.021972,0.3279,0.36054,0.36547,0.36768,0.37187,0.36793,0.37311,0.37098,0.35023,0.33876,0.32286,0.28196,0.26224,0.23433,0.22837,0.22837,0.18691,0.18691,0.18691,0.16922,0.16922,0.16922,0.16922,0.16922,0.21162,0.21162,0.21162,0.21162,0.21162,0.21162,0.21162,0.21162,0.26963,0.26963,0.26963,0.26963
-0.11958,-0.11594,-0.11983,-0.1184,-0.11948,-0.12261,-0.11727,-0.11722,-0.1232,-0.11611,-0.12047,-0.11726,-0.11655,-0.1207,-0.1135,-0.11679,-0.11527,-0.11143,-0.11482,-0.11631,-0.11246,-0.11681,-0.11083,-0.10534,-0.11303,-0.11109,-0.10235,-0.10701,-0.11371,-0.095673,-0.11396,-0.10898,-0.10253,-0.11545,-0.10004,-0.11477,-0.10493,-0.1097,-0.099052,-0.11482,-0.10711,-0.10418,-0.1068,-0.1064,-0.10777,-0.11104,-0.1071,-0.10689,-0.11263,-0.10934,-0.11129,-0.11129,-0.73555,-0.73431,-0.72876,-0.71817,-0.73069,-0.71666,-0.68313,-0.66348,-0.62706,-0.58573,-0.53088,-0.48517,-0.40061,-0.36888,-0.25577,-0.25577,-0.24137,-0.24137,-0.24137,-0.17098,-0.17098,-0.17098,-0.17098,-0.17098,-0.10559,-0.10559,-0.10559,-0.10559,-0.10559,-0.10559,-0.10559,-0.10559,-0.26648,-0.26648,-0.26648,-0.26648
0.22141,0.22166,0.22221,0.22241,0.22293,0.22238,0.22136,0.22173,0.22211,0.22118,0.22083,0.22133,0.22218,0.2219,0.22122,0.22157,0.22126,0.22082,0.22122,0.22155,0.2219,0.22229,0.22142,0.22125,0.22152,0.22221,0.2214,0.22126,0.22164,0.22215,0.22225,0.22119,0.22173,0.22328,0.22121,0.22208,0.22139,0.22364,0.22289,0.22343,0.22226,0.22214,0.22259,0.22274,0.22219,0.22306,0.22221,0.22231,0.22299,0.22282,0.22285,0.22285,0.1597,0.15969,0.1597,0.15968,0.1597,0.1597,0.15971,0.15971,0.1597,0.1597,0.1597,0.1597,0.1597,0.1597,0.1597,0.1597,0.1597,0.1597,0.1597,0.1597,0.1597,0.1597,0.1597,0.1597,0.1597,0.1597,0.1597,0.1597,0.1597,0.1597,0.1597,0.1597,0.1597,0.1597,0.1597,0.1597
-0.033637,-0.035362,-0.037376,-0.038309,-0.042416,-0.038046,-0.033091,-0.039503,-0.041431,-0.039552,-0.035739,-0.037566,-0.045528,-0.040168,-0.036984,-0.043098,-0.037146,-0.036808,-0.041099,-0.033947,-0.035441,-0.037633,-0.031041,-0.037723,-0.039699,-0.032355,-0.035533,-0.044545,-0.03313,-0.042065,-0.049669,-0.034895,-0.04264,-0.047723,-0.041609,-0.050184,-0.039945,-0.043351,-0.046563,-0.053471,-0.041774,-0.044798,-0.048699,-0.047751,-0.047172,-0.050743,-0.044768,-0.048695,-0.049393,-0.044235,-0.04725,-0.04725,0.3973,0.42229,0.41336,0.42057,0.41953,0.42161,0.43328,0.41551,0.4117,0.40546,0.3881,0.35035,0.33495,0.31647,0.29448,0.29448,0.2415,0.2415,0.2415,0.2154,0.2154,0.2154,0.2154,0.2154,0.18473,0.18473,0.18473,0.18473,0.18473,0.18473,0.18473,0.18473,0.26771,0.26771,0.26771,0.26771
-0.1183,-0.11834,-0.1159,-0.11804,-0.1196,-0.11221,-0.11593,-0.12021,-0.11569,-0.11898,-0.11466,-0.11736,-0.12042,-0.11298,-0.11532,-0.11656,-0.11255,-0.11494,-0.11308,-0.10834,-0.11103,-0.1065,-0.1025,-0.10815,-0.10419,-0.099329,-0.10801,-0.10844,-0.093354,-0.1125,-0.10634,-0.09927,-0.10804,-0.10037,-0.11094,-0.10255,-0.10085,-0.10018,-0.10389,-0.10313,-0.097961,-0.10576,-0.09907,-0.10491,-0.10726,-0.10286,-0.10296,-0.11124,-0.10526,-0.10825,-0.11063,-0.11063,-0.63997,-0.60938,-0.5989,-0.6018,-0.56014,-0.53138,-0.51613,-0.48012,-0.44156,-0.39933,-0.36826,-0.30398,-0.27719,-0.16614,-0.15888,-0.15888,-0.077962,-0.077962,-0.077962,-0.022242,-0.022242,-0.022242,-0.022242,-0.022242,-0.058651,-0.058651,-0.058651,-0.058651,-0.058651,-0.058651,-0.058651,-0.058651,0.04226,0.04226,0.04226,0.04226
0.20869,0.20837,0.20908,0.20913,0.20825,0.20811,0.2079,0.20793,0.20808,0.20732,0.20793,0.20847,0.20809,0.20792,0.20772,0.20757,0.20766,0.20743,0.20757,0.20791,0.20736,0.207,0.20721,0.20675,0.20738,0.20781,0.20672,0.207,0.2084,0.20708,0.20768,0.20804,0.20727,0.20827,0.20712,0.20806,0.20809,0.20929,0.20797,0.20817,0.20795,0.20754,0.20851,0.20801,0.20821,0.20843,0.20794,0.20858,0.20891,0.2085,0.20894,0.20894,0.15973,0.15971,0.15971,0.1597,0.15971,0.15969,0.15971,0.15971,0.1597,0.1597,0.1597,0.15971,0.1597,0.1597,0.1597,0.1597,0.1597,0.1597,0.1597,0.1597,0.1597,0.1597,0.1597,0.1597,0.16392,0.16392,0.16392,0.16392,0.16392,0.16392,0.16392,0.16392,0.18272,0.18272,0.18272,0.18272
0.051946,0.052211,0.052154,0.050416,0.051145,0.053507,0.048331,0.046251,0.050133,0.051621,0.050607,0.047639,0.052262,0.052969,0.047017,0.052239,0.051126,0.047386,0.053495,0.050402,0.048621,0.053462,0.046202,0.045814,0.053267,0.050554,0.047296,0.05504,0.049721,0.043007,0.053457,0.046796,0.04189,0.049855,0.036742,0.043941,0.044,0.037309,0.037416,0.041167,0.044045,0.034533,0.042068,0.038735,0.040023,0.042357,0.040943,0.038886,0.046422,0.040426,0.043307,0.043307,0.074215,0.077883,0.096729,0.095146,0.096927,0.10502,0.085998,0.073032,0.063063,0.049232,0.030875,0.028307,0.0073132,-0.010474,-0.050325,-0.050325,-0.058093,-0.058093,-0.058093,-0.13867,-0.13867,-0.13867,-0.13867,-0.13867,-0.17177,-0.17177,-0.17177,-0.17177,-0.17177,-0.17177,-0.17177,-0.17177,-0.25715,-0.25715,-0.25715,-0.25715
-0.047383,-0.044665,-0.043855,-0.048057,-0.041973,-0.042051,-0.04987,-0.046361,-0.045167,-0.042687,-0.045345,-0.049843,-0.041175,-0.041728,-0.047756,-0.041632,-0.044725,-0.044265,-0.039604,-0.045357,-0.041614,-0.03647,-0.040132,-0.037981,-0.03434,-0.041949,-0.037919,-0.025668,-0.039427,-0.039676,-0.023807,-0.041569,-0.035418,-0.034062,-0.042304,-0.028057,-0.044773,-0.032779,-0.040831,-0.024655,-0.044614,-0.03354,-0.036496,-0.036813,-0.038752,-0.032513,-0.042717,-0.036569,-0.037764,-0.040065,-0.040898,-0.040898,-0.85573,-0.84131,-0.84778,-0.81861,-0.82073,-0.82667,-0.82853,-0.80262,-0.79247,-0.77464,-0.75771,-0.73994,-0.69075,-0.67498,-0.62127,-0.62127,-0.65593,-0.65593,-0.65593,-0.76094,-0.76094,-0.76094,-0.76094,-0.76094,-0.71672,-0.71672,-0.71672,-0.71672,-0.71672,-0.71672,-0.71672,-0.71672,-0.80496,-0.80496,-0.80496,-0.80496
0.23059,0.23112,0.23166,0.23083,0.23049,0.23022,0.22971,0.22967,0.22977,0.22992,0.23035,0.23008,0.23062,0.23022,0.22937,0.22954,0.22944,0.22946,0.22939,0.22904,0.22859,0.22845,0.22817,0.22851,0.22939,0.22836,0.22906,0.23007,0.22933,0.22911,0.23064,0.22913,0.22975,0.22937,0.22933,0.22975,0.22982,0.23028,0.22955,0.23046,0.22849,0.22986,0.22941,0.23025,0.23007,0.22976,0.23003,0.23069,0.2305,0.23103,0.23061,0.23061,0.15968,0.15968,0.15968,0.15971,0.15969,0.15971,0.1597,0.1597,0.1597,0.1597,0.15971,0.1597,0.15971,0.1597,0.15971,0.15971,0.1597,0.1597,0.1597,0.1597,0.1597,0.1597,0.1597,0.1597,0.1597,0.1597,0.1597,0.1597,0.1597,0.1597,0.1597,0.1597,0.1597,0.1597,0.1597,0.1597
0.006311,0.0067622,0.0095857,0.010731,0.007601,0.0025117,0.0063263,0.01137,0.008444,0.0056933,0.005987,0.011765,0.010156,0.0065588,0.0096187,0.008818,0.0062662,0.011101,0.010276,0.0075329,0.0087904,0.0041887,0.0047395,0.0084816,0.0052045,0.0044307,0.0058789,0.003336,0.0041591,0.011958,0.0017646,-0.0021759,0.0067854,0.0028754,0.0016312,0.001113,-0.0052938,0.0024001,-0.0016558,1.4971e-06,-0.0069523,0.0023687,-0.00054777,0.00014814,0.0010772,0.00048402,-0.0012135,0.0041921,-0.0012854,0.0029859,0.0061905,0.0061905,0.17464,0.18302,0.18332,0.17856,0.17899,0.17174,0.15188,0.13467,0.11666,0.1051,0.085126,0.075681,0.059124,0.033436,0.013831,0.013831,-0.022553,-0.022553,-0.022553,-0.067273,-0.067273,-0.067273,-0.067273,-0.067273,-0.12966,-0.12966,-0.12966,-0.12966,-0.12966,-0.12966,-0.12966,-0.12966,-0.14525,-0.14525,-0.14525,-0.14525
-0.11526,-0.11464,-0.11834,-0.11486,-0.11815,-0.12129,-0.11217,-0.11017,-0.11564,-0.11514,-0.11675,-0.11058,-0.11535,-0.11908,-0.11098,-0.11462,-0.11196,-0.10844,-0.11151,-0.10823,-0.1047,-0.10947,-0.10419,-0.10309,-0.11159,-0.10504,-0.10087,-0.10963,-0.10698,-0.095586,-0.11596,-0.10433,-0.10239,-0.11138,-0.10075,-0.11501,-0.10498,-0.10698,-0.098708,-0.11525,-0.10395,-0.10521,-0.10555,-0.10569,-0.10495,-0.10977,-0.10624,-0.10649,-0.11016,-0.10821,-0.10839,-0.10839,-0.29645,-0.2835,-0.27127,-0.26985,-0.27875,-0.27853,-0.2509,-0.2307,-0.20897,-0.19297,-0.17424,-0.14406,-0.12475,-0.098213,-0.050331,-0.050331,-0.097538,-0.097538,-0.097538,-0.21248,-0.21248,-0.21248,-0.21248,-0.21248,-0.25572,-0.25572,-0.25572,-0.25572,-0.25572,-0.25572,-0.25572,-0.25572,-0.36414,-0.36414,-0.36414,-0.36414
0.21848,0.21935,0.21904,0.21853,0.21822,0.21808,0.21795,0.21791,0.21785,0.21781,0.21837,0.21846,0.21833,0.21779,0.21767,0.21731,0.21763,0.21751,0.21711,0.21732,0.21705,0.21692,0.21748,0.21776,0.21745,0.21743,0.21771,0.21756,0.21819,0.21768,0.21716,0.21816,0.21815,0.21716,0.21797,0.21765,0.2194,0.21855,0.21962,0.21731,0.21838,0.2182,0.21884,0.21859,0.21813,0.21842,0.21887,0.21828,0.21925,0.21899,0.2183,0.2183,0.15973,0.15971,0.15971,0.15969,0.15971,0.15969,0.1597,0.1597,0.1597,0.1597,0.1597,0.1597,0.1597,0.1597,0.1597,0.1597,0.16097,0.16097,0.16097,0.17509,0.17509,0.17509,0.17509,0.17509,0.19592,0.19592,0.19592,0.19592,0.19592,0.19592,0.19592,0.19592,0.21841,0.21841,0.21841,0.21841
-0.04963,-0.045699,-0.045943,-0.045113,-0.052152,-0.052462,-0.046247,-0.0458,-0.050569,-0.050909,-0.047399,-0.042868,-0.047863,-0.049288,-0.046286,-0.04825,-0.047393,-0.046996,-0.04649,-0.049992,-0.052658,-0.053835,-0.053355,-0.050995,-0.053503,-0.05313,-0.050736,-0.049887,-0.047587,-0.045377,-0.058276,-0.051191,-0.052868,-0.052728,-0.054034,-0.063624,-0.051147,-0.067092,-0.050617,-0.072621,-0.051817,-0.06379,-0.05072,-0.061302,-0.053794,-0.060649,-0.050828,-0.057549,-0.052141,-0.054579,-0.050101,-0.050101,0.1376,0.16021,0.16792,0.17541,0.17172,0.15926,0.13005,0.10965,0.098645,0.079993,0.080756,0.088056,0.070096,0.052321,0.039374,0.039374,0.022333,0.022333,0.022333,-0.022177,-0.022177,-0.022177,-0.022177,-0.022177,-0.081525,-0.081525,-0.081525,-0.081525,-0.081525,-0.081525,-0.081525,-0.081525,-0.1255,-0.1255,-0.1255,-0.1255
0.04517,0.04265,0.039754,0.033913,0.034104,0.044536,0.045864,0.039104,0.039554,0.041238,0.047192,0.040146,0.034829,0.043654,0.042271,0.045878,0.048014,0.045744,0.048816,0.052046,0.050758,0.055583,0.057107,0.049448,0.055619,0.05499,0.053978,0.05425,0.061553,0.038411,0.054103,0.057157,0.049777,0.048814,0.040784,0.053257,0.052286,0.052882,0.039557,0.052807,0.048976,0.051845,0.047848,0.049521,0.043894,0.048365,0.049452,0.046355,0.046128,0.046481,0.042108,0.042108,-0.34212,-0.33611,-0.33823,-0.34315,-0.36522,-0.33402,-0.34009,-0.30693,-0.29127,-0.28809,-0.27847,-0.24273,-0.24816,-0.21946,-0.18261,-0.18261,-0.16746,-0.16746,-0.16746,-0.17994,-0.17994,-0.17994,-0.17994,-0.17994,-0.059382,-0.059382,-0.059382,-0.059382,-0.059382,-0.059382,-0.059382,-0.059382,0.013416,0.013416,0.013416,0.013416
0.22613,0.22586,0.22508,0.22492,0.22488,0.22474,0.22505,0.22522,0.22428,0.22495,0.22508,0.22483,0.22441,0.22413,0.22423,0.22439,0.22438,0.22421,0.22422,0.22419,0.22451,0.22434,0.22545,0.22503,0.22485,0.22448,0.22463,0.22529,0.22475,0.22383,0.22497,0.22522,0.22488,0.22387,0.22474,0.22618,0.2252,0.2273,0.22483,0.22605,0.22457,0.22649,0.22574,0.22549,0.22511,0.22584,0.22463,0.22625,0.22556,0.22526,0.22495,0.22495,0.15972,0.15971,0.1597,0.15971,0.1597,0.15968,0.1597,0.1597,0.1597,0.1597,0.1597,0.1597,0.15969,0.1597,0.16085,0.16085,0.16015,0.16015,0.16015,0.1769,0.1769,0.1769,0.1769,0.1769,0.19903,0.19903,0.19903,0.19903,0.19903,0.19903,0.19903,0.19903,0.22184,0.22184,0.22184,0.22184
-0.074814,-0.07107,-0.070471,-0.076351,-0.078089,-0.077203,-0.074843,-0.075694,-0.080918,-0.077837,-0.07283,-0.074051,-0.073975,-0.0753,-0.075904,-0.074261,-0.07629,-0.073576,-0.074185,-0.080444,-0.080927,-0.080821,-0.084756,-0.081615,-0.080391,-0.080929,-0.077337,-0.068519,-0.075333,-0.076406,-0.0775,-0.081361,-0.075368,-0.081513,-0.087698,-0.083886,-0.08909,-0.086736,-0.093495,-0.089079,-0.090947,-0.083262,-0.087401,-0.088008,-0.085844,-0.083317,-0.085245,-0.082223,-0.082384,-0.080431,-0.079741,-0.079741,0.21549,0.21615,0.24091,0.23638,0.24132,0.21734,0.20177,0.17315,0.15019,0.14411,0.14155,0.1518,0.1279,0.12793,0.095656,0.095656,0.10507,0.10507,0.10507,0.088995,0.088995,0.088995,0.088995,0.088995,0.071156,0.071156,0.071156,0.071156,0.071156,0.071156,0.071156,0.071156,0.03721,0.03721,0.03721,0.03721
0.054851,0.05313,0.047561,0.046348,0.052009,0.055034,0.05275,0.051049,0.052891,0.058092,0.054261,0.049064,0.054396,0.056816,0.056957,0.06011,0.058199,0.060171,0.062275,0.060514,0.064939,0.066458,0.064855,0.064436,0.061735,0.061269,0.066997,0.065577,0.057932,0.060011,0.067447,0.060804,0.061295,0.057318,0.058139,0.065187,0.055302,0.059005,0.056052,0.061554,0.055217,0.062313,0.058272,0.058223,0.053613,0.06233,0.058596,0.056927,0.056088,0.055749,0.05592,0.05592,-0.22297,-0.23371,-0.23681,-0.266,-0.26088,-0.27193,-0.25374,-0.23747,-0.24064,-0.22914,-0.21971,-0.22372,-0.23985,-0.20197,-0.20829,-0.20829,-0.13471,-0.13471,-0.13471,-0.017121,-0.017121,-0.017121,-0.017121,-0.017121,0.18649,0.18649,0.18649,0.18649,0.18649,0.18649,0.18649,0.18649,0.46302,0.46302,0.46302,0.46302
0.24058,0.24044,0.24103,0.24167,0.24049,0.24066,0.24085,0.24086,0.24077,0.23971,0.23973,0.24039,0.24028,0.23965,0.24015,0.2401,0.23951,0.23955,0.24003,0.23952,0.23965,0.23986,0.23993,0.24023,0.2396,0.23906,0.24064,0.24028,0.23997,0.24112,0.24125,0.24006,0.23952,0.24133,0.24069,0.23977,0.24108,0.23935,0.24354,0.23935,0.24134,0.23908,0.24279,0.24005,0.24102,0.23981,0.24135,0.24042,0.24122,0.23988,0.24186,0.24186,0.1597,0.1597,0.1597,0.15969,0.1597,0.15969,0.1597,0.1597,0.1597,0.1597,0.1612,0.1597,0.16594,0.17436,0.18382,0.18382,0.18727,0.18727,0.18727,0.21163,0.21163,0.21163,0.21163,0.21163,0.23971,0.23971,0.23971,0.23971,0.23971,0.23971,0.23971,0.23971,0.2782,0.2782,0.2782,0.2782
0.081911,0.086949,0.087069,0.082618,0.080524,0.082966,0.083199,0.080514,0.07873,0.081678,0.083707,0.081429,0.083049,0.084711,0.080385,0.080673,0.082889,0.081499,0.081656,0.078565,0.07582,0.078345,0.075305,0.075095,0.078135,0.077393,0.081858,0.08719,0.083694,0.082656,0.08188,0.080019,0.079272,0.079518,0.07593,0.068524,0.076374,0.0654,0.07377,0.06541,0.075102,0.07064,0.073504,0.070974,0.075226,0.071377,0.079423,0.07196,0.077521,0.079841,0.078294,0.078294,-0.01819,-0.015968,-0.01889,-0.0071038,-0.03258,-0.016201,-0.033265,-0.056448,-0.067691,-0.082693,-0.082531,-0.099188,-0.087832,-0.12037,-0.10536,-0.10536,-0.15259,-0.15259,-0.15259,-0.16043,-0.16043,-0.16043,-0.16043,-0.16043,-0.11617,-0.11617,-0.11617,-0.11617,-0.11617,-0.11617,-0.11617,-0.11617,-0.18909,-0.18909,-0.18909,-0.18909
-0.0021518,-0.005601,-0.0065518,-0.0053615,-0.00027315,0.0019417,-0.0001342,-0.00010868,0.0038018,0.0033907,-0.00039087,-0.0020562,-0.00047602,0.0044606,0.0044737,0.0023543,0.0067138,0.0078482,0.0054798,0.012041,0.014001,0.012906,0.016845,0.0099719,0.0079459,0.013711,0.0096221,0.00086696,0.0090504,0.0056924,0.0055609,0.0078248,0.0066705,0.0046906,0.0094172,0.0085044,0.001923,0.013566,0.0033698,0.013032,0.0062379,0.014056,0.0030739,0.0097502,0.0046777,0.010786,0.0056704,0.0044173,0.0013313,0.0077392,0.0018155,0.0018155,-0.043247,-0.053813,-0.095126,-0.092652,-0.11109,-0.094792,-0.076861,-0.057698,-0.037265,-0.017649,-0.026507,-0.054051,-0.024988,-0.031048,-0.016395,-0.016395,0.0004711,0.0004711,0.0004711,0.10433,0.10433,0.10433,0.10433,0.10433,0.27632,0.27632,0.27632,0.27632,0.27632,0.27632,0.27632,0.27632,0.5377,0.5377,0.5377,0.5377
0.23027,0.23107,0.23169,0.23089,0.23137,0.23076,0.23067,0.23107,0.22994,0.22964,0.22984,0.23008,0.23058,0.23048,0.22995,0.22991,0.22954,0.23024,0.22957,0.22948,0.23024,0.22978,0.23008,0.22976,0.22939,0.22994,0.23094,0.23032,0.23093,0.23168,0.23092,0.22879,0.23198,0.23058,0.22963,0.23091,0.22824,0.23418,0.22972,0.23243,0.22762,0.23325,0.22989,0.23145,0.22977,0.23111,0.23001,0.23127,0.22969,0.23206,0.23057,0.23057,0.15971,0.15971,0.1597,0.15972,0.1597,0.15971,0.1597,0.1597,0.1597,0.1597,0.1597,0.1597,0.1597,0.1597,0.16829,0.16829,0.17241,0.17241,0.17241,0.19024,0.19024,0.19024,0.19024,0.19024,0.22629,0.22629,0.22629,0.22629,0.22629,0.22629,0.22629,0.22629,0.24645,0.24645,0.24645,0.24645
-0.099945,-0.098232,-0.09725,-0.098858,-0.099507,-0.099896,-0.098913,-0.099276,-0.10194,-0.10163,-0.10129,-0.099822,-0.097439,-0.10112,-0.10245,-0.099686,-0.10024,-0.10079,-0.10029,-0.10336,-0.10356,-0.10191,-0.1063,-0.10441,-0.10277,-0.099072,-0.10227,-0.094082,-0.098401,-0.097806,-0.10294,-0.10267,-0.10067,-0.10007,-0.1085,-0.10723,-0.10772,-0.10493,-0.10968,-0.10677,-0.10336,-0.10508,-0.10567,-0.10569,-0.10482,-0.10202,-0.10735,-0.10465,-0.10064,-0.10333,-0.10261,-0.10261,0.0057361,0.021297,0.048784,0.028305,0.065443,0.048922,0.046191,0.032164,0.017864,0.014187,-0.0049073,-0.0036415,-0.026489,-0.012762,-0.067623,-0.067623,-0.041135,-0.041135,-0.041135,-0.056092,-0.056092,-0.056092,-0.056092,-0.056092,-0.11556,-0.11556,-0.11556,-0.11556,-0.11556,-0.11556,-0.11556,-0.11556,-0.15129,-0.15129,-0.15129,-0.15129
0.047795,0.04511,0.045291,0.052369,0.051088,0.048377,0.050591,0.056088,0.055887,0.052693,0.047281,0.054122,0.056549,0.052947,0.054023,0.059513,0.059057,0.056036,0.06308,0.060049,0.059617,0.060488,0.054124,0.055579,0.057208,0.058193,0.053521,0.060218,0.053438,0.061663,0.057763,0.057362,0.050182,0.063539,0.054166,0.050612,0.053407,0.046215,0.058836,0.051189,0.063134,0.043796,0.060897,0.05217,0.060084,0.055073,0.053463,0.053523,0.059127,0.048968,0.058095,0.058095,0.026946,-0.00369,-0.01003,-0.037277,-0.031597,-0.03774,-0.015209,-0.0068219,-0.005016,-0.01504,-0.031627,-0.030385,-0.036242,-0.036865,-0.046896,-0.046896,-0.0011769,-0.0011769,-0.0011769,0.054256,0.054256,0.054256,0.054256,0.054256,0.088405,0.088405,0.088405,0.088405,0.088405,0.088405,0.088405,0.088405,0.13568,0.13568,0.13568,0.13568
0.23209,0.23259,0.232,0.23181,0.23098,0.23173,0.23178,0.23037,0.23037,0.23098,0.23122,0.23106,0.2312,0.23106,0.23025,0.23009,0.23113,0.23006,0.23003,0.23046,0.22954,0.22988,0.22998,0.22914,0.22973,0.2313,0.23047,0.23108,0.23238,0.2306,0.22979,0.23228,0.2302,0.23073,0.23022,0.22915,0.23293,0.23074,0.23153,0.22829,0.2328,0.22996,0.23165,0.23062,0.23064,0.23091,0.23177,0.23003,0.2327,0.23154,0.23079,0.23079,0.15969,0.15968,0.1597,0.15967,0.1597,0.15969,0.1649,0.16292,0.16406,0.16727,0.17137,0.1738,0.17906,0.19539,0.19433,0.19433,0.21013,0.21013,0.21013,0.23767,0.23767,0.23767,0.23767,0.23767,0.26476,0.26476,0.26476,0.26476,0.26476,0.26476,0.26476,0.26476,0.30037,0.30037,0.30037,0.30037
-0.053816,-0.051056,-0.044435,-0.047322,-0.051882,-0.047968,-0.046716,-0.049407,-0.050954,-0.053223,-0.047506,-0.047521,-0.051462,-0.049156,-0.050265,-0.051649,-0.049957,-0.050978,-0.051301,-0.051778,-0.055519,-0.052998,-0.053529,-0.054999,-0.050637,-0.050631,-0.054141,-0.048328,-0.043964,-0.052492,-0.052954,-0.051119,-0.052269,-0.047597,-0.055851,-0.057329,-0.051847,-0.054934,-0.054421,-0.053679,-0.048988,-0.054679,-0.051436,-0.053268,-0.049006,-0.054425,-0.051048,-0.052129,-0.050996,-0.050115,-0.049693,-0.049693,-0.21824,-0.19958,-0.21375,-0.18783,-0.19934,-0.19512,-0.21602,-0.23384,-0.24138,-0.25584,-0.27198,-0.28414,-0.27347,-0.30584,-0.31536,-0.31536,-0.35901,-0.35901,-0.35901,-0.41326,-0.41326,-0.41326,-0.41326,-0.41326,-0.45773,-0.45773,-0.45773,-0.45773,-0.45773,-0.45773,-0.45773,-0.45773,-0.60391,-0.60391,-0.60391,-0.60391
-0.0301,-0.030865,-0.022515,-0.026167,-0.02749,-0.022239,-0.019603,-0.020846,-0.021371,-0.027097,-0.020222,-0.020515,-0.02414,-0.020381,-0.016634,-0.0158,-0.018439,-0.013278,-0.014681,-0.015661,-0.016614,-0.017192,-0.017951,-0.01783,-0.016863,-0.020853,-0.017975,-0.02008,-0.015065,-0.021616,-0.016914,-0.025243,-0.016763,-0.018685,-0.025457,-0.018077,-0.026626,-0.017521,-0.025545,-0.011108,-0.027795,-0.014893,-0.022152,-0.016745,-0.020925,-0.021439,-0.020573,-0.017229,-0.026061,-0.019242,-0.018534,-0.018534,-0.02938,-0.039756,-0.06217,-0.064129,-0.086879,-0.076394,-0.091016,-0.094042,-0.11047,-0.13001,-0.15378,-0.14905,-0.17239,-0.18847,-0.19726,-0.19726,-0.20039,-0.20039,-0.20039,-0.23424,-0.23424,-0.23424,-0.23424,-0.23424,-0.25043,-0.25043,-0.25043,-0.25043,-0.25043,-0.25043,-0.25043,-0.25043,-0.48219,-0.48219,-0.48219,-0.48219
0.2217,0.2213,0.22286,0.22216,0.22123,0.22177,0.22112,0.22141,0.22129,0.22013,0.22149,0.22194,0.22161,0.22115,0.22047,0.22134,0.22084,0.22035,0.22118,0.2203,0.21947,0.21982,0.21923,0.21887,0.2211,0.22066,0.21917,0.22186,0.22244,0.21901,0.22202,0.22059,0.22038,0.22217,0.21837,0.22193,0.22019,0.22237,0.21905,0.22219,0.22052,0.22058,0.22177,0.2207,0.22118,0.22218,0.21982,0.22198,0.22229,0.22089,0.22183,0.22183,0.171,0.17651,0.17527,0.1835,0.19074,0.192,0.1978,0.1944,0.19553,0.19951,0.20232,0.20323,0.21832,0.21832,0.22584,0.22584,0.22864,0.22864,0.22864,0.24711,0.24711,0.24711,0.24711,0.24711,0.27671,0.27671,0.27671,0.27671,0.27671,0.27671,0.27671,0.27671,0.3122,0.3122,0.3122,0.3122
-0.054448,-0.048881,-0.047837,-0.054713,-0.051294,-0.047736,-0.050808,-0.055619,-0.055331,-0.050267,-0.049041,-0.05597,-0.051222,-0.049816,-0.054831,-0.052772,-0.051913,-0.05306,-0.054204,-0.056054,-0.056829,-0.051847,-0.056421,-0.054682,-0.05129,-0.053112,-0.053112,-0.042283,-0.052133,-0.055364,-0.050813,-0.053195,-0.051594,-0.054645,-0.058468,-0.056129,-0.054779,-0.055468,-0.058765,-0.049169,-0.054117,-0.052217,-0.05916,-0.05199,-0.054168,-0.054217,-0.054814,-0.054983,-0.053207,-0.051209,-0.056458,-0.056458,-0.26148,-0.25224,-0.21429,-0.2228,-0.21241,-0.23109,-0.25628,-0.26295,-0.27797,-0.29401,-0.31993,-0.31006,-0.35007,-0.34504,-0.39824,-0.39824,-0.36205,-0.36205,-0.36205,-0.42095,-0.42095,-0.42095,-0.42095,-0.42095,-0.46863,-0.46863,-0.46863,-0.46863,-0.46863,-0.46863,-0.46863,-0.46863,-0.5993,-0.5993,-0.5993,-0.5993
-0.028972,-0.025459,-0.032691,-0.034276,-0.027064,-0.023619,-0.023641,-0.029067,-0.03109,-0.020414,-0.023167,-0.029029,-0.026159,-0.020075,-0.019314,-0.022189,-0.015093,-0.016783,-0.02166,-0.018293,-0.018838,-0.019969,-0.016894,-0.019742,-0.023233,-0.017086,-0.019597,-0.021473,-0.024522,-0.022988,-0.030296,-0.017374,-0.022461,-0.032981,-0.019236,-0.027837,-0.019958,-0.02283,-0.023651,-0.026616,-0.018816,-0.018179,-0.027736,-0.021191,-0.025627,-0.023324,-0.021375,-0.02695,-0.025839,-0.020271,-0.030973,-0.030973,0.017691,-0.005199,-0.012753,-0.036262,-0.044533,-0.055499,-0.07298,-0.085449,-0.095309,-0.1091,-0.12228,-0.1312,-0.1626,-0.17238,-0.19449,-0.19449,-0.19427,-0.19427,-0.19427,-0.23565,-0.23565,-0.23565,-0.23565,-0.23565,-0.29435,-0.29435,-0.29435,-0.29435,-0.29435,-0.29435,-0.29435,-0.29435,-0.55235,-0.55235,-0.55235,-0.55235
0.23833,0.23958,0.23941,0.23819,0.23776,0.23732,0.23868,0.23825,0.23677,0.23829,0.23915,0.23872,0.23822,0.23785,0.23832,0.23767,0.23792,0.23852,0.23718,0.23676,0.2364,0.23562,0.23583,0.2371,0.23678,0.23633,0.23766,0.23867,0.23656,0.23838,0.23665,0.23762,0.23875,0.23562,0.23828,0.23612,0.23765,0.23693,0.23702,0.23703,0.23645,0.23839,0.23608,0.23819,0.23838,0.2367,0.23813,0.23889,0.23724,0.23916,0.23814,0.23814,0.21599,0.21439,0.22037,0.22629,0.22542,0.22892,0.23042,0.23189,0.23642,0.24025,0.24743,0.25969,0.25917,0.26267,0.27069,0.27069,0.27834,0.27834,0.27834,0.29324,0.29324,0.29324,0.29324,0.29324,0.31671,0.31671,0.31671,0.31671,0.31671,0.31671,0.31671,0.31671,0.34782,0.34782,0.34782,0.34782
-0.086518,-0.086481,-0.087592,-0.088419,-0.086307,-0.083808,-0.08502,-0.087106,-0.086918,-0.086156,-0.08718,-0.089094,-0.088901,-0.087697,-0.08795,-0.088238,-0.084327,-0.086957,-0.088363,-0.084612,-0.084919,-0.083208,-0.08065,-0.083934,-0.083167,-0.08103,-0.085482,-0.084693,-0.08386,-0.089854,-0.089175,-0.083095,-0.087847,-0.089228,-0.086733,-0.087981,-0.083013,-0.081565,-0.084102,-0.082112,-0.080958,-0.083964,-0.086172,-0.083049,-0.086196,-0.086248,-0.088784,-0.087751,-0.086321,-0.087059,-0.091256,-0.091256,-0.13843,-0.10597,-0.11137,-0.10341,-0.11252,-0.121,-0.12819,-0.13227,-0.13855,-0.15738,-0.18604,-0.21625,-0.22044,-0.25383,-0.26524,-0.26524,-0.27925,-0.27925,-0.27925,-0.33059,-0.33059,-0.33059,-0.33059,-0.33059,-0.32056,-0.32056,-0.32056,-0.32056,-0.32056,-0.32056,-0.32056,-0.32056,-0.37903,-0.37903,-0.37903,-0.37903
0.13628,0.13448,0.13981,0.14416,0.14428,0.14639,0.13482,0.13793,0.14668,0.1403,0.13714,0.13887,0.148,0.14859,0.14042,0.14854,0.14467,0.13891,0.15129,0.1446,0.14114,0.14692,0.13755,0.13652,0.14604,0.13982,0.13588,0.1445,0.14288,0.13666,0.15658,0.13833,0.13043,0.156,0.13212,0.14583,0.14046,0.13322,0.14514,0.13978,0.1444,0.12491,0.15246,0.134,0.13905,0.14301,0.14119,0.13468,0.14903,0.13398,0.14508,0.14508,-0.15069,-0.17381,-0.19371,-0.19429,-0.18701,-0.18513,-0.18066,-0.20446,-0.2299,-0.24883,-0.25511,-0.28563,-0.2589,-0.25511,-0.26185,-0.26185,-0.24976,-0.24976,-0.24976,-0.211,-0.211,-0.211,-0.211,-0.211,-0.14722,-0.14722,-0.14722,-0.14722,-0.14722,-0.14722,-0.14722,-0.14722,-0.13133,-0.13133,-0.13133,-0.13133
0.28179,0.2824,0.28062,0.27994,0.27992,0.28095,0.28091,0.27961,0.27967,0.28125,0.2813,0.28031,0.28005,0.28051,0.28025,0.28026,0.28069,0.27981,0.28005,0.28001,0.27965,0.28014,0.28069,0.28048,0.28072,0.28051,0.28124,0.28088,0.28108,0.27972,0.28016,0.2819,0.28042,0.27941,0.28053,0.2802,0.28336,0.27959,0.28145,0.27853,0.28197,0.28021,0.28142,0.28057,0.27993,0.28056,0.28221,0.27993,0.28154,0.28099,0.28001,0.28001,0.169,0.16851,0.17714,0.18017,0.18619,0.19556,0.19886,0.20645,0.21479,0.2209,0.23361,0.24414,0.25033,0.25813,0.27281,0.27281,0.2794,0.2794,0.2794,0.29628,0.29628,0.29628,0.29628,0.29628,0.33473,0.33473,0.33473,0.33473,0.33473,0.33473,0.33473,0.33473,0.35605,0.35605,0.35605,0.35605
-0.012426,-0.014454,-0.013897,-0.013919,-0.012988,-0.01089,-0.010764,-0.012075,-0.012764,-0.014415,-0.014127,-0.015582,-0.016192,-0.014764,-0.013926,-0.011306,-0.011405,-0.012989,-0.011648,-0.010005,-0.0094424,-0.0074008,-0.0069548,-0.0085138,-0.0075939,-0.0095237,-0.011201,-0.010077,-0.012043,-0.016521,-0.010093,-0.01153,-0.015085,-0.012562,-0.015612,-0.010929,-0.012655,-0.0077588,-0.011492,-0.0051516,-0.012198,-0.012169,-0.011852,-0.010655,-0.014296,-0.015296,-0.016591,-0.013078,-0.015077,-0.016657,-0.015771,-0.015771,-0.0098155,0.0021837,0.011844,0.0075861,0.0054775,0.003964,0.0051404,0.016855,0.0046168,-0.020721,-0.048325,-0.061626,-0.098603,-0.10436,-0.11921,-0.11921,-0.10589,-0.10589,-0.10589,-0.12491,-0.12491,-0.12491,-0.12491,-0.12491,-0.12139,-0.12139,-0.12139,-0.12139,-0.12139,-0.12139,-0.12139,-0.12139,-0.092168,-0.092168,-0.092168,-0.092168
-0.043833,-0.039915,-0.029978,-0.028848,-0.030083,-0.039046,-0.037794,-0.028187,-0.032732,-0.039414,-0.036342,-0.027018,-0.027056,-0.032951,-0.029064,-0.031602,-0.037623,-0.028483,-0.031665,-0.036717,-0.034032,-0.041723,-0.041519,-0.034982,-0.040178,-0.042887,-0.038917,-0.042968,-0.03952,-0.025454,-0.037708,-0.051879,-0.028104,-0.034093,-0.036435,-0.032691,-0.049543,-0.026242,-0.037761,-0.03023,-0.0527,-0.027552,-0.037337,-0.034249,-0.035249,-0.032239,-0.039141,-0.027546,-0.03875,-0.02943,-0.027857,-0.027857,-0.14052,-0.15577,-0.17814,-0.17425,-0.19454,-0.19503,-0.22781,-0.25883,-0.28884,-0.29923,-0.31711,-0.32593,-0.30904,-0.34921,-0.33386,-0.33386,-0.37314,-0.37314,-0.37314,-0.36597,-0.36597,-0.36597,-0.36597,-0.36597,-0.34172,-0.34172,-0.34172,-0.34172,-0.34172,-0.34172,-0.34172,-0.34172,-0.34695,-0.34695,-0.34695,-0.34695
0.27368,0.27335,0.27283,0.27148,0.27319,0.27419,0.27207,0.272,0.27337,0.27318,0.27377,0.27168,0.27221,0.27333,0.27183,0.27245,0.27139,0.27159,0.27205,0.27203,0.27283,0.27405,0.27438,0.27343,0.27386,0.27226,0.27293,0.27232,0.27351,0.26941,0.27496,0.27179,0.27317,0.27262,0.2714,0.27716,0.27219,0.27572,0.27123,0.27625,0.2709,0.2758,0.27327,0.27373,0.27155,0.27546,0.27339,0.27345,0.27343,0.27387,0.27266,0.27266,0.15972,0.15971,0.15971,0.1597,0.1597,0.1597,0.16539,0.18114,0.19078,0.20265,0.21416,0.22381,0.22919,0.24303,0.25214,0.25214,0.26404,0.26404,0.26404,0.28073,0.28073,0.28073,0.28073,0.28073,0.31103,0.31103,0.31103,0.31103,0.31103,0.31103,0.31103,0.31103,0.34674,0.34674,0.34674,0.34674
0.036621,0.035297,0.03453,0.036107,0.035089,0.036558,0.039483,0.036877,0.034503,0.035515,0.034698,0.035681,0.033276,0.034405,0.039982,0.038043,0.038067,0.039468,0.038108,0.040187,0.042344,0.039922,0.044179,0.042686,0.037759,0.040173,0.041573,0.034425,0.036617,0.039521,0.034138,0.037527,0.037213,0.033862,0.037688,0.035928,0.037776,0.042159,0.040949,0.037392,0.036746,0.039008,0.037977,0.037254,0.033297,0.034204,0.03552,0.036358,0.031854,0.034168,0.03542,0.03542,0.11809,0.11877,0.11126,0.10133,0.095237,0.091812,0.099371,0.089893,0.066735,0.045899,0.026276,-0.0077008,-0.026394,-0.03367,-0.035067,-0.035067,-0.057331,-0.057331,-0.057331,-0.066086,-0.066086,-0.066086,-0.066086,-0.066086,-0.052945,-0.052945,-0.052945,-0.052945,-0.052945,-0.052945,-0.052945,-0.052945,-0.069637,-0.069637,-0.069637,-0.069637
-0.149,-0.14178,-0.14412,-0.14321,-0.15057,-0.15117,-0.14311,-0.14684,-0.15292,-0.1462,-0.14196,-0.13962,-0.14516,-0.14619,-0.14416,-0.15011,-0.1432,-0.14516,-0.14887,-0.14875,-0.15496,-0.15769,-0.15534,-0.15361,-0.15597,-0.15029,-0.15305,-0.14783,-0.14611,-0.14305,-0.16381,-0.14098,-0.14945,-0.1536,-0.14412,-0.16467,-0.13771,-0.16213,-0.14366,-0.17236,-0.13778,-0.15774,-0.14786,-0.1539,-0.14303,-0.15502,-0.14196,-0.15059,-0.14226,-0.14444,-0.14658,-0.14658,-0.0044259,0.010387,0.022011,0.0068597,0.016755,-0.027352,-0.063327,-0.10524,-0.12006,-0.14159,-0.14464,-0.13892,-0.1698,-0.16586,-0.21244,-0.21244,-0.18917,-0.18917,-0.18917,-0.15784,-0.15784,-0.15784,-0.15784,-0.15784,-0.23596,-0.23596,-0.23596,-0.23596,-0.23596,-0.23596,-0.23596,-0.23596,-0.1322,-0.1322,-0.1322,-0.1322
0.26344,0.26343,0.26214,0.26447,0.26441,0.26184,0.26227,0.26444,0.26395,0.26391,0.26189,0.26365,0.26426,0.26232,0.26271,0.26211,0.26135,0.26183,0.2623,0.26171,0.26331,0.26259,0.26251,0.26329,0.26085,0.26117,0.26308,0.26156,0.26003,0.26577,0.26241,0.26176,0.2626,0.26336,0.26537,0.26247,0.26247,0.26142,0.26612,0.26015,0.26354,0.26209,0.26481,0.26193,0.26444,0.26373,0.26407,0.26358,0.26447,0.26329,0.26518,0.26518,0.15968,0.15969,0.1597,0.1597,0.1597,0.1597,0.16916,0.17777,0.18581,0.19556,0.20777,0.20819,0.21959,0.22577,0.23922,0.23922,0.23767,0.23767,0.23767,0.2559,0.2559,0.2559,0.2559,0.2559,0.26382,0.26382,0.26382,0.26382,0.26382,0.26382,0.26382,0.26382,0.27597,0.27597,0.27597,0.27597
0.083349,0.083072,0.082837,0.082499,0.08297,0.086494,0.082531,0.0801,0.083086,0.08247,0.083778,0.082575,0.081368,0.086646,0.085432,0.083871,0.084783,0.083392,0.084948,0.087196,0.086246,0.086132,0.088455,0.082968,0.084262,0.085922,0.082975,0.076522,0.087307,0.077374,0.082068,0.083086,0.080073,0.082744,0.078367,0.08515,0.084542,0.086933,0.082269,0.080931,0.081631,0.081312,0.084432,0.080216,0.077077,0.083449,0.083756,0.078887,0.081892,0.082886,0.081633,0.081633,0.079286,0.082831,0.067782,0.067989,0.056975,0.070804,0.05823,0.038993,0.021448,0.0052667,-0.005867,-0.02911,-0.027182,-0.04472,-0.036093,-0.036093,-0.075619,-0.075619,-0.075619,-0.10238,-0.10238,-0.10238,-0.10238,-0.10238,-0.091012,-0.091012,-0.091012,-0.091012,-0.091012,-0.091012,-0.091012,-0.091012,-0.12314,-0.12314,-0.12314,-0.12314
0.015356,0.018396,0.022813,0.012671,0.012998,0.019535,0.013017,0.008916,0.012041,0.015119,0.020206,0.012082,0.017651,0.018482,0.0090276,0.016876,0.013664,0.011829,0.016797,0.0094107,0.0059247,0.013237,0.0045072,0.0053391,0.018332,0.0075915,0.010732,0.029431,0.018863,0.0030486,0.028349,0.012043,0.014492,0.016922,0.001471,0.018142,0.01143,0.0092954,-0.0011661,0.019854,0.0061693,0.011049,0.0084986,0.011485,0.010858,0.014664,0.011169,0.014481,0.017311,0.014646,0.013565,0.013565,-0.37287,-0.38342,-0.38798,-0.3689,-0.3887,-0.4,-0.42964,-0.45378,-0.47691,-0.49616,-0.50408,-0.5094,-0.49522,-0.52465,-0.52296,-0.52296,-0.5085,-0.5085,-0.5085,-0.49365,-0.49365,-0.49365,-0.49365,-0.49365,-0.31438,-0.31438,-0.31438,-0.31438,-0.31438,-0.31438,-0.31438,-0.31438,-0.28086,-0.28086,-0.28086,-0.28086
