-0.4836,-0.4832,-0.48274,-0.4823,-0.48164,-0.4811,-0.48054,-0.47986,-0.47922,-0.47857,-0.47786,-0.4771,-0.47639,-0.47558,-0.4748,-0.47398,-0.4732,-0.47231,-0.47152,-0.47073,-0.46989,-0.46908,-0.4684,-0.46787,-0.46726,-0.46674,-0.46629,-0.466,-0.46586,-0.4658,-0.46581,-0.4659,-0.4661,-0.46646,-0.46694,-0.46735,-0.46784,-0.46835,-0.46882,-0.46937,-0.46984,-0.47034,-0.47092,-0.47133,-0.4718,-0.4723,-0.47281,-0.47336,-0.47383,-0.47438,-0.47492,-0.47545,-0.47587,-0.47631,-0.47665,-0.47638,-0.47464,-0.47023,-0.46183,-0.44855,-0.42995,-0.40574,-0.37536,-0.33897,-0.29648,-0.24837,-0.19508,-0.13748,-0.076056,-0.011698,0.054946,0.12253,0.19078,0.2585,0.32516,0.38956,0.45104,0.51034,0.5645,0.61427,0.65921,0.69881,0.73321,0.76244,0.78573,0.80341,0.81544,0.82166,0.8224,0.81767,0.80805,0.79354,0.77465,0.75177,0.72538,0.69616,0.66427,0.63045,0.59508,0.55909,0.52331,0.48788,0.45332,0.41999,0.38833,0.35902,0.33246,0.30855,0.28786,0.27008,0.25593,0.24533,0.2381,0.23452,0.23425,0.23714,0.24328,0.25238,0.26413,0.27837,0.29488,0.31339,0.33341,0.35487,0.37736,0.40039,0.42379,0.44733,0.47035,0.49271,0.51423,0.53468,0.5535,0.5708,0.58625,0.59987,0.61125,0.62038,0.6274,0.632,0.63436,0.63443,0.63257,0.62855,0.62248,0.61447,0.6052,0.59435,0.58251,0.56947,0.55582,0.54164,0.52716,0.51249,0.49786,0.48361,0.4698,0.45661,0.44411,0.43261,0.42197,0.4125,0.40418,0.39706,0.39133,0.3869,0.38365,0.3815,0.3806,0.38082,0.38221,0.38461,0.38815,0.39231,0.39748,0.40329,0.40969,0.41659,0.42383,0.43136,0.43911,0.44678,0.45438,0.46183,0.4691,0.47606,0.48272,0.48895,0.49483,0.50016,0.50488,0.50907,0.5127,0.51567,0.51794,0.51958,0.52065,0.52102,0.52082,0.52006,0.51871,0.51701,0.51481,0.51222,0.50935,0.50628,0.50285,0.49931,0.49569,0.49205,0.48837,0.48476,0.48129,0.47795,0.47477,0.47179,0.46909,0.4666,0.46436,0.46235,0.46069,0.45921,0.458,0.45704,0.45637,0.45571,0.45552,0.45554,0.45552,0.45594,0.45625,0.45696,0.45758,0.45844,0.45928,0.46019,0.46116,0.46218,0.46321,0.46426,0.46516,0.46616,0.46712,0.46808,0.46897,0.46973,0.47049,0.47116,0.47178,0.47226,0.47274,0.47303,0.47338,0.47365,0.4738,0.47395,0.4741,0.47429,0.47445,0.47455,0.47472,0.47498,0.4752,0.47538,0.47562,0.47591,0.47618,0.47652,0.47687,0.4773,0.47774,0.47806,0.47849,0.47897,0.47943,0.47985,0.4802,0.48059,0.48103,0.48144,0.48188,0.48216,0.48241,0.48261,0.48279,0.48292,0.48307,0.48319,0.4833,0.48336,0.48341,0.48347,0.48348,0.48346,0.48341,0.48331,0.48318,0.48294,0.48256,0.48217,0.4816
-0.56803,-0.5692,-0.57067,-0.57198,-0.57355,-0.57498,-0.57669,-0.57836,-0.58017,-0.58178,-0.58367,-0.58522,-0.58693,-0.58846,-0.59005,-0.59133,-0.59294,-0.59421,-0.59535,-0.59644,-0.59748,-0.5983,-0.59878,-0.59903,-0.59925,-0.59927,-0.59902,-0.59863,-0.5979,-0.59715,-0.59611,-0.59504,-0.59382,-0.59233,-0.59098,-0.58959,-0.58823,-0.58678,-0.58526,-0.58379,-0.58238,-0.58084,-0.57959,-0.57823,-0.57709,-0.57605,-0.57495,-0.57415,-0.57348,-0.57287,-0.57253,-0.57245,-0.57255,-0.57288,-0.57322,-0.5733,-0.57243,-0.56998,-0.56511,-0.55748,-0.54677,-0.53238,-0.51453,-0.49306,-0.46809,-0.43988,-0.40851,-0.37421,-0.33699,-0.29762,-0.25585,-0.21285,-0.16727,-0.12088,-0.073026,-0.024262,0.02646,0.073337,0.12331,0.17229,0.22073,0.26861,0.31573,0.36109,0.40558,0.44868,0.48991,0.52961,0.56713,0.60275,0.63574,0.66644,0.69443,0.71985,0.74331,0.76415,0.78179,0.79599,0.80712,0.81638,0.82392,0.82936,0.83213,0.83308,0.83205,0.82941,0.82515,0.81896,0.81146,0.80262,0.79261,0.78146,0.76935,0.75629,0.74307,0.72928,0.71475,0.70006,0.68529,0.67061,0.65635,0.64222,0.62833,0.6153,0.60247,0.591,0.57992,0.57035,0.56157,0.55408,0.54792,0.54265,0.53876,0.53615,0.53435,0.5346,0.53451,0.53626,0.5394,0.54304,0.54784,0.55336,0.55968,0.56682,0.57453,0.58312,0.59156,0.60079,0.60993,0.61929,0.62856,0.63797,0.64705,0.65633,0.66486,0.6735,0.68148,0.6894,0.69672,0.70333,0.70966,0.71518,0.71983,0.72406,0.7282,0.73072,0.7337,0.73465,0.73533,0.73567,0.73569,0.73432,0.73204,0.72993,0.72694,0.72347,0.71961,0.71513,0.71035,0.70548,0.70014,0.69458,0.68912,0.68332,0.67771,0.67189,0.66612,0.66069,0.6553,0.65019,0.64549,0.64081,0.63654,0.63272,0.62914,0.62599,0.62334,0.62104,0.61912,0.61776,0.61667,0.61593,0.61581,0.61601,0.61639,0.61689,0.61803,0.61954,0.62122,0.62319,0.62529,0.62772,0.63008,0.6327,0.63539,0.63837,0.64133,0.64436,0.64736,0.65053,0.65347,0.65625,0.65919,0.66198,0.66454,0.66722,0.66962,0.67165,0.6737,0.67549,0.67703,0.67829,0.6794,0.6803,0.68095,0.68149,0.68183,0.6819,0.68156,0.68121,0.68071,0.6797,0.67897,0.67784,0.6767,0.67538,0.67398,0.67244,0.67087,0.66927,0.66745,0.66597,0.66424,0.66263,0.66107,0.65962,0.65828,0.65695,0.6558,0.65463,0.65363,0.65244,0.65158,0.65085,0.65013,0.64935,0.64879,0.64826,0.64782,0.64723,0.64673,0.64662,0.64631,0.64586,0.64548,0.64516,0.64491,0.64468,0.64442,0.64421,0.64399,0.6439,0.64389,0.64385,0.64381,0.6438,0.64378,0.64382,0.64392,0.64406,0.64426,0.64443,0.64467,0.64503,0.64541,0.64576,0.64609,0.64641,0.6468,0.64708,0.64754
0.25284,0.25324,0.25374,0.25408,0.25451,0.25483,0.25518,0.25563,0.25598,0.25631,0.25664,0.25681,0.257,0.25726,0.25733,0.25752,0.25783,0.25806,0.25816,0.25825,0.25831,0.25849,0.25857,0.25854,0.25857,0.25855,0.25842,0.25836,0.2582,0.25824,0.25814,0.25818,0.25816,0.25807,0.25796,0.25803,0.25796,0.25779,0.25756,0.25746,0.25742,0.25713,0.2569,0.25683,0.25661,0.25654,0.25667,0.25679,0.25703,0.25745,0.25791,0.2584,0.25885,0.25932,0.25943,0.26038,0.26444,0.27317,0.28701,0.30556,0.3284,0.35474,0.38461,0.4175,0.45312,0.49083,0.52983,0.57051,0.61264,0.65611,0.7008,0.74716,0.79402,0.84193,0.89014,0.93836,0.98621,1.0321,1.0778,1.1218,1.164,1.2045,1.2426,1.2778,1.3106,1.3407,1.3683,1.3936,1.4167,1.4379,1.4573,1.475,1.4912,1.5062,1.5198,1.5322,1.5446,1.5566,1.5681,1.5791,1.5894,1.5992,1.6082,1.6163,1.6231,1.6292,1.6344,1.6389,1.6424,1.6456,1.6477,1.6494,1.6507,1.6513,1.6519,1.6524,1.6526,1.6529,1.653,1.6532,1.6535,1.6539,1.6545,1.6553,1.6562,1.6576,1.6589,1.6605,1.662,1.6634,1.6648,1.666,1.6671,1.6681,1.6689,1.6699,1.6704,1.6709,1.6712,1.6714,1.6716,1.6718,1.6717,1.6716,1.6714,1.6711,1.6709,1.6707,1.6705,1.6703,1.6703,1.6702,1.67,1.6701,1.67,1.6699,1.6697,1.6696,1.6695,1.6691,1.6688,1.6684,1.668,1.6675,1.6673,1.6668,1.6666,1.6663,1.6659,1.6657,1.6656,1.6657,1.6658,1.6661,1.6664,1.6668,1.6674,1.668,1.6687,1.6694,1.6702,1.6709,1.6717,1.6723,1.6729,1.6735,1.674,1.6744,1.6748,1.6751,1.6752,1.6753,1.6751,1.6751,1.675,1.6747,1.6744,1.6741,1.6738,1.6735,1.6732,1.673,1.6729,1.6728,1.6727,1.6727,1.6726,1.6724,1.6722,1.6721,1.6718,1.6716,1.6713,1.6711,1.6707,1.6706,1.6704,1.6702,1.67,1.6698,1.6696,1.6694,1.6691,1.6688,1.6683,1.6679,1.6674,1.6668,1.6663,1.6659,1.6655,1.6654,1.6652,1.6652,1.6653,1.6653,1.6654,1.6654,1.6654,1.6655,1.6657,1.666,1.6664,1.6668,1.6671,1.6674,1.6677,1.6678,1.6679,1.668,1.6681,1.6682,1.6683,1.6685,1.6687,1.6689,1.6691,1.6693,1.6695,1.6697,1.6699,1.67,1.67,1.6698,1.6696,1.6694,1.6691,1.6687,1.6683,1.668,1.6676,1.6673,1.667,1.6669,1.6668,1.6667,1.6667,1.6668,1.667,1.6671,1.6672,1.6672,1.6672,1.6671,1.6669,1.6666,1.6663,1.6661,1.6659,1.6659,1.6659,1.666,1.666,1.666,1.666,1.6659,1.6658,1.6657,1.6656,1.6656,1.6657
