-0.56514,-0.56514,-0.56518,-0.5651,-0.56515,-0.56515,-0.56518,-0.56525,-0.56535,-0.56552,-0.56559,-0.56576,-0.56584,-0.56593,-0.56599,-0.56593,-0.56587,-0.56582,-0.56575,-0.56552,-0.56526,-0.56501,-0.56465,-0.56426,-0.56377,-0.56321,-0.56269,-0.56222,-0.56165,-0.56106,-0.56047,-0.55982,-0.55912,-0.55843,-0.55776,-0.55711,-0.55653,-0.55603,-0.55551,-0.5551,-0.55458,-0.55402,-0.55354,-0.55308,-0.55252,-0.5519,-0.55135,-0.55085,-0.55041,-0.54997,-0.54961,-0.5494,-0.54922,-0.54902,-0.54827,-0.54628,-0.54194,-0.53395,-0.52141,-0.50349,-0.47985,-0.45002,-0.41393,-0.37171,-0.32272,-0.26768,-0.20688,-0.14067,-0.070079,0.0041241,0.080662,0.159,0.23811,0.317,0.39495,0.47111,0.5448,0.61491,0.68198,0.74477,0.80309,0.85686,0.90543,0.94904,0.98627,1.0187,1.0454,1.0675,1.0834,1.0943,1.0997,1.0997,1.0949,1.0849,1.0705,1.0517,1.0291,1.0029,0.97333,0.94114,0.90662,0.87077,0.83347,0.796,0.75731,0.71984,0.68221,0.6467,0.61141,0.57867,0.54769,0.51935,0.49326,0.46993,0.44917,0.43158,0.41688,0.40482,0.39617,0.38998,0.38702,0.38661,0.38848,0.393,0.39991,0.40877,0.4192,0.43108,0.44442,0.45862,0.47377,0.48956,0.50587,0.52255,0.53921,0.55587,0.57228,0.58839,0.60367,0.61865,0.6325,0.64565,0.65761,0.66895,0.67888,0.6881,0.69608,0.70264,0.70806,0.71214,0.71519,0.71697,0.71769,0.717,0.71531,0.71263,0.7089,0.70449,0.69927,0.6932,0.68649,0.67924,0.67153,0.66339,0.65501,0.64628,0.63765,0.62907,0.62043,0.61208,0.60386,0.59601,0.58863,0.58176,0.5754,0.56954,0.56429,0.55984,0.55571,0.55243,0.54971,0.54758,0.54591,0.54508,0.54465,0.54487,0.54563,0.54665,0.5483,0.55027,0.55274,0.55532,0.55832,0.56165,0.5652,0.56898,0.57267,0.57673,0.58075,0.58478,0.5889,0.59307,0.59727,0.60133,0.60541,0.60943,0.6133,0.61707,0.62062,0.62391,0.627,0.62972,0.63227,0.63452,0.63639,0.63788,0.63902,0.63974,0.64025,0.64032,0.63994,0.63928,0.63819,0.63679,0.63508,0.63309,0.63076,0.6282,0.62554,0.62262,0.61947,0.61626,0.61296,0.60951,0.60607,0.60263,0.59925,0.59594,0.59287,0.58982,0.58702,0.58464,0.58238,0.58043,0.57891,0.57776,0.57698,0.57653,0.57633,0.57658,0.57713,0.57783,0.57877,0.58005,0.58151,0.5831,0.58495,0.58696,0.58903,0.59121,0.59349,0.59591,0.59838,0.60096,0.60361,0.60622,0.60892,0.61154,0.6141,0.61666,0.61905,0.62139,0.62357,0.62555,0.6274,0.62913,0.63065,0.63205,0.63323,0.63423,0.63504,0.6356,0.63596,0.63608,0.63603,0.63581,0.63528,0.63462,0.63366,0.63243,0.63103,0.62935,0.62754,0.62548,0.62327,0.62093,0.61849,0.61593,0.61357,0.61096,0.60838
-0.46295,-0.46513,-0.46748,-0.47023,-0.47302,-0.4759,-0.47875,-0.4818,-0.48486,-0.48781,-0.49078,-0.49367,-0.49659,-0.4994,-0.50217,-0.50469,-0.50712,-0.50922,-0.51119,-0.51275,-0.51427,-0.51542,-0.51614,-0.51677,-0.51738,-0.51778,-0.51812,-0.51826,-0.51837,-0.51854,-0.51872,-0.51896,-0.51928,-0.51965,-0.52008,-0.52053,-0.52107,-0.52166,-0.52234,-0.52312,-0.52398,-0.52493,-0.52586,-0.5267,-0.52768,-0.52858,-0.52937,-0.5301,-0.5306,-0.53095,-0.53124,-0.53131,-0.5312,-0.53085,-0.53024,-0.52912,-0.52715,-0.52451,-0.5207,-0.51615,-0.51096,-0.50517,-0.49897,-0.49275,-0.48695,-0.48134,-0.47663,-0.47223,-0.4688,-0.46604,-0.46414,-0.46267,-0.46218,-0.46214,-0.46246,-0.46297,-0.46335,-0.46386,-0.46416,-0.46387,-0.46272,-0.46166,-0.45755,-0.45415,-0.44904,-0.44209,-0.43317,-0.42151,-0.40821,-0.39249,-0.37536,-0.35592,-0.33448,-0.31065,-0.28497,-0.25664,-0.22627,-0.19407,-0.15934,-0.12287,-0.08509,-0.04553,-0.0047176,0.037432,0.079082,0.12265,0.16511,0.20855,0.24997,0.29167,0.33161,0.37091,0.40838,0.44371,0.47658,0.5077,0.53563,0.5609,0.5837,0.60298,0.62029,0.63428,0.64489,0.65267,0.65832,0.66086,0.66058,0.6569,0.65087,0.64177,0.63072,0.61702,0.60096,0.58353,0.56394,0.54371,0.52218,0.49942,0.47594,0.45259,0.42879,0.40525,0.3816,0.35975,0.33771,0.31773,0.29857,0.2801,0.26372,0.24832,0.2353,0.22412,0.21521,0.20744,0.20225,0.19913,0.19805,0.19872,0.20155,0.206,0.21268,0.22082,0.23054,0.24179,0.25415,0.26768,0.28224,0.29755,0.31339,0.32967,0.34607,0.36263,0.3794,0.3958,0.4113,0.42663,0.44107,0.4549,0.46747,0.47935,0.48984,0.49916,0.50748,0.5141,0.51936,0.52307,0.52566,0.52697,0.52646,0.52499,0.52221,0.5179,0.51265,0.50636,0.49914,0.49099,0.48219,0.47253,0.46264,0.45221,0.44144,0.43071,0.41996,0.40899,0.39837,0.38789,0.37783,0.36809,0.35885,0.35042,0.34262,0.33561,0.32934,0.32383,0.31919,0.31545,0.31245,0.31049,0.30916,0.30885,0.30952,0.31074,0.31299,0.31588,0.31942,0.32354,0.32836,0.33347,0.33909,0.3452,0.35183,0.35846,0.36548,0.37255,0.37961,0.3867,0.39385,0.40077,0.40737,0.41385,0.41974,0.42523,0.43037,0.43467,0.43865,0.44218,0.44536,0.44771,0.44957,0.45064,0.45126,0.45127,0.45067,0.4496,0.44794,0.44574,0.44311,0.44004,0.43675,0.43277,0.42868,0.4245,0.41987,0.41514,0.41029,0.40546,0.40061,0.39577,0.39116,0.38667,0.38234,0.37807,0.37425,0.37058,0.36733,0.36438,0.36192,0.35983,0.35817,0.35692,0.35607,0.35569,0.35569,0.35616,0.35709,0.35842,0.36029,0.36245,0.36485,0.36766,0.37065,0.37379,0.3771,0.38062,0.38412,0.38782,0.39118,0.39482,0.39823,0.40158,0.40466
0.13037,0.13067,0.13063,0.13078,0.13072,0.1305,0.13023,0.12976,0.12933,0.12883,0.12848,0.12809,0.12764,0.12731,0.12701,0.12672,0.12653,0.12638,0.12641,0.12668,0.12688,0.12711,0.12744,0.12777,0.12806,0.12798,0.12781,0.12765,0.12734,0.1271,0.12689,0.12669,0.12665,0.12676,0.12688,0.12702,0.12718,0.12725,0.12724,0.12712,0.12687,0.1266,0.12633,0.12606,0.12567,0.12525,0.12503,0.12472,0.12433,0.12406,0.12395,0.12398,0.12403,0.12376,0.1245,0.12864,0.13725,0.15119,0.16993,0.19357,0.22174,0.25414,0.2908,0.33143,0.37552,0.42332,0.47393,0.52771,0.5838,0.64219,0.70235,0.76391,0.82685,0.8907,0.95497,1.0195,1.0833,1.146,1.2068,1.2653,1.3207,1.3727,1.4222,1.4674,1.5091,1.5473,1.5818,1.6131,1.6405,1.6649,1.6855,1.7031,1.7177,1.7296,1.7396,1.748,1.7551,1.761,1.7663,1.7712,1.7755,1.7796,1.7834,1.7871,1.7908,1.7944,1.7982,1.8015,1.8047,1.8076,1.8102,1.8122,1.8143,1.8161,1.8181,1.8198,1.8211,1.8225,1.8239,1.8254,1.827,1.8286,1.8307,1.8328,1.8356,1.8386,1.8421,1.8462,1.8506,1.8552,1.86,1.865,1.8701,1.8755,1.8809,1.8864,1.8917,1.897,1.9021,1.9068,1.9111,1.915,1.9187,1.9218,1.9244,1.9266,1.9279,1.9288,1.929,1.9286,1.9277,1.9265,1.925,1.9233,1.9214,1.9193,1.917,1.9145,1.9117,1.909,1.9063,1.9036,1.901,1.8987,1.8965,1.8946,1.8928,1.8911,1.8897,1.8884,1.8873,1.8863,1.8854,1.8849,1.8845,1.8843,1.8843,1.8844,1.8847,1.885,1.8855,1.8861,1.8867,1.8876,1.8887,1.8898,1.8912,1.8925,1.8938,1.8953,1.8967,1.8981,1.8996,1.9009,1.9022,1.9036,1.9048,1.9061,1.9073,1.9084,1.9096,1.9108,1.912,1.9132,1.9142,1.9151,1.9159,1.9164,1.9167,1.9169,1.9168,1.9167,1.9164,1.9161,1.9158,1.9156,1.9153,1.915,1.9145,1.9141,1.9136,1.9131,1.9127,1.9121,1.9114,1.9107,1.9099,1.9092,1.9084,1.9074,1.9066,1.9058,1.9051,1.9043,1.9036,1.903,1.9024,1.9019,1.9015,1.9012,1.9011,1.901,1.9011,1.9011,1.9011,1.9012,1.9014,1.9017,1.902,1.9024,1.9029,1.9034,1.9038,1.9041,1.9045,1.905,1.9055,1.9061,1.9067,1.9074,1.9082,1.9091,1.9098,1.9106,1.9113,1.912,1.9126,1.9132,1.9137,1.9142,1.9146,1.9151,1.9155,1.9157,1.916,1.9163,1.9164,1.9165,1.9166,1.9165,1.9163,1.9161,1.9159,1.9156,1.9152,1.9148,1.9144,1.914,1.9137,1.9133,1.913,1.9127,1.9124,1.9121,1.9117,1.9112,1.9108,1.9104,1.91,1.9097,1.9094
