-0.5643,-0.56287,-0.56144,-0.55981,-0.55824,-0.5566,-0.55497,-0.55346,-0.55186,-0.55053,-0.54914,-0.5479,-0.54683,-0.54587,-0.54505,-0.5443,-0.54367,-0.54316,-0.54268,-0.5423,-0.54202,-0.54192,-0.54171,-0.54175,-0.542,-0.54223,-0.54266,-0.54325,-0.54395,-0.5447,-0.54559,-0.54655,-0.54766,-0.54885,-0.55009,-0.55144,-0.5529,-0.55441,-0.55604,-0.55768,-0.55931,-0.56108,-0.56275,-0.56449,-0.56614,-0.56787,-0.56951,-0.57107,-0.57254,-0.5741,-0.57539,-0.57665,-0.5777,-0.57847,-0.57861,-0.57719,-0.57331,-0.56623,-0.55521,-0.54043,-0.52154,-0.49836,-0.47074,-0.43825,-0.40109,-0.3596,-0.31356,-0.26366,-0.21084,-0.15484,-0.096526,-0.036721,0.024229,0.085739,0.14696,0.20771,0.26708,0.3246,0.37982,0.43237,0.48185,0.52813,0.57086,0.60988,0.64514,0.67637,0.70397,0.72747,0.74703,0.76289,0.77506,0.78361,0.78891,0.79075,0.78954,0.78546,0.77878,0.76975,0.75847,0.74514,0.73044,0.7144,0.69741,0.68013,0.66138,0.64201,0.6229,0.60305,0.58368,0.56384,0.54491,0.52629,0.50764,0.48979,0.47242,0.45545,0.43922,0.42354,0.40818,0.39342,0.37915,0.36525,0.35197,0.33922,0.32668,0.31493,0.30372,0.29285,0.28242,0.27262,0.26317,0.25432,0.24602,0.23808,0.23098,0.22436,0.21859,0.2136,0.20947,0.20627,0.20399,0.20275,0.20264,0.20333,0.2049,0.20786,0.2118,0.21685,0.22259,0.22916,0.23684,0.24521,0.25437,0.2641,0.27523,0.2868,0.29878,0.31155,0.32443,0.33805,0.35184,0.36584,0.38005,0.39447,0.40867,0.42238,0.43629,0.44966,0.46237,0.47441,0.4857,0.49634,0.50609,0.5149,0.52256,0.5296,0.53533,0.53995,0.54347,0.546,0.54744,0.54795,0.54744,0.54612,0.54387,0.54067,0.53672,0.5321,0.52671,0.52066,0.514,0.5068,0.49899,0.4907,0.48217,0.47339,0.46388,0.45451,0.44487,0.43512,0.42539,0.41556,0.40598,0.3964,0.38705,0.37795,0.36902,0.36051,0.35213,0.34472,0.33741,0.33051,0.32462,0.31909,0.31411,0.30987,0.30631,0.30344,0.30136,0.29997,0.29951,0.29952,0.30034,0.30181,0.30385,0.30661,0.30991,0.31388,0.31844,0.32354,0.32907,0.33495,0.34122,0.3478,0.35467,0.36185,0.36939,0.37673,0.38406,0.39174,0.39922,0.4068,0.41432,0.42176,0.42893,0.4357,0.44233,0.4486,0.45428,0.45978,0.46459,0.46898,0.47288,0.47619,0.47897,0.48124,0.48297,0.48413,0.48478,0.48478,0.48435,0.48335,0.48183,0.47976,0.47725,0.47437,0.47095,0.46727,0.4631,0.45876,0.4542,0.44951,0.44462,0.43957,0.43463,0.42966,0.42467,0.41986,0.41519,0.41049,0.40606,0.40173,0.39758,0.39366,0.38987,0.38599,0.38262,0.37942,0.37623,0.37333,0.37065,0.36821,0.36598,0.36395,0.36215,0.36069,0.3594,0.35849,0.35774,0.35731,0.35709
-0.57859,-0.58175,-0.58444,-0.58737,-0.58993,-0.59231,-0.59462,-0.59646,-0.59826,-0.59979,-0.60122,-0.6024,-0.6033,-0.60405,-0.60463,-0.60504,-0.60428,-0.60421,-0.60396,-0.6033,-0.6025,-0.60179,-0.60041,-0.59898,-0.59739,-0.59549,-0.59352,-0.59133,-0.58873,-0.58617,-0.58332,-0.58049,-0.57748,-0.57409,-0.57072,-0.56729,-0.56392,-0.56028,-0.55652,-0.553,-0.5499,-0.54632,-0.54349,-0.54049,-0.53819,-0.53621,-0.5346,-0.53353,-0.53297,-0.53257,-0.53285,-0.5335,-0.53456,-0.53605,-0.53734,-0.53908,-0.54159,-0.54327,-0.54469,-0.54584,-0.54681,-0.54746,-0.54753,-0.54731,-0.54673,-0.54568,-0.54451,-0.54234,-0.54041,-0.53903,-0.53656,-0.53515,-0.5331,-0.53161,-0.52884,-0.52661,-0.52461,-0.52158,-0.51767,-0.51324,-0.50783,-0.50153,-0.49409,-0.48518,-0.47501,-0.46339,-0.44997,-0.43483,-0.41795,-0.3988,-0.3779,-0.35464,-0.32983,-0.30223,-0.27272,-0.24067,-0.20664,-0.17135,-0.1328,-0.093104,-0.05236,-0.0082888,0.036397,0.083647,0.13059,0.17722,0.22559,0.2728,0.32124,0.36556,0.41351,0.46076,0.50569,0.55039,0.59345,0.63597,0.67552,0.71316,0.748,0.78067,0.8108,0.83775,0.86238,0.88372,0.90094,0.91664,0.9295,0.93846,0.94487,0.94744,0.94707,0.94333,0.93712,0.92786,0.91542,0.90137,0.88417,0.86528,0.84403,0.82041,0.79588,0.76939,0.74138,0.71216,0.68174,0.65058,0.61751,0.58646,0.5531,0.52187,0.48855,0.45627,0.42413,0.39301,0.36398,0.3353,0.30733,0.28116,0.25759,0.23451,0.21117,0.19196,0.17416,0.1585,0.14467,0.13309,0.12279,0.11521,0.11031,0.10647,0.10401,0.10444,0.10754,0.11111,0.11698,0.12447,0.13438,0.1465,0.15937,0.17427,0.19023,0.20743,0.22568,0.2446,0.26396,0.28493,0.3066,0.32864,0.35086,0.37321,0.396,0.41855,0.44035,0.46198,0.48359,0.504,0.52337,0.54207,0.56029,0.57683,0.59245,0.60608,0.61976,0.63139,0.64145,0.65139,0.65751,0.66354,0.66794,0.67096,0.67341,0.67332,0.67141,0.66912,0.6651,0.65972,0.65307,0.6456,0.63737,0.62737,0.61586,0.60368,0.5915,0.5777,0.56406,0.54851,0.53302,0.51724,0.50218,0.48571,0.46951,0.45358,0.4373,0.42132,0.40574,0.39153,0.37694,0.3629,0.34844,0.33555,0.32354,0.31206,0.30266,0.29419,0.28611,0.27917,0.27317,0.26869,0.26521,0.26308,0.26202,0.26205,0.26338,0.26581,0.26919,0.27339,0.27923,0.28578,0.29327,0.30167,0.31074,0.32032,0.33098,0.34164,0.35322,0.36486,0.37691,0.3893,0.4016,0.41413,0.42678,0.43924,0.45158,0.46334,0.47504,0.48669,0.49781,0.50786,0.51783,0.52707,0.53571,0.54319,0.55034,0.5565,0.56209,0.56661,0.57044,0.57292,0.5747,0.57605,0.57623,0.57545,0.57401,0.57191,0.5687,0.56473,0.56024,0.55487,0.54879,0.54217,0.53512
0.4415,0.44206,0.44242,0.44284,0.443,0.44311,0.4431,0.44291,0.44279,0.44268,0.44271,0.44259,0.44247,0.44251,0.44245,0.4424,0.4431,0.44309,0.4429,0.44282,0.44266,0.44238,0.44199,0.44185,0.4416,0.44166,0.44165,0.44192,0.44232,0.44267,0.44335,0.44409,0.44496,0.44558,0.44641,0.44739,0.44831,0.44901,0.44962,0.45027,0.45084,0.45093,0.45102,0.45077,0.45063,0.45012,0.44963,0.44908,0.44851,0.44784,0.44743,0.44692,0.44649,0.44604,0.44615,0.4492,0.45658,0.46771,0.48217,0.49882,0.5168,0.53594,0.55604,0.57714,0.59896,0.62167,0.64489,0.66914,0.69374,0.7186,0.74452,0.77054,0.79716,0.82425,0.85194,0.87978,0.90794,0.93608,0.96374,0.99099,1.0173,1.0427,1.0669,1.0899,1.1116,1.1317,1.1504,1.1674,1.1829,1.1968,1.2093,1.2201,1.2296,1.2381,1.2455,1.252,1.2573,1.2624,1.2665,1.2705,1.2744,1.2777,1.281,1.2841,1.2879,1.292,1.2958,1.3001,1.3036,1.3081,1.3116,1.3155,1.3195,1.3231,1.3267,1.3305,1.3342,1.3381,1.342,1.3459,1.3494,1.3528,1.3557,1.3587,1.3612,1.3637,1.366,1.3683,1.3708,1.3734,1.376,1.3785,1.381,1.3832,1.385,1.3872,1.3889,1.3908,1.3926,1.3943,1.3959,1.3974,1.3987,1.3999,1.4006,1.4016,1.402,1.4026,1.4029,1.4029,1.4031,1.4028,1.4028,1.4022,1.4017,1.4007,1.3999,1.3989,1.3978,1.3967,1.3963,1.3951,1.3942,1.3933,1.392,1.3907,1.3897,1.3888,1.3878,1.3869,1.3862,1.3852,1.3841,1.3833,1.3822,1.3813,1.3802,1.3791,1.378,1.3768,1.3755,1.3744,1.3732,1.3723,1.3713,1.3704,1.3696,1.3688,1.3683,1.3679,1.3678,1.3682,1.3683,1.369,1.3698,1.3706,1.3715,1.3725,1.3737,1.3746,1.3759,1.3771,1.3783,1.3796,1.3807,1.3819,1.3833,1.3844,1.3855,1.3866,1.3874,1.3882,1.3891,1.3898,1.3904,1.3908,1.3911,1.3913,1.3917,1.3923,1.3928,1.3936,1.3943,1.3946,1.3948,1.3948,1.3949,1.3949,1.3948,1.3947,1.3946,1.3945,1.3947,1.395,1.3952,1.3953,1.3955,1.3954,1.3955,1.3955,1.3953,1.3949,1.3943,1.3937,1.3932,1.3927,1.3922,1.3918,1.3913,1.3911,1.3909,1.3907,1.3904,1.3901,1.3896,1.3891,1.3885,1.388,1.3874,1.3869,1.3865,1.386,1.3854,1.3851,1.3846,1.3842,1.3839,1.3835,1.3833,1.3829,1.3825,1.382,1.3816,1.3814,1.3812,1.381,1.3809,1.3809,1.3811,1.3813,1.3814,1.3816,1.3817,1.382,1.3822,1.3826,1.3829,1.3834,1.3838,1.3843,1.3845,1.3847,1.3848,1.3848,1.3851,1.3855,1.3859,1.3865,1.3872,1.3878,1.3882
