-0.76116,-0.76184,-0.76257,-0.76324,-0.76395,-0.76451,-0.76501,-0.76554,-0.76617,-0.76655,-0.76692,-0.76724,-0.76757,-0.76773,-0.76768,-0.76764,-0.76736,-0.76693,-0.76642,-0.76585,-0.76523,-0.76477,-0.76397,-0.7634,-0.76289,-0.76235,-0.76177,-0.76132,-0.76075,-0.76037,-0.76,-0.75958,-0.75929,-0.7593,-0.75911,-0.75893,-0.75886,-0.75857,-0.75865,-0.75884,-0.75907,-0.75906,-0.75914,-0.75945,-0.75985,-0.76003,-0.76041,-0.76068,-0.76111,-0.76152,-0.76202,-0.76202,-0.7628,-0.76393,-0.76508,-0.76614,-0.76797,-0.77098,-0.77543,-0.78236,-0.79226,-0.80508,-0.82054,-0.84032,-0.86216,-0.88759,-0.91509,-0.91509,-0.94696,-0.94696,-0.94696,-1.0172,-1.0172,-1.0172,-1.0172,-1.0172,-1.1456,-1.1456,-1.1456,-1.1456,-1.1456,-1.1456,-1.1456,-1.1456,-1.4322,-1.4322,-1.4322,-1.4322
-0.49117,-0.49136,-0.49157,-0.49156,-0.49148,-0.49158,-0.49169,-0.49147,-0.49113,-0.49107,-0.49125,-0.49126,-0.49139,-0.49156,-0.49166,-0.49184,-0.49204,-0.49222,-0.49235,-0.49233,-0.49209,-0.49177,-0.49111,-0.49026,-0.48944,-0.48829,-0.48722,-0.48647,-0.4854,-0.48401,-0.48289,-0.48182,-0.4808,-0.4795,-0.47826,-0.47711,-0.4764,-0.47535,-0.4742,-0.47314,-0.47222,-0.47137,-0.47038,-0.46959,-0.46892,-0.46828,-0.46793,-0.46781,-0.46797,-0.46832,-0.46875,-0.46875,-0.46793,-0.47031,-0.47117,-0.47113,-0.46946,-0.46429,-0.45482,-0.44017,-0.41986,-0.39374,-0.36223,-0.32552,-0.28425,-0.23869,-0.18902,-0.18902,-0.1361,-0.1361,-0.1361,-0.023393,-0.023393,-0.023393,-0.023393,-0.023393,0.15193,0.15193,0.15193,0.15193,0.15193,0.15193,0.15193,0.15193,0.43923,0.43923,0.43923,0.43923
0.21643,0.21659,0.21704,0.21762,0.21833,0.21919,0.21988,0.22034,0.22081,0.22141,0.22193,0.22224,0.22255,0.22281,0.22296,0.22295,0.2228,0.22262,0.22235,0.22203,0.22178,0.22179,0.2218,0.22184,0.22183,0.22165,0.22139,0.22129,0.22129,0.22113,0.22078,0.22051,0.2207,0.22095,0.22113,0.22162,0.22237,0.22317,0.22384,0.22461,0.2255,0.22629,0.22701,0.2277,0.22829,0.22861,0.22899,0.22934,0.22959,0.22967,0.22941,0.22941,0.23177,0.23167,0.23301,0.23773,0.24633,0.259,0.27496,0.29488,0.31816,0.34429,0.37274,0.40405,0.43703,0.47157,0.50662,0.50662,0.54227,0.54227,0.54227,0.60891,0.60891,0.60891,0.60891,0.60891,0.69045,0.69045,0.69045,0.69045,0.69045,0.69045,0.69045,0.69045,0.74368,0.74368,0.74368,0.74368
-0.001536,0.0020321,6.0905e-06,0.00020024,-0.00094155,-0.0030731,-0.0005863,-0.000521,-0.0031307,0.0012336,0.0033791,0.0041474,0.0033071,0.00088147,0.0021573,1.7804e-05,-0.00051592,-0.00026156,-0.002215,-0.0042669,-0.0049145,-0.007077,-0.0074645,-0.0044634,-0.0064561,-0.0082277,-0.0025178,0.00028503,-0.0047323,0.00177,-0.0011248,0.0038576,0.0055021,0.00029181,0.0097678,0.0040198,0.012385,0.002805,0.012442,0.0024024,0.0098773,0.0078586,0.0095313,0.0090234,0.014155,0.0098194,0.014978,0.01518,0.015643,0.014753,0.014619,0.014619,-0.2311,-0.23132,-0.25737,-0.30262,-0.34073,-0.37284,-0.40141,-0.42004,-0.42722,-0.42807,-0.40361,-0.37534,-0.34827,-0.32384,-0.2795,-0.2795,-0.24883,-0.24883,-0.24883,-0.17373,-0.17373,-0.17373,-0.17373,-0.17373,-0.069917,-0.069917,-0.069917,-0.069917,-0.069917,-0.069917,-0.069917,-0.069917,-0.00019808,-0.00019808,-0.00019808,-0.00019808
0.025716,0.02933,0.029221,0.026854,0.030065,0.032792,0.0313,0.03052,0.028219,0.032584,0.033016,0.030282,0.032465,0.034947,0.035762,0.036196,0.037028,0.035831,0.034187,0.029129,0.026087,0.025664,0.02538,0.026628,0.025739,0.024046,0.021903,0.028078,0.022961,0.022437,0.021832,0.02229,0.022693,0.019944,0.02115,0.022658,0.021195,0.019816,0.020389,0.022037,0.023799,0.025152,0.02518,0.023777,0.022887,0.026677,0.025461,0.024557,0.025365,0.025674,0.023643,0.023643,0.1223,0.12538,0.11781,0.10449,0.088282,0.065518,0.043852,0.023851,0.0087936,0.0017525,0.0031017,-0.0024375,0.0066959,-0.0057561,-0.013467,-0.013467,-0.021945,-0.021945,-0.021945,-0.052753,-0.052753,-0.052753,-0.052753,-0.052753,-0.12166,-0.12166,-0.12166,-0.12166,-0.12166,-0.12166,-0.12166,-0.12166,-0.21888,-0.21888,-0.21888,-0.21888
-0.75995,-0.76057,-0.76131,-0.76197,-0.76264,-0.7631,-0.76352,-0.76403,-0.76476,-0.76499,-0.76529,-0.76559,-0.76585,-0.76591,-0.76568,-0.76553,-0.76509,-0.76451,-0.76392,-0.76335,-0.76273,-0.76237,-0.76145,-0.7609,-0.76048,-0.75997,-0.75938,-0.75893,-0.7584,-0.75806,-0.75779,-0.75738,-0.75712,-0.75738,-0.75714,-0.75697,-0.75695,-0.7566,-0.7568,-0.75713,-0.75742,-0.75725,-0.75734,-0.75776,-0.75828,-0.75839,-0.75882,-0.75907,-0.75957,-0.75998,-0.76059,-0.76059,-0.75953,-0.76057,-0.76223,-0.76349,-0.76604,-0.77028,-0.77623,-0.78535,-0.79797,-0.81357,-0.83154,-0.85487,-0.87892,-0.90732,-0.93694,-0.93694,-0.97226,-0.97226,-0.97226,-1.0474,-1.0474,-1.0474,-1.0474,-1.0474,-1.1841,-1.1841,-1.1841,-1.1841,-1.1841,-1.1841,-1.1841,-1.1841,-1.4883,-1.4883,-1.4883,-1.4883
-0.49031,-0.49069,-0.49101,-0.49098,-0.49083,-0.4909,-0.49102,-0.4907,-0.49021,-0.49023,-0.49059,-0.49068,-0.49089,-0.49107,-0.49116,-0.49133,-0.49155,-0.49173,-0.49181,-0.49166,-0.49123,-0.49073,-0.48983,-0.48882,-0.48789,-0.48655,-0.48542,-0.48485,-0.48371,-0.48225,-0.48109,-0.48016,-0.47924,-0.47782,-0.47667,-0.47547,-0.47512,-0.47395,-0.47288,-0.47165,-0.47089,-0.47005,-0.46911,-0.46838,-0.4679,-0.46729,-0.46716,-0.46725,-0.46769,-0.46823,-0.46879,-0.46879,-0.46538,-0.46782,-0.46803,-0.46677,-0.4629,-0.4543,-0.44046,-0.42087,-0.39527,-0.36362,-0.32704,-0.28585,-0.24051,-0.19112,-0.13826,-0.13826,-0.082749,-0.082749,-0.082749,0.033521,0.033521,0.033521,0.033521,0.033521,0.2088,0.2088,0.2088,0.2088,0.2088,0.2088,0.2088,0.2088,0.49019,0.49019,0.49019,0.49019
0.22131,0.22163,0.22227,0.22293,0.22375,0.22474,0.22541,0.22574,0.22613,0.22673,0.22725,0.22747,0.22773,0.22795,0.228,0.2279,0.22766,0.2274,0.22709,0.22667,0.22639,0.22654,0.22661,0.22672,0.22676,0.22654,0.22619,0.22619,0.22628,0.22607,0.22558,0.22528,0.22565,0.22607,0.22618,0.22679,0.22774,0.22859,0.22928,0.23001,0.23104,0.23177,0.23251,0.23309,0.23362,0.23382,0.23416,0.23437,0.23466,0.23463,0.23415,0.23415,0.24056,0.24199,0.24648,0.25525,0.2681,0.28476,0.30378,0.32666,0.35263,0.38103,0.4113,0.44466,0.47896,0.51441,0.54937,0.54937,0.58503,0.58503,0.58503,0.64787,0.64787,0.64787,0.64787,0.64787,0.72042,0.72042,0.72042,0.72042,0.72042,0.72042,0.72042,0.72042,0.75204,0.75204,0.75204,0.75204
-0.01925,-0.018931,-0.019702,-0.01884,-0.019531,-0.02034,-0.019022,-0.019934,-0.020324,-0.018083,-0.016426,-0.016319,-0.01783,-0.018855,-0.017878,-0.019355,-0.020506,-0.020157,-0.021083,-0.020906,-0.02083,-0.022221,-0.021894,-0.020643,-0.020603,-0.020225,-0.017363,-0.017727,-0.017405,-0.015084,-0.014959,-0.011915,-0.010846,-0.013101,-0.0081726,-0.0086331,-0.0052027,-0.0080513,-0.0066672,-0.0090713,-0.0065441,-0.0061265,-0.0066867,-0.0056078,-0.0038694,-0.0053361,-0.0034711,-0.0025401,-0.0037769,-0.0047704,-0.0054201,-0.0054201,-0.29331,-0.31926,-0.3561,-0.38366,-0.39243,-0.40798,-0.42061,-0.41805,-0.40711,-0.38814,-0.35543,-0.31428,-0.28357,-0.23891,-0.19695,-0.19695,-0.1517,-0.1517,-0.1517,-0.061561,-0.061561,-0.061561,-0.061561,-0.061561,0.029526,0.029526,0.029526,0.029526,0.029526,0.029526,0.029526,0.029526,0.13733,0.13733,0.13733,0.13733
0.069603,0.073212,0.071978,0.070299,0.074667,0.076338,0.073964,0.073878,0.072544,0.077143,0.075287,0.072198,0.075667,0.077436,0.077314,0.07712,0.077616,0.076022,0.074333,0.069876,0.068528,0.068969,0.068022,0.069038,0.067013,0.06526,0.064546,0.070335,0.062295,0.064972,0.064586,0.064586,0.06455,0.062463,0.065591,0.065114,0.063841,0.061601,0.065639,0.065848,0.067814,0.067361,0.06763,0.06652,0.067071,0.069627,0.06846,0.067337,0.068578,0.068905,0.067645,0.067645,0.31265,0.31357,0.29951,0.28956,0.28017,0.26769,0.25879,0.2508,0.24686,0.24667,0.25358,0.24877,0.26209,0.2491,0.25286,0.25286,0.25024,0.25024,0.25024,0.22724,0.22724,0.22724,0.22724,0.22724,0.2187,0.2187,0.2187,0.2187,0.2187,0.2187,0.2187,0.2187,0.20075,0.20075,0.20075,0.20075
-0.75717,-0.75768,-0.75843,-0.7591,-0.7597,-0.76002,-0.76037,-0.76088,-0.76174,-0.76177,-0.76203,-0.76231,-0.7625,-0.76243,-0.76201,-0.76176,-0.76114,-0.76044,-0.7598,-0.75928,-0.75868,-0.75842,-0.7574,-0.75687,-0.75655,-0.75606,-0.75549,-0.75498,-0.75453,-0.75423,-0.7541,-0.75369,-0.75345,-0.75395,-0.75367,-0.75352,-0.75356,-0.75312,-0.75345,-0.75389,-0.75419,-0.75388,-0.75398,-0.75451,-0.75516,-0.75516,-0.75565,-0.7559,-0.75645,-0.75686,-0.75758,-0.75758,-0.75132,-0.75225,-0.75448,-0.75609,-0.75941,-0.76495,-0.77237,-0.7837,-0.799,-0.81727,-0.83759,-0.86431,-0.89027,-0.92145,-0.95309,-0.95309,-0.99161,-0.99161,-0.99161,-1.0714,-1.0714,-1.0714,-1.0714,-1.0714,-1.2162,-1.2162,-1.2162,-1.2162,-1.2162,-1.2162,-1.2162,-1.2162,-1.5368,-1.5368,-1.5368,-1.5368
-0.48936,-0.48993,-0.49035,-0.49026,-0.49002,-0.49008,-0.49024,-0.48978,-0.48914,-0.4893,-0.4899,-0.49002,-0.49027,-0.49045,-0.49055,-0.49069,-0.49093,-0.4911,-0.49112,-0.49086,-0.49022,-0.48953,-0.48842,-0.48727,-0.48627,-0.48471,-0.48356,-0.48323,-0.482,-0.48039,-0.4793,-0.47855,-0.47771,-0.47612,-0.47513,-0.47395,-0.47397,-0.47264,-0.47159,-0.47028,-0.46964,-0.46886,-0.4679,-0.46729,-0.46699,-0.46641,-0.46649,-0.46683,-0.46751,-0.46823,-0.4689,-0.4689,-0.46066,-0.46277,-0.46194,-0.45883,-0.45253,-0.44013,-0.42178,-0.39733,-0.36665,-0.32986,-0.28879,-0.24378,-0.19487,-0.14255,-0.087076,-0.087076,-0.029871,-0.029871,-0.029871,0.088116,0.088116,0.088116,0.088116,0.088116,0.2612,0.2612,0.2612,0.2612,0.2612,0.2612,0.2612,0.2612,0.53356,0.53356,0.53356,0.53356
0.22879,0.22928,0.23005,0.23071,0.23164,0.23278,0.23338,0.23358,0.23388,0.23454,0.23508,0.23514,0.23537,0.23558,0.2355,0.23534,0.23505,0.23471,0.23435,0.23383,0.23353,0.23385,0.23396,0.23413,0.23424,0.23397,0.23354,0.23375,0.23383,0.23349,0.23296,0.23265,0.23318,0.23369,0.23373,0.23451,0.23558,0.23644,0.23705,0.23787,0.23899,0.23969,0.24036,0.24087,0.24134,0.24149,0.24171,0.24184,0.24214,0.24202,0.24131,0.24131,0.25973,0.26449,0.27293,0.28598,0.30288,0.32305,0.34457,0.36981,0.39797,0.42827,0.45991,0.4948,0.53009,0.56576,0.6002,0.6002,0.63557,0.63557,0.63557,0.69405,0.69405,0.69405,0.69405,0.69405,0.75875,0.75875,0.75875,0.75875,0.75875,0.75875,0.75875,0.75875,0.77113,0.77113,0.77113,0.77113
0.0073554,0.0067313,0.0063508,0.0070452,0.0068129,0.0061653,0.0063328,0.0062109,0.0074956,0.0085086,0.008791,0.0085055,0.0079029,0.0078215,0.0075987,0.0064166,0.0061264,0.0062575,0.0056198,0.0065264,0.0062598,0.0053886,0.0065507,0.0074813,0.0086958,0.0093195,0.011314,0.010184,0.012016,0.013449,0.015045,0.016314,0.016434,0.015975,0.020027,0.019474,0.020911,0.01947,0.020154,0.020034,0.020313,0.021254,0.0205,0.022313,0.022762,0.021637,0.023142,0.022673,0.021021,0.020796,0.019244,0.019244,-0.38862,-0.43454,-0.46069,-0.4656,-0.47616,-0.482,-0.47652,-0.46338,-0.44066,-0.41133,-0.37212,-0.33209,-0.29042,-0.24622,-0.19722,-0.19722,-0.15811,-0.15811,-0.15811,-0.066309,-0.066309,-0.066309,-0.066309,-0.066309,0.032207,0.032207,0.032207,0.032207,0.032207,0.032207,0.032207,0.032207,0.1508,0.1508,0.1508,0.1508
0.11143,0.11343,0.11256,0.11217,0.11591,0.11614,0.11416,0.11462,0.11474,0.11699,0.11423,0.11263,0.11589,0.11654,0.1156,0.11517,0.11527,0.11378,0.11215,0.10991,0.10948,0.1095,0.10766,0.10761,0.10593,0.10584,0.10509,0.10749,0.10199,0.10561,0.10461,0.10422,0.10446,0.1039,0.1061,0.10482,0.10367,0.10374,0.10631,0.10737,0.10762,0.10737,0.10651,0.10765,0.10797,0.10954,0.10845,0.10792,0.10884,0.11007,0.10933,0.10933,0.4527,0.44874,0.44011,0.43679,0.4358,0.43535,0.43502,0.43525,0.43601,0.43734,0.44195,0.44105,0.44777,0.44293,0.44877,0.44877,0.44998,0.44998,0.44998,0.44101,0.44101,0.44101,0.44101,0.44101,0.45487,0.45487,0.45487,0.45487,0.45487,0.45487,0.45487,0.45487,0.46125,0.46125,0.46125,0.46125
-0.75265,-0.75303,-0.75378,-0.75449,-0.75498,-0.75513,-0.75541,-0.75595,-0.75693,-0.75674,-0.75696,-0.75727,-0.75735,-0.75713,-0.75654,-0.75619,-0.7554,-0.75462,-0.75394,-0.75351,-0.75296,-0.75277,-0.75169,-0.75119,-0.75096,-0.75047,-0.74997,-0.74933,-0.74902,-0.74877,-0.74878,-0.74832,-0.74813,-0.74886,-0.74856,-0.74843,-0.7485,-0.74802,-0.74846,-0.74895,-0.74923,-0.74882,-0.74894,-0.74956,-0.75034,-0.75019,-0.75076,-0.75102,-0.7516,-0.752,-0.75285,-0.75285,-0.73592,-0.7367,-0.73962,-0.74162,-0.74577,-0.75255,-0.7615,-0.77501,-0.79288,-0.81369,-0.83622,-0.86612,-0.89371,-0.92768,-0.96115,-0.96115,-1.0027,-1.0027,-1.0027,-1.0869,-1.0869,-1.0869,-1.0869,-1.0869,-1.2391,-1.2391,-1.2391,-1.2391,-1.2391,-1.2391,-1.2391,-1.2391,-1.5748,-1.5748,-1.5748,-1.5748
-0.49163,-0.4924,-0.49287,-0.49276,-0.49241,-0.49244,-0.49264,-0.49206,-0.4913,-0.49162,-0.49243,-0.4926,-0.49287,-0.49306,-0.49318,-0.49327,-0.49352,-0.49368,-0.49363,-0.49327,-0.49244,-0.49154,-0.49025,-0.489,-0.48793,-0.48615,-0.48505,-0.48491,-0.48357,-0.48192,-0.48088,-0.48034,-0.47958,-0.47779,-0.47706,-0.47584,-0.47629,-0.4747,-0.4738,-0.4723,-0.47186,-0.47107,-0.47016,-0.46964,-0.46957,-0.46896,-0.46931,-0.46988,-0.47075,-0.47162,-0.47241,-0.47241,-0.44867,-0.45,-0.44757,-0.4425,-0.43355,-0.41738,-0.39481,-0.36577,-0.33052,-0.28914,-0.2444,-0.19621,-0.14467,-0.089888,-0.03299,-0.03299,0.025498,0.025498,0.025498,0.14369,0.14369,0.14369,0.14369,0.14369,0.31227,0.31227,0.31227,0.31227,0.31227,0.31227,0.31227,0.31227,0.5727,0.5727,0.5727,0.5727
0.23888,0.23952,0.24038,0.241,0.24203,0.2433,0.24382,0.24389,0.24416,0.24487,0.2454,0.24529,0.24551,0.24571,0.2455,0.2453,0.24497,0.24455,0.24418,0.24357,0.24327,0.2438,0.2439,0.24412,0.24429,0.24397,0.2435,0.24392,0.24393,0.24348,0.24297,0.24264,0.24327,0.24388,0.24385,0.24473,0.24592,0.24667,0.24736,0.24817,0.24942,0.24999,0.25066,0.25106,0.25153,0.25158,0.25174,0.25172,0.25209,0.25185,0.25099,0.25099,0.2925,0.30127,0.31374,0.33086,0.35144,0.37467,0.39819,0.42541,0.45539,0.48708,0.51969,0.55563,0.59134,0.62668,0.66037,0.66037,0.69513,0.69513,0.69513,0.74927,0.74927,0.74927,0.74927,0.74927,0.80723,0.80723,0.80723,0.80723,0.80723,0.80723,0.80723,0.80723,0.80312,0.80312,0.80312,0.80312
0.0033444,0.0022263,0.0015312,0.0017734,0.0022099,0.0019707,0.0012308,0.0013765,0.0041288,0.0044682,0.0039308,0.0033753,0.0034445,0.0029825,0.001997,0.0014987,0.0015796,0.0012962,0.00098088,0.0024052,0.0023222,0.0024371,0.003391,0.0044177,0.0065982,0.00795,0.0085404,0.0073771,0.0097484,0.0097745,0.0121,0.013167,0.012871,0.013027,0.015675,0.016021,0.016889,0.015606,0.01541,0.017147,0.01725,0.017461,0.016394,0.01895,0.018174,0.018617,0.018365,0.017241,0.016309,0.015265,0.013048,0.013048,-0.46338,-0.49273,-0.49838,-0.50404,-0.50635,-0.49617,-0.47684,-0.45216,-0.41537,-0.37219,-0.32652,-0.27678,-0.22637,-0.1744,-0.12633,-0.12633,-0.074895,-0.074895,-0.074895,0.014819,0.014819,0.014819,0.014819,0.014819,0.12292,0.12292,0.12292,0.12292,0.12292,0.12292,0.12292,0.12292,0.23203,0.23203,0.23203,0.23203
0.13875,0.13891,0.13839,0.13846,0.14039,0.14062,0.13978,0.13975,0.14096,0.14132,0.13984,0.13931,0.14042,0.14073,0.13959,0.13898,0.13938,0.13753,0.13593,0.13595,0.13477,0.1342,0.13251,0.13112,0.13113,0.13248,0.12993,0.12996,0.1292,0.12916,0.12868,0.13068,0.1293,0.12956,0.13064,0.12987,0.13053,0.1307,0.1302,0.13264,0.1334,0.1322,0.13078,0.13361,0.13353,0.1346,0.13373,0.13376,0.13484,0.13601,0.13529,0.13529,0.52434,0.52158,0.52099,0.52128,0.52346,0.52535,0.52569,0.52609,0.52653,0.52631,0.52655,0.5261,0.52621,0.52646,0.52667,0.52667,0.52582,0.52582,0.52582,0.52579,0.52579,0.52579,0.52579,0.52579,0.5256,0.5256,0.5256,0.5256,0.5256,0.5256,0.5256,0.5256,0.52526,0.52526,0.52526,0.52526
-0.74609,-0.74633,-0.7471,-0.74785,-0.74819,-0.74816,-0.74841,-0.74897,-0.75007,-0.74964,-0.74983,-0.75019,-0.75015,-0.74976,-0.74901,-0.74857,-0.74762,-0.74678,-0.74609,-0.74577,-0.7453,-0.74517,-0.74405,-0.74358,-0.74344,-0.74296,-0.74254,-0.74174,-0.74162,-0.74142,-0.74155,-0.74104,-0.74091,-0.74186,-0.74152,-0.7414,-0.74152,-0.74103,-0.74154,-0.74206,-0.74228,-0.74181,-0.74194,-0.74264,-0.74352,-0.74322,-0.74388,-0.74416,-0.74474,-0.74513,-0.74609,-0.74609,-0.71225,-0.713,-0.71665,-0.71909,-0.72402,-0.73199,-0.74243,-0.75801,-0.77833,-0.80154,-0.82607,-0.85889,-0.88796,-0.92456,-0.95968,-0.95968,-1.0039,-1.0039,-1.0039,-1.0923,-1.0923,-1.0923,-1.0923,-1.0923,-1.251,-1.251,-1.251,-1.251,-1.251,-1.251,-1.251,-1.251,-1.6004,-1.6004,-1.6004,-1.6004
-0.4938,-0.49472,-0.49524,-0.4951,-0.49465,-0.49465,-0.49489,-0.49421,-0.49336,-0.49383,-0.49484,-0.49506,-0.49534,-0.49552,-0.49566,-0.49569,-0.49594,-0.49612,-0.49601,-0.49556,-0.49456,-0.49345,-0.49201,-0.49067,-0.48954,-0.48758,-0.48656,-0.48655,-0.48517,-0.48349,-0.48253,-0.48219,-0.48151,-0.47952,-0.47908,-0.47785,-0.47869,-0.47688,-0.4761,-0.47444,-0.47414,-0.47342,-0.47253,-0.47213,-0.47225,-0.47164,-0.47224,-0.47301,-0.47405,-0.47507,-0.47594,-0.47594,-0.43339,-0.43342,-0.42925,-0.42216,-0.41069,-0.39117,-0.36476,-0.33174,-0.29261,-0.24746,-0.19994,-0.1496,-0.096134,-0.040035,0.017452,0.017452,0.076145,0.076145,0.076145,0.19287,0.19287,0.19287,0.19287,0.19287,0.3549,0.3549,0.3549,0.3549,0.3549,0.3549,0.3549,0.3549,0.60074,0.60074,0.60074,0.60074
0.25168,0.25244,0.25333,0.2539,0.25506,0.25641,0.25683,0.25682,0.25707,0.25781,0.25829,0.25802,0.25826,0.25846,0.25812,0.25789,0.25753,0.25706,0.25667,0.25604,0.25578,0.25649,0.25656,0.25681,0.25703,0.25668,0.25619,0.25676,0.25668,0.25616,0.2557,0.25534,0.25607,0.25674,0.25663,0.25761,0.25881,0.25955,0.26022,0.26112,0.26237,0.26289,0.26344,0.26383,0.26425,0.26425,0.26431,0.2642,0.26459,0.26429,0.26326,0.26326,0.33848,0.35116,0.36745,0.38821,0.41195,0.43768,0.4628,0.49164,0.52296,0.55559,0.58864,0.62517,0.66056,0.69521,0.72784,0.72784,0.76179,0.76179,0.76179,0.81183,0.81183,0.81183,0.81183,0.81183,0.86365,0.86365,0.86365,0.86365,0.86365,0.86365,0.86365,0.86365,0.84579,0.84579,0.84579,0.84579
-0.0063139,-0.0081193,-0.0087909,-0.0078995,-0.0082604,-0.0088513,-0.0087797,-0.006593,-0.0046749,-0.0060376,-0.0067796,-0.0060254,-0.0072131,-0.0080321,-0.0080361,-0.007766,-0.0081693,-0.0087616,-0.0077274,-0.0071446,-0.0067853,-0.0060297,-0.0047011,-0.0031444,-0.0012768,-0.00076187,-0.00053837,-0.00041656,0.00086757,0.0013237,0.0038338,0.0045323,0.0028066,0.0053945,0.0059238,0.0069092,0.0060336,0.0043331,0.0069,0.007374,0.0082144,0.0056764,0.008666,0.0077584,0.0088098,0.0081137,0.0073,0.006345,0.005135,0.0022496,0.0026069,0.0026069,-0.429,-0.43947,-0.4468,-0.44683,-0.43742,-0.41824,-0.38877,-0.35225,-0.30639,-0.25952,-0.20883,-0.15802,-0.10586,-0.062195,-0.0092754,-0.0092754,0.038126,0.038126,0.038126,0.12772,0.12772,0.12772,0.12772,0.12772,0.21677,0.21677,0.21677,0.21677,0.21677,0.21677,0.21677,0.21677,0.3262,0.3262,0.3262,0.3262
0.16392,0.16281,0.16216,0.16219,0.16306,0.16361,0.16343,0.16329,0.1649,0.16479,0.16468,0.16408,0.1635,0.16375,0.16287,0.16264,0.16249,0.16038,0.15936,0.1596,0.15782,0.15722,0.15569,0.15442,0.15579,0.15587,0.15307,0.15305,0.15311,0.15037,0.15271,0.15513,0.15238,0.15292,0.1539,0.15481,0.15576,0.15411,0.15296,0.15668,0.15731,0.15536,0.15471,0.15747,0.15781,0.1582,0.15771,0.15865,0.15933,0.15944,0.15969,0.15969,0.52421,0.52439,0.52586,0.52655,0.52529,0.52521,0.5238,0.52361,0.52336,0.52254,0.52194,0.52213,0.52185,0.52139,0.52087,0.52087,0.52043,0.52043,0.52043,0.52039,0.52039,0.52039,0.52039,0.52039,0.52027,0.52027,0.52027,0.52027,0.52027,0.52027,0.52027,0.52027,0.51849,0.51849,0.51849,0.51849
-0.73697,-0.73708,-0.73789,-0.73868,-0.73885,-0.73863,-0.73885,-0.73943,-0.74062,-0.73995,-0.74013,-0.74055,-0.7404,-0.73983,-0.73894,-0.73842,-0.73732,-0.73645,-0.73577,-0.73557,-0.73517,-0.73511,-0.73399,-0.73355,-0.73349,-0.73302,-0.7327,-0.73175,-0.73184,-0.73168,-0.73191,-0.73132,-0.73128,-0.73244,-0.73204,-0.73192,-0.73208,-0.73162,-0.73218,-0.73269,-0.73284,-0.73234,-0.73248,-0.73323,-0.73419,-0.73375,-0.73449,-0.73478,-0.73537,-0.73574,-0.73681,-0.73681,-0.68071,-0.68144,-0.68579,-0.68862,-0.69424,-0.70329,-0.71516,-0.73273,-0.75534,-0.78076,-0.80712,-0.84262,-0.87301,-0.91205,-0.94868,-0.94868,-0.99537,-0.99537,-0.99537,-1.0877,-1.0877,-1.0877,-1.0877,-1.0877,-1.2521,-1.2521,-1.2521,-1.2521,-1.2521,-1.2521,-1.2521,-1.2521,-1.6137,-1.6137,-1.6137,-1.6137
-0.49599,-0.49703,-0.49756,-0.49742,-0.49687,-0.49682,-0.49712,-0.49638,-0.49547,-0.49605,-0.49725,-0.49752,-0.49779,-0.49795,-0.49812,-0.49809,-0.49834,-0.49854,-0.49837,-0.49786,-0.49672,-0.4954,-0.49385,-0.49243,-0.49126,-0.48916,-0.48822,-0.48832,-0.48694,-0.48523,-0.48436,-0.48427,-0.48362,-0.48147,-0.48132,-0.48009,-0.48129,-0.47926,-0.47863,-0.4768,-0.47668,-0.47597,-0.47516,-0.47485,-0.47517,-0.47456,-0.47538,-0.47633,-0.47751,-0.47862,-0.47959,-0.47959,-0.4146,-0.41311,-0.40712,-0.39808,-0.38448,-0.36183,-0.3322,-0.29582,-0.25355,-0.20552,-0.15606,-0.10418,-0.049723,0.0068334,0.064125,0.064125,0.12229,0.12229,0.12229,0.23557,0.23557,0.23557,0.23557,0.23557,0.38952,0.38952,0.38952,0.38952,0.38952,0.38952,0.38952,0.38952,0.61786,0.61786,0.61786,0.61786
0.26733,0.26815,0.26904,0.26958,0.27081,0.27225,0.27257,0.27247,0.27277,0.2735,0.27393,0.27351,0.27375,0.27397,0.27351,0.27326,0.2729,0.27238,0.27199,0.2714,0.27117,0.27204,0.27209,0.27231,0.27259,0.27226,0.27172,0.27235,0.27227,0.27162,0.27126,0.27092,0.27163,0.27238,0.27221,0.27325,0.27449,0.27516,0.27584,0.27678,0.27806,0.27842,0.27892,0.27929,0.27967,0.27963,0.27961,0.27937,0.27981,0.27944,0.2783,0.2783,0.39528,0.41139,0.43105,0.45475,0.48091,0.50848,0.53488,0.56483,0.597,0.63004,0.66303,0.69947,0.73396,0.76769,0.79896,0.79896,0.83196,0.83196,0.83196,0.8783,0.8783,0.8783,0.8783,0.8783,0.92456,0.92456,0.92456,0.92456,0.92456,0.92456,0.92456,0.92456,0.89623,0.89623,0.89623,0.89623
0.0012262,-0.00037514,-0.0018577,-0.0021363,-0.0013516,-0.0013322,8.1117e-05,0.0015171,0.0017652,0.0015177,0.00067764,-4.2515e-05,-0.0015042,-0.0020167,-0.00021184,-0.00013416,-0.0013174,-0.0002845,-0.00055212,-0.00021282,0.002013,0.0029488,0.0048997,0.0074666,0.0068422,0.0068317,0.010226,0.0093974,0.0074482,0.010741,0.012237,0.011592,0.012286,0.011187,0.014297,0.014591,0.011421,0.011995,0.014023,0.016313,0.013338,0.015429,0.014318,0.015384,0.014808,0.0139,0.01326,0.01305,0.0087493,0.0081221,0.00792,0.00792,-0.39121,-0.40838,-0.41108,-0.40272,-0.3895,-0.36567,-0.32843,-0.27876,-0.22945,-0.17865,-0.12502,-0.071961,-0.031364,0.016037,0.06863,0.06863,0.11831,0.11831,0.11831,0.20781,0.20781,0.20781,0.20781,0.20781,0.29318,0.29318,0.29318,0.29318,0.29318,0.29318,0.29318,0.29318,0.38663,0.38663,0.38663,0.38663
0.1752,0.17339,0.17245,0.17355,0.17403,0.17369,0.17434,0.17498,0.17615,0.1758,0.17565,0.1756,0.17422,0.17386,0.17451,0.17382,0.17251,0.17121,0.17017,0.16986,0.16879,0.16759,0.16674,0.16693,0.16686,0.16567,0.16471,0.16327,0.16213,0.16223,0.16407,0.16566,0.16345,0.1637,0.16684,0.16695,0.16735,0.16428,0.16634,0.16764,0.16853,0.16658,0.16733,0.16867,0.16991,0.16901,0.16966,0.17095,0.17039,0.17,0.17214,0.17214,0.52345,0.52407,0.5248,0.52286,0.52215,0.52126,0.52141,0.52176,0.52144,0.52189,0.52253,0.52302,0.52268,0.5235,0.52313,0.52313,0.52518,0.52518,0.52518,0.52525,0.52525,0.52525,0.52525,0.52525,0.52581,0.52581,0.52581,0.52581,0.52581,0.52581,0.52581,0.52581,0.52605,0.52605,0.52605,0.52605
-0.7254,-0.72543,-0.72628,-0.72709,-0.72706,-0.72668,-0.72687,-0.72746,-0.72872,-0.72782,-0.728,-0.72849,-0.72824,-0.72749,-0.72645,-0.72588,-0.72464,-0.72377,-0.72312,-0.72302,-0.72271,-0.72273,-0.72161,-0.72121,-0.72122,-0.72076,-0.72057,-0.7195,-0.71982,-0.71969,-0.71999,-0.71929,-0.71938,-0.72073,-0.72021,-0.7201,-0.72032,-0.7199,-0.7205,-0.72095,-0.72103,-0.72052,-0.72069,-0.72144,-0.72248,-0.72189,-0.72271,-0.72301,-0.72361,-0.72396,-0.72511,-0.72511,-0.64195,-0.64264,-0.64761,-0.65078,-0.65706,-0.66718,-0.68047,-0.6999,-0.72465,-0.75212,-0.78019,-0.81822,-0.84983,-0.89116,-0.92923,-0.92923,-0.97821,-0.97821,-0.97821,-1.0741,-1.0741,-1.0741,-1.0741,-1.0741,-1.2438,-1.2438,-1.2438,-1.2438,-1.2438,-1.2438,-1.2438,-1.2438,-1.6164,-1.6164,-1.6164,-1.6164
-0.49876,-0.49988,-0.50041,-0.50026,-0.49962,-0.49955,-0.49993,-0.49914,-0.49817,-0.49888,-0.50024,-0.50056,-0.50078,-0.50092,-0.50116,-0.50106,-0.50133,-0.50153,-0.50129,-0.50076,-0.49949,-0.498,-0.49637,-0.4949,-0.49369,-0.4915,-0.49064,-0.49084,-0.48945,-0.48773,-0.48696,-0.48713,-0.48651,-0.48416,-0.48437,-0.48312,-0.48464,-0.48244,-0.48192,-0.48001,-0.48004,-0.47937,-0.47857,-0.47841,-0.47891,-0.47828,-0.47928,-0.48042,-0.48167,-0.48286,-0.4839,-0.4839,-0.3913,-0.38816,-0.38031,-0.36962,-0.35397,-0.32856,-0.29634,-0.25743,-0.21297,-0.16296,-0.11239,-0.059811,-0.0052049,0.051236,0.10741,0.10741,0.16432,0.16432,0.16432,0.27282,0.27282,0.27282,0.27282,0.27282,0.41676,0.41676,0.41676,0.41676,0.41676,0.41676,0.41676,0.41676,0.62544,0.62544,0.62544,0.62544
0.28525,0.28607,0.28697,0.28746,0.28877,0.29024,0.29044,0.29031,0.29068,0.29135,0.29172,0.29118,0.29144,0.29167,0.29108,0.29085,0.29049,0.28993,0.28959,0.28904,0.28887,0.28986,0.28986,0.29004,0.29039,0.29005,0.28948,0.29016,0.29006,0.2893,0.28913,0.28871,0.2894,0.29025,0.28996,0.29112,0.29226,0.29296,0.29356,0.29464,0.29579,0.29608,0.29651,0.29689,0.2972,0.29714,0.29701,0.29671,0.29716,0.29674,0.29554,0.29554,0.45915,0.47813,0.50047,0.52638,0.5542,0.58317,0.61053,0.64111,0.67357,0.70654,0.73905,0.77484,0.80823,0.84076,0.87072,0.87072,0.90271,0.90271,0.90271,0.94579,0.94579,0.94579,0.94579,0.94579,0.98772,0.98772,0.98772,0.98772,0.98772,0.98772,0.98772,0.98772,0.95149,0.95149,0.95149,0.95149
-0.0047388,-0.0062564,-0.0080127,-0.0073652,-0.0053266,-0.0040149,-0.0050457,-0.0045326,-0.0027944,-0.0039966,-0.0058777,-0.0073321,-0.0075671,-0.006211,-0.0055941,-0.0060707,-0.0059342,-0.0063484,-0.0061289,-0.0043725,-0.0022068,-1.7352e-05,0.0020933,0.002672,0.0019984,0.004153,0.0062885,0.0032977,0.0038105,0.0057133,0.0076486,0.0073921,0.0050205,0.0076771,0.0089955,0.0083173,0.0069277,0.0064495,0.012086,0.0091816,0.010492,0.0079468,0.01081,0.0087557,0.007854,0.0074465,0.0077296,0.0033877,0.0027024,0.00058855,-1.8811e-05,-1.8811e-05,-0.411,-0.42281,-0.41073,-0.39739,-0.37573,-0.34381,-0.29208,-0.23952,-0.18692,-0.13349,-0.078118,-0.030009,0.013967,0.068348,0.11921,0.11921,0.16785,0.16785,0.16785,0.24853,0.24853,0.24853,0.24853,0.24853,0.3209,0.3209,0.3209,0.3209,0.3209,0.3209,0.3209,0.3209,0.41633,0.41633,0.41633,0.41633
0.16558,0.16334,0.16257,0.16484,0.16535,0.16431,0.16517,0.16614,0.16701,0.16626,0.16552,0.16597,0.16435,0.164,0.16548,0.1639,0.16212,0.16138,0.15996,0.15993,0.15971,0.15814,0.15826,0.15876,0.15726,0.1563,0.15621,0.15266,0.15204,0.15469,0.15487,0.15591,0.15457,0.15519,0.15972,0.15847,0.15825,0.15598,0.15948,0.15897,0.15995,0.15862,0.15948,0.15999,0.16144,0.15996,0.16135,0.16234,0.16082,0.16101,0.16377,0.16377,0.52268,0.5233,0.52196,0.52155,0.52261,0.52325,0.52395,0.524,0.52385,0.52435,0.5247,0.52396,0.5244,0.52409,0.5251,0.5251,0.52418,0.52418,0.52418,0.52429,0.52429,0.52429,0.52429,0.52429,0.52392,0.52392,0.52392,0.52392,0.52392,0.52392,0.52392,0.52392,0.52325,0.52325,0.52325,0.52325
-0.71083,-0.71081,-0.71171,-0.7125,-0.71227,-0.71172,-0.71191,-0.7125,-0.71377,-0.71266,-0.71287,-0.71342,-0.71308,-0.71216,-0.71099,-0.71038,-0.70903,-0.70819,-0.70757,-0.70756,-0.70735,-0.70744,-0.70633,-0.70597,-0.70606,-0.70562,-0.70557,-0.70446,-0.70497,-0.70486,-0.7052,-0.7044,-0.70463,-0.70612,-0.70545,-0.70537,-0.70564,-0.70529,-0.70588,-0.70625,-0.70626,-0.70577,-0.70597,-0.70669,-0.70779,-0.70708,-0.70796,-0.70826,-0.70889,-0.7092,-0.71041,-0.71041,-0.59699,-0.5976,-0.60316,-0.60666,-0.61367,-0.62479,-0.63946,-0.66058,-0.6873,-0.71668,-0.74635,-0.78673,-0.81942,-0.86296,-0.90232,-0.90232,-0.95349,-0.95349,-0.95349,-1.0527,-1.0527,-1.0527,-1.0527,-1.0527,-1.227,-1.227,-1.227,-1.227,-1.227,-1.227,-1.227,-1.227,-1.6098,-1.6098,-1.6098,-1.6098
-0.50085,-0.50201,-0.50251,-0.50236,-0.50167,-0.50162,-0.50206,-0.5012,-0.50022,-0.50105,-0.50252,-0.50285,-0.50303,-0.5032,-0.50349,-0.50334,-0.50361,-0.50382,-0.50353,-0.50299,-0.50163,-0.5,-0.49833,-0.49681,-0.49559,-0.49331,-0.49255,-0.49282,-0.49141,-0.48969,-0.48908,-0.4895,-0.48884,-0.48639,-0.48693,-0.48567,-0.4875,-0.48508,-0.48475,-0.48278,-0.48294,-0.48227,-0.48152,-0.48149,-0.48214,-0.48147,-0.48268,-0.48393,-0.48522,-0.48647,-0.48756,-0.48756,-0.36526,-0.36038,-0.35102,-0.33882,-0.32136,-0.29385,-0.25981,-0.21936,-0.17365,-0.12256,-0.071761,-0.019426,0.034754,0.090157,0.14451,0.14451,0.19923,0.19923,0.19923,0.30176,0.30176,0.30176,0.30176,0.30176,0.43441,0.43441,0.43441,0.43441,0.43441,0.43441,0.43441,0.43441,0.62152,0.62152,0.62152,0.62152
0.30353,0.30434,0.30523,0.3057,0.30703,0.30849,0.30861,0.30847,0.30892,0.3095,0.30979,0.3092,0.30947,0.30968,0.309,0.30878,0.30843,0.30786,0.30755,0.30708,0.30696,0.30802,0.308,0.30814,0.30851,0.30819,0.30763,0.30825,0.30818,0.30737,0.30732,0.30685,0.30752,0.30843,0.30807,0.30926,0.31034,0.31106,0.31163,0.31274,0.31375,0.314,0.31435,0.31476,0.31499,0.31491,0.31471,0.31433,0.31478,0.31435,0.31311,0.31311,0.53002,0.55118,0.5755,0.60286,0.63181,0.66169,0.68973,0.72047,0.75274,0.78519,0.81689,0.85169,0.88373,0.91511,0.94368,0.94368,0.97485,0.97485,0.97485,1.0151,1.0151,1.0151,1.0151,1.0151,1.0535,1.0535,1.0535,1.0535,1.0535,1.0535,1.0535,1.0535,1.0114,1.0114,1.0114,1.0114
-0.014743,-0.01727,-0.016949,-0.015225,-0.012503,-0.012912,-0.015897,-0.01385,-0.011596,-0.013983,-0.017469,-0.017657,-0.015218,-0.015106,-0.016537,-0.015387,-0.016279,-0.016855,-0.015334,-0.014411,-0.011894,-0.0099973,-0.0094179,-0.0091071,-0.0077685,-0.0047548,-0.0051925,-0.0065186,-0.0062203,-0.0036628,-0.00026056,-0.0057167,-0.0059139,-0.00012643,-0.0042437,-0.00048881,-0.0078684,0.00051973,-0.0020081,0.0021592,-0.0032186,-0.0018168,-0.0005584,-0.0019089,-0.0039869,-0.00176,-0.0065583,-0.0069834,-0.0085181,-0.011036,-0.011172,-0.011172,-0.45561,-0.45411,-0.44263,-0.428,-0.40371,-0.36551,-0.3108,-0.26606,-0.22083,-0.16599,-0.11892,-0.078984,-0.025607,0.031697,0.076018,0.076018,0.12069,0.12069,0.12069,0.19812,0.19812,0.19812,0.19812,0.19812,0.26215,0.26215,0.26215,0.26215,0.26215,0.26215,0.26215,0.26215,0.32309,0.32309,0.32309,0.32309
0.14878,0.14639,0.14615,0.1487,0.14959,0.14862,0.14853,0.14905,0.15066,0.14964,0.14824,0.14845,0.14758,0.14752,0.14817,0.14647,0.14474,0.14366,0.14232,0.14285,0.14284,0.14195,0.14203,0.14207,0.14084,0.14041,0.13967,0.13579,0.13602,0.13857,0.13891,0.13939,0.13814,0.14012,0.14381,0.14256,0.14211,0.14075,0.14369,0.14391,0.14461,0.143,0.14343,0.14419,0.14522,0.14418,0.14538,0.14574,0.14469,0.1451,0.14744,0.14744,0.52554,0.52492,0.5248,0.52545,0.52666,0.52631,0.5266,0.52565,0.52537,0.52516,0.52484,0.52459,0.52402,0.52415,0.52332,0.52332,0.52252,0.52252,0.52252,0.52237,0.52237,0.52237,0.52237,0.52237,0.52212,0.52212,0.52212,0.52212,0.52212,0.52212,0.52212,0.52212,0.52189,0.52189,0.52189,0.52189
-0.69363,-0.69359,-0.69454,-0.69526,-0.69482,-0.69414,-0.69432,-0.69489,-0.69614,-0.69486,-0.69512,-0.69573,-0.69531,-0.69423,-0.69293,-0.69229,-0.69088,-0.69007,-0.68951,-0.68958,-0.68944,-0.68962,-0.68852,-0.68819,-0.68838,-0.68796,-0.68808,-0.68697,-0.68766,-0.68753,-0.6879,-0.68701,-0.68738,-0.68897,-0.68811,-0.68805,-0.68839,-0.68813,-0.68867,-0.68895,-0.68888,-0.68844,-0.68866,-0.68934,-0.69048,-0.68966,-0.69059,-0.69088,-0.69154,-0.69182,-0.69306,-0.69306,-0.54669,-0.54717,-0.55327,-0.55717,-0.56488,-0.57694,-0.59292,-0.61555,-0.64409,-0.67522,-0.70639,-0.74889,-0.78262,-0.82815,-0.86875,-0.86875,-0.92183,-0.92183,-0.92183,-1.024,-1.024,-1.024,-1.024,-1.024,-1.2027,-1.2027,-1.2027,-1.2027,-1.2027,-1.2027,-1.2027,-1.2027,-1.5949,-1.5949,-1.5949,-1.5949
-0.50509,-0.50625,-0.50674,-0.50663,-0.50593,-0.50585,-0.50632,-0.50546,-0.5045,-0.50539,-0.50691,-0.50727,-0.50746,-0.50763,-0.50797,-0.50779,-0.50804,-0.50825,-0.50794,-0.50739,-0.50598,-0.50424,-0.50253,-0.50101,-0.49975,-0.49743,-0.4968,-0.49708,-0.49566,-0.49406,-0.4936,-0.49414,-0.4935,-0.49101,-0.49181,-0.49061,-0.49257,-0.49011,-0.48994,-0.48794,-0.48813,-0.48752,-0.48685,-0.48691,-0.48766,-0.48702,-0.48834,-0.48971,-0.49099,-0.49227,-0.49344,-0.49344,-0.33217,-0.3256,-0.31485,-0.30119,-0.28236,-0.25332,-0.21834,-0.1771,-0.13083,-0.079528,-0.029242,0.022233,0.075234,0.12871,0.18062,0.18062,0.23242,0.23242,0.23242,0.32765,0.32765,0.32765,0.32765,0.32765,0.44802,0.44802,0.44802,0.44802,0.44802,0.44802,0.44802,0.44802,0.61228,0.61228,0.61228,0.61228
0.32212,0.32289,0.32377,0.32422,0.32554,0.32697,0.32703,0.32691,0.3274,0.32786,0.32811,0.32749,0.32776,0.32794,0.3272,0.32701,0.32667,0.3261,0.32583,0.32545,0.32536,0.32645,0.3264,0.32649,0.3269,0.32662,0.32604,0.32662,0.32662,0.32572,0.32579,0.32529,0.3259,0.32687,0.32641,0.32764,0.32864,0.32942,0.3299,0.33103,0.33191,0.33209,0.33243,0.33281,0.33297,0.33288,0.3326,0.33218,0.33265,0.33217,0.33094,0.33094,0.60542,0.62805,0.65371,0.68203,0.71174,0.74215,0.77069,0.80115,0.83282,0.86438,0.895,0.9285,0.95914,0.98937,1.0165,1.0165,1.047,1.047,1.047,1.0848,1.0848,1.0848,1.0848,1.0848,1.1203,1.1203,1.1203,1.1203,1.1203,1.1203,1.1203,1.1203,1.0745,1.0745,1.0745,1.0745
-0.046059,-0.047292,-0.04507,-0.044702,-0.043682,-0.043586,-0.045829,-0.044907,-0.042045,-0.045063,-0.046898,-0.046796,-0.045468,-0.045337,-0.047241,-0.047299,-0.046708,-0.046998,-0.047228,-0.045057,-0.044472,-0.043288,-0.041718,-0.041595,-0.039225,-0.03629,-0.037671,-0.040103,-0.035793,-0.035759,-0.034871,-0.038134,-0.037212,-0.033516,-0.036537,-0.035576,-0.038556,-0.032178,-0.035355,-0.031292,-0.036102,-0.033916,-0.03527,-0.033317,-0.036591,-0.035957,-0.038209,-0.039747,-0.041558,-0.041369,-0.044072,-0.044072,-0.39469,-0.38308,-0.37439,-0.3576,-0.33537,-0.29669,-0.25587,-0.21784,-0.17189,-0.12233,-0.081805,-0.041486,0.012761,0.056684,0.097784,0.097784,0.13149,0.13149,0.13149,0.19271,0.19271,0.19271,0.19271,0.19271,0.25015,0.25015,0.25015,0.25015,0.25015,0.25015,0.25015,0.25015,0.28569,0.28569,0.28569,0.28569
0.13185,0.12998,0.13087,0.13318,0.13422,0.13301,0.13159,0.13236,0.13501,0.13311,0.13125,0.1315,0.13173,0.1315,0.13071,0.12927,0.1274,0.12609,0.12522,0.1259,0.12603,0.12611,0.12554,0.12538,0.12482,0.12415,0.12289,0.11991,0.12054,0.12271,0.12388,0.12279,0.12231,0.126,0.12755,0.12703,0.12587,0.12562,0.12822,0.12978,0.1289,0.1271,0.12755,0.12857,0.12949,0.12881,0.12948,0.12944,0.12913,0.12966,0.1318,0.1318,0.52105,0.52061,0.52202,0.52196,0.52143,0.52165,0.52112,0.52143,0.52234,0.52237,0.52235,0.5232,0.5239,0.52388,0.52407,0.52407,0.52437,0.52437,0.52437,0.5242,0.5242,0.5242,0.5242,0.5242,0.52462,0.52462,0.52462,0.52462,0.52462,0.52462,0.52462,0.52462,0.52535,0.52535,0.52535,0.52535
-0.67517,-0.67514,-0.67613,-0.67675,-0.67609,-0.67532,-0.67551,-0.67603,-0.67722,-0.67581,-0.67614,-0.67678,-0.6763,-0.67508,-0.67365,-0.67303,-0.67158,-0.67082,-0.67032,-0.67045,-0.67038,-0.67065,-0.66957,-0.66927,-0.66956,-0.66919,-0.66946,-0.66842,-0.66927,-0.66907,-0.66947,-0.66849,-0.669,-0.67065,-0.66957,-0.66954,-0.66997,-0.66981,-0.67023,-0.67042,-0.67029,-0.66992,-0.67013,-0.67077,-0.67192,-0.67101,-0.67198,-0.67226,-0.67296,-0.67321,-0.67442,-0.67442,-0.48983,-0.49014,-0.49685,-0.50119,-0.50963,-0.52255,-0.53982,-0.56391,-0.59415,-0.62693,-0.6595,-0.70399,-0.73862,-0.78611,-0.82778,-0.82778,-0.8827,-0.8827,-0.8827,-0.98787,-0.98787,-0.98787,-0.98787,-0.98787,-1.1706,-1.1706,-1.1706,-1.1706,-1.1706,-1.1706,-1.1706,-1.1706,-1.5717,-1.5717,-1.5717,-1.5717
-0.50967,-0.51082,-0.5113,-0.51122,-0.51054,-0.51045,-0.51093,-0.51009,-0.50918,-0.51008,-0.51163,-0.51201,-0.51221,-0.5124,-0.51277,-0.51255,-0.5128,-0.51302,-0.51265,-0.51214,-0.5107,-0.50885,-0.50717,-0.50562,-0.50435,-0.50204,-0.50152,-0.50177,-0.50042,-0.4989,-0.49859,-0.49924,-0.49863,-0.49611,-0.49718,-0.49603,-0.49807,-0.49568,-0.4956,-0.49365,-0.4938,-0.49332,-0.49265,-0.49285,-0.49364,-0.49304,-0.49444,-0.49588,-0.49713,-0.49847,-0.49963,-0.49963,-0.29556,-0.28751,-0.27536,-0.26058,-0.24069,-0.21075,-0.17556,-0.13418,-0.088091,-0.037373,0.011781,0.061842,0.11283,0.16377,0.21259,0.21259,0.26099,0.26099,0.26099,0.34782,0.34782,0.34782,0.34782,0.34782,0.45504,0.45504,0.45504,0.45504,0.45504,0.45504,0.45504,0.45504,0.59523,0.59523,0.59523,0.59523
0.34099,0.34174,0.34263,0.34305,0.3443,0.3457,0.34572,0.34562,0.34612,0.34646,0.34668,0.34607,0.34634,0.34647,0.34567,0.34554,0.34519,0.34464,0.34444,0.34409,0.34403,0.34512,0.34504,0.34509,0.34554,0.34525,0.34472,0.34529,0.34531,0.34437,0.34458,0.34396,0.34455,0.34558,0.34498,0.34625,0.34715,0.34799,0.34839,0.34951,0.35021,0.35038,0.35073,0.35105,0.35115,0.35104,0.35072,0.35028,0.35074,0.35024,0.34905,0.34905,0.68336,0.70683,0.73337,0.76231,0.79237,0.8231,0.85193,0.88181,0.91254,0.94293,0.97234,1.0043,1.0335,1.0627,1.0885,1.0885,1.1183,1.1183,1.1183,1.1541,1.1541,1.1541,1.1541,1.1541,1.1875,1.1875,1.1875,1.1875,1.1875,1.1875,1.1875,1.1875,1.1392,1.1392,1.1392,1.1392
-0.050919,-0.050527,-0.049396,-0.049116,-0.048345,-0.049035,-0.050889,-0.048788,-0.047884,-0.050242,-0.05154,-0.050941,-0.049987,-0.051116,-0.053215,-0.051602,-0.052037,-0.053352,-0.051764,-0.051971,-0.051512,-0.049141,-0.048156,-0.046559,-0.044283,-0.043967,-0.045476,-0.043768,-0.042157,-0.04261,-0.041467,-0.044734,-0.043872,-0.03958,-0.044603,-0.041273,-0.043882,-0.039858,-0.041397,-0.03949,-0.0424,-0.042322,-0.039867,-0.04147,-0.04371,-0.04291,-0.045561,-0.046701,-0.046362,-0.049236,-0.051064,-0.051064,-0.46029,-0.45031,-0.43807,-0.4209,-0.39829,-0.36622,-0.34003,-0.2955,-0.25343,-0.21302,-0.17489,-0.12885,-0.091291,-0.05245,-0.019273,-0.019273,0.018475,0.018475,0.018475,0.054637,0.054637,0.054637,0.054637,0.054637,0.077821,0.077821,0.077821,0.077821,0.077821,0.077821,0.077821,0.077821,0.047213,0.047213,0.047213,0.047213
0.10662,0.10598,0.10768,0.10975,0.11025,0.10789,0.10603,0.10788,0.11064,0.10773,0.10554,0.10675,0.10798,0.10657,0.10462,0.10351,0.10131,0.1003,0.099927,0.10018,0.10075,0.10121,0.099728,0.10004,0.099433,0.098469,0.098152,0.096278,0.096408,0.1,0.10039,0.097627,0.098759,0.10323,0.10286,0.10213,0.10078,0.10141,0.10511,0.1055,0.10357,0.10189,0.10321,0.10378,0.10531,0.10412,0.10486,0.10454,0.10505,0.10565,0.10804,0.10804,0.51712,0.51761,0.51851,0.51636,0.51599,0.5158,0.51573,0.51655,0.51722,0.51668,0.51645,0.51723,0.51835,0.5185,0.51987,0.51987,0.52321,0.52321,0.52321,0.52365,0.52365,0.52365,0.52365,0.52365,0.52342,0.52342,0.52342,0.52342,0.52342,0.52342,0.52342,0.52342,0.52301,0.52301,0.52301,0.52301
-0.65535,-0.65534,-0.65636,-0.65684,-0.65598,-0.65517,-0.65535,-0.65579,-0.6569,-0.6554,-0.65583,-0.65647,-0.65593,-0.65461,-0.65308,-0.65248,-0.65104,-0.65033,-0.6499,-0.65009,-0.65007,-0.65042,-0.64939,-0.6491,-0.64951,-0.64919,-0.6496,-0.64867,-0.64966,-0.64932,-0.64978,-0.64875,-0.64935,-0.651,-0.6497,-0.64974,-0.65025,-0.6502,-0.65045,-0.65057,-0.65038,-0.6501,-0.65029,-0.65088,-0.65199,-0.65104,-0.65201,-0.65229,-0.65302,-0.65324,-0.65438,-0.65438,-0.42783,-0.42805,-0.43536,-0.44015,-0.44926,-0.46297,-0.48157,-0.507,-0.5388,-0.57313,-0.60698,-0.65326,-0.68878,-0.73811,-0.7808,-0.7808,-0.83744,-0.83744,-0.83744,-0.94547,-0.94547,-0.94547,-0.94547,-0.94547,-1.1321,-1.1321,-1.1321,-1.1321,-1.1321,-1.1321,-1.1321,-1.1321,-1.542,-1.542,-1.542,-1.542
-0.5121,-0.51322,-0.51369,-0.51368,-0.51301,-0.5129,-0.5134,-0.5126,-0.51171,-0.51262,-0.51417,-0.5146,-0.51481,-0.51497,-0.51538,-0.51514,-0.51538,-0.51558,-0.5152,-0.5147,-0.51324,-0.51132,-0.50965,-0.50811,-0.50687,-0.50461,-0.50417,-0.50441,-0.50312,-0.50172,-0.50153,-0.50228,-0.50167,-0.49922,-0.50047,-0.49936,-0.50152,-0.49917,-0.49921,-0.49725,-0.49745,-0.497,-0.49644,-0.4967,-0.49755,-0.49696,-0.49842,-0.49992,-0.50116,-0.50247,-0.50363,-0.50363,-0.25801,-0.24847,-0.23517,-0.21954,-0.19898,-0.16875,-0.13386,-0.092983,-0.047786,0.0017075,0.049025,0.096897,0.14523,0.19313,0.23821,0.23821,0.2827,0.2827,0.2827,0.36057,0.36057,0.36057,0.36057,0.36057,0.45398,0.45398,0.45398,0.45398,0.45398,0.45398,0.45398,0.45398,0.57058,0.57058,0.57058,0.57058
0.3595,0.36025,0.36118,0.36154,0.3627,0.36405,0.36405,0.36395,0.36443,0.36466,0.36487,0.36428,0.36456,0.36465,0.3638,0.3637,0.36336,0.36284,0.36268,0.36235,0.36231,0.36339,0.36329,0.36331,0.36377,0.36349,0.36305,0.36361,0.36366,0.36273,0.36299,0.36225,0.36287,0.36391,0.36318,0.36443,0.36525,0.36618,0.3665,0.36755,0.36807,0.3683,0.36861,0.36888,0.36891,0.36878,0.36846,0.36798,0.36842,0.36796,0.36679,0.36679,0.76146,0.78555,0.8127,0.84199,0.8723,0.9032,0.93221,0.96136,0.99093,1.02,1.0481,1.0784,1.1064,1.1345,1.1593,1.1593,1.1885,1.1885,1.1885,1.2228,1.2228,1.2228,1.2228,1.2228,1.2549,1.2549,1.2549,1.2549,1.2549,1.2549,1.2549,1.2549,1.2059,1.2059,1.2059,1.2059
-0.07081,-0.07069,-0.070581,-0.070682,-0.071387,-0.072036,-0.070393,-0.069525,-0.071555,-0.071677,-0.071783,-0.071311,-0.072757,-0.074791,-0.073488,-0.073505,-0.074928,-0.073624,-0.07395,-0.074899,-0.073076,-0.07267,-0.069748,-0.067263,-0.068337,-0.067871,-0.065913,-0.065811,-0.06558,-0.063333,-0.066181,-0.067692,-0.064167,-0.065622,-0.065925,-0.064215,-0.067071,-0.06238,-0.065552,-0.064839,-0.067549,-0.062761,-0.064129,-0.065379,-0.06733,-0.06677,-0.069016,-0.06778,-0.071132,-0.072124,-0.073248,-0.073248,-0.35148,-0.33928,-0.32269,-0.30394,-0.27875,-0.25726,-0.22207,-0.18262,-0.14637,-0.10427,-0.063407,-0.027117,0.0069475,0.045597,0.076525,0.076525,0.099708,0.099708,0.099708,0.13871,0.13871,0.13871,0.13871,0.13871,0.14735,0.14735,0.14735,0.14735,0.14735,0.14735,0.14735,0.14735,0.11264,0.11264,0.11264,0.11264
0.072478,0.072922,0.075074,0.076437,0.075531,0.07252,0.071411,0.073702,0.075504,0.071746,0.07047,0.072702,0.073715,0.071092,0.068617,0.06782,0.065446,0.064986,0.064893,0.064862,0.065637,0.066024,0.064086,0.064498,0.063957,0.063186,0.064355,0.063224,0.06391,0.067481,0.066848,0.063402,0.066046,0.069995,0.06778,0.067011,0.066276,0.06788,0.071159,0.069835,0.067545,0.066933,0.068615,0.068613,0.070401,0.068791,0.069861,0.069652,0.070782,0.071492,0.07383,0.07383,0.52591,0.52491,0.52495,0.52424,0.52453,0.52577,0.52506,0.52587,0.52593,0.52448,0.52332,0.52221,0.52208,0.52115,0.52177,0.52177,0.52366,0.52366,0.52366,0.5239,0.5239,0.5239,0.5239,0.5239,0.5239,0.5239,0.5239,0.5239,0.5239,0.5239,0.5239,0.5239,0.52425,0.52425,0.52425,0.52425
-0.63531,-0.63533,-0.63633,-0.63667,-0.63563,-0.63481,-0.63501,-0.63534,-0.63633,-0.6348,-0.63533,-0.63595,-0.63535,-0.63396,-0.63237,-0.63182,-0.63042,-0.62976,-0.62939,-0.62963,-0.62965,-0.63009,-0.62912,-0.62884,-0.62936,-0.6291,-0.62962,-0.62883,-0.62993,-0.62942,-0.62993,-0.6289,-0.62957,-0.63115,-0.62969,-0.62979,-0.63039,-0.63044,-0.63047,-0.63056,-0.63031,-0.63013,-0.63026,-0.63081,-0.63187,-0.63089,-0.63183,-0.63213,-0.63288,-0.63306,-0.6341,-0.6341,-0.36062,-0.36081,-0.36866,-0.37385,-0.38357,-0.39805,-0.41795,-0.44461,-0.47785,-0.5136,-0.5486,-0.59649,-0.63285,-0.68386,-0.72753,-0.72753,-0.78577,-0.78577,-0.78577,-0.89657,-0.89657,-0.89657,-0.89657,-0.89657,-1.087,-1.087,-1.087,-1.087,-1.087,-1.087,-1.087,-1.087,-1.5053,-1.5053,-1.5053,-1.5053
-0.51587,-0.51696,-0.51747,-0.5175,-0.51684,-0.51673,-0.51723,-0.51644,-0.51561,-0.5165,-0.51806,-0.5185,-0.51873,-0.51889,-0.51929,-0.51905,-0.51925,-0.51946,-0.51905,-0.51856,-0.51709,-0.51513,-0.5135,-0.51199,-0.51081,-0.50858,-0.50823,-0.50848,-0.50729,-0.50596,-0.50595,-0.50667,-0.50616,-0.50378,-0.50515,-0.50418,-0.50631,-0.50417,-0.50415,-0.50239,-0.50243,-0.50219,-0.50161,-0.502,-0.50282,-0.5023,-0.50377,-0.50533,-0.50649,-0.50782,-0.50894,-0.50894,-0.21525,-0.20435,-0.19018,-0.17399,-0.15327,-0.12326,-0.089209,-0.049415,-0.0056038,0.041953,0.086916,0.132,0.17728,0.22122,0.26243,0.26243,0.30245,0.30245,0.30245,0.37047,0.37047,0.37047,0.37047,0.37047,0.45,0.45,0.45,0.45,0.45,0.45,0.45,0.45,0.54299,0.54299,0.54299,0.54299
0.37663,0.37744,0.37838,0.37865,0.37971,0.38101,0.38099,0.38089,0.3813,0.38145,0.38166,0.38111,0.38141,0.38143,0.38052,0.38046,0.38017,0.37966,0.37954,0.37922,0.37918,0.38025,0.38011,0.38008,0.38057,0.38035,0.37997,0.38058,0.38068,0.37972,0.37998,0.37917,0.37981,0.38085,0.37993,0.38116,0.38195,0.38297,0.38316,0.38409,0.38452,0.38477,0.38507,0.38527,0.38523,0.38512,0.38477,0.38425,0.38474,0.38429,0.38313,0.38313,0.84109,0.86566,0.89313,0.92266,0.95306,0.98401,1.013,1.0412,1.0695,1.0971,1.1238,1.1524,1.1793,1.2065,1.2303,1.2303,1.2592,1.2592,1.2592,1.2922,1.2922,1.2922,1.2922,1.2922,1.3242,1.3242,1.3242,1.3242,1.3242,1.3242,1.3242,1.3242,1.276,1.276,1.276,1.276
-0.054325,-0.054195,-0.054469,-0.054496,-0.056408,-0.055278,-0.053603,-0.054587,-0.055937,-0.055653,-0.0559,-0.055868,-0.057947,-0.058019,-0.057359,-0.058609,-0.058018,-0.05809,-0.058344,-0.058238,-0.05772,-0.056703,-0.053882,-0.053448,-0.053484,-0.050988,-0.049374,-0.050123,-0.048015,-0.047241,-0.051038,-0.049325,-0.049991,-0.049031,-0.04952,-0.052483,-0.049745,-0.051384,-0.049137,-0.054354,-0.048978,-0.051123,-0.048826,-0.052268,-0.051706,-0.053689,-0.051992,-0.055361,-0.056084,-0.057078,-0.057992,-0.057992,-0.29306,-0.27789,-0.26356,-0.23826,-0.21819,-0.18259,-0.13976,-0.10825,-0.069394,-0.028168,0.015683,0.0461,0.092185,0.12386,0.16371,0.16371,0.17346,0.17346,0.17346,0.21143,0.21143,0.21143,0.21143,0.21143,0.23432,0.23432,0.23432,0.23432,0.23432,0.23432,0.23432,0.23432,0.19771,0.19771,0.19771,0.19771
0.046295,0.04753,0.049578,0.049466,0.047213,0.045038,0.044838,0.046067,0.046678,0.043064,0.043913,0.0459,0.045675,0.042892,0.040206,0.039587,0.037512,0.03726,0.037226,0.037275,0.037735,0.038333,0.036438,0.036285,0.0365,0.036113,0.038243,0.037989,0.039928,0.040549,0.040423,0.037815,0.040622,0.043199,0.039572,0.039608,0.040379,0.04184,0.043207,0.040959,0.0395,0.039734,0.041061,0.040628,0.042244,0.040812,0.042228,0.042038,0.043916,0.044463,0.045993,0.045993,0.5121,0.50774,0.51093,0.51194,0.51446,0.51663,0.51677,0.51976,0.52226,0.5233,0.52468,0.52537,0.52495,0.52616,0.526,0.526,0.52399,0.52399,0.52399,0.5228,0.5228,0.5228,0.5228,0.5228,0.52267,0.52267,0.52267,0.52267,0.52267,0.52267,0.52267,0.52267,0.52305,0.52305,0.52305,0.52305
-0.61554,-0.61555,-0.61652,-0.61671,-0.61553,-0.61474,-0.61496,-0.61516,-0.61601,-0.61452,-0.61514,-0.61571,-0.61504,-0.61363,-0.61202,-0.61152,-0.61019,-0.60958,-0.60927,-0.60958,-0.60963,-0.61013,-0.60926,-0.60898,-0.60961,-0.60941,-0.61,-0.60933,-0.61052,-0.60982,-0.61038,-0.60941,-0.61009,-0.61157,-0.61,-0.61017,-0.61087,-0.61099,-0.61078,-0.61086,-0.61059,-0.61049,-0.61055,-0.61107,-0.61203,-0.61105,-0.61195,-0.61227,-0.61301,-0.61314,-0.61406,-0.61406,-0.2888,-0.28901,-0.29728,-0.30284,-0.31314,-0.32833,-0.3494,-0.37721,-0.41175,-0.44875,-0.48475,-0.53414,-0.57114,-0.62363,-0.66822,-0.66822,-0.72791,-0.72791,-0.72791,-0.84122,-0.84122,-0.84122,-0.84122,-0.84122,-1.0353,-1.0353,-1.0353,-1.0353,-1.0353,-1.0353,-1.0353,-1.0353,-1.4618,-1.4618,-1.4618,-1.4618
-0.51749,-0.51858,-0.51912,-0.51919,-0.51855,-0.51843,-0.51892,-0.51816,-0.51737,-0.51827,-0.51979,-0.52025,-0.52051,-0.52064,-0.52103,-0.52077,-0.52096,-0.52114,-0.5207,-0.52023,-0.51876,-0.51679,-0.51523,-0.51377,-0.51263,-0.5105,-0.51022,-0.51049,-0.5094,-0.50822,-0.50825,-0.50904,-0.50858,-0.5063,-0.5078,-0.50685,-0.50907,-0.50702,-0.50711,-0.50536,-0.50544,-0.50525,-0.50474,-0.50519,-0.50601,-0.50551,-0.50702,-0.50855,-0.50968,-0.51098,-0.51203,-0.51203,-0.17182,-0.15987,-0.14512,-0.12881,-0.10832,-0.078905,-0.046207,-0.0079074,0.033878,0.078952,0.12101,0.163,0.2044,0.24428,0.28111,0.28111,0.31654,0.31654,0.31654,0.37452,0.37452,0.37452,0.37452,0.37452,0.44009,0.44009,0.44009,0.44009,0.44009,0.44009,0.44009,0.44009,0.5104,0.5104,0.5104,0.5104
0.39355,0.39441,0.39536,0.39551,0.39641,0.39768,0.39768,0.39756,0.39786,0.39794,0.3982,0.39768,0.39798,0.39793,0.39696,0.39698,0.3967,0.39622,0.39615,0.3958,0.39574,0.3968,0.3966,0.39652,0.39708,0.39688,0.3966,0.39733,0.39745,0.3964,0.39671,0.39582,0.39649,0.3975,0.39635,0.39761,0.39835,0.39946,0.39943,0.40033,0.40061,0.40094,0.40121,0.40133,0.40123,0.40115,0.40078,0.40026,0.40078,0.40037,0.39921,0.39921,0.92207,0.94686,0.97452,1.0042,1.0345,1.0653,1.0941,1.1213,1.1481,1.1741,1.1992,1.2263,1.252,1.2783,1.3011,1.3011,1.3297,1.3297,1.3297,1.3618,1.3618,1.3618,1.3618,1.3618,1.3941,1.3941,1.3941,1.3941,1.3941,1.3941,1.3941,1.3941,1.3485,1.3485,1.3485,1.3485
-0.032158,-0.032762,-0.033029,-0.034983,-0.033204,-0.031164,-0.032475,-0.034238,-0.034126,-0.033397,-0.033528,-0.036185,-0.036052,-0.035289,-0.036742,-0.035735,-0.035801,-0.036563,-0.036527,-0.03639,-0.035793,-0.033108,-0.03249,-0.03209,-0.029201,-0.027494,-0.028683,-0.026882,-0.0265,-0.029909,-0.027558,-0.029017,-0.0283,-0.027907,-0.031216,-0.02737,-0.030239,-0.026514,-0.033464,-0.026564,-0.029549,-0.026833,-0.030626,-0.028952,-0.032069,-0.029924,-0.033592,-0.03379,-0.03474,-0.035542,-0.039151,-0.039151,-0.3058,-0.29417,-0.27514,-0.25722,-0.22865,-0.19071,-0.16241,-0.1269,-0.089819,-0.048118,-0.013499,0.02829,0.063061,0.10037,0.12483,0.12483,0.15036,0.15036,0.15036,0.17006,0.17006,0.17006,0.17006,0.17006,0.17724,0.17724,0.17724,0.17724,0.17724,0.17724,0.17724,0.17724,0.092318,0.092318,0.092318,0.092318
0.032331,0.033847,0.035381,0.033699,0.031373,0.030925,0.030482,0.029768,0.030202,0.027922,0.030392,0.030506,0.029652,0.027855,0.024537,0.024027,0.022667,0.022099,0.022034,0.022603,0.022613,0.023942,0.022331,0.021187,0.022744,0.022557,0.024643,0.025411,0.027919,0.024413,0.026951,0.025358,0.027014,0.028323,0.024328,0.025938,0.027775,0.028683,0.027342,0.026388,0.025353,0.02611,0.026072,0.026101,0.027078,0.026412,0.027588,0.027342,0.029772,0.029982,0.03001,0.03001,0.44198,0.43896,0.44497,0.44837,0.45188,0.45559,0.45972,0.46719,0.47607,0.48499,0.49306,0.5014,0.50741,0.51925,0.52264,0.52264,0.52338,0.52338,0.52338,0.52444,0.52444,0.52444,0.52444,0.52444,0.52501,0.52501,0.52501,0.52501,0.52501,0.52501,0.52501,0.52501,0.5243,0.5243,0.5243,0.5243
-0.59553,-0.59552,-0.59641,-0.59649,-0.59519,-0.59445,-0.59471,-0.59476,-0.59549,-0.59408,-0.59476,-0.59527,-0.59451,-0.59313,-0.59158,-0.5911,-0.58987,-0.58932,-0.58907,-0.58944,-0.58952,-0.59005,-0.58932,-0.58905,-0.58975,-0.58961,-0.59022,-0.58965,-0.59091,-0.59005,-0.59062,-0.58978,-0.59043,-0.59176,-0.59018,-0.5904,-0.59119,-0.59136,-0.59089,-0.59098,-0.59071,-0.59068,-0.59065,-0.59115,-0.59201,-0.59105,-0.59189,-0.59224,-0.59292,-0.59301,-0.5938,-0.5938,-0.2146,-0.21481,-0.22342,-0.22931,-0.24015,-0.2559,-0.27801,-0.3068,-0.34245,-0.38051,-0.41731,-0.46792,-0.50529,-0.55903,-0.60424,-0.60424,-0.66515,-0.66515,-0.66515,-0.78066,-0.78066,-0.78066,-0.78066,-0.78066,-0.97784,-0.97784,-0.97784,-0.97784,-0.97784,-0.97784,-0.97784,-0.97784,-1.4123,-1.4123,-1.4123,-1.4123
-0.51864,-0.51971,-0.52029,-0.52038,-0.51976,-0.51965,-0.52013,-0.5194,-0.51863,-0.51952,-0.52103,-0.52151,-0.52175,-0.52184,-0.52222,-0.52196,-0.52211,-0.52227,-0.52183,-0.52135,-0.51989,-0.51795,-0.51646,-0.51507,-0.51404,-0.51198,-0.51175,-0.51209,-0.51111,-0.51001,-0.51013,-0.51094,-0.51058,-0.50842,-0.50995,-0.50915,-0.51136,-0.50951,-0.50953,-0.50795,-0.50796,-0.50789,-0.50741,-0.50792,-0.50873,-0.50827,-0.50972,-0.5113,-0.51234,-0.51359,-0.51455,-0.51455,-0.12601,-0.11324,-0.098247,-0.082187,-0.062229,-0.034061,-0.0029694,0.033121,0.072295,0.11432,0.15298,0.191,0.22814,0.26356,0.29547,0.29547,0.32596,0.32596,0.32596,0.37387,0.37387,0.37387,0.37387,0.37387,0.42532,0.42532,0.42532,0.42532,0.42532,0.42532,0.42532,0.42532,0.47424,0.47424,0.47424,0.47424
0.40965,0.41058,0.41154,0.41152,0.41227,0.41353,0.41356,0.41337,0.41355,0.41359,0.41393,0.41343,0.41371,0.41361,0.41258,0.41267,0.4124,0.41195,0.41191,0.41152,0.41143,0.41247,0.41222,0.41211,0.41272,0.41255,0.41241,0.41327,0.41339,0.41224,0.4126,0.41163,0.41235,0.41328,0.41192,0.41317,0.41392,0.41504,0.41486,0.41564,0.41585,0.41626,0.41649,0.41653,0.41639,0.41631,0.41598,0.41543,0.416,0.41562,0.41447,0.41447,1.0033,1.0282,1.0559,1.0855,1.1156,1.1462,1.1746,1.2004,1.2257,1.2501,1.2737,1.2992,1.3237,1.3491,1.3709,1.3709,1.3991,1.3991,1.3991,1.4302,1.4302,1.4302,1.4302,1.4302,1.4632,1.4632,1.4632,1.4632,1.4632,1.4632,1.4632,1.4632,1.4217,1.4217,1.4217,1.4217
-0.043892,-0.045111,-0.045353,-0.044488,-0.043465,-0.042852,-0.043845,-0.044456,-0.043869,-0.043595,-0.045479,-0.046617,-0.046373,-0.045967,-0.046438,-0.046518,-0.045775,-0.047077,-0.047054,-0.04658,-0.046465,-0.044634,-0.04285,-0.041739,-0.040277,-0.038518,-0.040746,-0.040029,-0.040081,-0.039803,-0.040489,-0.039827,-0.041988,-0.039178,-0.039554,-0.04023,-0.040177,-0.040626,-0.040382,-0.039864,-0.037727,-0.040767,-0.039784,-0.040753,-0.041533,-0.042689,-0.044114,-0.045495,-0.045838,-0.048191,-0.049667,-0.049667,-0.24591,-0.22768,-0.2114,-0.18896,-0.15904,-0.13708,-0.10687,-0.078712,-0.045391,-0.010668,0.019488,0.047202,0.078338,0.10622,0.12053,0.12053,0.13448,0.13448,0.13448,0.1427,0.1427,0.1427,0.1427,0.1427,0.10563,0.10563,0.10563,0.10563,0.10563,0.10563,0.10563,0.10563,0.039386,0.039386,0.039386,0.039386
0.015485,0.016578,0.017758,0.016202,0.014494,0.014536,0.013313,0.011962,0.012903,0.011556,0.013592,0.012745,0.012372,0.010962,0.0073362,0.0070377,0.006218,0.0052114,0.0054234,0.0064441,0.0064164,0.0081215,0.0068554,0.0054021,0.0076972,0.0075682,0.0087937,0.010117,0.012025,0.0075231,0.011638,0.010324,0.010647,0.012133,0.0086527,0.010898,0.012946,0.013731,0.011472,0.01161,0.010591,0.010681,0.010441,0.010748,0.011362,0.010892,0.011166,0.011371,0.013855,0.013113,0.012582,0.012582,0.34597,0.34636,0.35291,0.35573,0.36047,0.36544,0.37449,0.3871,0.40333,0.42052,0.43484,0.4517,0.46854,0.4925,0.50374,0.50374,0.51472,0.51472,0.51472,0.52332,0.52332,0.52332,0.52332,0.52332,0.52245,0.52245,0.52245,0.52245,0.52245,0.52245,0.52245,0.52245,0.52191,0.52191,0.52191,0.52191
-0.5757,-0.57563,-0.57643,-0.57641,-0.57505,-0.57436,-0.57466,-0.57459,-0.57519,-0.57389,-0.5746,-0.57504,-0.57421,-0.57288,-0.57144,-0.571,-0.56988,-0.56939,-0.56918,-0.56963,-0.56973,-0.57027,-0.5697,-0.56944,-0.57019,-0.5701,-0.5707,-0.57019,-0.57149,-0.57051,-0.57108,-0.5704,-0.57097,-0.57214,-0.57063,-0.57087,-0.57172,-0.5719,-0.57122,-0.57135,-0.5711,-0.57111,-0.57099,-0.57148,-0.57222,-0.57128,-0.57205,-0.57244,-0.57302,-0.57307,-0.57375,-0.57375,-0.1387,-0.13892,-0.14778,-0.15396,-0.1652,-0.18135,-0.20437,-0.23392,-0.27044,-0.30929,-0.34661,-0.39801,-0.43551,-0.48999,-0.53555,-0.53555,-0.5973,-0.5973,-0.5973,-0.71459,-0.71459,-0.71459,-0.71459,-0.71459,-0.9145,-0.9145,-0.9145,-0.9145,-0.9145,-0.9145,-0.9145,-0.9145,-1.3565,-1.3565,-1.3565,-1.3565
-0.52168,-0.52272,-0.52331,-0.52343,-0.52282,-0.52272,-0.52323,-0.52248,-0.52175,-0.52265,-0.52414,-0.52461,-0.5248,-0.52487,-0.52525,-0.52496,-0.52509,-0.52523,-0.52476,-0.52429,-0.52285,-0.52094,-0.51956,-0.51828,-0.51733,-0.51536,-0.51523,-0.51559,-0.51472,-0.51372,-0.51389,-0.51476,-0.51448,-0.51242,-0.51405,-0.51332,-0.5156,-0.5138,-0.51387,-0.51235,-0.51242,-0.5124,-0.51197,-0.51253,-0.51333,-0.51285,-0.51432,-0.51587,-0.51682,-0.518,-0.51886,-0.51886,-0.075728,-0.062451,-0.047626,-0.032045,-0.013072,0.013665,0.042626,0.076271,0.11246,0.15096,0.18569,0.21931,0.252,0.28239,0.30939,0.30939,0.33481,0.33481,0.33481,0.37262,0.37262,0.37262,0.37262,0.37262,0.41072,0.41072,0.41072,0.41072,0.41072,0.41072,0.41072,0.41072,0.43925,0.43925,0.43925,0.43925
0.42581,0.42681,0.42777,0.42757,0.42817,0.42946,0.42949,0.42921,0.42928,0.4293,0.42975,0.42922,0.42948,0.42936,0.42826,0.4284,0.42819,0.42774,0.42772,0.4273,0.42717,0.42823,0.42792,0.42773,0.42844,0.42833,0.42827,0.42928,0.42943,0.42809,0.42852,0.42756,0.42826,0.42912,0.42754,0.42881,0.42958,0.4307,0.43031,0.43102,0.4312,0.43164,0.43182,0.43179,0.43161,0.43159,0.43124,0.43067,0.43132,0.43097,0.42979,0.42979,1.0831,1.108,1.1357,1.1651,1.195,1.2252,1.253,1.2774,1.3011,1.3241,1.3463,1.3703,1.3938,1.4183,1.439,1.439,1.4668,1.4668,1.4668,1.4968,1.4968,1.4968,1.4968,1.4968,1.5308,1.5308,1.5308,1.5308,1.5308,1.5308,1.5308,1.5308,1.495,1.495,1.495,1.495
-0.023605,-0.024346,-0.023335,-0.022815,-0.023197,-0.023551,-0.023801,-0.022488,-0.022543,-0.02406,-0.025678,-0.024628,-0.024499,-0.02549,-0.025381,-0.024355,-0.025452,-0.025918,-0.024778,-0.026214,-0.025566,-0.024053,-0.023515,-0.021115,-0.019642,-0.019565,-0.01968,-0.018765,-0.019726,-0.017536,-0.018632,-0.021566,-0.02067,-0.017552,-0.021142,-0.020788,-0.022689,-0.022396,-0.020915,-0.0204,-0.020794,-0.022621,-0.020008,-0.022161,-0.022587,-0.023757,-0.024717,-0.025398,-0.026968,-0.028872,-0.027893,-0.027893,-0.16743,-0.15296,-0.13524,-0.10775,-0.091514,-0.061998,-0.032992,-0.0082552,0.020823,0.049786,0.078694,0.10867,0.14201,0.15327,0.17927,0.17927,0.18528,0.18528,0.18528,0.17885,0.17885,0.17885,0.17885,0.17885,0.18177,0.18177,0.18177,0.18177,0.18177,0.18177,0.18177,0.18177,0.10996,0.10996,0.10996,0.10996
0.0056026,0.0062055,0.0077538,0.0072244,0.005249,0.004497,0.0033829,0.0027596,0.0038608,0.0021394,0.0033467,0.0034162,0.0030877,0.0012855,-0.0017849,-0.0019726,-0.0029278,-0.0036697,-0.0030089,-0.0019277,-0.0017697,-0.00065657,-0.0014563,-0.0023775,-0.00011589,-0.00051359,0.00051282,0.00087067,0.0030975,0.00020597,0.0034366,0.0014457,0.0021108,0.0041743,0.00091942,0.0028329,0.004663,0.0059231,0.004019,0.003865,0.0021845,0.0021932,0.0027266,0.0028752,0.0032554,0.0021527,0.0024265,0.0031508,0.0045981,0.0036528,0.0036157,0.0036157,0.27295,0.27478,0.27683,0.28014,0.28391,0.2928,0.30425,0.32111,0.34273,0.36421,0.38354,0.4101,0.43606,0.46545,0.49049,0.49049,0.50635,0.50635,0.50635,0.51977,0.51977,0.51977,0.51977,0.51977,0.52413,0.52413,0.52413,0.52413,0.52413,0.52413,0.52413,0.52413,0.52378,0.52378,0.52378,0.52378
-0.55649,-0.55632,-0.55701,-0.55695,-0.55556,-0.55492,-0.55527,-0.5551,-0.55558,-0.55441,-0.5551,-0.55548,-0.55459,-0.55333,-0.55205,-0.55165,-0.55065,-0.55024,-0.55007,-0.55056,-0.55071,-0.55122,-0.55082,-0.5506,-0.55134,-0.55131,-0.55187,-0.55139,-0.55268,-0.55169,-0.55218,-0.55167,-0.55217,-0.55316,-0.5518,-0.55202,-0.55288,-0.55306,-0.55222,-0.5524,-0.55217,-0.55222,-0.552,-0.55249,-0.55311,-0.55218,-0.55288,-0.55332,-0.55375,-0.55379,-0.55437,-0.55437,-0.060817,-0.061102,-0.070138,-0.076523,-0.088037,-0.10445,-0.12818,-0.15832,-0.19537,-0.23463,-0.27209,-0.32387,-0.36104,-0.41571,-0.46128,-0.46128,-0.52361,-0.52361,-0.52361,-0.64228,-0.64228,-0.64228,-0.64228,-0.64228,-0.8446,-0.8446,-0.8446,-0.8446,-0.8446,-0.8446,-0.8446,-0.8446,-1.2939,-1.2939,-1.2939,-1.2939
-0.5234,-0.52438,-0.52497,-0.52514,-0.52455,-0.52446,-0.52497,-0.52424,-0.52355,-0.52446,-0.5259,-0.52636,-0.52652,-0.52655,-0.52693,-0.52661,-0.52671,-0.52681,-0.52633,-0.52588,-0.52447,-0.52261,-0.52135,-0.52018,-0.51935,-0.51753,-0.51743,-0.51781,-0.51706,-0.51619,-0.51639,-0.51731,-0.51707,-0.51517,-0.51686,-0.51621,-0.51851,-0.51682,-0.51688,-0.51547,-0.5156,-0.51561,-0.51524,-0.51582,-0.51661,-0.51613,-0.51755,-0.51907,-0.51992,-0.52099,-0.52175,-0.52175,-0.024019,-0.010588,0.0038716,0.018568,0.03628,0.061067,0.087628,0.11859,0.15134,0.1858,0.21622,0.24518,0.27282,0.29815,0.32005,0.32005,0.34059,0.34059,0.34059,0.36871,0.36871,0.36871,0.36871,0.36871,0.39413,0.39413,0.39413,0.39413,0.39413,0.39413,0.39413,0.39413,0.40394,0.40394,0.40394,0.40394
0.44171,0.44277,0.44372,0.44336,0.44385,0.44515,0.44515,0.44479,0.44476,0.44478,0.4453,0.44474,0.44501,0.44487,0.4437,0.44391,0.44373,0.44326,0.44329,0.44283,0.44265,0.44374,0.44336,0.44313,0.44393,0.44385,0.44384,0.44507,0.44514,0.44365,0.44422,0.44323,0.44388,0.44472,0.44292,0.44422,0.44498,0.44609,0.44552,0.44622,0.44636,0.44677,0.44694,0.44683,0.44663,0.44664,0.44626,0.4457,0.44643,0.44606,0.44489,0.44489,1.162,1.1869,1.2144,1.2435,1.273,1.3024,1.3293,1.3524,1.3746,1.3961,1.4169,1.4394,1.462,1.4855,1.5051,1.5051,1.5325,1.5325,1.5325,1.5615,1.5615,1.5615,1.5615,1.5615,1.5966,1.5966,1.5966,1.5966,1.5966,1.5966,1.5966,1.5966,1.5682,1.5682,1.5682,1.5682
-0.0006321,0.00040296,0.00058815,-0.00036192,-0.00080638,-0.00088098,-0.00023722,0.0010345,-0.00029151,-0.0022866,-0.001818,-0.0010046,-0.0024082,-0.0023956,-0.0014726,-0.0019291,-0.0027926,-0.0021008,-0.0024606,-0.0035345,-0.002519,-0.0013871,0.00031367,0.0026464,0.0015836,0.0023605,0.0040919,0.0027633,0.0040272,0.0056519,0.002141,0.00098563,0.0034168,0.0034155,0.0011652,0.00083753,-0.0010017,-0.00055661,0.0022671,-0.00082641,-0.00068272,0.00020603,0.0017074,-0.0011082,-0.002091,-0.002394,-0.0015948,-0.0046179,-0.0055959,-0.005437,-0.0055711,-0.0055711,-0.1208,-0.10285,-0.077696,-0.060658,-0.038979,-0.0045744,0.015516,0.040531,0.063913,0.088638,0.11652,0.14826,0.16335,0.18278,0.20029,0.20029,0.20855,0.20855,0.20855,0.20596,0.20596,0.20596,0.20596,0.20596,0.19306,0.19306,0.19306,0.19306,0.19306,0.19306,0.19306,0.19306,0.12348,0.12348,0.12348,0.12348
0.0090816,0.0099297,0.011579,0.011227,0.0083025,0.0069127,0.006548,0.006571,0.0073777,0.005282,0.0064891,0.0075615,0.0068591,0.0047426,0.0021827,0.0020125,0.00066588,0.00073025,0.0016935,0.002247,0.0024558,0.0028272,0.0024788,0.002348,0.0040593,0.0034996,0.005421,0.0047203,0.0080565,0.0064602,0.0078884,0.0053316,0.0072633,0.0089326,0.0052435,0.0070513,0.0085432,0.0098721,0.0084214,0.0067986,0.0049685,0.006045,0.0073187,0.0066659,0.0067381,0.0056885,0.0069376,0.0069042,0.0077627,0.0073433,0.0076699,0.0076699,0.22685,0.22433,0.22568,0.22884,0.23317,0.24571,0.25733,0.27588,0.2985,0.32205,0.34641,0.38246,0.40858,0.44623,0.47731,0.47731,0.49412,0.49412,0.49412,0.50559,0.50559,0.50559,0.50559,0.50559,0.50872,0.50872,0.50872,0.50872,0.50872,0.50872,0.50872,0.50872,0.511,0.511,0.511,0.511
-0.53799,-0.53772,-0.53827,-0.5382,-0.53684,-0.53625,-0.53667,-0.53641,-0.53674,-0.53571,-0.53635,-0.53668,-0.53574,-0.53458,-0.53353,-0.53315,-0.53228,-0.53196,-0.5318,-0.53235,-0.53253,-0.53301,-0.5328,-0.53262,-0.53331,-0.53332,-0.53383,-0.53334,-0.53459,-0.53363,-0.53401,-0.5337,-0.53412,-0.53491,-0.53378,-0.53393,-0.53479,-0.53494,-0.53402,-0.53423,-0.53402,-0.53411,-0.53378,-0.53428,-0.53477,-0.53385,-0.53449,-0.53496,-0.53523,-0.53526,-0.53575,-0.53575,0.019091,0.0187,0.0095557,0.0030514,-0.0086034,-0.025126,-0.049312,-0.079773,-0.11696,-0.15614,-0.19332,-0.24495,-0.28129,-0.33559,-0.38072,-0.38072,-0.44343,-0.44343,-0.44343,-0.56319,-0.56319,-0.56319,-0.56319,-0.56319,-0.76775,-0.76775,-0.76775,-0.76775,-0.76775,-0.76775,-0.76775,-0.76775,-1.224,-1.224,-1.224,-1.224
-0.5255,-0.52641,-0.52703,-0.52726,-0.52666,-0.52657,-0.52709,-0.52641,-0.52576,-0.52663,-0.52803,-0.52852,-0.52859,-0.52858,-0.52898,-0.52863,-0.52868,-0.52876,-0.52828,-0.52782,-0.52643,-0.52464,-0.52351,-0.52251,-0.52182,-0.52013,-0.52006,-0.52045,-0.51984,-0.51911,-0.51929,-0.52026,-0.52009,-0.51837,-0.5201,-0.5195,-0.52181,-0.52016,-0.52028,-0.51896,-0.51918,-0.51917,-0.5189,-0.51949,-0.52029,-0.51975,-0.52114,-0.52262,-0.52333,-0.52427,-0.52496,-0.52496,0.027389,0.040721,0.054514,0.068065,0.084161,0.10671,0.13074,0.15862,0.18743,0.21746,0.24318,0.26693,0.28935,0.30962,0.32627,0.32627,0.34197,0.34197,0.34197,0.36077,0.36077,0.36077,0.36077,0.36077,0.37421,0.37421,0.37421,0.37421,0.37421,0.37421,0.37421,0.37421,0.36639,0.36639,0.36639,0.36639
0.45735,0.45845,0.45942,0.45893,0.45931,0.4606,0.46056,0.46013,0.46003,0.46003,0.46061,0.46003,0.46032,0.46016,0.45893,0.4592,0.45904,0.45857,0.45862,0.45812,0.45792,0.45901,0.45858,0.45832,0.4592,0.45913,0.45919,0.46056,0.46058,0.45899,0.45968,0.45862,0.45925,0.46007,0.45809,0.45941,0.46016,0.46126,0.46058,0.46122,0.46128,0.46167,0.46185,0.46167,0.46145,0.46147,0.46108,0.46053,0.46131,0.46093,0.4598,0.4598,1.2409,1.2656,1.2927,1.3214,1.3502,1.3786,1.4044,1.4262,1.4469,1.4669,1.4863,1.5074,1.529,1.5514,1.5701,1.5701,1.597,1.597,1.597,1.6248,1.6248,1.6248,1.6248,1.6248,1.6617,1.6617,1.6617,1.6617,1.6617,1.6617,1.6617,1.6617,1.6423,1.6423,1.6423,1.6423
-0.017118,-0.016795,-0.019303,-0.019701,-0.019424,-0.01917,-0.018466,-0.018696,-0.021011,-0.019166,-0.019702,-0.020166,-0.021092,-0.021216,-0.020632,-0.021076,-0.021126,-0.021639,-0.021686,-0.022821,-0.021406,-0.020318,-0.018684,-0.017695,-0.018372,-0.015511,-0.015396,-0.014555,-0.015826,-0.014905,-0.018153,-0.016124,-0.016826,-0.017768,-0.018514,-0.018561,-0.019559,-0.019388,-0.019792,-0.022601,-0.018299,-0.019295,-0.01843,-0.02208,-0.02182,-0.020573,-0.022483,-0.023696,-0.02347,-0.025447,-0.025846,-0.025846,-0.073543,-0.049496,-0.031211,-0.012951,0.014931,0.031624,0.050041,0.063798,0.080873,0.10597,0.13188,0.14775,0.16704,0.18211,0.19141,0.19141,0.18807,0.18807,0.18807,0.18494,0.18494,0.18494,0.18494,0.18494,0.15708,0.15708,0.15708,0.15708,0.15708,0.15708,0.15708,0.15708,0.061794,0.061794,0.061794,0.061794
0.006385,0.0075985,0.0082283,0.0071864,0.0034885,0.0021102,0.0030506,0.0033256,0.0029972,0.0016739,0.0031962,0.0046808,0.0033065,0.000859,-0.001038,-0.0012835,-0.0025003,-0.0017033,-0.00090577,-0.0011407,-0.00078655,-0.00098805,-0.00063495,-0.00049906,0.00049272,0.00057518,0.0034814,0.0030377,0.0066442,0.0052061,0.004633,0.0031992,0.0059038,0.0054653,0.0021728,0.0037242,0.0049679,0.0060797,0.0039258,0.0012661,0.00073136,0.0032329,0.0039589,0.0025018,0.002703,0.0027054,0.0037671,0.0033324,0.0040105,0.0040046,0.0040711,0.0040711,0.21483,0.21002,0.21194,0.21608,0.22271,0.23625,0.24939,0.26689,0.29032,0.31788,0.34815,0.38653,0.41708,0.45759,0.49331,0.49331,0.50068,0.50068,0.50068,0.50487,0.50487,0.50487,0.50487,0.50487,0.50672,0.50672,0.50672,0.50672,0.50672,0.50672,0.50672,0.50672,0.50755,0.50755,0.50755,0.50755
-0.5201,-0.5197,-0.52011,-0.52006,-0.51877,-0.51824,-0.5187,-0.51836,-0.51857,-0.51767,-0.51825,-0.51852,-0.51756,-0.51654,-0.51572,-0.51539,-0.51464,-0.51439,-0.51426,-0.51485,-0.51506,-0.51549,-0.51546,-0.51532,-0.51594,-0.51599,-0.51642,-0.51589,-0.51707,-0.5162,-0.51646,-0.51633,-0.51665,-0.51727,-0.51638,-0.51647,-0.51728,-0.51742,-0.51643,-0.51668,-0.51651,-0.51662,-0.5162,-0.51668,-0.51704,-0.51616,-0.51673,-0.51722,-0.51734,-0.51735,-0.51776,-0.51776,0.10007,0.099533,0.090336,0.083806,0.072166,0.055753,0.03138,0.0010096,-0.035795,-0.07439,-0.11079,-0.16165,-0.19667,-0.24998,-0.29414,-0.29414,-0.35701,-0.35701,-0.35701,-0.47757,-0.47757,-0.47757,-0.47757,-0.47757,-0.68419,-0.68419,-0.68419,-0.68419,-0.68419,-0.68419,-0.68419,-0.68419,-1.1469,-1.1469,-1.1469,-1.1469
-0.52762,-0.52846,-0.52909,-0.52935,-0.52877,-0.52868,-0.52921,-0.52857,-0.52798,-0.52882,-0.53015,-0.53062,-0.53064,-0.53061,-0.531,-0.53063,-0.53063,-0.53068,-0.53018,-0.52971,-0.52836,-0.52667,-0.52568,-0.52489,-0.52434,-0.52278,-0.52275,-0.52318,-0.52265,-0.52209,-0.52227,-0.52324,-0.52313,-0.5216,-0.52334,-0.5228,-0.52507,-0.52345,-0.52367,-0.52246,-0.52275,-0.52273,-0.52255,-0.52313,-0.52392,-0.52332,-0.52469,-0.52607,-0.52665,-0.52746,-0.52807,-0.52807,0.080706,0.093719,0.1065,0.11859,0.13279,0.15297,0.17411,0.19859,0.22322,0.24845,0.26917,0.28743,0.30465,0.31951,0.33117,0.33117,0.34179,0.34179,0.34179,0.35149,0.35149,0.35149,0.35149,0.35149,0.35374,0.35374,0.35374,0.35374,0.35374,0.35374,0.35374,0.35374,0.32964,0.32964,0.32964,0.32964
0.47294,0.47411,0.47508,0.47447,0.47473,0.47598,0.47589,0.47543,0.47527,0.47523,0.47587,0.47531,0.47561,0.47542,0.47414,0.47444,0.47431,0.47383,0.47392,0.47339,0.47314,0.47421,0.47374,0.47347,0.47441,0.47437,0.47447,0.47594,0.47596,0.4743,0.47504,0.47395,0.47456,0.47536,0.4732,0.47454,0.47529,0.47638,0.47563,0.47612,0.47614,0.4765,0.47675,0.47646,0.47621,0.47626,0.47587,0.47531,0.47617,0.47577,0.47468,0.47468,1.3203,1.345,1.3715,1.3995,1.4273,1.4547,1.4792,1.4993,1.5183,1.5368,1.5548,1.5746,1.5952,1.6165,1.6342,1.6342,1.6605,1.6605,1.6605,1.6873,1.6873,1.6873,1.6873,1.6873,1.726,1.726,1.726,1.726,1.726,1.726,1.726,1.726,1.7171,1.7171,1.7171,1.7171
-0.017557,-0.018406,-0.018776,-0.019622,-0.019631,-0.019298,-0.018785,-0.02005,-0.020283,-0.018489,-0.019581,-0.020975,-0.020893,-0.020774,-0.021667,-0.022107,-0.021873,-0.021726,-0.022585,-0.022549,-0.021943,-0.021182,-0.020461,-0.019872,-0.018549,-0.016206,-0.016555,-0.01595,-0.01684,-0.016027,-0.017784,-0.018001,-0.017596,-0.018389,-0.018864,-0.019985,-0.0216,-0.019818,-0.024212,-0.02018,-0.020787,-0.018786,-0.022935,-0.021033,-0.021622,-0.022017,-0.023274,-0.023204,-0.025488,-0.024439,-0.026055,-0.026055,-0.0087958,0.012393,0.031201,0.055336,0.071529,0.088645,0.10459,0.11579,0.13505,0.16136,0.1796,0.19189,0.21236,0.22286,0.22428,0.22428,0.2188,0.2188,0.2188,0.21769,0.21769,0.21769,0.21769,0.21769,0.19978,0.19978,0.19978,0.19978,0.19978,0.19978,0.19978,0.19978,0.13632,0.13632,0.13632,0.13632
0.0024999,0.003182,0.0024851,0.00075122,-0.0030332,-0.00325,-0.0005122,-0.001042,-0.002753,-0.0026841,-0.00072452,4.4629e-05,-0.0026522,-0.0046532,-0.0054991,-0.0057333,-0.0062732,-0.0053663,-0.005073,-0.0053992,-0.004966,-0.0049496,-0.0039727,-0.0042522,-0.0034614,-0.0025312,0.00038485,0.0010678,0.003891,0.0012692,-0.00019556,0.0010243,0.0028362,0.00044083,-0.0015283,-0.00073118,0.0010068,0.0010813,-0.0023376,-0.0037567,-0.0023233,0.00031974,-0.00075281,-0.0017116,-0.0010113,-0.0010464,-0.00056545,-0.00053755,-0.00051923,-0.00045988,-0.0010249,-0.0010249,0.20285,0.19941,0.20066,0.20715,0.21601,0.23078,0.24568,0.26795,0.29736,0.33126,0.36662,0.40719,0.44309,0.48427,0.52387,0.52387,0.5237,0.5237,0.5237,0.5237,0.5237,0.5237,0.5237,0.5237,0.5236,0.5236,0.5236,0.5236,0.5236,0.5236,0.5236,0.5236,0.52401,0.52401,0.52401,0.52401
-0.50301,-0.5025,-0.50277,-0.50274,-0.50158,-0.50109,-0.50157,-0.50118,-0.50126,-0.50051,-0.501,-0.50121,-0.50026,-0.49941,-0.49883,-0.49855,-0.49791,-0.49774,-0.49762,-0.49823,-0.49848,-0.49886,-0.49899,-0.49889,-0.4994,-0.49947,-0.49982,-0.49924,-0.50032,-0.49956,-0.49972,-0.49973,-0.49997,-0.50042,-0.4998,-0.49984,-0.50054,-0.50069,-0.49966,-0.49996,-0.49978,-0.49993,-0.49942,-0.49989,-0.50009,-0.49929,-0.49978,-0.50031,-0.50026,-0.50028,-0.50062,-0.50062,0.18157,0.1809,0.17178,0.16533,0.154,0.13788,0.11373,0.083893,0.04803,0.010587,-0.024549,-0.073983,-0.10719,-0.15879,-0.20153,-0.20153,-0.26426,-0.26426,-0.26426,-0.38546,-0.38546,-0.38546,-0.38546,-0.38546,-0.59408,-0.59408,-0.59408,-0.59408,-0.59408,-0.59408,-0.59408,-0.59408,-1.0625,-1.0625,-1.0625,-1.0625
-0.52736,-0.52814,-0.52878,-0.52909,-0.52852,-0.52841,-0.52894,-0.52837,-0.52783,-0.52864,-0.52986,-0.53035,-0.53033,-0.53023,-0.53062,-0.53022,-0.53018,-0.5302,-0.52968,-0.52919,-0.52791,-0.52633,-0.52549,-0.52493,-0.52449,-0.52312,-0.52313,-0.5236,-0.52311,-0.52282,-0.52289,-0.52387,-0.52384,-0.5225,-0.52426,-0.5237,-0.52592,-0.52433,-0.52471,-0.52354,-0.52397,-0.52387,-0.52381,-0.52435,-0.52517,-0.52449,-0.52579,-0.52707,-0.52751,-0.52818,-0.52871,-0.52871,0.13042,0.14275,0.15412,0.16455,0.17661,0.19411,0.21202,0.23304,0.25322,0.27335,0.28889,0.30169,0.31332,0.32293,0.32957,0.32957,0.33535,0.33535,0.33535,0.33622,0.33622,0.33622,0.33622,0.33622,0.32772,0.32772,0.32772,0.32772,0.32772,0.32772,0.32772,0.32772,0.28853,0.28853,0.28853,0.28853
0.48818,0.48941,0.49034,0.48961,0.48974,0.49093,0.49079,0.49033,0.4901,0.49006,0.49076,0.49023,0.49054,0.4903,0.48897,0.4893,0.48919,0.48871,0.48883,0.48824,0.48795,0.48897,0.48848,0.4882,0.4892,0.48918,0.48934,0.49093,0.49091,0.48916,0.48999,0.48888,0.48945,0.49017,0.48788,0.48927,0.48998,0.49106,0.49019,0.49056,0.49052,0.49091,0.49122,0.4908,0.49054,0.49066,0.49024,0.48971,0.49063,0.49021,0.48917,0.48917,1.404,1.4283,1.454,1.4809,1.5076,1.5336,1.5565,1.5747,1.5919,1.6088,1.6255,1.6439,1.6634,1.6835,1.7001,1.7001,1.7257,1.7257,1.7257,1.7519,1.7519,1.7519,1.7519,1.7519,1.7934,1.7934,1.7934,1.7934,1.7934,1.7934,1.7934,1.7934,1.7971,1.7971,1.7971,1.7971
-0.025572,-0.025725,-0.024883,-0.024924,-0.025779,-0.026032,-0.02608,-0.025274,-0.024426,-0.026164,-0.027484,-0.026523,-0.025819,-0.027074,-0.028453,-0.027643,-0.026978,-0.028203,-0.027749,-0.0282,-0.029021,-0.027241,-0.02825,-0.026518,-0.02426,-0.022631,-0.024476,-0.022097,-0.022677,-0.021812,-0.024521,-0.024388,-0.025795,-0.022436,-0.026173,-0.029176,-0.027154,-0.030643,-0.027034,-0.028539,-0.024489,-0.03016,-0.027282,-0.028074,-0.027111,-0.029724,-0.02956,-0.031886,-0.030151,-0.032248,-0.03209,-0.03209,-0.011471,0.0099237,0.035438,0.047033,0.064977,0.07822,0.093958,0.1046,0.12267,0.13855,0.14832,0.16418,0.1756,0.17951,0.17024,0.17024,0.17772,0.17772,0.17772,0.16249,0.16249,0.16249,0.16249,0.16249,0.13366,0.13366,0.13366,0.13366,0.13366,0.13366,0.13366,0.13366,0.049111,0.049111,0.049111,0.049111
-0.0049827,-0.0054856,-0.0065556,-0.0083684,-0.010866,-0.0091031,-0.0060568,-0.0082515,-0.0098166,-0.0088388,-0.0071694,-0.0082388,-0.011116,-0.011636,-0.01188,-0.011825,-0.011768,-0.011342,-0.011409,-0.011154,-0.010692,-0.0094188,-0.0086955,-0.0094596,-0.0082704,-0.0068799,-0.0048901,-0.0033951,-0.0021062,-0.0058305,-0.0061218,-0.0036256,-0.0036812,-0.0056284,-0.006846,-0.0065827,-0.0044789,-0.0057796,-0.0090561,-0.0077213,-0.0052988,-0.0043352,-0.0067765,-0.0063166,-0.005677,-0.0066663,-0.0063541,-0.0063812,-0.0069307,-0.0072394,-0.0082595,-0.0082595,0.1457,0.14502,0.14932,0.15668,0.16952,0.18308,0.20218,0.23336,0.27022,0.30972,0.34555,0.38921,0.42375,0.46876,0.50179,0.50179,0.50938,0.50938,0.50938,0.50824,0.50824,0.50824,0.50824,0.50824,0.50453,0.50453,0.50453,0.50453,0.50453,0.50453,0.50453,0.50453,0.51775,0.51775,0.51775,0.51775
-0.48623,-0.48562,-0.48575,-0.48578,-0.48477,-0.48431,-0.48476,-0.48434,-0.48431,-0.4837,-0.48409,-0.48427,-0.48337,-0.48267,-0.48234,-0.48209,-0.48157,-0.48146,-0.48135,-0.48197,-0.48224,-0.48255,-0.48283,-0.48279,-0.48317,-0.48322,-0.48347,-0.48283,-0.4838,-0.48319,-0.48325,-0.48338,-0.48355,-0.48383,-0.48352,-0.48348,-0.48407,-0.4842,-0.48319,-0.48347,-0.48332,-0.4835,-0.48293,-0.48336,-0.48342,-0.48271,-0.48314,-0.48368,-0.48351,-0.48354,-0.48382,-0.48382,0.26219,0.26143,0.25248,0.24635,0.23547,0.22,0.19648,0.16771,0.13339,0.097675,0.064275,0.016939,-0.013953,-0.063239,-0.10401,-0.10401,-0.1664,-0.1664,-0.1664,-0.28818,-0.28818,-0.28818,-0.28818,-0.28818,-0.49857,-0.49857,-0.49857,-0.49857,-0.49857,-0.49857,-0.49857,-0.49857,-0.97189,-0.97189,-0.97189,-0.97189
-0.52865,-0.52939,-0.53007,-0.5304,-0.52981,-0.52968,-0.53021,-0.52973,-0.52925,-0.52997,-0.5311,-0.53162,-0.53154,-0.53138,-0.53175,-0.53132,-0.53123,-0.53122,-0.53071,-0.53019,-0.52896,-0.52753,-0.52682,-0.52651,-0.52623,-0.52505,-0.52508,-0.52563,-0.52522,-0.52514,-0.52509,-0.52608,-0.52609,-0.52504,-0.52665,-0.52608,-0.52827,-0.52668,-0.52727,-0.5261,-0.5267,-0.52643,-0.5266,-0.52703,-0.5279,-0.5271,-0.52837,-0.52949,-0.52982,-0.53031,-0.5308,-0.5308,0.18023,0.19143,0.20114,0.20969,0.21929,0.23381,0.24842,0.26576,0.2812,0.29608,0.30625,0.31325,0.31929,0.3237,0.32533,0.32533,0.32614,0.32614,0.32614,0.31841,0.31841,0.31841,0.31841,0.31841,0.29924,0.29924,0.29924,0.29924,0.29924,0.29924,0.29924,0.29924,0.24564,0.24564,0.24564,0.24564
0.50423,0.50554,0.50642,0.50555,0.50554,0.50666,0.50648,0.50603,0.50576,0.50573,0.50648,0.50597,0.50629,0.506,0.50461,0.50495,0.50488,0.5044,0.50453,0.50388,0.50355,0.50451,0.50402,0.50375,0.50479,0.50477,0.50501,0.50671,0.50665,0.50482,0.50573,0.50462,0.50512,0.50572,0.50337,0.50476,0.50546,0.50646,0.50556,0.50576,0.5057,0.50609,0.50648,0.50593,0.50567,0.50585,0.50543,0.50491,0.5059,0.50545,0.50448,0.50448,1.4911,1.5148,1.5394,1.5652,1.5905,1.6148,1.636,1.652,1.6675,1.6829,1.6983,1.7151,1.7337,1.7525,1.7681,1.7681,1.7927,1.7927,1.7927,1.8191,1.8191,1.8191,1.8191,1.8191,1.8648,1.8648,1.8648,1.8648,1.8648,1.8648,1.8648,1.8648,1.8837,1.8837,1.8837,1.8837
-0.046889,-0.046757,-0.044812,-0.046029,-0.047107,-0.047681,-0.04684,-0.045473,-0.046481,-0.048448,-0.047803,-0.046724,-0.04697,-0.048483,-0.049011,-0.048007,-0.048368,-0.048301,-0.048372,-0.049613,-0.049957,-0.04897,-0.049839,-0.047511,-0.045436,-0.044315,-0.046032,-0.042259,-0.043798,-0.043765,-0.045421,-0.04687,-0.045812,-0.044645,-0.049605,-0.04899,-0.051431,-0.048818,-0.051143,-0.04735,-0.049596,-0.04962,-0.049908,-0.049514,-0.049295,-0.050835,-0.053255,-0.051591,-0.052902,-0.05377,-0.05326,-0.05326,0.022789,0.047706,0.065336,0.076201,0.093812,0.1059,0.11725,0.12099,0.128,0.13805,0.14012,0.15408,0.15423,0.15774,0.14072,0.14072,0.15181,0.15181,0.15181,0.14231,0.14231,0.14231,0.14231,0.14231,0.099402,0.099402,0.099402,0.099402,0.099402,0.099402,0.099402,0.099402,0.011859,0.011859,0.011859,0.011859
-0.019213,-0.020802,-0.021116,-0.022005,-0.022585,-0.019909,-0.01803,-0.02062,-0.021124,-0.020585,-0.020438,-0.02222,-0.023849,-0.023022,-0.023089,-0.022598,-0.022223,-0.022468,-0.022418,-0.021544,-0.020897,-0.018642,-0.018544,-0.019587,-0.018012,-0.016039,-0.015919,-0.01447,-0.014209,-0.017221,-0.016707,-0.014897,-0.016106,-0.015556,-0.017504,-0.017385,-0.01641,-0.016782,-0.01942,-0.015358,-0.013888,-0.014821,-0.017327,-0.015865,-0.015891,-0.017346,-0.01779,-0.017989,-0.019107,-0.019639,-0.020569,-0.020569,0.083811,0.086771,0.093363,0.10157,0.11373,0.12821,0.15303,0.19032,0.23178,0.27302,0.30369,0.34723,0.37916,0.42179,0.44585,0.44585,0.46383,0.46383,0.46383,0.4585,0.4585,0.4585,0.4585,0.4585,0.45391,0.45391,0.45391,0.45391,0.45391,0.45391,0.45391,0.45391,0.48499,0.48499,0.48499,0.48499
-0.46998,-0.46931,-0.46931,-0.46941,-0.46856,-0.46808,-0.46847,-0.46806,-0.46793,-0.46746,-0.46777,-0.46791,-0.4671,-0.46654,-0.46644,-0.46621,-0.4658,-0.46576,-0.46565,-0.46626,-0.46655,-0.46677,-0.46717,-0.4672,-0.46741,-0.46743,-0.46758,-0.46688,-0.46771,-0.4673,-0.46725,-0.46748,-0.4676,-0.46772,-0.46773,-0.46761,-0.46806,-0.46816,-0.46723,-0.46744,-0.4673,-0.4675,-0.46691,-0.46727,-0.46723,-0.46665,-0.46701,-0.46756,-0.46731,-0.46735,-0.46759,-0.46759,0.34204,0.34123,0.33261,0.32688,0.3167,0.30222,0.27978,0.25268,0.22049,0.18709,0.15588,0.11129,0.083134,0.036832,-0.0015339,-0.0015339,-0.063312,-0.063312,-0.063312,-0.18566,-0.18566,-0.18566,-0.18566,-0.18566,-0.39769,-0.39769,-0.39769,-0.39769,-0.39769,-0.39769,-0.39769,-0.39769,-0.8753,-0.8753,-0.8753,-0.8753
-0.5289,-0.5296,-0.53029,-0.53058,-0.52999,-0.52983,-0.53039,-0.53,-0.52953,-0.53021,-0.53124,-0.53177,-0.53163,-0.53138,-0.53174,-0.53129,-0.53116,-0.53113,-0.5306,-0.53005,-0.5289,-0.52762,-0.52704,-0.527,-0.52688,-0.52593,-0.52599,-0.52666,-0.52625,-0.52641,-0.52623,-0.52721,-0.52729,-0.52641,-0.52793,-0.52734,-0.52942,-0.52795,-0.5286,-0.52757,-0.52821,-0.52792,-0.52814,-0.52856,-0.52944,-0.52855,-0.5297,-0.53074,-0.53089,-0.53124,-0.53165,-0.53165,0.22595,0.23594,0.24371,0.25019,0.25712,0.26865,0.2797,0.29325,0.30395,0.31337,0.31817,0.31933,0.32,0.31902,0.31592,0.31592,0.31164,0.31164,0.31164,0.29509,0.29509,0.29509,0.29509,0.29509,0.26582,0.26582,0.26582,0.26582,0.26582,0.26582,0.26582,0.26582,0.19896,0.19896,0.19896,0.19896
0.52077,0.52216,0.52296,0.52196,0.52184,0.52287,0.52264,0.52224,0.52192,0.5219,0.52268,0.52219,0.52254,0.52217,0.52073,0.52109,0.52105,0.52056,0.52071,0.52,0.51965,0.52055,0.52006,0.5198,0.52086,0.52084,0.52116,0.52297,0.52281,0.52094,0.52194,0.52082,0.52126,0.52173,0.51933,0.52073,0.52138,0.52234,0.52144,0.52145,0.52135,0.52174,0.52222,0.52154,0.5213,0.52153,0.52109,0.52059,0.52165,0.52118,0.52028,0.52028,1.5805,1.6034,1.6268,1.6513,1.6752,1.6976,1.7168,1.7309,1.7446,1.7585,1.7727,1.7879,1.8055,1.823,1.8376,1.8376,1.8617,1.8617,1.8617,1.8891,1.8891,1.8891,1.8891,1.8891,1.9401,1.9401,1.9401,1.9401,1.9401,1.9401,1.9401,1.9401,1.9768,1.9768,1.9768,1.9768
-0.032567,-0.030544,-0.028925,-0.031059,-0.032942,-0.031725,-0.031259,-0.031758,-0.032316,-0.033103,-0.032236,-0.0325,-0.03248,-0.032698,-0.033804,-0.033899,-0.032981,-0.033557,-0.033964,-0.035014,-0.036006,-0.034181,-0.03441,-0.032728,-0.031291,-0.030669,-0.030002,-0.026596,-0.028649,-0.028759,-0.030387,-0.030673,-0.031964,-0.030685,-0.034057,-0.037301,-0.034301,-0.037893,-0.032734,-0.036263,-0.033341,-0.037436,-0.034446,-0.036221,-0.035061,-0.038742,-0.036391,-0.039321,-0.038528,-0.039116,-0.038873,-0.038873,0.0086313,0.026756,0.043446,0.056823,0.074018,0.085941,0.093211,0.09041,0.09275,0.094837,0.098045,0.0992,0.10212,0.0995,0.088259,0.088259,0.091284,0.091284,0.091284,0.084498,0.084498,0.084498,0.084498,0.084498,0.068366,0.068366,0.068366,0.068366,0.068366,0.068366,0.068366,0.068366,-0.017909,-0.017909,-0.017909,-0.017909
-0.020383,-0.022495,-0.022013,-0.02229,-0.021521,-0.018829,-0.01803,-0.020091,-0.019814,-0.020288,-0.02141,-0.02288,-0.023246,-0.021535,-0.021602,-0.020517,-0.020068,-0.020713,-0.020393,-0.019226,-0.01856,-0.016134,-0.016467,-0.017609,-0.015741,-0.013563,-0.014816,-0.014043,-0.013767,-0.015862,-0.015044,-0.014613,-0.015823,-0.013558,-0.016751,-0.016192,-0.016975,-0.015228,-0.018146,-0.011823,-0.012855,-0.013898,-0.016483,-0.014164,-0.015563,-0.01659,-0.017581,-0.018013,-0.019777,-0.019638,-0.020595,-0.020595,0.094562,0.098928,0.10568,0.11179,0.11947,0.13926,0.16639,0.20641,0.24824,0.2863,0.31018,0.35346,0.37982,0.41585,0.43586,0.43586,0.46048,0.46048,0.46048,0.45238,0.45238,0.45238,0.45238,0.45238,0.45693,0.45693,0.45693,0.45693,0.45693,0.45693,0.45693,0.45693,0.5065,0.5065,0.5065,0.5065
-0.45388,-0.45321,-0.45308,-0.45323,-0.45255,-0.452,-0.45231,-0.45194,-0.45172,-0.45139,-0.45164,-0.45177,-0.45105,-0.4506,-0.45071,-0.45049,-0.45017,-0.45021,-0.45011,-0.45069,-0.45098,-0.45109,-0.45157,-0.45168,-0.45173,-0.45167,-0.45174,-0.45099,-0.45166,-0.45148,-0.45133,-0.45163,-0.45172,-0.45166,-0.45202,-0.4518,-0.45214,-0.45215,-0.45138,-0.45142,-0.45133,-0.45153,-0.45095,-0.45124,-0.45115,-0.45067,-0.45099,-0.45156,-0.45127,-0.45131,-0.45154,-0.45154,0.42078,0.42004,0.41177,0.40662,0.39734,0.38425,0.36339,0.33854,0.30907,0.27855,0.24994,0.20863,0.18369,0.14096,0.10541,0.10541,0.044484,0.044484,0.044484,-0.0784,-0.0784,-0.0784,-0.0784,-0.0784,-0.29182,-0.29182,-0.29182,-0.29182,-0.29182,-0.29182,-0.29182,-0.29182,-0.77292,-0.77292,-0.77292,-0.77292
-0.52865,-0.52931,-0.53004,-0.53031,-0.52965,-0.52951,-0.53008,-0.52974,-0.52934,-0.52993,-0.53087,-0.5314,-0.53122,-0.53089,-0.53119,-0.53071,-0.53059,-0.5305,-0.52997,-0.5294,-0.5283,-0.5272,-0.52676,-0.52697,-0.52705,-0.52638,-0.52644,-0.52724,-0.52687,-0.52723,-0.52689,-0.52791,-0.52794,-0.52736,-0.52869,-0.52799,-0.53013,-0.52859,-0.52949,-0.5284,-0.52931,-0.52874,-0.52921,-0.52951,-0.53044,-0.52937,-0.5305,-0.53131,-0.53139,-0.53154,-0.53189,-0.53189,0.27058,0.2791,0.28459,0.28887,0.29287,0.30126,0.30847,0.31834,0.32416,0.3281,0.32746,0.32305,0.31812,0.31174,0.30417,0.30417,0.29489,0.29489,0.29489,0.26952,0.26952,0.26952,0.26952,0.26952,0.23058,0.23058,0.23058,0.23058,0.23058,0.23058,0.23058,0.23058,0.15127,0.15127,0.15127,0.15127
0.53717,0.53862,0.53935,0.53823,0.538,0.53895,0.53865,0.5383,0.53795,0.53793,0.53873,0.53825,0.53863,0.53819,0.53669,0.53705,0.53705,0.53656,0.53671,0.53597,0.53561,0.53645,0.53598,0.53572,0.53677,0.53675,0.53716,0.53905,0.53879,0.53689,0.53799,0.53685,0.5372,0.53755,0.53514,0.53652,0.53714,0.53809,0.53718,0.53701,0.53683,0.53724,0.53779,0.53701,0.53675,0.53704,0.53658,0.53611,0.53723,0.53674,0.53591,0.53591,1.6722,1.6943,1.7164,1.7394,1.7616,1.7818,1.7991,1.8112,1.8232,1.8356,1.8484,1.8619,1.8784,1.8946,1.9082,1.9082,1.9321,1.9321,1.9321,1.9615,1.9615,1.9615,1.9615,1.9615,2.0194,2.0194,2.0194,2.0194,2.0194,2.0194,2.0194,2.0194,2.0771,2.0771,2.0771,2.0771
-0.045416,-0.042815,-0.042117,-0.044736,-0.044784,-0.044767,-0.045664,-0.045205,-0.046363,-0.046576,-0.046872,-0.046947,-0.045096,-0.046267,-0.048281,-0.047352,-0.047088,-0.047553,-0.047501,-0.048805,-0.048247,-0.046624,-0.047325,-0.046123,-0.044902,-0.043415,-0.042979,-0.039359,-0.042091,-0.041589,-0.042913,-0.045407,-0.044041,-0.044337,-0.049347,-0.048945,-0.050126,-0.046643,-0.048021,-0.047686,-0.049968,-0.049004,-0.049136,-0.049743,-0.051158,-0.05069,-0.05259,-0.05325,-0.052676,-0.052712,-0.053977,-0.053977,0.025615,0.046444,0.065573,0.083966,0.10495,0.1185,0.12471,0.1239,0.12314,0.12496,0.12452,0.12695,0.13062,0.12778,0.12301,0.12301,0.1317,0.1317,0.1317,0.12372,0.12372,0.12372,0.12372,0.12372,0.13606,0.13606,0.13606,0.13606,0.13606,0.13606,0.13606,0.13606,0.048182,0.048182,0.048182,0.048182
0.0087867,0.0068021,0.0071626,0.0069385,0.0085072,0.011126,0.011087,0.0096783,0.010152,0.0090899,0.0074015,0.006256,0.0068647,0.009118,0.0089803,0.010702,0.010889,0.01006,0.010821,0.011556,0.012264,0.014628,0.014309,0.013175,0.014698,0.016311,0.015143,0.01524,0.015661,0.013855,0.015403,0.014348,0.013484,0.016185,0.012189,0.01394,0.011495,0.014471,0.011725,0.018167,0.015231,0.015103,0.013126,0.014793,0.012002,0.012481,0.011427,0.010155,0.0086697,0.0092306,0.0083381,0.0083381,0.14215,0.1422,0.14496,0.1463,0.1507,0.17435,0.20041,0.23998,0.27614,0.30738,0.32651,0.36532,0.3843,0.41649,0.43558,0.43558,0.46033,0.46033,0.46033,0.45382,0.45382,0.45382,0.45382,0.45382,0.46714,0.46714,0.46714,0.46714,0.46714,0.46714,0.46714,0.46714,0.507,0.507,0.507,0.507
-0.43762,-0.43697,-0.43673,-0.43694,-0.43638,-0.43572,-0.43593,-0.43565,-0.43534,-0.43515,-0.43537,-0.43552,-0.43489,-0.43451,-0.4348,-0.43458,-0.43434,-0.43446,-0.43436,-0.4349,-0.43518,-0.43514,-0.43568,-0.4359,-0.43578,-0.43559,-0.43562,-0.43483,-0.43533,-0.43541,-0.43515,-0.4355,-0.43559,-0.43534,-0.43606,-0.43571,-0.436,-0.43584,-0.4353,-0.43506,-0.43506,-0.43524,-0.43474,-0.43493,-0.43484,-0.43444,-0.43476,-0.43536,-0.43507,-0.4351,-0.43534,-0.43534,0.49982,0.49916,0.49125,0.48677,0.47851,0.46714,0.44827,0.42625,0.40003,0.37289,0.34715,0.30952,0.2882,0.24948,0.21706,0.21706,0.15718,0.15718,0.15718,0.033757,0.033757,0.033757,0.033757,0.033757,-0.18094,-0.18094,-0.18094,-0.18094,-0.18094,-0.18094,-0.18094,-0.18094,-0.66499,-0.66499,-0.66499,-0.66499
-0.52782,-0.52846,-0.52927,-0.52947,-0.52875,-0.52861,-0.52918,-0.52894,-0.52856,-0.52904,-0.52988,-0.53043,-0.53022,-0.52978,-0.53,-0.52954,-0.52941,-0.52927,-0.52875,-0.52814,-0.52712,-0.52622,-0.5259,-0.52638,-0.5267,-0.52629,-0.52633,-0.52737,-0.52698,-0.52751,-0.52705,-0.52799,-0.52807,-0.52775,-0.52877,-0.52809,-0.53009,-0.52877,-0.52967,-0.52877,-0.52966,-0.529,-0.52958,-0.52986,-0.53076,-0.52956,-0.53051,-0.53125,-0.53115,-0.53114,-0.53141,-0.53141,0.31445,0.32099,0.32405,0.32586,0.32671,0.33179,0.33508,0.34108,0.34201,0.34045,0.33461,0.3246,0.31412,0.30263,0.29067,0.29067,0.2763,0.2763,0.2763,0.24252,0.24252,0.24252,0.24252,0.24252,0.19404,0.19404,0.19404,0.19404,0.19404,0.19404,0.19404,0.19404,0.10328,0.10328,0.10328,0.10328
0.55457,0.55609,0.55679,0.55557,0.55521,0.55607,0.55568,0.55539,0.55505,0.55496,0.55578,0.55533,0.55576,0.55523,0.55366,0.55403,0.55405,0.55354,0.55372,0.55297,0.55259,0.55339,0.55293,0.55264,0.5537,0.55366,0.55416,0.55611,0.55579,0.55383,0.55509,0.55386,0.55411,0.55442,0.55193,0.55332,0.5539,0.55486,0.554,0.55358,0.55331,0.5537,0.55441,0.55347,0.5532,0.55354,0.55306,0.55261,0.55383,0.55329,0.55257,0.55257,1.7635,1.7846,1.8054,1.8269,1.8471,1.8651,1.8805,1.8907,1.901,1.9117,1.9231,1.9347,1.95,1.965,1.9778,1.9778,2.0018,2.0018,2.0018,2.0341,2.0341,2.0341,2.0341,2.0341,2.1004,2.1004,2.1004,2.1004,2.1004,2.1004,2.1004,2.1004,2.1818,2.1818,2.1818,2.1818
-0.05291,-0.051542,-0.051021,-0.053364,-0.054992,-0.054493,-0.054135,-0.054426,-0.055772,-0.056362,-0.055811,-0.055671,-0.055124,-0.056153,-0.057933,-0.05732,-0.055865,-0.056614,-0.056932,-0.056975,-0.057547,-0.056752,-0.056315,-0.056503,-0.05488,-0.052292,-0.053125,-0.049699,-0.050214,-0.052556,-0.053641,-0.053322,-0.054866,-0.055086,-0.059437,-0.059625,-0.059075,-0.055699,-0.058861,-0.05909,-0.059793,-0.059742,-0.059568,-0.060279,-0.061594,-0.061778,-0.063375,-0.063563,-0.062575,-0.063049,-0.064346,-0.064346,0.197,0.21699,0.23879,0.25574,0.2757,0.27958,0.29287,0.28566,0.2797,0.27752,0.27313,0.26547,0.26294,0.2689,0.25558,0.25558,0.26699,0.26699,0.26699,0.2829,0.2829,0.2829,0.2829,0.2829,0.28582,0.28582,0.28582,0.28582,0.28582,0.28582,0.28582,0.28582,0.25241,0.25241,0.25241,0.25241
0.028006,0.02608,0.025489,0.025277,0.027588,0.030009,0.029724,0.028561,0.028501,0.028102,0.026153,0.025049,0.02604,0.028449,0.028818,0.030383,0.030442,0.029888,0.030347,0.030841,0.032062,0.033755,0.03426,0.032763,0.033015,0.034708,0.033826,0.033067,0.033487,0.031942,0.033336,0.032348,0.032052,0.033141,0.030467,0.033162,0.02902,0.033882,0.029581,0.036063,0.031926,0.034092,0.030969,0.032173,0.028346,0.031103,0.02892,0.028027,0.02638,0.02751,0.026326,0.026326,0.24103,0.2357,0.23211,0.23009,0.23375,0.25437,0.2791,0.31343,0.34118,0.367,0.38208,0.40958,0.42502,0.45339,0.47123,0.47123,0.48756,0.48756,0.48756,0.48477,0.48477,0.48477,0.48477,0.48477,0.49503,0.49503,0.49503,0.49503,0.49503,0.49503,0.49503,0.49503,0.50875,0.50875,0.50875,0.50875
-0.42063,-0.42007,-0.41973,-0.41997,-0.41949,-0.41867,-0.4188,-0.41862,-0.41823,-0.41818,-0.41842,-0.4186,-0.41805,-0.41769,-0.41815,-0.4179,-0.41773,-0.41795,-0.41786,-0.41834,-0.41858,-0.41837,-0.41895,-0.41931,-0.419,-0.41867,-0.41869,-0.41787,-0.41819,-0.41855,-0.41816,-0.41857,-0.41869,-0.41819,-0.41931,-0.41881,-0.41909,-0.4187,-0.41845,-0.41781,-0.41795,-0.41813,-0.41774,-0.4178,-0.41779,-0.41744,-0.4178,-0.41842,-0.41817,-0.41819,-0.41843,-0.41843,0.58182,0.58118,0.57354,0.56976,0.56261,0.55318,0.53674,0.51808,0.49553,0.47214,0.44943,0.41576,0.39831,0.36392,0.33486,0.33486,0.2762,0.2762,0.2762,0.15227,0.15227,0.15227,0.15227,0.15227,-0.063531,-0.063531,-0.063531,-0.063531,-0.063531,-0.063531,-0.063531,-0.063531,-0.54979,-0.54979,-0.54979,-0.54979
-0.52609,-0.52673,-0.52762,-0.52772,-0.5269,-0.52677,-0.52739,-0.52721,-0.52683,-0.5272,-0.52794,-0.52851,-0.52827,-0.52771,-0.52786,-0.5274,-0.5273,-0.52711,-0.52656,-0.52595,-0.52497,-0.52428,-0.52411,-0.52487,-0.52543,-0.52532,-0.52536,-0.52663,-0.52621,-0.52692,-0.52626,-0.52721,-0.52725,-0.52717,-0.52792,-0.52709,-0.52914,-0.5279,-0.52894,-0.52807,-0.52906,-0.5282,-0.52895,-0.52917,-0.53005,-0.52863,-0.5295,-0.53007,-0.52984,-0.52967,-0.52983,-0.52983,0.3534,0.35794,0.35833,0.35758,0.35517,0.35686,0.35586,0.35805,0.35419,0.34733,0.3364,0.32094,0.30526,0.28852,0.27242,0.27242,0.25278,0.25278,0.25278,0.21043,0.21043,0.21043,0.21043,0.21043,0.15235,0.15235,0.15235,0.15235,0.15235,0.15235,0.15235,0.15235,0.050476,0.050476,0.050476,0.050476
0.57092,0.57253,0.5732,0.57186,0.57139,0.57212,0.57161,0.57143,0.57107,0.5709,0.57175,0.57135,0.57183,0.57121,0.56954,0.56993,0.56995,0.56944,0.56965,0.56888,0.5685,0.56923,0.56878,0.56847,0.56953,0.56945,0.57006,0.57204,0.57169,0.56967,0.5711,0.56972,0.56993,0.57018,0.56756,0.56903,0.56951,0.57059,0.56971,0.56907,0.56859,0.56906,0.56992,0.5688,0.56849,0.56893,0.56842,0.56801,0.56932,0.56875,0.56813,0.56813,1.8574,1.8775,1.8967,1.9164,1.9346,1.9504,1.964,1.9722,1.9805,1.9895,1.9995,2.0092,2.0233,2.0372,2.0495,2.0495,2.0737,2.0737,2.0737,2.1095,2.1095,2.1095,2.1095,2.1095,2.1857,2.1857,2.1857,2.1857,2.1857,2.1857,2.1857,2.1857,2.2926,2.2926,2.2926,2.2926
-0.036628,-0.035558,-0.033971,-0.036744,-0.039345,-0.037522,-0.037214,-0.03845,-0.039728,-0.04052,-0.039568,-0.039581,-0.03919,-0.040222,-0.041587,-0.040489,-0.038992,-0.040281,-0.040071,-0.040525,-0.041756,-0.040404,-0.040191,-0.040602,-0.037863,-0.036358,-0.037068,-0.032175,-0.033724,-0.037377,-0.036298,-0.03674,-0.039607,-0.038567,-0.043978,-0.044349,-0.042208,-0.040753,-0.042518,-0.042798,-0.043036,-0.045357,-0.043334,-0.044912,-0.045955,-0.047034,-0.048154,-0.047967,-0.047069,-0.04843,-0.048496,-0.048496,0.29593,0.31545,0.33264,0.34794,0.36012,0.36529,0.37887,0.36684,0.35753,0.34952,0.34226,0.32133,0.32617,0.31828,0.31196,0.31196,0.312,0.312,0.312,0.33306,0.33306,0.33306,0.33306,0.33306,0.36926,0.36926,0.36926,0.36926,0.36926,0.36926,0.36926,0.36926,0.35555,0.35555,0.35555,0.35555
0.035918,0.033388,0.032128,0.032733,0.035211,0.037306,0.037337,0.03601,0.035566,0.03614,0.033681,0.032723,0.033699,0.036112,0.036964,0.038102,0.038546,0.037837,0.03797,0.038778,0.040018,0.040959,0.041973,0.039814,0.039438,0.041587,0.04004,0.039008,0.039088,0.038142,0.03887,0.039316,0.038083,0.038645,0.037953,0.03973,0.035846,0.040846,0.03574,0.04201,0.038798,0.040785,0.036992,0.038184,0.034841,0.037773,0.03508,0.035055,0.033257,0.034432,0.033356,0.033356,0.36254,0.35291,0.34292,0.33938,0.3401,0.35448,0.37759,0.40386,0.42443,0.44457,0.4539,0.46813,0.48218,0.50401,0.51855,0.51855,0.52362,0.52362,0.52362,0.52363,0.52363,0.52363,0.52363,0.52363,0.52362,0.52362,0.52362,0.52362,0.52362,0.52362,0.52362,0.52362,0.52379,0.52379,0.52379,0.52379
-0.40389,-0.40347,-0.40301,-0.40327,-0.40283,-0.40182,-0.40186,-0.40181,-0.40135,-0.40143,-0.40175,-0.40196,-0.40147,-0.40109,-0.40168,-0.40138,-0.40129,-0.40163,-0.40153,-0.40193,-0.40212,-0.40172,-0.40232,-0.40284,-0.40237,-0.40186,-0.4019,-0.40107,-0.40124,-0.40184,-0.40134,-0.4018,-0.40196,-0.40119,-0.40271,-0.40205,-0.40238,-0.40168,-0.40177,-0.40063,-0.40097,-0.40113,-0.40091,-0.40083,-0.40093,-0.40062,-0.40105,-0.40169,-0.40153,-0.40151,-0.40177,-0.40177,0.67016,0.66938,0.66191,0.65875,0.65264,0.64538,0.63173,0.61684,0.59823,0.57881,0.55919,0.52964,0.51619,0.48633,0.46079,0.46079,0.4034,0.4034,0.4034,0.27887,0.27887,0.27887,0.27887,0.27887,0.061844,0.061844,0.061844,0.061844,0.061844,0.061844,0.061844,0.061844,-0.42628,-0.42628,-0.42628,-0.42628
-0.52316,-0.5238,-0.5248,-0.52476,-0.52382,-0.52377,-0.52441,-0.52424,-0.52385,-0.52408,-0.52475,-0.52534,-0.52506,-0.52439,-0.52445,-0.52402,-0.52397,-0.52369,-0.52315,-0.52254,-0.52159,-0.52113,-0.52112,-0.52214,-0.52298,-0.5232,-0.52321,-0.52476,-0.52433,-0.5251,-0.52432,-0.52523,-0.5252,-0.5254,-0.52573,-0.52487,-0.52693,-0.52589,-0.52694,-0.52614,-0.52717,-0.52611,-0.52707,-0.52719,-0.52797,-0.52638,-0.52711,-0.52753,-0.52718,-0.52681,-0.52686,-0.52686,0.38786,0.3902,0.38766,0.38422,0.37818,0.37618,0.37063,0.36913,0.36065,0.3486,0.33276,0.31223,0.29123,0.26927,0.24913,0.24913,0.22433,0.22433,0.22433,0.17326,0.17326,0.17326,0.17326,0.17326,0.10536,0.10536,0.10536,0.10536,0.10536,0.10536,0.10536,0.10536,-0.0074228,-0.0074228,-0.0074228,-0.0074228
0.58684,0.58856,0.58917,0.5877,0.58709,0.5877,0.5871,0.58698,0.5866,0.58637,0.58728,0.58692,0.58743,0.58671,0.58494,0.58533,0.58537,0.58485,0.58508,0.5843,0.58391,0.58456,0.58414,0.58379,0.58483,0.58473,0.58548,0.58747,0.5871,0.58498,0.58658,0.5851,0.58525,0.58537,0.58267,0.58422,0.58465,0.58584,0.58491,0.58396,0.58333,0.5839,0.58491,0.58361,0.58324,0.58379,0.58327,0.5829,0.58432,0.58372,0.58319,0.58319,1.9534,1.9724,1.9897,2.0077,2.0237,2.0373,2.0491,2.0552,2.0614,2.0686,2.0772,2.0849,2.0979,2.1109,2.1228,2.1228,2.1474,2.1474,2.1474,2.1877,2.1877,2.1877,2.1877,2.1877,2.275,2.275,2.275,2.275,2.275,2.275,2.275,2.275,2.4094,2.4094,2.4094,2.4094
-0.0221,-0.019938,-0.017573,-0.022346,-0.022911,-0.019605,-0.021091,-0.023269,-0.023854,-0.025039,-0.022958,-0.025148,-0.024325,-0.023339,-0.025653,-0.024586,-0.022933,-0.024152,-0.024792,-0.024244,-0.025238,-0.022794,-0.022277,-0.023498,-0.020658,-0.020093,-0.020887,-0.016517,-0.017248,-0.024031,-0.019761,-0.021648,-0.02317,-0.023344,-0.02937,-0.026706,-0.026856,-0.021771,-0.026703,-0.022416,-0.028579,-0.026833,-0.028502,-0.027418,-0.031342,-0.030916,-0.0325,-0.03265,-0.032584,-0.031679,-0.034286,-0.034286,0.30851,0.33059,0.34661,0.35941,0.3739,0.38329,0.39625,0.3936,0.38575,0.3765,0.36487,0.35011,0.34545,0.34174,0.33341,0.33341,0.34366,0.34366,0.34366,0.35937,0.35937,0.35937,0.35937,0.35937,0.40632,0.40632,0.40632,0.40632,0.40632,0.40632,0.40632,0.40632,0.41803,0.41803,0.41803,0.41803
0.047861,0.044811,0.044481,0.046143,0.047948,0.049462,0.050008,0.048739,0.048337,0.048637,0.045868,0.045804,0.046796,0.048645,0.049937,0.05118,0.05115,0.050511,0.050945,0.051469,0.052397,0.052901,0.053142,0.051344,0.051079,0.052675,0.050844,0.050021,0.049587,0.050305,0.050206,0.050237,0.049157,0.050978,0.050163,0.050814,0.047725,0.051645,0.047516,0.053596,0.050888,0.05147,0.048425,0.049692,0.047369,0.048855,0.046811,0.047561,0.04541,0.046412,0.046589,0.046589,0.43638,0.42357,0.41195,0.4059,0.40355,0.41423,0.43187,0.45171,0.46566,0.47812,0.47985,0.48737,0.49679,0.51177,0.52113,0.52113,0.52072,0.52072,0.52072,0.51976,0.51976,0.51976,0.51976,0.51976,0.51225,0.51225,0.51225,0.51225,0.51225,0.51225,0.51225,0.51225,0.51222,0.51222,0.51222,0.51222
-0.38972,-0.38947,-0.3889,-0.38914,-0.38871,-0.38748,-0.38742,-0.38752,-0.38701,-0.38723,-0.38766,-0.3879,-0.38746,-0.38702,-0.3877,-0.38734,-0.38733,-0.38779,-0.38769,-0.38802,-0.38813,-0.38753,-0.38815,-0.38884,-0.38823,-0.38751,-0.38761,-0.38679,-0.3868,-0.38762,-0.38704,-0.38754,-0.38775,-0.38667,-0.38861,-0.38778,-0.3882,-0.38713,-0.3876,-0.38589,-0.38646,-0.38661,-0.38658,-0.38637,-0.38661,-0.38632,-0.38685,-0.3875,-0.38748,-0.3874,-0.38766,-0.38766,0.76885,0.76781,0.76034,0.75765,0.75251,0.74757,0.73688,0.726,0.71146,0.69609,0.67949,0.65418,0.64472,0.61956,0.5976,0.5976,0.54141,0.54141,0.54141,0.41605,0.41605,0.41605,0.41605,0.41605,0.19744,0.19744,0.19744,0.19744,0.19744,0.19744,0.19744,0.19744,-0.29242,-0.29242,-0.29242,-0.29242
-0.52038,-0.52106,-0.5222,-0.52197,-0.52092,-0.52097,-0.5216,-0.52142,-0.52099,-0.52108,-0.52172,-0.52228,-0.52197,-0.52123,-0.52118,-0.52079,-0.52081,-0.52044,-0.51987,-0.51927,-0.51835,-0.51815,-0.51835,-0.51959,-0.52073,-0.52128,-0.52124,-0.5231,-0.52267,-0.52342,-0.52256,-0.52341,-0.52329,-0.52376,-0.52362,-0.52277,-0.52481,-0.52411,-0.52505,-0.52441,-0.52534,-0.52417,-0.52526,-0.5253,-0.52592,-0.52416,-0.52472,-0.52501,-0.52452,-0.52398,-0.52387,-0.52387,0.42082,0.4206,0.41517,0.40874,0.39894,0.39313,0.38293,0.37783,0.36494,0.34792,0.3274,0.30215,0.27583,0.24888,0.22468,0.22468,0.19492,0.19492,0.19492,0.13536,0.13536,0.13536,0.13536,0.13536,0.057246,0.057246,0.057246,0.057246,0.057246,0.057246,0.057246,0.057246,-0.066258,-0.066258,-0.066258,-0.066258
0.60404,0.60587,0.60643,0.60482,0.60406,0.60457,0.60384,0.60379,0.60338,0.6031,0.60408,0.60374,0.6043,0.60347,0.60157,0.60198,0.60202,0.60148,0.60176,0.60095,0.60055,0.60112,0.60074,0.60033,0.60138,0.6012,0.60211,0.60411,0.60375,0.60147,0.60332,0.60167,0.60177,0.60178,0.59896,0.60066,0.60102,0.60235,0.60131,0.6001,0.59925,0.59998,0.60113,0.59962,0.59918,0.59988,0.59934,0.59901,0.60057,0.59994,0.59948,0.59948,2.0479,2.0654,2.0809,2.0971,2.1108,2.1223,2.1321,2.1361,2.1402,2.1457,2.153,2.1587,2.1708,2.183,2.195,2.195,2.22,2.22,2.22,2.2652,2.2652,2.2652,2.2652,2.2652,2.3648,2.3648,2.3648,2.3648,2.3648,2.3648,2.3648,2.3648,2.5279,2.5279,2.5279,2.5279
-0.020376,-0.0178,-0.017123,-0.019494,-0.020136,-0.018307,-0.019926,-0.020993,-0.02247,-0.023386,-0.022822,-0.023326,-0.022245,-0.022529,-0.024015,-0.023056,-0.021766,-0.023836,-0.023071,-0.022991,-0.023008,-0.0209,-0.020213,-0.021372,-0.020303,-0.019275,-0.019564,-0.016248,-0.01782,-0.02141,-0.019441,-0.020315,-0.023288,-0.02184,-0.027298,-0.02599,-0.02382,-0.021026,-0.020808,-0.024597,-0.025323,-0.028245,-0.024171,-0.027926,-0.03029,-0.029981,-0.031291,-0.032385,-0.029877,-0.032101,-0.0327,-0.0327,0.30324,0.32387,0.33905,0.35375,0.36845,0.38057,0.39836,0.39736,0.38887,0.37768,0.36937,0.35113,0.35025,0.34679,0.34941,0.34941,0.35809,0.35809,0.35809,0.37659,0.37659,0.37659,0.37659,0.37659,0.43373,0.43373,0.43373,0.43373,0.43373,0.43373,0.43373,0.43373,0.46784,0.46784,0.46784,0.46784
0.042003,0.039536,0.040545,0.042663,0.043428,0.044204,0.045802,0.044809,0.043781,0.043433,0.041355,0.042617,0.042881,0.044183,0.046333,0.047064,0.04645,0.046608,0.046753,0.046776,0.047392,0.047145,0.046939,0.046087,0.045255,0.046633,0.044913,0.043954,0.04422,0.046716,0.043711,0.044,0.044732,0.046574,0.045411,0.04491,0.042683,0.046042,0.042864,0.047843,0.045635,0.046048,0.043275,0.044603,0.043177,0.043291,0.042352,0.043374,0.040638,0.042387,0.043252,0.043252,0.44506,0.43256,0.42264,0.41336,0.40996,0.41595,0.42459,0.43809,0.44482,0.44965,0.44402,0.45214,0.45242,0.46347,0.46409,0.46409,0.46419,0.46419,0.46419,0.45657,0.45657,0.45657,0.45657,0.45657,0.43211,0.43211,0.43211,0.43211,0.43211,0.43211,0.43211,0.43211,0.42984,0.42984,0.42984,0.42984
