-0.49999,-0.49984,-0.49996,-0.5,-0.50007,-0.49989,-0.5,-0.5001,-0.50014,-0.50008,-0.50018,-0.50022,-0.50003,-0.50011,-0.49999,-0.49993,-0.49973,-0.49958,-0.4997,-0.49978,-0.49978,-0.49964,-0.49983,-0.50011,-0.50012,-0.50048,-0.50063,-0.50102,-0.50138,-0.50172,-0.50205,-0.50231,-0.50259,-0.50277,-0.50295,-0.50298,-0.50294,-0.50299,-0.50285,-0.50261,-0.50236,-0.50235,-0.50201,-0.50191,-0.50182,-0.50162,-0.50158,-0.50129,-0.50125,-0.50125,-0.50102,-0.5012,-0.50086,-0.50032,-0.49985,-0.49858,-0.49709,-0.49521,-0.49281,-0.49041,-0.48827,-0.4855,-0.48272,-0.4802,-0.47769,-0.47498,-0.47262,-0.47033,-0.46788,-0.46572,-0.46362,-0.4616,-0.45961,-0.45758,-0.45578,-0.4539,-0.45207,-0.45009,-0.44784,-0.44579,-0.44314,-0.44071,-0.43762,-0.43432,-0.43041,-0.42619,-0.4215,-0.41617,-0.41031,-0.40385,-0.3968,-0.38914,-0.38072,-0.37157,-0.36182,-0.35162,-0.34034,-0.32826,-0.31564,-0.30249,-0.28849,-0.27384,-0.25875,-0.24277,-0.22673,-0.20973,-0.19217,-0.17435,-0.156,-0.13697,-0.11776,-0.098032,-0.078023,-0.057881,-0.037493,-0.016657,0.004359,0.025466,0.046348,0.067836,0.089283,0.11052,0.13212,0.15327,0.17443,0.1954,0.21634,0.23695,0.25751,0.27777,0.2979,0.31748,0.33669,0.35555,0.37424,0.39232,0.40992,0.42691,0.44371,0.45978,0.47511,0.49004,0.50424,0.51794,0.5312,0.54348,0.55505,0.56595,0.5764,0.58603,0.59498,0.60314,0.6105,0.61729,0.62332,0.62875,0.63308,0.63721,0.64011,0.64278,0.64434,0.64516,0.64551,0.64523,0.64433,0.64257,0.64029,0.63754,0.63389,0.62986,0.62553,0.62016,0.61457,0.60857,0.60225,0.59542,0.58851,0.58096,0.57292,0.56471,0.55654,0.54782,0.53929,0.53031,0.52109,0.51213,0.50312,0.49392,0.485,0.47551,0.46688,0.45794,0.44918,0.44076,0.43242,0.42439,0.41649,0.40916,0.40185,0.39525,0.38858,0.38239,0.37681,0.37164,0.36677,0.36244,0.35844,0.35507,0.35243,0.34968,0.34777,0.34615,0.34526,0.34501,0.34506,0.34553,0.34668,0.34803,0.35019,0.35251,0.35539,0.35873,0.36254,0.3667,0.37126,0.3761,0.38146,0.38687,0.39287,0.39906,0.40539,0.41188,0.41885,0.42573,0.43296,0.44031,0.44749,0.45483,0.46238,0.46971,0.47711,0.48439,0.49145,0.49892,0.50598,0.51289,0.51943,0.52608,0.5321,0.53813,0.54388,0.54942,0.55472,0.55946,0.56412,0.5681,0.57212,0.57559,0.57891,0.58114,0.58374,0.58558,0.58718,0.58866,0.58944,0.58986,0.59011,0.58965,0.5891,0.58822,0.58701,0.58539,0.58358,0.58139,0.57886,0.57606,0.57304,0.57,0.56639,0.56263,0.55867,0.55472,0.55051,0.54619,0.54179,0.53712,0.53242,0.52781,0.52342,0.51859,0.51388,0.50931,0.50464,0.50033,0.49559,0.49134,0.48704,0.48316,0.47906,0.47533,0.4717
-0.49995,-0.49981,-0.50001,-0.49986,-0.49989,-0.49992,-0.49996,-0.50006,-0.50013,-0.50007,-0.50025,-0.50057,-0.50059,-0.50062,-0.50092,-0.50096,-0.50093,-0.50111,-0.50115,-0.5011,-0.50123,-0.50124,-0.50117,-0.50144,-0.50132,-0.50162,-0.50159,-0.50182,-0.50185,-0.50173,-0.50165,-0.50177,-0.50176,-0.50158,-0.50154,-0.50156,-0.50144,-0.50139,-0.50121,-0.50113,-0.50097,-0.501,-0.50046,-0.50057,-0.50048,-0.50019,-0.50009,-0.4999,-0.49977,-0.49974,-0.49972,-0.49956,-0.49939,-0.49934,-0.49943,-0.49975,-0.50007,-0.50034,-0.50087,-0.50153,-0.50238,-0.5028,-0.50356,-0.50444,-0.5053,-0.50598,-0.50703,-0.50805,-0.50871,-0.5096,-0.51045,-0.51104,-0.51188,-0.51189,-0.51221,-0.5121,-0.51156,-0.51064,-0.50921,-0.50754,-0.50495,-0.50184,-0.49774,-0.493,-0.48735,-0.48076,-0.47324,-0.46443,-0.45495,-0.44419,-0.43227,-0.41944,-0.40534,-0.38996,-0.37379,-0.35641,-0.3381,-0.31855,-0.29826,-0.27687,-0.25444,-0.23136,-0.20764,-0.18289,-0.15772,-0.13203,-0.10558,-0.078928,-0.051766,-0.024298,0.00346,0.031314,0.059202,0.087252,0.11486,0.1429,0.17018,0.19769,0.22437,0.2509,0.27708,0.3026,0.32765,0.35159,0.37513,0.39786,0.41969,0.44086,0.46099,0.48015,0.49863,0.51571,0.53183,0.5471,0.56132,0.57438,0.58613,0.59698,0.60686,0.61555,0.62295,0.62935,0.63459,0.63883,0.64241,0.64467,0.64591,0.64611,0.6455,0.644,0.64156,0.6383,0.63434,0.62959,0.62428,0.61823,0.61158,0.60479,0.59688,0.58881,0.58034,0.57166,0.56249,0.55336,0.54391,0.53426,0.52474,0.51489,0.50542,0.49602,0.48639,0.47688,0.46765,0.45878,0.45014,0.44166,0.43358,0.42596,0.41855,0.41151,0.40483,0.39859,0.39291,0.3877,0.38286,0.37869,0.37482,0.37157,0.36879,0.36637,0.36482,0.36332,0.3624,0.36213,0.362,0.36265,0.3635,0.365,0.36681,0.369,0.37163,0.37453,0.37779,0.38162,0.38561,0.39007,0.39451,0.39938,0.40434,0.40929,0.41468,0.41979,0.42528,0.43112,0.43671,0.44211,0.44791,0.45336,0.45905,0.46432,0.46976,0.47511,0.48018,0.48527,0.49012,0.49475,0.49925,0.50359,0.50767,0.51152,0.51518,0.5183,0.52158,0.52444,0.5269,0.52935,0.53149,0.53323,0.53475,0.53613,0.53708,0.53784,0.53831,0.5387,0.53899,0.53893,0.53881,0.53824,0.53768,0.53679,0.53563,0.53485,0.5335,0.53205,0.53066,0.52911,0.52746,0.52579,0.52413,0.52193,0.52026,0.51831,0.51644,0.51452,0.51258,0.51081,0.50881,0.50693,0.50496,0.50326,0.50172,0.49993,0.49847,0.49684,0.49527,0.49414,0.49268,0.49157,0.49034,0.48934,0.48842,0.48767,0.48697,0.48644,0.48575,0.48525,0.48459,0.48436,0.48416,0.48394,0.4839,0.48403,0.48395,0.48441,0.48458,0.48475,0.48538,0.48587,0.48625,0.48693,0.48739
0.50005,0.49723,0.49349,0.49061,0.4887,0.48768,0.48708,0.48682,0.48703,0.48757,0.48884,0.4894,0.49036,0.49128,0.4925,0.49352,0.49445,0.49542,0.49632,0.49698,0.49775,0.49835,0.49903,0.49918,0.49971,0.50007,0.50021,0.50029,0.50061,0.50056,0.50048,0.50053,0.50041,0.50071,0.50054,0.50039,0.50063,0.50037,0.50042,0.50027,0.50031,0.50015,0.50027,0.50018,0.50008,0.50006,0.49997,0.50007,0.50011,0.49998,0.50006,0.50372,0.51829,0.54453,0.58244,0.63203,0.69264,0.76165,0.83568,0.91218,0.98892,1.0639,1.1363,1.2048,1.2691,1.3293,1.3843,1.434,1.4785,1.5174,1.5514,1.5807,1.6056,1.6265,1.6435,1.6568,1.6674,1.675,1.6804,1.6837,1.6851,1.6848,1.6835,1.6811,1.6782,1.6743,1.67,1.6651,1.6602,1.6552,1.6499,1.645,1.6402,1.6352,1.6305,1.6256,1.6209,1.6167,1.6126,1.6088,1.6052,1.6014,1.5978,1.5943,1.5912,1.588,1.5852,1.5825,1.5796,1.5765,1.5738,1.5709,1.5681,1.5655,1.5629,1.5604,1.5575,1.5552,1.5521,1.5501,1.5471,1.5446,1.5421,1.5395,1.5371,1.5343,1.5317,1.5294,1.5272,1.5249,1.5225,1.5199,1.5178,1.5158,1.5136,1.5118,1.5098,1.5081,1.5063,1.5046,1.5031,1.5013,1.4999,1.4987,1.4977,1.4965,1.4956,1.4945,1.4935,1.4925,1.4922,1.4915,1.4911,1.4908,1.4903,1.49,1.4899,1.4899,1.4898,1.4896,1.4897,1.4898,1.4901,1.4904,1.4907,1.4911,1.4913,1.4918,1.4923,1.4928,1.4937,1.4943,1.4947,1.4953,1.4959,1.4967,1.4977,1.4981,1.499,1.4995,1.5002,1.5007,1.5016,1.5024,1.5032,1.5041,1.5049,1.5053,1.5063,1.5069,1.5077,1.5082,1.5088,1.5092,1.5098,1.5106,1.511,1.5117,1.5123,1.5126,1.5127,1.513,1.5133,1.5134,1.5138,1.514,1.5141,1.5141,1.5144,1.5143,1.5145,1.5143,1.514,1.5139,1.5135,1.5135,1.5134,1.513,1.5128,1.5124,1.512,1.5117,1.5114,1.5109,1.5103,1.5098,1.5092,1.5085,1.5082,1.5077,1.5071,1.5067,1.5059,1.5052,1.5046,1.5044,1.5037,1.503,1.5024,1.5017,1.5011,1.5007,1.5001,1.4997,1.4992,1.4986,1.4982,1.4976,1.4972,1.4966,1.4964,1.4957,1.4954,1.4953,1.495,1.4947,1.4943,1.4941,1.4938,1.4934,1.4933,1.4935,1.4935,1.4933,1.4933,1.4935,1.4931,1.4934,1.4935,1.4936,1.4937,1.4939,1.4939,1.494,1.4944,1.4947,1.495,1.4952,1.4953,1.4952,1.4955,1.4962,1.4964,1.497,1.4974,1.4976,1.4977,1.4981,1.4986,1.4988,1.4993,1.4997,1.4999,1.5003,1.5004,1.5007,1.5009,1.5015,1.5016,1.5021,1.5022
