0.29888,0.29764,0.30054,0.30004,0.29778,0.29788,0.29968,0.29862,0.29851,0.29959,0.30163,0.30126,0.29877,0.29939,0.30118,0.29923,0.29957,0.29922,0.29993,0.29911,0.29951,0.30144,0.30116,0.30076,0.29958,0.29829,0.29948,0.30036,0.2994,0.30111,0.30178,0.29975,0.29822,0.30076,0.30106,0.3,0.30208,0.30183,0.30062,0.30014,0.29824,0.2978,0.29993,0.29936,0.29708,0.29664,0.29745,0.29659,0.29723,0.29882,0.29855,0.38114,0.39502,0.39162,0.38209,0.36597,0.34956,0.33503,0.32385,0.31728,0.31174,0.30919,0.309,0.3059,0.30607,0.29828,0.29779,0.29624,0.29529,0.29556,0.2924,0.29164,0.29489,0.29475,0.29251,0.28809,0.28352,0.28764,0.28984,0.2859,0.28588,0.28918,0.28599,0.28758,0.28915,0.29132,0.29092,0.29024,0.28819,0.29226,0.28977,0.29295,0.28726,0.29058,0.29559,0.2908,0.29084,0.29309,0.29557,0.2946,0.2942,0.29425,0.29235,0.29439,0.29573,0.29627,0.2959,0.29539,0.29621,0.29737,0.3009,0.30019,0.30068,0.29998,0.30258,0.30238,0.30031,0.30128,0.3018,0.30141,0.29796,0.29845,0.30154,0.29933,0.29901,0.29991,0.30049,0.29793,0.29789,0.29836,0.29653,0.29756,0.29709,0.29708,0.29736,0.29562,0.29694,0.29718,0.29693,0.29675,0.29742,0.29642,0.2967,0.29616,0.29605,0.2967,0.29593,0.29632,0.29554,0.29432,0.29541,0.29603,0.29588,0.29501,0.29556,0.29602,0.29749,0.29742,0.29708,0.29966,0.30019,0.29814,0.29788,0.29784,0.29769,0.29871,0.29935,0.29741,0.29845,0.29875,0.29849,0.2992,0.29796,0.30157,0.30111,0.298,0.29992,0.29911,0.29984,0.30011,0.2996,0.29859,0.29885,0.29922,0.30024,0.30051,0.30042,0.29995,0.29913,0.29974,0.2996,0.29912,0.29927,0.29928,0.30068,0.30129,0.3006,0.30055,0.30081,0.30013,0.29915,0.2986,0.29936,0.29928,0.29881,0.29822,0.29843,0.30001,0.30052,0.30019,0.2993,0.30064,0.30147,0.30039,0.29934,0.2992,0.29933,0.29931,0.29974,0.29923,0.29877,0.30007,0.30143,0.30075,0.30003,0.29912,0.29858,0.29926,0.29932,0.29877,0.29867,0.29877,0.29924,0.30007,0.29957,0.29972,0.29876,0.29747,0.29821
-0.026891,-0.02911,-0.031913,-0.03404,-0.017369,-0.032171,-0.027676,-0.022501,-0.033922,-0.022294,-0.0195,-0.018631,-0.024608,-0.01266,0.0011945,-0.0076111,-0.0083188,-0.008939,-0.01827,0.009955,0.0093021,0.0045315,0.0048627,0.0018102,0.0032674,0.013655,0.0051372,0.022906,0.027044,0.01964,0.019755,0.022734,0.023962,0.012736,0.010895,0.017632,0.012418,0.019917,0.019007,0.0075754,0.011169,0.017782,0.011997,0.022827,0.015011,0.0018117,0.0013509,-0.0021166,0.0008265,-0.017246,-0.0067956,-0.29661,-0.25387,-0.19666,-0.1766,-0.15787,-0.13809,-0.1008,-0.073394,-0.066612,-0.036675,-0.030083,-0.0021146,0.021211,-0.014033,0.0017783,-0.0058341,0.0060126,0.017527,0.016338,0.040595,0.042368,0.03027,0.016456,0.024043,0.021692,0.050983,0.065396,0.043176,0.04514,0.019585,0.048712,0.045389,0.042646,-0.004971,-0.0047719,-0.0086213,0.0062631,0.013423,-0.025914,-0.015783,-0.063706,-0.020248,-0.010811,-0.046187,-0.0075022,-0.051431,-0.02644,-0.027219,-0.021351,-0.023311,-0.015945,-0.0066769,-0.015497,-0.0051461,-0.0068356,0.0014616,0.010167,0.023281,0.027729,-0.0048952,0.031848,0.032493,0.051232,0.03448,0.029662,0.041422,0.046139,0.056853,0.033303,0.045039,0.032623,0.049658,0.028565,0.016713,0.016802,0.011829,0.025655,-0.004337,0.018374,0.0090983,-0.019855,-0.0051017,-0.017803,-0.01514,-0.024578,-0.022247,-0.025582,-0.043232,-0.02763,-0.03434,-0.021955,-0.040932,-0.038691,-0.042823,-0.039146,-0.029423,-0.036521,-0.031093,-0.038135,-0.031431,-0.031436,-0.029811,-0.022439,-0.02476,-0.01268,-0.017383,-0.01324,0.0010482,-0.0086496,0.001444,0.00988,0.0059317,0.019668,0.013663,0.011381,0.015412,0.029927,0.010381,0.020818,0.031797,0.0090291,0.022142,0.018673,0.020762,0.017246,0.00628,0.019034,-0.0031872,0.015589,0.0092592,0.0032581,-0.0097551,0.0043238,0.010733,-0.007017,0.0007653,-0.00090813,-0.0033733,-0.0050313,-0.0060475,-0.006296,-0.0064042,-0.0033393,-0.0097181,-0.013528,-0.011244,-0.011495,-0.0093176,-0.010534,-0.003758,-0.006972,-0.015663,-0.0068317,-0.011007,0.00062191,-0.00052083,-0.014854,-0.013709,-0.011045,0.0070634,0.002333,-0.011382,-0.024264,-0.017208,-0.010387,-0.010259,-0.0045503,-0.012755,-0.0083981,-0.0016741,-0.011227,-0.019794,-0.017578,-0.017125,-0.0072793,-0.0042547,-0.010836,-0.013886,-0.012809,-0.011574,-0.00011422,0.00070761,-0.012413,-0.0077825,-0.01462,-0.0099485,0.0022442,0.0060676
-0.00038677,-0.00087136,0.0018599,-0.0071398,-0.0020525,0.0069715,-0.0089487,0.0067491,0.0026031,-0.014316,-0.00088713,-0.021591,-0.0075119,-0.0054173,-0.019107,0.0052291,-0.0020004,0.0031017,0.00062068,-0.0043854,0.0037634,0.0063298,-0.0051643,6.3002e-06,0.002515,0.0017796,0.011225,0.0079869,0.0017238,0.015928,0.0064777,-0.00034078,-0.0011797,-0.011962,-0.0073414,-0.015323,-0.01567,-0.012177,-0.017662,-0.010129,-0.013407,-0.014891,-0.014666,-0.019257,-0.021748,-0.019505,-0.022672,-0.029125,-0.020927,-0.022547,-0.030304,0.59433,0.54327,0.4662,0.38664,0.3575,0.31726,0.27633,0.20962,0.14191,0.055126,0.015505,-0.029741,-0.1025,-0.13982,-0.17297,-0.20194,-0.22312,-0.26553,-0.27391,-0.2934,-0.28034,-0.28357,-0.30044,-0.26754,-0.24645,-0.24095,-0.21491,-0.19435,-0.17288,-0.14976,-0.11217,-0.10741,-0.060882,-0.060751,-0.03833,-0.00095458,0.027872,0.030061,0.060395,0.053049,0.10023,0.095142,0.1048,0.12893,0.11568,0.13335,0.14196,0.12774,0.12509,0.11865,0.13038,0.10406,0.098332,0.087514,0.092756,0.059419,0.061024,0.050712,0.021714,0.024837,-0.0043591,-0.0027832,-0.014813,-0.03926,-0.046354,-0.032236,-0.0481,-0.056654,-0.062409,-0.071651,-0.045547,-0.064103,-0.075848,-0.059568,-0.037366,-0.053574,-0.067918,-0.018955,-0.018313,-0.05031,-0.02125,-0.024257,-0.012462,-0.022335,-0.0049547,0.001113,-0.0018299,0.0062583,-0.0038313,0.021905,0.017433,0.019649,0.020794,0.028414,0.027284,0.028471,0.035357,0.024598,0.033454,0.025532,0.019277,0.016054,0.010696,0.01511,-0.0085576,-0.0026697,-0.0094386,-0.017365,-0.012133,-0.031044,-0.029622,-0.0095117,-0.022602,-0.03707,-0.028559,-0.019238,-0.030641,-0.025604,-0.02667,-0.026355,-0.017733,-0.030734,-0.016873,-0.031522,-0.023336,-0.015405,-0.027747,-0.018053,-0.019849,-0.013043,-0.011664,-0.010631,-0.014919,-0.0116,-0.0032857,-0.01764,-0.0057223,-0.0056098,-0.0062609,-0.0063872,-0.0052182,-0.0043206,-0.0043003,-0.0028175,-0.005189,-0.0072387,-0.0063973,-0.0028523,-0.0040389,-0.0050017,-0.0014877,-0.002907,-0.0090234,-0.0019902,-0.0010405,-0.00074602,-0.0082816,-0.0092319,-0.0042299,-0.005924,0.0013449,-0.0031816,-0.0037017,4.2632e-05,-0.0056952,-0.0011142,-0.0060853,-0.0012831,0.0011049,-0.0013927,0.0014646,-0.00036271,-0.0015417,0.0042311,0.0093858,0.0091621,0.006115,0.010589,0.0090335,0.014258,0.014219,0.009438,0.010094,0.0062491,0.0086854,0.010209,0.0098076,0.0099308
0.011613,0.0012874,-0.0090224,-0.01003,-0.016198,-0.029587,-0.035927,-0.037634,-0.054218,-0.063276,-0.063908,-0.064391,-0.07303,-0.062512,-0.043729,-0.038521,-0.028286,-0.025458,-0.011683,0.0028511,0.0077983,0.028675,0.045472,0.043965,0.068918,0.075249,0.079547,0.086123,0.084855,0.080829,0.078541,0.078969,0.080724,0.079051,0.08475,0.090558,0.095298,0.088447,0.096394,0.090285,0.10379,0.10837,0.099999,0.10047,0.10289,0.10006,0.08095,0.085848,0.078665,0.071232,0.069842,0.059923,0.049102,0.044661,0.03989,0.032008,0.029391,0.031516,-0.02285,-0.041603,-0.050626,-0.060633,-0.072442,-0.070472,-0.076508,-0.078987,-0.069489,-0.047436,-0.025438,0.020617,0.010648,0.034967,0.04626,0.075338,0.038035,0.039389,0.054291,0.05722,0.063866,0.070242,0.070974,0.071816,0.074165,0.075375,0.061849,0.044242,0.063495,0.064298,0.061901,0.067882,0.059553,0.065163,0.066107,0.054105,0.062996,0.062861,0.058143,0.071761,0.075424,0.072197,0.077477,0.08073,0.068276,0.06495,0.063247,0.060345,0.051209,0.055803,0.055091,0.048134,0.042981,0.04143,0.043037,0.025809,0.042172,0.033272,0.041584,0.033238,0.0074571,0.045773,0.050905,0.056066,0.032888,0.053117,0.05305,0.011113,0.036195,0.031513,0.0042075,0.022463,-0.00037902,0.010842,-0.0018084,-0.0078493,0.013135,0.027283,0.027937,0.022598,0.032208,0.039687,0.047535,0.039649,0.048209,0.037331,0.048783,0.041799,0.052263,0.067569,0.063576,0.069432,0.063164,0.059358,0.069738,0.066703,0.072064,0.055913,0.063575,0.065537,0.055918,0.047511,0.078215,0.078364,0.070861,0.06119,0.065758,0.058883,0.062922,0.060129,0.057555,0.04551,0.030067,0.036818,0.02313,0.040494,0.046933,0.027189,0.036961,0.031525,0.046579,0.033682,0.043308,0.039524,0.046758,0.03833,0.033483,0.046367,0.060346,0.066883,0.062507,0.057873,0.052454,0.050618,0.052099,0.060509,0.058388,0.056258,0.059424,0.065283,0.072475,0.071747,0.079715,0.072448,0.075919,0.082086,0.088949,0.088291,0.085158,0.086161,0.07801,0.084293,0.072759,0.073066,0.062791,0.058085,0.059925,0.054581,0.050237,0.048258,0.0541,0.064345,0.065443,0.054821,0.048679,0.05141,0.053946,0.056932,0.060044,0.04742,0.043088,0.045038,0.05235,0.057446,0.05494,0.05342,0.050064,0.047727,0.05001,0.056583,0.048541
