-0.68213,-0.68122,-0.68021,-0.67934,-0.67841,-0.67744,-0.67661,-0.67571,-0.67483,-0.67405,-0.6731,-0.67218,-0.67129,-0.6704,-0.66957,-0.66878,-0.66804,-0.66729,-0.66679,-0.66626,-0.6658,-0.66541,-0.66519,-0.66496,-0.66479,-0.66467,-0.66464,-0.66467,-0.66484,-0.66507,-0.66531,-0.66559,-0.66581,-0.66597,-0.66614,-0.66617,-0.66618,-0.66624,-0.66616,-0.66592,-0.66575,-0.66554,-0.66524,-0.66487,-0.66454,-0.66404,-0.66346,-0.66291,-0.66231,-0.6616,-0.66096,-0.66032,-0.65961,-0.65847,-0.65682,-0.65424,-0.65031,-0.64462,-0.63732,-0.62816,-0.61715,-0.60421,-0.58964,-0.57327,-0.55515,-0.53568,-0.51479,-0.49275,-0.46961,-0.44559,-0.42103,-0.39627,-0.37097,-0.3459,-0.32104,-0.29672,-0.27304,-0.25015,-0.22816,-0.20753,-0.18813,-0.16995,-0.15318,-0.13812,-0.1245,-0.11251,-0.10218,-0.093274,-0.085969,-0.08013,-0.07574,-0.072668,-0.07075,-0.070206,-0.070719,-0.072071,-0.074283,-0.077257,-0.080872,-0.084684,-0.088956,-0.093388,-0.097862,-0.10232,-0.10663,-0.1105,-0.11421,-0.11763,-0.1205,-0.12295,-0.12487,-0.12616,-0.12704,-0.12724,-0.12687,-0.12604,-0.12462,-0.12278,-0.12051,-0.11783,-0.11476,-0.11145,-0.10781,-0.10416,-0.10042,-0.096535,-0.092851,-0.089169,-0.085603,-0.082279,-0.078996,-0.07605,-0.073265,-0.070737,-0.068379,-0.066295,-0.064547,-0.063002,-0.061762,-0.060705,-0.060006,-0.059434,-0.059098,-0.059043,-0.059078,-0.059422,-0.059879,-0.060486,-0.06108,-0.061761,-0.062562,-0.063306,-0.063945,-0.064614,-0.065136,-0.065549,-0.065849,-0.065968,-0.065963,-0.065817,-0.065396,-0.064893,-0.064297,-0.063647,-0.062769,-0.061927,-0.060946,-0.060011,-0.058945,-0.057953,-0.05691,-0.055864,-0.054904,-0.054003,-0.053047,-0.052229,-0.051289,-0.050574,-0.049915,-0.04926,-0.048662,-0.048163,-0.047715,-0.047399,-0.047182,-0.047083,-0.047037,-0.047025,-0.047112,-0.047228,-0.047382,-0.0476,-0.047836,-0.048126,-0.04845,-0.048807,-0.049245,-0.049661,-0.050087,-0.050519,-0.050968,-0.051405,-0.051823,-0.052223,-0.052628,-0.052986,-0.053291,-0.053554,-0.053773,-0.054006,-0.054351,-0.054662,-0.054995,-0.055327,-0.055621,-0.055927,-0.05618,-0.056446,-0.056722,-0.056961,-0.05721,-0.057546,-0.057915,-0.058289,-0.058636,-0.05901,-0.059453,-0.059942,-0.060425,-0.060918,-0.061404,-0.061907,-0.062475,-0.063066,-0.063649,-0.064188,-0.064716,-0.06522,-0.065768
-0.52802,-0.5299,-0.53191,-0.5338,-0.53615,-0.53827,-0.5405,-0.5428,-0.54488,-0.54712,-0.54913,-0.551,-0.55277,-0.55418,-0.55564,-0.55686,-0.5579,-0.559,-0.55955,-0.55998,-0.56042,-0.56053,-0.56045,-0.56048,-0.55995,-0.55951,-0.55889,-0.55806,-0.55695,-0.55585,-0.55475,-0.55336,-0.55198,-0.55084,-0.54933,-0.5479,-0.54659,-0.54521,-0.54384,-0.5428,-0.54141,-0.54015,-0.53892,-0.53782,-0.53677,-0.53595,-0.5354,-0.53469,-0.53442,-0.53422,-0.53409,-0.5342,-0.53446,-0.53474,-0.53501,-0.53476,-0.53423,-0.53304,-0.53205,-0.52959,-0.52661,-0.52282,-0.51818,-0.5132,-0.50743,-0.50121,-0.49443,-0.48701,-0.47937,-0.47054,-0.4617,-0.45254,-0.44301,-0.43279,-0.42285,-0.4124,-0.40156,-0.39101,-0.37997,-0.36912,-0.35791,-0.3467,-0.3361,-0.32563,-0.31512,-0.30495,-0.29481,-0.28517,-0.27609,-0.26684,-0.25878,-0.25026,-0.24211,-0.23451,-0.22706,-0.21991,-0.21292,-0.20638,-0.1996,-0.19305,-0.18673,-0.18043,-0.17439,-0.16805,-0.16215,-0.15605,-0.15011,-0.14413,-0.13828,-0.13272,-0.12662,-0.12095,-0.11504,-0.1097,-0.10398,-0.098554,-0.093034,-0.087877,-0.083284,-0.077842,-0.073099,-0.06861,-0.064762,-0.06053,-0.057113,-0.054544,-0.051167,-0.04862,-0.046758,-0.044736,-0.043682,-0.04247,-0.042242,-0.041825,-0.041887,-0.042105,-0.042837,-0.043978,-0.044878,-0.046369,-0.047731,-0.049783,-0.05147,-0.053602,-0.055652,-0.057732,-0.059934,-0.061955,-0.06405,-0.066123,-0.068107,-0.069965,-0.071572,-0.073312,-0.074546,-0.075949,-0.076844,-0.077594,-0.078334,-0.078822,-0.078482,-0.078359,-0.078036,-0.0774,-0.076313,-0.07539,-0.073988,-0.072689,-0.070965,-0.06943,-0.067996,-0.066025,-0.064377,-0.062522,-0.06064,-0.059106,-0.057403,-0.056081,-0.054332,-0.053116,-0.051795,-0.050832,-0.04968,-0.048803,-0.048105,-0.047391,-0.046802,-0.046327,-0.045973,-0.045707,-0.045554,-0.045501,-0.045521,-0.045595,-0.045855,-0.046152,-0.046458,-0.046809,-0.047259,-0.047704,-0.048143,-0.048759,-0.0492,-0.049645,-0.050041,-0.050606,-0.051216,-0.051736,-0.052331,-0.052616,-0.053138,-0.053581,-0.054138,-0.054662,-0.055113,-0.055627,-0.056111,-0.056595,-0.056944,-0.057223,-0.057607,-0.058195,-0.058704,-0.059138,-0.059509,-0.059874,-0.060222,-0.060757,-0.061132,-0.061434,-0.061606,-0.061765,-0.062085,-0.062346,-0.062575,-0.062698,-0.062711,-0.062635,-0.062781
0.36185,0.36178,0.3619,0.36196,0.36214,0.36215,0.36233,0.3626,0.36246,0.36236,0.36224,0.36214,0.36199,0.36173,0.36175,0.36161,0.36157,0.36153,0.36138,0.36125,0.36105,0.3608,0.36056,0.36042,0.36023,0.36012,0.36001,0.35985,0.35961,0.35938,0.35923,0.35903,0.35889,0.35884,0.35864,0.35843,0.35825,0.35808,0.35802,0.35821,0.35836,0.3585,0.35894,0.35926,0.35983,0.3604,0.36108,0.3617,0.36233,0.36292,0.36345,0.36401,0.36465,0.36596,0.36945,0.37589,0.38566,0.39821,0.41339,0.43023,0.44841,0.46738,0.48692,0.5067,0.52698,0.54705,0.5674,0.58752,0.6072,0.62673,0.64584,0.66434,0.68213,0.69943,0.71647,0.73301,0.7485,0.76411,0.77869,0.79269,0.80571,0.81815,0.82985,0.84088,0.85082,0.86032,0.86876,0.87691,0.88428,0.89109,0.89762,0.9035,0.90869,0.91357,0.91803,0.92203,0.92538,0.92851,0.93115,0.93334,0.93543,0.9373,0.93891,0.94024,0.94138,0.94226,0.94302,0.94356,0.94412,0.94425,0.94421,0.94415,0.94386,0.94359,0.94332,0.94306,0.94295,0.94275,0.94293,0.94322,0.94355,0.94402,0.94457,0.94515,0.94582,0.94652,0.94723,0.94805,0.94891,0.94993,0.9508,0.95179,0.95279,0.95374,0.95479,0.95556,0.95651,0.95725,0.95781,0.95846,0.95892,0.95949,0.95994,0.96037,0.96079,0.96104,0.96143,0.96174,0.96204,0.96231,0.96252,0.96271,0.96289,0.963,0.96304,0.96299,0.96291,0.96272,0.96237,0.96198,0.96157,0.96123,0.96096,0.96073,0.96043,0.9602,0.96002,0.95985,0.95957,0.95941,0.95925,0.95904,0.95866,0.95844,0.95811,0.95781,0.95763,0.95742,0.95723,0.95706,0.95701,0.95693,0.95678,0.95668,0.95651,0.95633,0.95616,0.956,0.95588,0.95578,0.95569,0.95563,0.95554,0.95537,0.95521,0.95497,0.95468,0.95443,0.95422,0.95407,0.95405,0.95405,0.95404,0.95408,0.95415,0.95422,0.95421,0.95415,0.95401,0.95388,0.95371,0.95356,0.95348,0.95333,0.95322,0.95323,0.9532,0.95319,0.95326,0.95326,0.95319,0.9531,0.95298,0.95286,0.95278,0.95276,0.95277,0.95284,0.95288,0.95294,0.95295,0.95293,0.95292,0.95283,0.95277,0.95279,0.95282,0.95282,0.95288
