-0.67074,-0.6706,-0.67061,-0.67066,-0.67086,-0.67114,-0.67154,-0.67194,-0.67227,-0.67264,-0.673,-0.67348,-0.67387,-0.67426,-0.67456,-0.67491,-0.67515,-0.67526,-0.67532,-0.67526,-0.67509,-0.67481,-0.67439,-0.67394,-0.67336,-0.67268,-0.67202,-0.67128,-0.67044,-0.66967,-0.66893,-0.66818,-0.66748,-0.66682,-0.66633,-0.66588,-0.66562,-0.66532,-0.66519,-0.66528,-0.66558,-0.66573,-0.66615,-0.66658,-0.6671,-0.66765,-0.66818,-0.6688,-0.66956,-0.67043,-0.67123,-0.6721,-0.67299,-0.67387,-0.67433,-0.67376,-0.67148,-0.66653,-0.65848,-0.64709,-0.63213,-0.61363,-0.59184,-0.56633,-0.53769,-0.50571,-0.4712,-0.43365,-0.39395,-0.35201,-0.30836,-0.26322,-0.21694,-0.16978,-0.1222,-0.074312,-0.026726,0.020283,0.066352,0.11104,0.15424,0.19584,0.23567,0.27283,0.30793,0.34054,0.37053,0.39802,0.42289,0.44497,0.46452,0.48162,0.49583,0.50758,0.51671,0.52417,0.5291,0.53237,0.53341,0.53304,0.53106,0.52817,0.524,0.51928,0.51374,0.50802,0.50214,0.49599,0.48987,0.48426,0.47856,0.4734,0.46887,0.46477,0.46134,0.45834,0.45596,0.45444,0.45352,0.45325,0.45383,0.45483,0.45654,0.45889,0.46173,0.46522,0.46912,0.47354,0.47843,0.48366,0.48916,0.49481,0.50069,0.50664,0.51267,0.51872,0.52464,0.53053,0.53615,0.54167,0.54685,0.55174,0.55639,0.56066,0.56461,0.56829,0.57164,0.57471,0.57757,0.58004,0.58231,0.58429,0.58614,0.58773,0.58908,0.5901,0.59112,0.59183,0.59234,0.59269,0.59287,0.59288,0.59276,0.59252,0.5922,0.59181,0.59126,0.59072,0.59015,0.58943,0.58878,0.58801,0.58728,0.58648,0.58577,0.58504,0.58433,0.58372,0.58309,0.58252,0.58195,0.58139,0.58081,0.58017,0.57947,0.57874,0.57801,0.57718,0.57637,0.5754,0.57447,0.57344,0.57246,0.57134,0.57029,0.56924,0.56822,0.56716,0.56618,0.56526,0.56438,0.56353,0.56283,0.56216,0.56176,0.56125,0.56092,0.56064,0.56038,0.5602,0.56012,0.56011,0.56013,0.56029,0.56041,0.56063,0.56093,0.5613,0.56162,0.56213,0.56264,0.56329,0.56386,0.56456,0.5652,0.56583,0.56645,0.56704,0.56759,0.56812,0.56863,0.56908,0.56947,0.56994,0.57031,0.57062,0.57088,0.57111,0.57125,0.57132,0.57137,0.57137,0.57138,0.57126,0.57113,0.57099,0.57082,0.57064,0.57044,0.57025,0.57006,0.56992,0.56974,0.56957,0.56936,0.56914,0.56893,0.56874,0.5685,0.56821,0.56789,0.56759,0.56732,0.56701,0.56669,0.56639,0.56616,0.56596,0.56583,0.56572,0.56555,0.56536,0.56527,0.56509,0.5649,0.56466,0.56447,0.56413,0.56378,0.56347,0.56312,0.56273,0.56234,0.56203,0.5617,0.56136,0.56108,0.56093,0.56072,0.56048,0.56022,0.55996,0.55977,0.55964,0.55939,0.5591,0.55873,0.55829,0.55783,0.55741,0.55695
-0.55409,-0.55428,-0.55447,-0.55458,-0.55476,-0.55493,-0.55498,-0.55503,-0.55507,-0.55511,-0.55497,-0.5548,-0.5545,-0.55411,-0.55372,-0.55309,-0.55251,-0.55195,-0.55136,-0.5508,-0.55028,-0.54978,-0.54925,-0.54886,-0.54862,-0.54803,-0.54772,-0.54746,-0.54722,-0.54727,-0.547,-0.54728,-0.54751,-0.54797,-0.54856,-0.54906,-0.54973,-0.55068,-0.55181,-0.55298,-0.55429,-0.55562,-0.55707,-0.55845,-0.5598,-0.56134,-0.56252,-0.56394,-0.56499,-0.56584,-0.56682,-0.56763,-0.5682,-0.56884,-0.56907,-0.56916,-0.56795,-0.56718,-0.56478,-0.56142,-0.55756,-0.55264,-0.54719,-0.54135,-0.53458,-0.52728,-0.5195,-0.51064,-0.50183,-0.49178,-0.48225,-0.47213,-0.4615,-0.45017,-0.43805,-0.42562,-0.4105,-0.39806,-0.38338,-0.36987,-0.35417,-0.33911,-0.32088,-0.30667,-0.2891,-0.27051,-0.25175,-0.23357,-0.21333,-0.19206,-0.17105,-0.14987,-0.12768,-0.1048,-0.081598,-0.060305,-0.036597,-0.01441,0.0084329,0.032111,0.055184,0.078144,0.10111,0.12378,0.14509,0.16724,0.1885,0.20988,0.22917,0.24779,0.26622,0.28374,0.30074,0.31668,0.33259,0.34679,0.36011,0.37286,0.38457,0.39576,0.40564,0.41465,0.42289,0.43027,0.43654,0.44203,0.44696,0.45078,0.45418,0.45653,0.45855,0.45982,0.46044,0.4605,0.46003,0.45917,0.45804,0.45602,0.45413,0.45178,0.44921,0.4466,0.44361,0.44051,0.43762,0.43439,0.43141,0.42845,0.4255,0.42271,0.42015,0.41765,0.41546,0.4133,0.41146,0.40991,0.40854,0.40763,0.40691,0.40641,0.40623,0.40639,0.40682,0.40755,0.40836,0.40946,0.41087,0.41252,0.41458,0.41657,0.41898,0.42156,0.42431,0.42715,0.42997,0.43288,0.436,0.43898,0.44208,0.44518,0.44806,0.45095,0.4536,0.45628,0.45888,0.46092,0.46308,0.46514,0.46677,0.46843,0.46949,0.47065,0.47123,0.47188,0.47212,0.47201,0.47166,0.47118,0.47049,0.46947,0.46844,0.46711,0.46581,0.46409,0.46245,0.46049,0.45885,0.45661,0.45465,0.45231,0.45027,0.44794,0.44593,0.44355,0.44172,0.43961,0.43806,0.43614,0.43452,0.43285,0.43173,0.43042,0.42947,0.42845,0.42756,0.42697,0.42651,0.42601,0.42574,0.42559,0.42554,0.42566,0.42598,0.42648,0.427,0.42734,0.42796,0.42873,0.42966,0.43046,0.43127,0.43214,0.43296,0.43374,0.43455,0.43523,0.43587,0.43667,0.43763,0.43841,0.43912,0.43978,0.44047,0.44105,0.44151,0.44184,0.44208,0.44232,0.44252,0.44244,0.44223,0.44194,0.44158,0.44117,0.44064,0.44008,0.43933,0.43837,0.43718,0.43619,0.43503,0.43379,0.43256,0.43102,0.42975,0.42815,0.42655,0.42523,0.42363,0.42218,0.42078,0.41948,0.41824,0.4168,0.41589,0.41503,0.41389,0.41331,0.41244,0.4119,0.41132,0.41078,0.41039,0.41038,0.41011,0.41002,0.41014,0.4103,0.41048,0.41066,0.41082
0.35506,0.35472,0.35448,0.35447,0.35466,0.35506,0.35558,0.35609,0.35669,0.35741,0.35808,0.35877,0.35928,0.35965,0.36001,0.3602,0.36031,0.36031,0.36021,0.36005,0.35984,0.35958,0.35928,0.35892,0.35862,0.35811,0.35772,0.35749,0.35719,0.35697,0.35682,0.35674,0.35659,0.35657,0.35653,0.35654,0.35661,0.35678,0.35683,0.35688,0.35691,0.35686,0.35695,0.35698,0.35688,0.35709,0.35717,0.35724,0.35721,0.357,0.35683,0.35655,0.35612,0.3557,0.35654,0.36107,0.3706,0.38618,0.40711,0.43267,0.46231,0.49466,0.52947,0.56543,0.60271,0.6405,0.67865,0.71725,0.75568,0.79417,0.83173,0.86887,0.9056,0.94148,0.97703,1.0121,1.0474,1.0803,1.1127,1.1432,1.1724,1.2011,1.2279,1.2555,1.2809,1.3045,1.3266,1.3474,1.366,1.3828,1.3983,1.4121,1.4242,1.4351,1.4445,1.453,1.4607,1.4674,1.4735,1.4791,1.484,1.4884,1.4921,1.4955,1.4985,1.5008,1.503,1.5046,1.5066,1.5085,1.5099,1.5114,1.5128,1.5139,1.5149,1.5159,1.5168,1.5177,1.5186,1.5194,1.5205,1.5214,1.5224,1.5233,1.524,1.525,1.5259,1.5269,1.5277,1.5288,1.5297,1.5306,1.5317,1.5326,1.5335,1.5346,1.5355,1.5366,1.5375,1.5382,1.539,1.5395,1.5402,1.5408,1.5414,1.5419,1.5425,1.5431,1.5438,1.5444,1.5449,1.5453,1.5456,1.5458,1.546,1.5461,1.5461,1.5461,1.546,1.5459,1.5457,1.5455,1.5454,1.5452,1.545,1.5448,1.5445,1.5443,1.5442,1.544,1.5439,1.5437,1.5434,1.543,1.5425,1.5419,1.5413,1.5408,1.5402,1.5397,1.5392,1.5388,1.5381,1.5376,1.5369,1.5362,1.5356,1.5349,1.5343,1.5337,1.5333,1.533,1.5327,1.5325,1.5324,1.5323,1.5323,1.5322,1.5322,1.5322,1.5321,1.5321,1.5319,1.5318,1.5316,1.5315,1.5313,1.5311,1.5311,1.5311,1.5311,1.531,1.5311,1.5311,1.5312,1.5312,1.5313,1.5314,1.5314,1.5313,1.5311,1.5309,1.5307,1.5305,1.5303,1.5301,1.5299,1.5297,1.5295,1.5293,1.5292,1.5291,1.5292,1.5294,1.5296,1.5298,1.5301,1.5303,1.5304,1.5305,1.5307,1.5308,1.5309,1.531,1.5312,1.5314,1.5317,1.532,1.5322,1.5324,1.5325,1.5324,1.5322,1.532,1.5318,1.5316,1.5313,1.5309,1.5304,1.5301,1.5298,1.5296,1.5295,1.5295,1.5294,1.5293,1.5292,1.5289,1.5284,1.5279,1.5274,1.5269,1.5264,1.526,1.5257,1.5256,1.5255,1.5255,1.5255,1.5255,1.5257,1.5256,1.5258,1.5257,1.5256,1.5256,1.5256,1.5253,1.5253,1.525,1.5249,1.5247,1.5245,1.5242,1.5241,1.524,1.524,1.524,1.5241,1.5241,1.5241
