-0.46076,-0.46106,-0.46137,-0.46163,-0.46184,-0.46218,-0.46237,-0.46267,-0.46291,-0.46327,-0.46368,-0.4641,-0.4646,-0.46507,-0.46563,-0.46612,-0.46659,-0.46702,-0.46735,-0.46765,-0.46783,-0.46794,-0.46802,-0.46797,-0.46802,-0.46803,-0.46818,-0.46829,-0.46845,-0.4687,-0.46901,-0.46927,-0.4696,-0.47003,-0.47046,-0.47084,-0.4713,-0.47171,-0.47202,-0.47224,-0.4724,-0.47246,-0.47241,-0.47226,-0.47195,-0.47157,-0.47105,-0.47037,-0.46946,-0.46867,-0.46782,-0.4669,-0.46606,-0.46493,-0.46281,-0.4583,-0.44986,-0.43575,-0.41498,-0.38674,-0.35057,-0.30724,-0.25701,-0.20103,-0.14119,-0.078341,-0.013807,0.051875,0.11775,0.1831,0.24787,0.31158,0.37364,0.43437,0.49248,0.54677,0.59891,0.64657,0.68894,0.72706,0.75964,0.78832,0.81173,0.83037,0.84426,0.85481,0.86189,0.86657,0.86804,0.8681,0.86563,0.86172,0.85669,0.85062,0.84229,0.83271,0.82217,0.81058,0.79826,0.78605,0.77419,0.76262,0.75102,0.74008,0.72916,0.71885,0.70863,0.69925,0.69045,0.68227,0.67445,0.66785,0.66128,0.6555,0.65015,0.6454,0.64114,0.63711,0.63309,0.6298,0.62634,0.62315,0.62023,0.61774,0.61552,0.61299,0.61072,0.60874,0.6068,0.6046,0.60259,0.60047,0.59825,0.59632,0.59442,0.59233,0.59016,0.58796,0.58586,0.58371,0.58163,0.57944,0.57747,0.57536,0.57314,0.57094,0.56865,0.56636,0.56423,0.56194,0.55979,0.55755,0.55538,0.55325,0.55109,0.54883,0.54665,0.54444,0.54223,0.54,0.53783,0.5358,0.53389,0.53196,0.53008,0.52831,0.52661,0.52503,0.52346,0.52194,0.52036,0.51895,0.51729,0.51576,0.51434,0.5129,0.51131,0.50984,0.50837,0.50692,0.50557,0.50407,0.5028,0.50161,0.50026,0.49931,0.49827,0.49743,0.49662,0.49588,0.49507,0.49449,0.49389,0.49344,0.49305,0.4927,0.49243,0.49222,0.49216,0.49217,0.49221,0.49234,0.49241,0.49256,0.49257,0.49262,0.49246,0.49235,0.49211,0.49173,0.49125,0.49072,0.49022,0.48963,0.48902,0.4884,0.48784,0.48738,0.48698,0.48661,0.48623,0.48588,0.4855,0.48509,0.48474,0.48442,0.48409,0.48375,0.48333,0.48283,0.48236,0.48187,0.48139,0.48088,0.48033,0.47991,0.47951,0.47917,0.47887,0.47865,0.47843,0.4783,0.47827,0.47825,0.4783,0.4783,0.47835,0.47852,0.47872,0.47887,0.47912,0.47933,0.47955,0.47981,0.47997,0.48012,0.4802,0.48019,0.48018,0.48018,0.48009,0.48003,0.47995,0.47977,0.47958,0.4793,0.47892,0.4785,0.47807,0.4776,0.47715,0.47663,0.47605,0.47546,0.4749,0.47432,0.4737,0.47302,0.47236,0.47183,0.47133,0.47081,0.47034,0.46995,0.46958,0.46937,0.4692,0.46911,0.46913,0.46918,0.46931,0.46949,0.4697,0.46991,0.47021,0.47054,0.47082,0.47108,0.47135,0.47161,0.47177
-0.51206,-0.51186,-0.51133,-0.51111,-0.51063,-0.51028,-0.50965,-0.50919,-0.50858,-0.50806,-0.50752,-0.50722,-0.50697,-0.50655,-0.50645,-0.50621,-0.5061,-0.50622,-0.50602,-0.50605,-0.50623,-0.50631,-0.50644,-0.50644,-0.50676,-0.50701,-0.50735,-0.5077,-0.50809,-0.50845,-0.50867,-0.50911,-0.50961,-0.51015,-0.51069,-0.51116,-0.5119,-0.51243,-0.51291,-0.5134,-0.51398,-0.51454,-0.51477,-0.51517,-0.51529,-0.51562,-0.51581,-0.51582,-0.51587,-0.51591,-0.51598,-0.51578,-0.51562,-0.51592,-0.51711,-0.5207,-0.5268,-0.5361,-0.54859,-0.5636,-0.58097,-0.60205,-0.62278,-0.64503,-0.66761,-0.69019,-0.71293,-0.73408,-0.75507,-0.77521,-0.79359,-0.81067,-0.82732,-0.84113,-0.85687,-0.86413,-0.86754,-0.87109,-0.87211,-0.86811,-0.86081,-0.85108,-0.83679,-0.81931,-0.80162,-0.77695,-0.74848,-0.71768,-0.68431,-0.64505,-0.60864,-0.57052,-0.533,-0.49519,-0.46097,-0.42417,-0.38745,-0.3509,-0.31493,-0.27972,-0.24484,-0.21147,-0.1799,-0.14886,-0.11872,-0.089397,-0.06154,-0.034318,-0.0079026,0.017422,0.041203,0.06494,0.086887,0.10837,0.12871,0.14813,0.16683,0.18406,0.19976,0.21524,0.22948,0.24307,0.25604,0.26855,0.28067,0.29115,0.30145,0.31102,0.32042,0.32868,0.33677,0.34379,0.3505,0.35664,0.3626,0.3678,0.37299,0.37796,0.38254,0.38703,0.39118,0.3953,0.39956,0.40362,0.40752,0.41145,0.41531,0.41911,0.42321,0.4269,0.43105,0.43494,0.43888,0.44284,0.44666,0.45043,0.4542,0.45798,0.46152,0.46477,0.46801,0.47096,0.47402,0.47684,0.47958,0.48202,0.48447,0.48684,0.48891,0.49086,0.49272,0.49433,0.49585,0.49719,0.49847,0.49976,0.5008,0.50181,0.50268,0.50364,0.50424,0.50505,0.50558,0.50634,0.50652,0.50697,0.50751,0.50792,0.50806,0.50836,0.50872,0.50913,0.50921,0.50948,0.50979,0.51018,0.5105,0.51075,0.51096,0.51129,0.51146,0.51177,0.51189,0.51224,0.51245,0.51272,0.51299,0.51322,0.51353,0.51375,0.51399,0.51409,0.51416,0.51426,0.51451,0.51477,0.51497,0.51503,0.51515,0.51517,0.51537,0.5156,0.51585,0.51612,0.51636,0.51661,0.51671,0.51685,0.51698,0.51706,0.51736,0.51769,0.51779,0.5178,0.51767,0.51753,0.51737,0.51728,0.51724,0.51707,0.51686,0.51658,0.51623,0.51591,0.51556,0.5152,0.51479,0.51435,0.51389,0.51353,0.51303,0.51264,0.51231,0.51187,0.51146,0.51109,0.51084,0.5106,0.51037,0.5102,0.51006,0.50997,0.50995,0.50997,0.51002,0.51012,0.51025,0.5104,0.51052,0.51072,0.51086,0.51102,0.51126,0.51145,0.51158,0.51169,0.51188,0.51201,0.51188,0.51192,0.51191,0.51176,0.51158,0.51147,0.51127,0.51114,0.51108,0.51101,0.51095,0.51094,0.51095,0.51099,0.5111,0.51126,0.51162,0.51201,0.51236,0.51272,0.5131,0.51357,0.51404
0.50243,0.50272,0.50299,0.50346,0.50379,0.50409,0.5043,0.50471,0.50498,0.50529,0.50563,0.50615,0.50668,0.50721,0.50779,0.50833,0.50894,0.5096,0.51025,0.51098,0.51168,0.51242,0.51302,0.51356,0.5142,0.51469,0.515,0.51524,0.5154,0.51545,0.51548,0.51556,0.51572,0.51584,0.5159,0.51586,0.51586,0.51579,0.51575,0.51572,0.51572,0.51559,0.51531,0.51505,0.51479,0.51475,0.51481,0.51505,0.51546,0.51575,0.51602,0.51605,0.51636,0.51775,0.52156,0.52925,0.5409,0.55677,0.57642,0.59911,0.62455,0.65355,0.68367,0.71623,0.75121,0.78837,0.82772,0.86759,0.907,0.9436,0.97576,1.003,1.0256,1.044,1.0584,1.0724,1.0839,1.0942,1.104,1.1118,1.1187,1.1252,1.1319,1.1382,1.1451,1.1518,1.1589,1.1655,1.1721,1.178,1.1839,1.1899,1.1963,1.2019,1.2067,1.2106,1.213,1.2145,1.2161,1.2183,1.2208,1.2245,1.2285,1.2324,1.2361,1.2396,1.2436,1.2476,1.2521,1.2571,1.2626,1.2681,1.2741,1.2804,1.2875,1.2949,1.3026,1.3107,1.3189,1.3273,1.3356,1.3441,1.3526,1.3607,1.3689,1.3772,1.3848,1.3922,1.3989,1.4055,1.4118,1.4181,1.4243,1.4304,1.4361,1.4412,1.4459,1.4507,1.455,1.4593,1.4636,1.4675,1.4712,1.4745,1.4777,1.4808,1.4839,1.4871,1.4902,1.4932,1.4961,1.4988,1.5013,1.5039,1.5063,1.5087,1.5112,1.5138,1.5164,1.5193,1.5221,1.525,1.5279,1.5307,1.5334,1.5361,1.5387,1.5413,1.5438,1.5462,1.5485,1.5508,1.553,1.5554,1.5577,1.5601,1.5624,1.5645,1.5666,1.5685,1.5705,1.5726,1.5745,1.5765,1.5785,1.5804,1.5822,1.584,1.5858,1.5877,1.5892,1.5907,1.5922,1.5935,1.5947,1.5961,1.5974,1.5986,1.5997,1.6009,1.6019,1.6032,1.6043,1.6055,1.6063,1.6072,1.608,1.6087,1.6094,1.6102,1.6109,1.6117,1.6124,1.6133,1.6141,1.6148,1.6156,1.6163,1.6168,1.6176,1.6182,1.6188,1.6192,1.6194,1.6197,1.6199,1.6203,1.6208,1.6213,1.6218,1.6221,1.6224,1.6226,1.6228,1.623,1.6233,1.6236,1.6239,1.6243,1.6247,1.6252,1.6257,1.626,1.6263,1.6264,1.6265,1.6266,1.6268,1.6273,1.6278,1.6284,1.6289,1.6293,1.6296,1.6298,1.6299,1.63,1.6301,1.6302,1.6304,1.6306,1.631,1.6314,1.6318,1.632,1.6321,1.632,1.6319,1.6319,1.6319,1.6321,1.6323,1.6327,1.633,1.6333,1.6337,1.634,1.6342,1.6344,1.6347,1.635,1.6353,1.6357,1.6359,1.636,1.6361,1.6361,1.636,1.6359,1.6358,1.6358,1.6359,1.636,1.6363,1.6365,1.6368,1.6369,1.6372,1.6375,1.6379,1.6383
