-0.37235,-0.37306,-0.3739,-0.37485,-0.37587,-0.37695,-0.37811,-0.37922,-0.38042,-0.38151,-0.3826,-0.38376,-0.38474,-0.38567,-0.38653,-0.38731,-0.38799,-0.38857,-0.38891,-0.38911,-0.38919,-0.38916,-0.389,-0.38874,-0.38841,-0.38804,-0.38762,-0.3872,-0.38673,-0.38621,-0.38573,-0.38523,-0.3848,-0.38431,-0.38383,-0.38344,-0.38313,-0.38291,-0.38278,-0.3828,-0.38273,-0.38281,-0.38299,-0.3831,-0.38338,-0.38358,-0.38378,-0.38396,-0.38403,-0.38398,-0.3839,-0.38385,-0.38364,-0.38287,-0.38048,-0.37541,-0.36633,-0.35219,-0.33301,-0.30874,-0.27979,-0.24643,-0.20918,-0.16848,-0.12517,-0.079556,-0.032311,0.01595,0.064826,0.11367,0.16177,0.20901,0.25474,0.29869,0.34019,0.37927,0.41501,0.44821,0.47795,0.50456,0.52729,0.54648,0.56218,0.57417,0.58218,0.58644,0.58737,0.58492,0.5792,0.57079,0.55942,0.54584,0.53085,0.51394,0.49615,0.47693,0.45752,0.4377,0.41763,0.39771,0.3781,0.35886,0.34048,0.32302,0.30672,0.29159,0.27776,0.26523,0.25405,0.24442,0.23628,0.22942,0.2241,0.22022,0.21777,0.21653,0.2164,0.21742,0.21943,0.22235,0.22616,0.23067,0.23585,0.2416,0.24788,0.25428,0.26111,0.2681,0.27515,0.28226,0.28933,0.29637,0.30304,0.30957,0.31597,0.32204,0.32759,0.33312,0.33805,0.34254,0.34674,0.3506,0.35399,0.35686,0.35962,0.36196,0.36385,0.36566,0.36721,0.36832,0.36922,0.36976,0.3701,0.37026,0.37016,0.36993,0.36955,0.36912,0.36874,0.36813,0.36763,0.3671,0.36646,0.3659,0.36506,0.36424,0.36334,0.36256,0.3616,0.3608,0.35979,0.35891,0.35795,0.35699,0.35605,0.35502,0.35424,0.35336,0.35257,0.35183,0.35118,0.35063,0.34991,0.34942,0.34884,0.34835,0.34792,0.34743,0.34709,0.34675,0.34654,0.3463,0.34623,0.34621,0.3462,0.3461,0.34617,0.34627,0.34616,0.34602,0.34593,0.3458,0.34567,0.34549,0.34523,0.34498,0.34463,0.34422,0.3438,0.34324,0.3426,0.34203,0.34145,0.34091,0.34033,0.33976,0.33916,0.33864,0.33825,0.33779,0.3374,0.33692,0.3365,0.33602,0.3357,0.33531,0.33492,0.33446,0.33399,0.3335,0.33298,0.33245,0.33197,0.33143,0.33095,0.33025,0.32952,0.32871,0.32792,0.32704,0.32621,0.32534,0.32446,0.32357,0.32265,0.32175,0.32084,0.32005,0.31919,0.31846,0.31772,0.31709,0.31643,0.31594,0.31545,0.31513,0.31483,0.31465,0.31455,0.31466,0.3147,0.31496,0.31514,0.31544,0.31567,0.31579,0.31588,0.31591,0.31603,0.31614,0.31623,0.31635,0.3167,0.31698,0.31726,0.31764,0.31802,0.31846,0.31881,0.31927,0.31959,0.31992,0.32021,0.32052,0.32076,0.32102,0.32112,0.32121,0.32115,0.32098,0.32069,0.32034,0.31999,0.31942,0.31875,0.31812,0.3175,0.31696,0.31633,0.31565,0.31513
-0.47528,-0.47472,-0.47412,-0.47332,-0.47273,-0.47212,-0.47147,-0.4707,-0.46989,-0.46885,-0.46789,-0.46699,-0.46607,-0.46514,-0.46423,-0.46341,-0.46268,-0.46182,-0.46119,-0.46064,-0.46025,-0.46005,-0.45998,-0.45999,-0.46016,-0.46042,-0.46067,-0.46116,-0.46164,-0.46204,-0.46258,-0.46326,-0.46387,-0.46443,-0.46491,-0.46546,-0.46587,-0.46613,-0.4662,-0.46634,-0.46659,-0.46663,-0.46659,-0.46646,-0.46632,-0.46616,-0.46589,-0.46562,-0.46524,-0.46511,-0.46487,-0.46461,-0.46451,-0.46414,-0.46363,-0.46278,-0.46098,-0.45862,-0.45579,-0.45233,-0.44853,-0.44415,-0.43908,-0.43349,-0.42786,-0.42069,-0.41343,-0.40543,-0.39637,-0.38692,-0.37685,-0.36565,-0.35372,-0.3406,-0.32634,-0.31136,-0.29454,-0.2779,-0.26012,-0.24157,-0.22168,-0.20042,-0.1788,-0.1559,-0.13126,-0.10564,-0.079613,-0.052786,-0.024851,0.0031875,0.031759,0.060149,0.087851,0.11574,0.14316,0.16959,0.19565,0.22122,0.24601,0.27019,0.29296,0.31424,0.33469,0.35408,0.37227,0.38941,0.40508,0.41966,0.4324,0.44433,0.45482,0.46425,0.47219,0.47904,0.48472,0.48889,0.49181,0.494,0.49489,0.49482,0.49353,0.49153,0.48894,0.48569,0.48179,0.47786,0.47318,0.46818,0.46288,0.45733,0.4517,0.44626,0.44041,0.43437,0.42877,0.42339,0.41755,0.41258,0.40746,0.40237,0.39765,0.39346,0.38936,0.38508,0.3819,0.37875,0.37567,0.3733,0.37128,0.36977,0.36809,0.36695,0.36629,0.36568,0.36566,0.36574,0.36612,0.36656,0.36701,0.368,0.36894,0.37015,0.37124,0.37203,0.37369,0.37486,0.37625,0.37729,0.37832,0.37933,0.37998,0.38068,0.3809,0.38095,0.38114,0.38093,0.38078,0.38024,0.37968,0.37913,0.37833,0.37777,0.37653,0.37554,0.37448,0.37337,0.3723,0.37098,0.36981,0.36861,0.36735,0.36595,0.36458,0.36343,0.36193,0.36074,0.35983,0.35853,0.35746,0.35672,0.35593,0.35527,0.35476,0.35431,0.35385,0.35358,0.35337,0.35328,0.35343,0.35346,0.3534,0.35339,0.35342,0.35354,0.35367,0.35359,0.35381,0.35375,0.35369,0.35366,0.35382,0.35406,0.35461,0.3549,0.35526,0.35557,0.35584,0.35599,0.35613,0.35634,0.35656,0.35669,0.35688,0.35697,0.35712,0.35696,0.35684,0.35674,0.35664,0.35628,0.35596,0.35566,0.35544,0.35505,0.3549,0.35462,0.35421,0.35377,0.35338,0.353,0.35252,0.35218,0.35182,0.35125,0.3508,0.35053,0.35009,0.34968,0.3492,0.3485,0.34828,0.34779,0.34733,0.34693,0.34648,0.34618,0.34582,0.34538,0.34507,0.34462,0.34441,0.34414,0.34348,0.34317,0.34294,0.34253,0.34185,0.34129,0.34087,0.34041,0.33995,0.33931,0.33878,0.33842,0.33802,0.33759,0.33721,0.33675,0.33646,0.33611,0.33583,0.33551,0.33521,0.33519,0.33527,0.33484,0.33464,0.33443,0.33401,0.3335,0.33295
0.46307,0.46279,0.46246,0.46201,0.46169,0.46131,0.46107,0.46089,0.46068,0.46036,0.46021,0.46006,0.45982,0.45973,0.45978,0.45974,0.45979,0.45967,0.45965,0.45964,0.45969,0.45981,0.46004,0.46027,0.46049,0.46069,0.46078,0.46088,0.46098,0.46093,0.46094,0.46087,0.46082,0.46077,0.46056,0.46038,0.46013,0.45995,0.45975,0.45953,0.45931,0.45895,0.4585,0.45802,0.45747,0.45692,0.45639,0.45588,0.45546,0.4552,0.45504,0.45501,0.4552,0.45657,0.46106,0.47041,0.48475,0.50398,0.52746,0.55454,0.5849,0.61759,0.65228,0.6882,0.72563,0.76343,0.80194,0.84052,0.87875,0.91656,0.95361,0.98958,1.0245,1.058,1.0902,1.1206,1.1494,1.1763,1.2013,1.2245,1.2456,1.2647,1.2818,1.2976,1.3121,1.3253,1.3374,1.3485,1.3587,1.368,1.3765,1.3841,1.3909,1.3965,1.4016,1.4061,1.4101,1.4134,1.4167,1.4193,1.4218,1.4241,1.426,1.4275,1.4285,1.4291,1.4295,1.4298,1.43,1.4301,1.4301,1.4299,1.4298,1.4297,1.4299,1.4301,1.4304,1.4308,1.4312,1.4315,1.4319,1.4325,1.4332,1.4339,1.4347,1.4356,1.4366,1.4376,1.4385,1.4391,1.4396,1.4399,1.4399,1.4397,1.4394,1.4388,1.438,1.4369,1.4358,1.4345,1.4331,1.4315,1.4297,1.4276,1.4255,1.4234,1.4209,1.4188,1.4166,1.4145,1.4124,1.4105,1.4087,1.4067,1.4049,1.4031,1.4013,1.3996,1.398,1.3963,1.3947,1.3931,1.3917,1.3905,1.3895,1.3887,1.388,1.3872,1.3866,1.3862,1.3857,1.3852,1.3847,1.3842,1.3837,1.3833,1.3828,1.3823,1.3818,1.3814,1.3811,1.3807,1.3804,1.3801,1.3799,1.3797,1.3795,1.3793,1.3791,1.379,1.3788,1.3785,1.3783,1.378,1.3777,1.3775,1.3775,1.3775,1.3776,1.3779,1.3782,1.3784,1.3788,1.3791,1.3794,1.3797,1.3798,1.38,1.3801,1.3803,1.3804,1.3806,1.3809,1.3812,1.3814,1.3818,1.3822,1.3826,1.3831,1.3835,1.3839,1.3843,1.3847,1.385,1.3854,1.3859,1.3864,1.387,1.3874,1.3879,1.3883,1.3887,1.3892,1.3896,1.3899,1.3903,1.3907,1.3911,1.3914,1.3917,1.3919,1.3921,1.3923,1.3925,1.3926,1.3927,1.3928,1.3929,1.3929,1.3928,1.3927,1.3927,1.3927,1.3929,1.3932,1.3936,1.394,1.3942,1.3944,1.3946,1.3947,1.3947,1.3946,1.3947,1.3948,1.3949,1.3951,1.3954,1.3957,1.3961,1.3967,1.3974,1.3979,1.3984,1.3988,1.3992,1.3993,1.3993,1.3994,1.3995,1.3995,1.3994,1.3993,1.3994,1.3992,1.3991,1.3991,1.399,1.3991,1.3991,1.3992,1.3993,1.3994,1.3996,1.3998,1.3999,1.4,1.4002,1.4003,1.4004,1.4004
