n_hidden,Tini,Q_x_y,Q_z,Q_yaw,R_thrust,R_roll_pitch,R_yaw,P_x_y,P_xy_ang,P_z,P_roll_pitch,P_yaw,svd_weighing,svd_cutoff,lambda1_g,lambda2_g,lambda1_s,lambda2_s,solve_time,input_cost,output_cost,opt_input_cost,opt_output_cost,opt_cost_lambda1_g,opt_cost_lambda2_g,opt_cost_lambda1_s,opt_cost_lambda2_s
0,6,40,40,40,160,4,2,0,0,0,0,0,0,0,0,0,0,0,0.92099,12.661,716.71,-7088.9,-49124,0,0,0,0
0,6,40,40,40,160,4,2,0,0,0,0,0,0,0,0,0.0001,0,0,0.8627,12.681,717.4,-7103.8,-49582,0,113.25,0,0
0,6,40,40,40,160,4,2,0,0,0,0,0,0,0,0,0.001,0,0,0.83605,12.918,717.2,-7186,-53201,0,1030.7,0,0
0,6,40,40,40,160,4,2,0,0,0,0,0,0,0,0,0.01,0,0,0.81359,10.056,670.06,-8000.3,-65893,0,8217.5,0,0
0,6,40,40,40,160,4,2,0,0,0,0,0,0,0,0,0.1,0,0,0.47656,23.224,368.07,-11509,-1.0339e+05,0,8872.9,0,0
0,6,40,40,40,160,4,2,0,0,0,0,0,0,0,0,1,0,0,0.84667,24.001,107.49,-8256.5,-1.2882e+05,0,-1.3179e+05,0,0
0,6,40,40,40,160,4,2,0,0,0,0,0,0,0,0,10,0,0,0.87219,27.844,514.25,11709,21275,0,-1.6839e+06,0,0
0,6,40,40,40,160,4,2,0,0,0,0,0,0,0,0,100,0,0,0.8791,63.596,1326,15104,3.1465e+05,0,-1.5516e+07,0,0
0,6,40,40,40,160,4,2,0,0,0,0,0,0,0,0,1000,0,0,0.8572,77.933,1563.9,15315,4.0487e+05,0,-1.4728e+08,0,0
0,6,40,40,40,160,4,2,0,0,0,0,0,0,0,0,10000,0,0,0.76595,88.55,1602.1,15367,4.1818e+05,0,-1.4577e+09,0,0
