0.365601,0.156553,-0.447104,-0.0124198
0.282239,-0.0444103,-0.00415587,0.00163563
0.277897,-0.0506503,0.0877083,-0.00197846
0.273645,-0.0247954,0.108673,-0.013244
0.271346,0.0519938,0.0402382,-0.0249046
0.270422,0.00883989,-0.0160052,-0.0251468
0.270024,-0.0565029,-0.0037424,-0.0143112
0.270953,-0.0403098,0.023532,-0.0118566
0.273456,0.000160283,0.0274162,-0.00720325
0.275661,-0.02231,0.00126629,-0.0040065
0.278223,-0.0461875,0.00231644,0.0090201
0.280579,-0.0432404,0.021574,0.0130304
0.28208,-0.00900522,0.0251753,0.00455362
0.283693,0.00807936,-0.00898346,0.0036103
0.285262,0.0144754,-0.0215954,-0.000541525
0.285477,0.000321559,-0.0106939,0.00702832
0.286822,0.0130316,8.37682e-05,-0.000406882
0.2867,0.0184943,0.0155828,0.0117975
0.286939,-0.00688889,-0.0140243,-0.000299676
0.286752,0.0452552,-0.0279673,0.000933192
0.286654,0.0399221,0.00165436,0.00575897
0.28545,0.0198186,-0.0089734,0.0013373
0.286249,0.0343375,0.00643911,0.00690621
0.284813,0.027701,-0.0138907,0.0066359
0.28446,0.0197745,-0.013664,-0.00256237
0.284909,-0.0114912,0.0154419,0.00719342
0.284029,-0.00953134,0.00879958,0.00154743
0.283386,0.00452716,-0.0131849,0.00103026
0.283398,-0.000326014,-0.00259862,0.00284546
0.284114,-0.027346,0.0303835,0.0121582
0.283036,-0.0416044,0.0102115,0.0094564
0.284109,-0.0174878,-0.00494445,-0.00237918
0.283845,-0.00821964,-0.00557333,-0.00228143
0.283799,-0.0206559,0.0152201,0.00495534
0.283191,0.00461808,0.00817849,-0.00844538
0.284008,0.0334739,-0.00443674,0.00195852
0.284405,0.0644362,-0.00461084,-0.00401727
0.284033,0.0601681,0.00334733,-0.00427269
0.283485,0.0559371,0.0121476,-0.0092028
0.284242,0.0474546,0.0265676,-0.00741848
0.283489,0.0259381,0.0143828,-0.0102883
0.283559,0.00539193,0.00325376,-0.00443775
0.284476,0.0289546,0.0191165,-0.0136791
0.284335,0.0246277,0.0251601,-0.00842214
0.284039,-0.00423473,0.0116947,-0.007564
0.285478,0.00861151,0.0162925,-0.0123674
0.284737,0.020449,0.0100964,-0.00652391
0.283787,0.0120659,0.00104405,-0.010274
0.284686,0.0104618,0.0217883,-0.0149912
0.284348,0.0090226,0.0244728,-0.0127134
0.284277,-0.000848782,0.00606992,-0.00991789
0.285672,-0.0107728,0.0164171,-0.00535492
0.284381,-0.00778484,-0.0062568,-0.0127054
0.28444,0.0172904,-0.0140081,-0.0162629
0.284742,0.0186851,-0.00128145,-0.00774736
0.283205,0.00736171,-0.0107216,-0.00201112
0.283453,0.0214204,-0.0195289,-0.00661404
0.282926,0.0328219,-0.0118754,-0.00326214
0.282521,0.0226671,0.00167991,0.00908055
0.282628,0.0231919,0.012763,-0.00106101
0.283282,0.0224084,0.0103333,-0.000275205
0.283862,-0.0181013,0.00876785,0.0132485
0.283902,-0.0145993,-0.00120479,0.00581231
0.283491,-0.00700552,-0.0126066,0.00384258
0.283912,0.0226998,-0.00153747,-0.00663134
0.28406,-0.00271751,0.0205897,0.00835895
0.282958,-0.0155756,0.00802561,0.00700641
0.284301,0.0343106,0.00153135,-0.00145252
0.284235,0.0269101,0.00370504,0.0082248
0.28341,0.0139361,-0.00551805,0.00200397
0.284123,0.0342432,0.0031159,-0.00417699
0.285052,0.0379461,0.0162938,0.000744126
0.284612,0.00200708,0.0061786,0.00789617
0.284868,0.0154101,-0.0193072,-0.00214
0.284655,0.0331528,-0.0178793,-0.00219654
0.284209,-0.0143208,0.0117755,0.0120064
0.283415,-0.00707646,0.017436,-0.00349759
0.283662,0.00963089,-0.0012389,0.00417093
0.283723,0.0183795,-0.0131411,0.00351459
0.283621,0.0374504,-0.0120365,-0.00537659
0.283929,0.0354177,0.00468509,-0.00394916
0.284461,0.0128348,0.0284691,0.00558167
0.284373,-0.0146912,0.0200215,0.010336
0.284869,0.0209859,0.0234522,-0.00522379
0.286075,0.0348962,0.0149768,0.00280096
0.28559,0.0074986,-0.00819084,0.0133698
0.285322,0.0131695,-0.0315517,0.00282315
0.28546,0.0325626,-0.0257713,-0.00038959
0.285553,0.0199111,0.00895941,0.00311859
0.284434,0.00885983,0.00696793,-0.00592804
0.284712,0.00827981,-0.00550318,-0.00880853
0.284076,-0.0359037,-0.0107274,0.00255016
0.282881,-0.0451014,-0.018887,-0.0105498
0.28313,-0.0120468,-0.00456974,-0.0176612
0.283083,0.00273251,0.0131485,-0.0133553
0.281587,-0.00741333,-0.0184218,-0.0172082
0.282888,-0.0180603,-0.0190539,-0.0181905
0.282844,-0.0193096,-0.00140014,-0.0191283
0.282151,-0.0140057,-0.0126133,-0.0274077
0.282794,0.00372238,-0.00659969,-0.0246929
0.283294,0.00980324,0.00566772,-0.0194951
0.282804,0.0158421,0.0034432,-0.0252438
0.283331,0.0246213,0.00753786,-0.0266268
0.284394,-0.00147187,0.0176512,-0.0113568
0.283911,0.0173631,0.0111158,-0.0284475
0.284735,0.0378865,0.0134721,-0.0334103
0.285628,0.00202094,0.028118,-0.020288
0.284838,-0.00292896,0.0153996,-0.0285399
0.28534,0.0127035,0.00231831,-0.028698
0.286014,0.00339736,-0.00233631,-0.0174396
0.285451,0.00440569,-0.0189885,-0.0225017
0.286259,0.0156474,-0.0158398,-0.026866
0.286199,-0.00254452,-0.0130169,-0.0249737
0.285377,-0.00359222,-0.0315497,-0.0314094
0.286034,-0.0134922,-0.0362504,-0.0242248
0.28606,-0.036439,-0.0135675,-0.0150956
0.285523,0.0106233,0.00422889,-0.0342967
0.286239,0.0347633,0.0118608,-0.0276075
0.285734,0.027495,0.00204995,-0.0247623
0.285045,0.0217573,-0.0266438,-0.0291036
0.285964,0.0107478,-0.0159226,-0.0272639
0.285118,-0.015099,-0.00475658,-0.024567
0.28395,-0.0356299,-0.0174302,-0.0231307
0.284681,-0.0111811,0.00106951,-0.0339437
0.283476,-0.0114379,0.000425864,-0.0347408
0.184698,1.02186,-1.05037,1.00722
0.184178,0.999428,1.06123,-1.10905
0.187674,-1.46133,1.28102,0.970016
0.197613,0.208058,1.30026,-1.14164
0.215641,0.436051,-1.22,-1.2013
0.232285,0.706115,-1.81881,0.868795
0.239815,-1.64797,-2.09529,-1.21524
0.245552,-2.14654,-1.63797,-1.18921
0.451412,0.209323,-0.769607,-1.11878
0.270167,1.01545,2.05455,-1.03973
0.277007,-0.457086,0.342305,-0.997846
0.478905,-0.569611,2.29092,1.1793
0.291235,1.26183,-0.227303,1.28507
0.291269,1.52861,-0.6768,-0.798591
0.481018,1.41895,1.29473,-0.818096
0.474055,-1.23657,-0.53151,1.28928
0.27224,-1.5722,1.72163,-0.787523
0.260885,-1.18304,1.71951,-0.806464
0.249518,1.42397,-0.74896,-0.774514
0.244573,1.60729,0.754874,1.3655
0.434053,1.17045,-1.69874,1.39793
0.430274,0.53519,0.289297,1.35731
0.422911,-1.83875,0.49007,-0.800004
0.212534,-1.82312,-1.49288,1.22405
0.195333,0.644375,-1.70508,-0.921145
0.374893,1.03972,-1.65522,-0.995936
0.166534,0.838675,-1.21733,-1.02995
0.352487,0.193436,-0.666337,1.08405
0.153356,0.00464845,-0.201608,-0.98785
0.151823,-2.05217,2.15601,1.07962
0.154637,-2.08763,2.19835,1.09091
0.363912,-1.78369,1.93472,-1.0472
0.382483,0.538798,1.30368,-1.0972
0.189726,-0.789002,0.741574,1.02177
0.377695,-1.10587,0.417393,1.04986
0.373754,1.01072,0.209124,-1.08101
0.36985,1.62229,-2.04304,0.973191
0.356171,1.74888,-2.05739,-1.16784
0.143541,1.35939,0.383724,0.855767
0.127123,-1.25257,-1.17762,-1.25882
0.125224,0.482606,-0.931892,0.800534
0.134795,-1.28239,1.24097,-1.30996
0.342337,0.906008,-0.654567,0.754932
0.162639,-1.35921,1.58239,0.725196
0.1729,-1.53957,-0.468583,-1.41758
0.186008,0.917479,1.42874,0.616625
0.396851,1.69429,1.21237,0.607266
0.212541,-0.276801,1.01586,-1.49118
0.215503,1.07502,-1.3909,0.572569
0.222249,0.510929,0.393962,0.589649
0.228773,-1.68784,0.492545,0.595845
0.435944,-1.66849,-1.42771,-1.50124
0.253987,-1.2731,0.523322,0.555689
0.453335,1.23716,-1.62918,-1.52275
0.452235,1.40594,-1.65572,0.56673
0.443227,-1.07012,-1.40077,0.589396
0.42369,-1.62096,-0.864517,0.58939
0.4075,-1.35764,1.75209,0.591609
0.193809,1.44771,2.07507,-1.55291
0.370833,-0.187928,-0.207146,0.503177
0.360658,1.61433,1.20431,0.561384
0.349917,-0.825327,-1.62622,-1.54664
0.334604,0.994703,-1.96667,-1.56974
0.318964,-1.09962,0.323096,0.556179
0.302702,-1.17815,0.998978,-1.45995
0.0963114,-1.08747,1.49097,0.682442
0.287366,-0.580141,-0.731186,0.752225
0.0950778,-0.353923,0.826937,0.778621
0.0927044,-0.0330023,0.41163,-1.30817
0.297946,-0.0426652,0.305479,-1.33639
0.120656,0.0941273,-1.75019,-1.31338
0.138011,2.31118,-1.68911,-1.24052
0.154462,0.291073,0.665119,-1.15106
0.175479,0.0251575,1.21072,1.01604
0.19531,1.45003,-0.511256,-1.04544
0.424264,-0.437928,-0.723528,1.05101
0.446475,-0.208179,0.996568,-1.02869
0.258917,1.86094,0.96654,-1.04824
0.257982,1.86689,1.01367,1.09962
0.451423,-0.701838,-1.2957,-0.979164
0.258711,-1.43663,-1.68601,1.09644
0.260345,-1.67714,-1.92931,1.06121
0.257808,-1.19351,0.459088,-1.03994
0.45503,1.37549,1.27913,1.06249
0.459723,1.46712,1.95684,-1.03049
0.46102,1.15531,2.05034,1.01246
0.258426,-1.47342,-0.688124,0.97256
0.439822,-1.64857,-1.48115,-1.2146
0.227644,0.813861,0.211514,-1.28129
0.209341,-0.948816,0.443552,-1.24925
0.197996,0.922434,0.806623,-1.19248
0.394473,-1.32531,0.796259,-1.13358
0.202005,-1.27592,0.381778,-1.06561
0.399771,-1.06261,-2.17939,1.11219
0.397,1.58437,-2.37095,1.19161
0.192792,1.91826,-2.05804,1.19583
0.178525,-0.454812,0.773636,1.1195
0.36779,1.33793,-0.659215,1.03797
0.375244,0.973589,-0.411767,0.918869
0.17766,0.842845,1.67303,0.821492
0.363947,0.460876,1.82632,-1.38608
0.164724,-1.85774,1.75233,-1.48185
0.361226,-1.79588,1.32938,0.577373
0.168221,-1.31026,-1.23665,-1.51395
0.360843,-0.788431,0.525866,-1.50704
0.161975,1.66172,-1.50108,0.613287
0.356158,-0.231254,0.800086,-1.4498
0.355028,-0.626031,-0.971167,0.635414
0.160098,-0.706632,-0.904087,-1.42199
0.350382,1.82571,1.23011,0.690595
0.346846,0.142096,1.42669,0.721881
0.1448,-0.167338,-0.705033,0.713953
0.336992,-0.328671,0.942717,-1.38498
0.333607,-0.020965,0.541122,0.707488
0.328815,2.30489,-1.71821,0.733811
0.121943,0.0757824,-1.77412,-1.38336
0.305235,1.56148,-1.44859,0.697771
0.104232,1.21906,1.36828,-1.38361
0.30226,0.966549,1.99654,-1.3565
0.311456,0.548115,-0.0113522,-1.33067
0.323415,0.159559,-0.586292,-1.32142
0.326273,-2.11815,-1.15805,0.775667
0.122248,-0.17222,0.937597,0.835848
0.310791,0.23204,-0.684987,-1.18666
0.311369,0.584113,1.84715,0.967987
0.11435,0.347932,-0.0927347,-1.08561
0.117733,-0.102916,1.65681,-1.08155
0.323033,-0.122475,-0.971103,1.02089
0.142919,-2.21809,-1.39791,1.05413
0.347992,0.0363886,-1.38603,1.05664
0.3603,-1.74439,-0.911793,-1.05595
0.367656,-1.56771,-0.344283,1.00648
0.172664,0.812257,-0.0857263,0.998763
0.170641,-0.836136,-0.0820111,0.955873
0.167235,-0.810138,-0.104747,-1.21044
0.176398,-0.861796,2.06662,-1.27356
0.192528,-0.398238,0.0798639,0.827899
0.410601,-0.117295,-0.142187,0.899389
0.23406,1.93044,1.58265,-1.14877
0.44112,1.84846,-0.61212,-1.13485
0.251743,-0.696556,-0.736648,0.995527
0.253513,-1.30258,1.26123,1.04271
0.451296,0.925715,1.30692,1.04085
0.261422,-0.421727,-0.944615,-1.07591
0.455265,0.0114698,-1.34897,-1.09749
0.448769,-0.0515136,-1.48476,-1.09544
0.242201,1.8168,-1.2325,1.01211
0.425607,1.91224,1.23482,1.00887
0.215534,1.51652,1.62659,0.990604
0.403916,-1.24409,1.57865,0.944825
0.401452,0.597447,-1.12603,-1.2587
0.201237,-1.34724,-1.77965,-1.38338
0.182394,-1.16715,0.0965242,0.704751
0.167465,-1.10593,-1.52451,0.743708
0.167973,1.33755,1.1428,0.738067
0.176051,-0.344821,-0.596281,0.701897
0.188101,1.6588,-0.62901,0.688015
0.400018,1.33194,-0.787999,-1.4325
0.411925,-1.10634,1.4313,-1.45057
0.418038,-1.54534,1.75478,-1.40554
0.418813,0.75807,-0.38935,0.756054
0.412267,1.10383,1.23002,-1.27126
0.392779,-0.552477,0.780682,-1.21331
0.371406,1.08187,0.516227,0.945225
0.15784,-1.18833,0.262895,1.00471
0.140856,0.961707,-2.13147,1.0294
0.327512,-1.0288,-2.28442,0.994494
0.129262,0.857062,-1.97467,-1.15832
0.130232,-1.10903,-1.26796,0.911812
0.330985,0.912581,1.49597,-1.18759
0.153428,0.93928,-0.182013,0.899576
0.365485,-1.08526,-0.226045,-1.22052
0.18498,0.630901,-0.371308,-1.24822
0.394803,0.449904,1.66063,0.850574
0.40631,-1.67563,-0.293165,0.893179
0.41374,0.320085,-0.25727,-1.21792
0.213679,0.531478,-0.302785,0.847721
0.395915,0.602231,-0.0676804,0.83072
0.387666,-1.81399,2.38579,-1.29881
0.185099,0.170815,0.383736,-1.33229
0.376293,-1.62875,2.10842,-1.33585
0.168536,1.20215,1.54403,0.802656
0.158228,1.42936,1.08229,0.86312
0.150795,1.03963,0.73179,-1.22597
0.15664,0.402105,0.451631,-1.23983
0.366696,-1.89605,-1.85862,-1.22617
0.386541,0.324655,0.122324,0.951646
0.200555,0.715334,0.280866,-1.08523
0.395602,-1.39589,0.48047,1.01279
0.20123,-1.80389,0.305534,-1.05479
0.203126,0.362557,-0.0804634,1.03859
0.399575,-0.905063,-0.372533,-1.05147
0.399377,1.58647,-2.45433,-1.08714
0.396043,1.6058,-0.230931,-1.08045
0.187494,1.22684,-1.94453,-1.05125
0.368024,-1.39498,-1.66971,-1.00452
0.362202,-1.43119,0.679991,-0.924202
0.355617,-1.05204,-1.05213,-0.836606
0.153006,-0.485626,-0.889434,-0.760343
0.138189,-0.301595,-0.729282,1.39771
0.330236,1.78289,-0.38378,-0.643102
0.338351,-0.264526,-0.0529531,-0.648532
0.149408,1.57614,2.34529,1.48282
0.150886,-0.613067,2.41468,-0.580739
0.352417,-0.500012,0.0942894,-0.568427
0.364334,1.40402,-0.477945,1.54521
0.368263,-0.39223,1.24269,1.56466
0.166904,1.39818,-0.710224,-0.556667
0.161489,1.25209,-0.603777,-0.619491
0.164218,-1.04143,-0.549496,-0.633506
0.370182,0.710197,1.66605,-0.620548
0.385838,-1.27821,1.83851,1.4954
0.400001,0.973247,1.78491,1.49307
0.402771,1.04128,-0.827928,1.4148
0.197861,-1.41887,0.591522,-0.795084
0.184429,-1.97373,-1.8214,-0.905061
0.375204,-1.80213,-1.76701,1.16127
0.378134,-1.07257,-1.37573,-0.930865
0.376906,-0.650544,1.28671,1.13561
0.370264,-0.513737,-0.388463,-0.9745
0.361197,1.77953,1.63901,-0.991625
0.152037,1.85526,1.44933,-0.956957
0.135956,1.46371,-0.882099,1.1842
0.132617,0.788641,-1.19024,1.22293
0.333966,0.304429,0.795525,-0.856677
0.14883,0.100358,1.07537,1.2504
0.161061,0.19078,-0.877587,1.27144
0.372061,-1.87974,0.979984,1.21372
0.386452,-2.1273,-1.26349,1.13968
0.397215,0.217872,0.75785,-1.0292
0.396004,-1.06482,-1.16849,-1.11486
0.192645,-0.62666,1.17599,-1.15702
0.381271,1.61165,-0.672203,-1.18421
0.180426,-0.451173,1.34894,0.958649
0.371571,1.26909,1.25188,-1.09857
0.17546,-0.779941,-1.10007,-1.09855
0.176495,1.41914,0.646434,-1.07769
0.373414,1.56747,0.636023,1.05732
0.381018,1.18911,-1.36007,-0.989925
0.188464,-1.5398,0.607803,-0.989255
0.383713,0.197132,0.57834,-0.975747
0.385205,0.513946,0.562878,-0.948115
0.189367,-1.35811,-1.56194,1.18103
0.1821,0.411168,0.39898,-0.886154
0.178588,-1.73339,-1.7256,1.21869
0.379081,-1.65081,0.357808,1.24709
0.387174,-1.35779,0.521153,1.22781
0.195132,-0.795127,0.579305,1.15532
0.190415,1.61069,0.332241,1.08429
0.188994,1.67735,-2.09728,-1.11062
0.388332,-0.821521,-0.167761,0.913339
0.199923,0.781405,0.103348,0.859356
0.402582,-1.19966,-1.62097,0.82205
0.212548,-1.01066,-1.53387,0.751659
0.408982,1.24692,0.705292,0.665456
