0.0138502,0.009112,0.400567,0.00365159,-0.0112107,0.078493
0.0138905,0.00921869,0.400262,0.0106187,-0.0152934,0.0742924
0.0134571,0.00915867,0.400139,0.0255018,-0.0386911,0.0728461
0.0124557,0.00873881,0.399955,0.0135799,-0.0441527,0.0765492
0.0114993,0.00840494,0.399413,0.000400389,-0.0291924,0.0746251
0.0100619,0.00783245,0.399182,-0.000546649,-0.00442807,0.078706
0.00863847,0.00720256,0.399204,0.00474828,0.000117354,0.0790415
0.00719264,0.00676804,0.399193,0.0064018,-0.00562331,0.0783299
0.00583801,0.00625395,0.399349,0.000731339,-0.00480979,0.0773773
0.00458842,0.00572023,0.399287,-0.00270436,0.00139803,0.0774489
0.00350254,0.00541013,0.399224,0.000436923,0.00469941,0.0734188
0.00257062,0.00498516,0.399332,8.47753e-05,0.00639632,0.074216
0.00187698,0.00458018,0.399433,0.00122893,0.00699329,0.0758256
0.0014142,0.00443361,0.399385,0.00429931,0.00532495,0.0735259
0.00108001,0.00439226,0.399307,0.00851813,0.00379925,0.0698089
0.000979399,0.00422075,0.3993,0.00464459,0.00464628,0.0708034
0.000968867,0.00410305,0.399108,-0.00339881,0.00377066,0.0728042
0.00112395,0.00427854,0.398798,-0.00603436,0.000687698,0.071799
0.00139386,0.00464187,0.398517,-0.00431232,-0.00190735,0.070189
0.00181511,0.00500926,0.398257,-0.00494855,-0.0014698,0.0702891
0.00226059,0.00560248,0.397763,-0.00090105,-0.00379342,0.0670831
0.00265414,0.00612474,0.397239,0.00724361,-0.00663841,0.0644272
0.0031106,0.00662329,0.396721,0.00941747,-0.00676256,0.0639908
0.00365419,0.00732879,0.396044,0.00800711,-0.00676569,0.0604579
0.00401192,0.00759483,0.395312,-0.00266475,-0.0063647,0.0622845
0.00442847,0.00823098,0.394637,0.00483775,-0.00595684,0.058319
0.00488016,0.00869841,0.394233,0.00781674,-0.00218343,0.0589841
0.00529719,0.00896556,0.393764,0.000164625,-0.00371034,0.0618496
0.00590984,0.00950547,0.393351,0.00347942,-0.00817499,0.0585842
0.00629599,0.00976761,0.393276,0.00726363,-0.00659639,0.0576034
0.0067594,0.00979533,0.393106,0.00273801,-0.00710566,0.0592954
0.00723071,0.0100246,0.39284,0.00279687,-0.00854664,0.0566637
0.00760692,0.0101453,0.392726,0.00330159,-0.00701358,0.0568277
0.00800236,0.0102937,0.3926,0.00431203,-0.00623529,0.0570204
0.00843005,0.0106129,0.392259,0.00858493,-0.00912755,0.0536595
0.00860645,0.0106433,0.391839,0.00407702,-0.01046,0.0549983
0.00890598,0.0108732,0.391505,0.00327739,-0.0100007,0.0531156
0.00911038,0.0108995,0.391178,0.000110678,-0.00804029,0.0541872
0.00934099,0.0111874,0.390827,0.00966655,-0.00870074,0.0498182
0.00932664,0.0110483,0.390622,0.00487542,-0.00719978,0.0538567
0.00937938,0.0109741,0.390525,0.00178473,-0.00463374,0.0562345
0.00947436,0.0110437,0.390296,0.00372093,-0.00572864,0.0555181
0.00959097,0.0111387,0.390202,0.00914253,-0.00552056,0.0536808
0.009592,0.0107803,0.39009,0.000144382,-0.00536987,0.0596057
0.00969994,0.0108151,0.389798,0.00189976,-0.00808362,0.0574388
0.00975953,0.010628,0.38967,0.00254093,-0.00412731,0.0588933
0.00989627,0.0104555,0.389386,0.00493941,-0.00274373,0.0594923
0.0100296,0.0104167,0.389017,0.0108528,-0.00393664,0.0564105
0.0102843,0.0102334,0.388813,0.0123495,-0.000696623,0.05621
0.0104723,0.00997089,0.38839,0.00441335,-0.000720899,0.0581651
0.0106751,0.00998556,0.387891,0.00291133,-0.00434671,0.0554862
0.0110767,0.00977353,0.387648,-0.001628,-0.00704628,0.0580001
0.0114057,0.00985723,0.387301,0.0012791,-0.0100458,0.0561354
0.0115515,0.00977631,0.387169,-0.0023481,-0.00732239,0.0588287
0.0118844,0.009867,0.387,-0.000116338,-0.00873864,0.0580183
0.0120749,0.00990693,0.387096,0.0018201,-0.00686168,0.0572273
0.0123207,0.00994402,0.387315,0.00291856,-0.00521532,0.0560878
0.0124784,0.0098535,0.387353,-0.00134604,-0.00787717,0.057083
0.0127385,0.00997832,0.387506,-0.000247212,-0.00864379,0.0549356
0.012957,0.0099455,0.387598,-0.00180067,-0.00920786,0.0553038
0.0130926,0.0100414,0.387541,0.000397357,-0.0125445,0.053116
0.0131609,0.0101542,0.387609,0.00393669,-0.011352,0.0507382
0.0131785,0.0100782,0.387425,0.000370159,-0.00882955,0.0510352
0.0131939,0.0101057,0.387058,0.00115961,-0.00737738,0.049976
0.013144,0.0101909,0.386783,0.00750259,-0.00614991,0.0468303
0.0132433,0.0100503,0.386702,0.0114911,-0.00356359,0.0461188
0.0132355,0.00959952,0.386512,0.00400856,-0.00420438,0.0502358
0.0133393,0.00935345,0.386399,0.004467,-0.00716175,0.0485431
0.0134642,0.00910139,0.386485,0.00890674,-0.00643445,0.0450197
0.0135839,0.00841053,0.38654,-0.000601183,-0.00423926,0.0476064
0.0137613,0.00802679,0.386499,-0.00372604,-0.00378203,0.0463851
0.0138774,0.0078653,0.386462,0.00385531,-0.00542576,0.0415981
0.0140855,0.00744196,0.386553,0.0032349,-0.00451468,0.0429626
0.0143571,0.00718746,0.386394,-0.000151939,-0.00629356,0.04194
0.0145628,0.00698401,0.386092,-0.00403259,-0.00903345,0.0411958
0.0146807,0.00715987,0.38578,0.00503721,-0.0106064,0.0339795
0.0148038,0.00675916,0.385411,0.000554784,-0.00965085,0.038312
0.0149475,0.00663894,0.38503,0.00134536,-0.00654371,0.0386979
0.0151222,0.00667715,0.384594,0.00151878,-0.00547035,0.0353592
0.0151744,0.00662559,0.38418,0.000572862,-0.00850635,0.0341171
0.0152488,0.00655676,0.384138,0.00352778,-0.00774783,0.033894
0.015328,0.00637703,0.383923,-5.89111e-06,-0.00744924,0.036613
0.0154316,0.00644417,0.383806,0.00542516,-0.00605058,0.0345182
0.0154072,0.00640263,0.383718,0.00449269,-0.0081175,0.0349194
0.015461,0.00620766,0.38398,0.000326729,-0.0062431,0.0378944
0.0155392,0.00613915,0.384036,-0.000122526,-0.00702184,0.0382704
0.015628,0.0061756,0.384064,0.00356534,-0.00849145,0.0359596
0.0156548,0.00604639,0.384281,-0.000300074,-0.00788182,0.0368483
0.0157233,0.006097,0.384421,0.00191034,-0.00887963,0.0345638
0.0156411,0.00596748,0.384222,-0.00253122,-0.01192,0.0364882
0.015472,0.00611958,0.384015,0.00175043,-0.0112769,0.0330136
0.0153863,0.00613467,0.383911,0.00662684,-0.00700858,0.0308909
0.0152047,0.0059783,0.383622,0.00430017,-0.00458378,0.0326106
0.0150565,0.00585205,0.38343,0.00431775,-0.00222638,0.0324522
0.0149096,0.00569737,0.383091,0.00312549,-0.00600869,0.0326434
0.0147727,0.00575725,0.382759,0.00734429,-0.0105602,0.0294653
0.0146018,0.00550674,0.382628,0.00340393,-0.00869901,0.0319297
0.0144475,0.00543193,0.382582,0.00249664,-0.00369408,0.0308569
0.0143126,0.00531191,0.382438,-0.00156399,-0.00371872,0.0325376
0.014273,0.00551806,0.382319,0.00597761,-0.00780867,0.0285756
0.014151,0.00542006,0.38252,0.00502842,-0.00469779,0.0301416
0.0141783,0.0054856,0.382505,0.00254332,-0.00448365,0.0291574
0.0141869,0.00561213,0.382622,0.000490909,-0.0042386,0.0282312
0.0142113,0.00566086,0.382514,-0.00269979,-0.00886461,0.0297981
0.0141634,0.00609505,0.382393,0.00500778,-0.0106179,0.0246221
0.0141514,0.00622888,0.382289,0.00268897,-0.00872665,0.0245928
0.0141378,0.00643731,0.382301,0.0027434,-0.00551344,0.0245585
0.0141125,0.00656124,0.38229,-0.000820851,-0.00644649,0.0268312
0.014082,0.0069153,0.382346,0.00382682,-0.00735251,0.0243568
0.0140197,0.00699996,0.382306,0.00207713,-0.00829421,0.0259617
0.0139816,0.00731998,0.382377,0.00517468,-0.00844492,0.0231085
0.0138701,0.00734905,0.38236,0.000299984,-0.00924016,0.0254323
0.013772,0.00745811,0.382388,0.000718156,-0.00711037,0.0263864
0.0136448,0.00747754,0.382274,-0.000547265,-0.00432115,0.0285984
0.0135797,0.00761874,0.38206,0.00181988,-0.00486139,0.0275316
0.013518,0.0077633,0.381997,0.00970238,-0.00656744,0.0249012
0.0133292,0.00761587,0.381849,0.00760155,-0.00935504,0.0262821
0.01324,0.00747956,0.381904,0.00579188,-0.00600352,0.0264048
0.0131534,0.00721549,0.381793,8.50925e-05,-0.00511663,0.0288419
0.013044,0.00709836,0.381621,0.000122115,-0.00575715,0.0283199
0.0129175,0.00697432,0.381422,0.00395602,-0.00715535,0.02733
0.0128464,0.00690431,0.381108,0.00662532,-0.0094913,0.0259055
0.0127135,0.00661683,0.381011,0.00263772,-0.00547421,0.0287935
0.012746,0.0064643,0.380924,0.0015339,-0.00403855,0.0294943
0.0127851,0.00650397,0.380851,0.00576977,-0.00436579,0.0267061
0.0127883,0.00638932,0.380715,0.0039701,-0.00723538,0.0263975
0.0127096,0.00615525,0.380835,0.00529764,-0.00798245,0.0337258
0.0125323,0.00583641,0.380075,0.0617491,-0.0426536,0.0378746
0.0120349,0.00422618,0.37711,0.126515,-0.0449894,0.0430139
0.0116908,0.00235602,0.370468,0.0761763,0.0265349,0.0594216
0.0121962,-0.000965566,0.361169,0.0445417,0.124408,0.067849
0.0140474,-0.00439453,0.351203,0.0394852,0.15759,0.0639941
0.01746,-0.00907256,0.341338,0.107949,0.0718907,0.0630256
0.0210249,-0.0140861,0.330167,0.05334,-0.080228,0.0427934
0.0241359,-0.0189813,0.317523,-0.0761436,-0.196542,0.0211867
0.0244726,-0.0230429,0.30466,-0.154026,-0.239743,0.00950046
0.0220021,-0.0254943,0.292046,-0.094862,-0.190277,-0.0213273
0.0172544,-0.0264955,0.278969,-0.040911,-0.0931145,-0.0476582
0.0111599,-0.0253741,0.267164,-0.0745893,-0.00640097,-0.0557764
0.00431798,-0.0232613,0.258078,-0.0548951,0.0143257,-0.0467694
-0.00233868,-0.020852,0.251605,0.0453357,-0.0337691,-0.0491955
-0.00918652,-0.0189376,0.247002,0.108297,-0.0507918,-0.0538667
-0.0165294,-0.0178415,0.245598,0.0314253,-0.0356056,-0.0447804
-0.0237874,-0.0170244,0.246409,-0.0838888,0.0249733,-0.0514157
-0.0302281,-0.0157642,0.248552,-0.0997991,0.114819,-0.073104
-0.0348882,-0.0139179,0.251747,-0.00501102,0.157394,-0.0770367
-0.0373,-0.0122468,0.255181,0.100512,0.152083,-0.0614417
-0.0373452,-0.0115904,0.259894,0.135443,0.0976004,-0.0411295
-0.0355703,-0.0130736,0.267051,0.113354,0.0606028,-0.0207321
-0.0320792,-0.016553,0.277023,0.0287915,0.0826586,-0.00340701
-0.0274689,-0.0200332,0.289405,-0.0430932,0.0710733,0.0128915
-0.021818,-0.0239812,0.302945,-0.00541377,-0.0066011,0.0224287
-0.0168785,-0.0283717,0.317469,0.0888251,-0.0999445,0.0142301
-0.0130994,-0.0334045,0.330432,0.116784,-0.172772,0.00165982
-0.0116115,-0.0395738,0.342304,0.110016,-0.200015,0.00161784
-0.0122989,-0.0473594,0.351868,0.0872395,-0.181698,0.00416728
-0.0145893,-0.055156,0.357554,0.0031967,-0.0965966,0.0199507
-0.0179933,-0.0629736,0.358951,-0.120583,0.0290538,0.0376683
-0.0208196,-0.0694358,0.359283,-0.150704,0.118789,0.0248757
-0.0220528,-0.0742176,0.361629,-0.0704188,0.150082,0.0161839
-0.0208838,-0.0765875,0.36439,-0.0255229,0.157547,0.022635
-0.0173182,-0.0776629,0.367837,-0.117267,0.160037,0.0323175
-0.0110554,-0.0765617,0.373553,-0.142907,0.140075,0.042523
-0.00260217,-0.0738614,0.382711,-0.0527489,0.0716338,0.058876
0.00698127,-0.0704558,0.394075,0.0152033,-0.0280253,0.0618632
0.0159644,-0.0668429,0.405163,0.0805637,-0.0823212,0.0658159
0.0243426,-0.0641029,0.413132,0.0038657,-0.103916,0.0665855
0.0311272,-0.0617217,0.41754,-0.0387229,-0.140009,0.0757945
0.0365493,-0.0595356,0.418124,-0.0012674,-0.144045,0.0795481
0.0401837,-0.0577641,0.41651,0.0545343,-0.137492,0.0946777
0.04212,-0.0560738,0.412467,0.0125829,-0.0896299,0.112093
0.0429489,-0.0542459,0.405492,-0.109431,-0.0581112,0.113862
0.0426838,-0.051454,0.396935,-0.143158,-0.0279774,0.121132
0.0423925,-0.0480193,0.388662,-0.0161606,0.0261408,0.127911
0.0427552,-0.0439029,0.379684,0.074386,0.0758869,0.123351
0.0434167,-0.0401817,0.370387,0.101668,0.0538309,0.122957
0.0449845,-0.0379297,0.360191,0.10083,0.0123295,0.131628
0.047348,-0.0361795,0.347981,0.0359699,0.0255495,0.142212
0.0502544,-0.0350183,0.336284,-0.0396822,0.0403449,0.147107
0.0537392,-0.0333387,0.325919,-0.0696627,0.0408913,0.14967
0.0574988,-0.0309056,0.318813,0.00129739,-0.000901545,0.144485
0.0608036,-0.028832,0.31617,0.0828824,-0.0888816,0.148816
0.0624047,-0.027356,0.317598,0.0346198,-0.161519,0.156346
0.0611041,-0.0265375,0.322659,-0.0871386,-0.18924,0.178738
0.0567956,-0.0247951,0.331154,-0.143356,-0.133786,0.190876
0.0510974,-0.0222742,0.341466,-0.0708813,-0.0010237,0.176818
0.0450683,-0.0183307,0.352653,0.000985355,0.122695,0.18074
0.0405353,-0.0138968,0.366323,0.0458034,0.172651,0.191027
0.0386525,-0.00962535,0.381812,0.0439605,0.116861,0.177841
0.0383038,-0.00631527,0.399517,0.0581792,-0.00933305,0.153461
0.0383693,-0.003697,0.41765,0.0314122,-0.0952025,0.139191
0.0380997,-0.00092219,0.434966,-0.0539079,-0.0682791,0.118797
0.0373477,0.00174413,0.449502,-0.0859188,0.0272403,0.105998
0.0366465,0.00646822,0.462984,-0.126891,0.102957,0.104238
0.0367591,0.0123693,0.47291,-0.106108,0.114226,0.109808
0.0375418,0.0193096,0.477869,-0.111337,0.0925626,0.101672
0.0395549,0.0277261,0.47861,-0.126354,0.0672816,0.0767519
0.0421289,0.0373854,0.475282,-0.13738,0.0139864,0.0491324
0.0443271,0.0477076,0.467956,-0.100765,-0.0714647,0.0233415
0.0460432,0.0586215,0.456513,0.0448198,-0.122654,0.00985136
0.0470397,0.0697002,0.439478,0.0218525,-0.080833,0.00788103
0.0472666,0.0803866,0.419543,0.00822401,-0.0250822,0.00332162
0.0468066,0.0908404,0.400523,0.00700619,-0.0268651,0.00769865
0.0458258,0.10111,0.383742,-0.0264202,-0.0342288,0.00315219
0.0450673,0.11143,0.369144,0.0440958,0.00396937,-0.00911079
0.0443749,0.120146,0.35534,0.16723,0.0683532,0.00341132
0.0449475,0.126443,0.342688,0.23311,0.115921,0.0164658
0.0469109,0.130308,0.331199,0.150022,0.068412,0.0211864
0.0490811,0.132165,0.320776,0.0198476,-0.0614697,0.0231392
0.0506356,0.133445,0.310319,-0.00942627,-0.176029,0.0164046
0.0501198,0.134198,0.300786,0.0477501,-0.188069,0.0288996
0.0472912,0.134092,0.293145,0.113862,-0.0777137,0.0365566
0.0437869,0.132337,0.289205,0.132179,0.0653821,0.0654429
0.0406304,0.129333,0.289031,0.0626548,0.13714,0.08004
0.0398555,0.12529,0.29274,0.00340201,0.0971755,0.0720502
0.0406283,0.120504,0.298669,0.0386011,0.0345007,0.0548152
0.0427545,0.115546,0.303795,0.0546355,0.0248515,0.0315936
0.0458152,0.109865,0.307759,0.0381079,0.0755062,0.00685912
0.0500401,0.104248,0.311058,-0.0165469,0.125487,-0.021458
0.0558534,0.0989072,0.314667,-0.0906607,0.131246,-0.0447015
0.0635677,0.0954355,0.319287,-0.13714,0.0564681,-0.0433232
0.0712879,0.0929698,0.326544,-0.112856,-0.0676098,-0.0244806
0.0779941,0.0926846,0.334218,0.0396065,-0.174129,0.0118699
0.0829039,0.0918865,0.339483,0.0565746,-0.193213,0.046471
0.0853718,0.0901185,0.344186,0.0508565,-0.172701,0.0827606
0.084699,0.0867456,0.350883,0.100467,-0.171852,0.119633
0.0820625,0.0815748,0.357377,0.140673,-0.141233,0.15257
0.0782875,0.074706,0.363375,0.126354,-0.0559866,0.164579
0.0739734,0.0663025,0.368384,0.0203806,0.0379903,0.168824
0.0701848,0.0575287,0.373518,-0.0820999,0.0934122,0.168864
0.0670477,0.0500563,0.37904,-0.139634,0.078392,0.160518
0.0650838,0.0447098,0.384737,-0.144058,0.0364504,0.149468
0.0633776,0.0413984,0.39014,-0.0658727,-0.0161472,0.149225
0.0617873,0.0392382,0.395056,-0.0355977,-0.0293382,0.139866
0.0593308,0.0387433,0.400761,-0.114639,-0.0326142,0.135742
0.0562559,0.0399494,0.406519,-0.174188,-0.0635967,0.127026
0.0525221,0.0430084,0.412982,-0.12293,-0.0530773,0.129641
0.0483673,0.0483479,0.419443,-0.0831728,0.0208135,0.127578
0.0441497,0.0555624,0.425407,-0.101655,0.0785542,0.124182
0.040981,0.0638262,0.431617,-0.115054,0.0945319,0.11546
0.0390679,0.0742461,0.439086,-0.0938875,0.0980844,0.118809
0.0386106,0.0857366,0.448035,-0.00747032,0.0527779,0.123959
0.0382257,0.096991,0.457002,0.0080835,-0.0551779,0.113071
0.0374011,0.108076,0.465482,0.112654,-0.162797,0.105296
0.0349721,0.115951,0.471328,0.193414,-0.185293,0.0971758
0.0316505,0.121853,0.474221,0.260722,-0.1028,0.0860032
0.0273771,0.123247,0.476087,0.259593,-0.0169212,0.0828327
0.0225116,0.120479,0.479934,0.23612,-0.0166566,0.0593413
0.0171889,0.114752,0.4845,0.154265,-0.0795978,0.0341658
0.0113602,0.106565,0.488722,0.0748061,-0.11675,0.0172695
0.00435997,0.0969843,0.492568,0.115771,-0.109302,-0.00339317
-0.00365382,0.0853101,0.495653,0.153942,-0.0250235,0.00489528
-0.0115544,0.072137,0.497012,0.154809,0.0737452,0.00437987
-0.0184692,0.0582688,0.495044,0.0929549,0.136423,-0.00912058
-0.0244036,0.0429033,0.491209,0.0728933,0.122264,-0.0100263
-0.0288394,0.0274467,0.485041,0.0165535,0.0346412,-0.00855605
-0.0331595,0.0121346,0.477449,-0.00626478,-0.0625009,0.0029629
-0.0376803,-0.00266429,0.470157,-0.0545255,-0.105044,0.00314384
-0.0437003,-0.0160391,0.464156,-0.146536,-0.0853324,0.028999
-0.0507899,-0.0270566,0.458912,-0.141296,-0.0699024,0.0505645
-0.0589509,-0.0359903,0.45246,-0.133033,-0.0666559,0.0745287
-0.0677818,-0.0429122,0.442905,-0.180719,-0.0775967,0.0749772
-0.0771592,-0.0479641,0.429781,-0.207368,-0.0388977,0.0607026
-0.0868027,-0.050236,0.413754,-0.199427,0.0118804,0.0557091
-0.0966298,-0.0494822,0.397492,-0.161869,0.0232629,0.0523758
-0.105601,-0.0473839,0.381495,-0.0835019,0.0428138,0.0435851
-0.113622,-0.0439356,0.366833,0.0451338,0.0620293,0.0290397
-0.120702,-0.0402599,0.353026,0.0413352,0.0570472,0.0277878
-0.12668,-0.0364212,0.33946,-0.0833414,0.0879947,0.0374232
-0.130492,-0.0316901,0.327714,-0.141661,0.152543,0.0505776
-0.131432,-0.0248142,0.318646,-0.0962145,0.181885,0.0441468
-0.129749,-0.0162701,0.31252,-0.0401871,0.135305,0.0390633
-0.125794,-0.00661129,0.309695,-0.0306232,0.0467939,0.0336591
-0.121112,0.00300866,0.3096,0.0253218,-0.0455486,0.0465099
-0.116557,0.0120259,0.31124,0.115287,-0.0593081,0.0627145
-0.112077,0.019595,0.312849,0.155562,0.0223197,0.0909348
-0.10703,0.0252929,0.315424,0.0917318,0.126446,0.121376
-0.0998102,0.0286512,0.321483,0.0648105,0.148649,0.124729
-0.0908496,0.0311329,0.329709,0.0474663,0.0562376,0.106293
-0.0812251,0.0335313,0.336887,-0.0311571,-0.0434315,0.106145
-0.0718665,0.0365148,0.341731,-0.0871994,-0.0995689,0.112439
-0.0634471,0.0393417,0.343707,-0.0555267,-0.0937026,0.119222
-0.0560219,0.042719,0.342469,-0.00465253,-0.0675064,0.123135
-0.0499329,0.0459752,0.338937,0.0483798,-0.0944595,0.128573
-0.0455594,0.047778,0.334973,0.100402,-0.1511,0.107491
-0.0427846,0.0482747,0.331545,0.0672083,-0.150238,0.0813453
-0.0416277,0.0478274,0.329596,0.0156213,-0.0633659,0.0528896
-0.0419258,0.0477036,0.331419,-0.0860547,0.0268777,0.0356377
-0.0418711,0.047984,0.337328,-0.00855626,0.0765613,0.0114571
-0.0402737,0.0490213,0.3464,0.0387518,0.113526,-0.0077572
-0.0366009,0.0493923,0.358655,0.0526976,0.142423,-0.00362698
-0.0306376,0.0495207,0.371427,0.0437943,0.147462,0.0076184
-0.0231359,0.0488456,0.383519,0.0572461,0.0837006,0.0273972
-0.0150296,0.0474838,0.394464,0.0432643,-0.0356258,0.0346764
-0.00750217,0.045409,0.403154,0.0479102,-0.141822,0.0373763
-0.000954113,0.0430408,0.407473,0.0266679,-0.192116,0.0439825
0.00387328,0.0404972,0.407497,0.00963044,-0.173477,0.048855
0.00662069,0.0370295,0.404481,0.0666079,-0.135236,0.0633183
0.00776963,0.0328523,0.399172,0.100855,-0.112976,0.0611489
0.00709501,0.0275907,0.391858,0.0894448,-0.124071,0.0479199
0.00506489,0.0210294,0.384044,0.0982239,-0.107107,0.0507493
0.00141267,0.0134319,0.377834,0.0364344,-0.0795811,0.0633863
-0.00407307,0.0046758,0.375423,0.0138325,-0.0985934,0.0682496
-0.0109955,-0.00466184,0.375351,0.065637,-0.140525,0.0793457
-0.0198552,-0.0145602,0.376303,0.0787328,-0.14505,0.0885431
-0.0301551,-0.0256936,0.378441,0.00268471,-0.0641518,0.0873806
-0.0412,-0.0358651,0.382745,-0.117631,0.0404673,0.0744847
-0.0517348,-0.0444127,0.388624,-0.155021,0.11559,0.0537272
-0.060289,-0.0510351,0.395538,-0.0550704,0.158122,0.0524123
-0.0669005,-0.0568176,0.400054,0.0518857,0.184403,0.0622571
-0.0711026,-0.0623413,0.400772,0.0837677,0.197698,0.0473315
-0.0731084,-0.0686856,0.397344,0.046027,0.201875,0.0284762
-0.0725544,-0.074927,0.391965,-0.0237521,0.154832,0.00860182
-0.0693754,-0.0807964,0.38736,-0.0296835,0.108405,0.00372043
-0.0638827,-0.0868619,0.382618,0.0461345,0.115573,-0.00900863
-0.0564083,-0.0929603,0.37831,0.0156226,0.160838,-0.00461228
-0.0465214,-0.0982189,0.373785,-0.116346,0.180006,-0.0122561
-0.0343438,-0.102394,0.36968,-0.180325,0.160317,3.77828e-05
-0.0195609,-0.103833,0.366231,-0.162741,0.114662,-0.00393004
-0.00317701,-0.102978,0.365936,-0.0653295,0.0361122,-0.00889629
0.0138315,-0.101128,0.368732,0.021202,-0.0285431,-0.026674
0.0300196,-0.0990228,0.372782,0.0353603,-0.0819969,-0.0485436
0.0447775,-0.0967166,0.37771,-0.022649,-0.14248,-0.0779176
0.057383,-0.0939225,0.383836,-0.102481,-0.152473,-0.10191
0.0671248,-0.0894757,0.392563,-0.1193,-0.15662,-0.119315
0.0743298,-0.082728,0.401343,-0.0928723,-0.195473,-0.136362
0.0789413,-0.0741233,0.407598,-0.0869749,-0.240399,-0.135873
0.0804062,-0.0643751,0.412476,-0.0300111,-0.264523,-0.142603
0.0784324,-0.0536182,0.416528,-0.0135791,-0.242522,-0.14819
0.0736117,-0.0421225,0.418836,-0.00948689,-0.159077,-0.146323
0.0672546,-0.0308863,0.418184,0.0124344,-0.0407542,-0.148965
0.0601988,-0.0184443,0.416756,-0.0102159,0.0303621,-0.159419
0.0528171,-0.00671224,0.416847,0.0360968,0.0111227,-0.14785
0.0460776,0.00478982,0.417731,0.0597331,-0.016225,-0.140672
0.0390005,0.0148553,0.418172,0.0869924,-0.0309656,-0.138182
0.0317897,0.0231667,0.416432,0.143683,-0.0524617,-0.148012
0.0237536,0.0304171,0.411367,0.114646,-0.0754345,-0.162867
0.015273,0.036481,0.403988,0.0642333,-0.0581242,-0.166438
0.00660775,0.0416437,0.396813,0.0416596,0.039122,-0.14812
-0.00137693,0.0449744,0.391931,0.106025,0.155579,-0.115243
-0.00673097,0.0465061,0.39055,0.174917,0.208599,-0.080579
-0.009072,0.045765,0.390298,0.124279,0.186447,-0.0747808
-0.00913934,0.0434577,0.389609,-0.0202551,0.0900647,-0.080151
-0.0081027,0.0413127,0.38939,-0.0945634,-0.0334691,-0.0647471
-0.00704323,0.0404846,0.390542,-0.0981616,-0.111532,-0.0631091
-0.00668496,0.041316,0.393487,-0.101371,-0.0805773,-0.0572154
-0.00739681,0.044418,0.398792,-0.100913,-0.02292,-0.0665778
-0.00859142,0.0486016,0.406861,-0.0232919,0.0213753,-0.0789491
-0.00915036,0.0529112,0.415182,0.101224,0.0611917,-0.0943816
-0.00931102,0.0560894,0.421734,0.180992,0.0550163,-0.101398
-0.00944597,0.0572755,0.425264,0.189066,-0.00491549,-0.108703
-0.00954092,0.0564642,0.425901,0.159209,-0.0364723,-0.116381
-0.00945834,0.0535188,0.423204,0.147557,0.00149557,-0.0974546
-0.0097754,0.0485638,0.417774,0.172788,0.0325311,-0.0725262
-0.00964712,0.0420232,0.410969,0.105915,0.0455568,-0.0392335
-0.00928255,0.0346033,0.405216,-0.0300139,0.00990013,-0.0158831
-0.00874041,0.0272003,0.401547,-0.12277,-0.037665,0.0042978
-0.00855679,0.0217104,0.400215,-0.133279,-0.0753094,0.00319759
-0.00886785,0.0183699,0.400079,-0.117051,-0.0689528,-0.0131973
-0.0103359,0.016347,0.401455,-0.0474892,-0.0446024,-0.0242916
-0.0119132,0.0161276,0.402649,-0.0383952,0.00596689,-0.0288212
-0.0131681,0.0164311,0.404299,-0.0242388,0.0696852,-0.045944
-0.013542,0.0170145,0.406132,-0.0264671,0.0792837,-0.0709032
-0.0127841,0.0177992,0.406473,0.0132959,0.0634814,-0.0962615
-0.0110738,0.0178348,0.406356,0.0963188,0.0679285,-0.0992813
-0.00824887,0.0164647,0.406925,0.136923,0.0540958,-0.10779
-0.00489014,0.0137578,0.407324,0.0764598,0.0359871,-0.121752
-0.000748986,0.00963063,0.407819,0.045507,0.0416265,-0.135362
0.00423709,0.00398047,0.409861,0.0953041,0.0720889,-0.147499
0.0101432,-0.0029455,0.412578,0.103963,0.0873719,-0.151167
0.01684,-0.0108884,0.413734,0.0703203,0.0751336,-0.16376
0.0240904,-0.0195248,0.412915,0.00455584,0.0253628,-0.156171
0.031616,-0.0276876,0.411058,-0.0949635,0.000194684,-0.128239
0.0399971,-0.0340973,0.409624,-0.137642,0.0308574,-0.101749
0.0489894,-0.0388625,0.408279,-0.143077,0.0867016,-0.0680042
0.0590545,-0.0421311,0.405504,-0.0669994,0.105382,-0.0300273
0.0699072,-0.0445022,0.400933,0.0117643,0.0476911,-0.00695889
0.0810661,-0.0461363,0.394972,-0.00967979,-0.0293467,0.0129993
0.092067,-0.0476459,0.38795,-0.046003,-0.0548064,0.0437477
0.101936,-0.0482913,0.381306,-0.0815238,-0.0796743,0.0796508
