0.30448,0.30773,0.3023,0.30559,0.30662,0.3083,0.30707,0.30404,0.30768,0.30788,0.30695,0.30716,0.3101,0.30404,0.3059,0.30817,0.30592,0.30696,0.31043,0.30607,0.30728,0.30993,0.30721,0.30574,0.30787,0.30867,0.30797,0.30658,0.30421,0.30307,0.30487,0.30191,0.30187,0.30292,0.30718,0.30695,0.30465,0.30553,0.30625,0.304,0.30714,0.30678,0.30565,0.30555,0.30462,0.30608,0.30656,0.30547,0.30382,0.30245,0.30108,0.38787,0.43645,0.44467,0.44273,0.41952,0.38976,0.37485,0.35491,0.34899,0.34118,0.3326,0.31983,0.30981,0.29864,0.28821,0.28307,0.28055,0.27964,0.27393,0.2747,0.26667,0.26932,0.26838,0.26724,0.27211,0.2703,0.27708,0.28458,0.27915,0.27999,0.28448,0.28306,0.2895,0.28242,0.28878,0.29312,0.29192,0.29395,0.29502,0.29585,0.29285,0.29375,0.29603,0.30047,0.29463,0.2978,0.29667,0.29974,0.30061,0.3072,0.30678,0.31009,0.31681,0.31061,0.312,0.30661,0.31458,0.30603,0.3081,0.30313,0.30927,0.30474,0.30991,0.3022,0.31013,0.30395,0.30579,0.30063,0.30644,0.29927,0.30576,0.29456,0.30374,0.29691,0.30254,0.30025,0.29984,0.30188,0.3026,0.30172,0.30353,0.29506,0.30286,0.29967,0.30222,0.29639,0.30325,0.29854,0.29877,0.29938,0.29804,0.30329,0.29542,0.29889,0.30049,0.30239,0.29996,0.30203,0.30565,0.30769,0.30126,0.30009,0.30067,0.30243,0.30328,0.29941,0.30504,0.30399,0.30615,0.30513,0.30167,0.30018,0.30545,0.29952,0.30367,0.29607,0.3057,0.29767,0.30569,0.30717,0.30685,0.30354,0.30173,0.3053,0.29671,0.30334,0.29685,0.30277,0.30194,0.29954,0.30453,0.29786,0.30153,0.30064,0.30608,0.30162,0.30816,0.29777,0.30311,0.2983,0.30512,0.29607,0.30296,0.30191,0.30239,0.30477,0.30654,0.30406,0.30181,0.30516,0.29805,0.29921,0.30199,0.30347,0.30834,0.30401,0.30476,0.30748,0.30782,0.30571,0.30253,0.29844,0.30539,0.30047,0.3045,0.30607,0.3059,0.3031,0.30521,0.30715,0.30195,0.30284,0.30446,0.3059,0.3037,0.30357,0.30237,0.30351,0.30521,0.30339,0.30462,0.30476,0.30618,0.30756,0.30331,0.30255,0.30067,0.30258,0.30517,0.3055,0.30897,0.30651,0.30746,0.30583,0.30639,0.30237,0.30498,0.30432,0.30829,0.30189,0.30379,0.30253,0.30404,0.30205,0.30565,0.30617,0.30698,0.30619,0.30409,0.3037,0.3042,0.30405,0.30312,0.30839,0.30641,0.30836,0.30844,0.30558,0.30684,0.30558
0.023401,0.017616,0.025981,-0.021757,0.061917,0.05096,-0.0069173,0.0046965,0.013306,-0.006392,-0.02878,0.035889,0.0018689,-0.019178,0.013655,-0.0057025,-0.015136,0.026529,-0.0043332,-0.032627,-0.0018604,0.014223,0.0068711,-0.023674,-0.0077331,0.0054722,0.017503,-0.0057001,-0.025485,-0.014363,-0.012109,-0.014765,-0.028193,0.022478,0.012476,0.0068499,0.033646,0.00058692,-0.00097183,0.039391,0.013848,0.018794,0.038259,0.028309,0.034339,0.031234,0.032328,0.04852,0.039162,0.024189,0.013754,-0.34934,-0.18705,-0.08163,-0.082419,-0.044097,-0.057658,-0.010875,-0.0084321,-0.030047,-0.012825,-0.047901,-0.023565,-0.06348,-0.052784,-0.071289,-0.099937,-0.069655,0.0010014,-0.03241,-0.13958,-0.065112,-0.088698,-0.05812,-0.030193,-0.087875,-0.026659,0.0047252,0.010192,0.0086215,-0.042715,-0.020622,0.044444,-0.076136,0.012027,0.027097,0.015302,-0.023175,-0.0042816,0.058276,0.0002942,-0.041612,0.029537,0.035902,0.0034292,0.022987,0.036057,0.027078,0.016062,0.099886,0.067324,0.068017,0.07768,0.069989,0.074577,0.043859,0.075695,0.062253,0.041327,0.037271,0.095792,0.0076157,0.069765,0.030261,0.021853,0.0062477,0.0024834,0.016539,0.025213,-0.060025,0.027757,-0.072046,0.00027715,-0.04855,-0.021047,-0.064106,-0.053256,-0.064207,-0.015985,-0.012202,0.0052057,-0.10182,-0.022966,-0.045443,-0.0050986,-0.044988,0.051212,-0.019214,-0.028904,0.031572,0.02755,0.031161,-0.00073562,0.02504,0.033906,0.12967,0.048945,-0.014609,0.043266,0.074303,0.049764,0.049109,0.0034393,0.014067,0.06926,0.027114,0.045437,-0.014279,0.030097,0.03165,-0.027321,-0.0067142,0.026578,-0.025075,0.041761,-0.076586,0.049481,-0.091458,0.016263,0.0019014,0.022867,-0.0021349,-0.042249,0.010829,-0.079181,0.014173,-0.081069,0.027748,-0.0099288,-0.041168,0.016869,-0.054647,0.00017079,-0.022418,0.028374,-0.041836,-0.0048397,-0.045968,-0.017776,-0.058025,0.048483,-0.043345,-0.0023344,-0.020119,-0.011442,0.006743,-0.0032704,-0.0060956,-0.040577,0.034577,-0.013132,-0.0036147,0.0048611,-0.0089077,0.033967,-0.023927,-0.019549,0.018401,-0.0095655,0.0054354,0.010052,-0.01572,0.034593,-0.02931,-0.032102,0.0036445,0.025913,-0.036076,0.0012409,0.036272,-0.0010843,0.0091688,-0.038688,0.0075864,-0.016553,0.0026102,-0.013862,-0.021531,0.0049717,-0.044309,0.0075452,-0.017795,-0.026397,0.0048839,-0.036277,0.013585,-0.0097612,-0.023501,-0.0047259,-0.011089,0.031256,-0.018129,-0.0021582,0.021899,0.0008258,-0.0013765,-0.026049,-0.012773,0.033492,-0.02644,-0.018655,-0.02833,0.028084,-0.013932,0.0070762,-0.011999,0.010125,0.017747,-0.02051,-0.0040334,0.044372,0.013559,-0.012565,0.016686,-0.013952,0.040551,0.0084905,-0.0059642,0.01463,0.0099939,0.014682
-0.0079698,0.028291,-0.023635,0.011704,-0.0032851,-0.0022538,-0.032983,-0.027627,0.020164,-0.033172,0.010022,0.0016353,-0.021505,-0.01147,0.015835,-0.0045718,0.022589,0.023125,0.0038015,0.019541,0.026692,0.017218,-0.010727,0.02313,0.0014856,0.0050435,0.005546,-0.02166,-0.020569,-0.017917,-0.0063378,-0.035233,-0.01114,-0.020755,0.0048815,-0.0060489,-0.020081,0.00039561,-0.0049344,-0.017065,0.013757,0.0030988,-0.0070115,0.0013242,-0.01186,0.00017765,0.017645,-0.011555,0.0038587,-0.0037396,0.007284,1.5713,1.529,1.214,0.83444,0.47043,0.19757,-0.060257,-0.2598,-0.32091,-0.4384,-0.41701,-0.4873,-0.46474,-0.50378,-0.51323,-0.5191,-0.53546,-0.51745,-0.51149,-0.46024,-0.46757,-0.38496,-0.35101,-0.33637,-0.2674,-0.22339,-0.15059,-0.16926,-0.092595,-0.042882,0.035459,0.018727,0.15924,0.13938,0.19564,0.20573,0.24295,0.28406,0.26056,0.30361,0.29895,0.28472,0.28696,0.27117,0.2365,0.24742,0.19046,0.21947,0.17745,0.16111,0.1326,0.090835,0.11019,0.053467,0.038987,0.01895,0.016495,-0.024074,0.019619,-0.095047,0.0034144,-0.092984,-0.055695,-0.062832,-0.073719,-0.084135,-0.046463,-0.16543,-0.010368,-0.16429,-0.043926,-0.10191,-0.07943,-0.10736,-0.040576,-0.11039,-0.02072,-0.084116,-0.017934,-0.11291,0.0032765,-0.08354,-0.014682,-0.068307,0.014096,-0.059546,-0.037573,0.020291,-0.048678,0.010739,0.0032991,-0.011503,-0.0019322,0.072569,-0.017371,0.019065,0.035101,0.015352,0.060333,0.059706,0.011244,0.016222,0.078275,0.006368,0.042542,-0.014525,0.036401,0.034714,0.01959,0.016249,0.052438,-0.033795,0.088448,-0.063601,0.10631,-0.058362,0.072837,-0.022152,0.04373,0.023244,-0.058656,0.048158,-0.069193,0.050362,-0.059546,0.021046,-0.022065,-0.029949,0.024783,-0.056524,0.043752,-0.052135,0.030687,-0.07145,0.040361,-0.033867,0.025721,-0.049206,0.055346,-0.078889,0.012091,-0.033566,-0.031675,-0.022309,-0.0033723,0.018076,-0.053085,0.03362,-0.018785,-0.0021081,0.010292,-0.050141,0.017538,0.0022819,-0.0082353,0.029926,-0.010792,-0.012542,0.03263,-0.031849,0.0097167,-0.020085,-0.015145,-0.017025,0.015853,-0.024751,0.00020801,-0.0035348,-0.020656,0.0065503,-0.056881,0.015314,-0.026578,0.0061924,-0.0075539,-0.020951,0.013575,-0.030561,0.030778,-0.013269,-0.01064,0.029063,-0.035114,0.019329,-0.013909,-0.030018,-0.015104,-0.042449,0.010207,-0.033862,-0.011744,-0.011856,-0.029376,-0.034965,-0.057931,-0.054967,-0.0052658,-0.046992,0.0043897,-0.045679,0.02638,-0.018213,0.028388,-0.017283,0.015574,0.023284,0.0066434,0.012582,0.0081793,0.011343,-0.020513,-0.021028,-0.035638,0.019575,-0.013205,0.0020168,-0.018513,-0.023675,-0.009962,-0.028789
0.047478,0.030817,0.024913,0.017329,0.010847,0.0014521,-0.0078709,0.0054809,-0.0096813,-0.0024403,0.0095918,0.0081045,0.014734,0.028444,0.024193,0.030156,0.04416,0.050022,0.053851,0.064165,0.074675,0.077261,0.077417,0.087776,0.099368,0.11172,0.11268,0.11366,0.11266,0.12414,0.12125,0.11907,0.12556,0.12166,0.12682,0.13827,0.12999,0.13194,0.14234,0.13917,0.13846,0.14239,0.13868,0.14011,0.14255,0.13888,0.1405,0.14744,0.14261,0.13084,0.12169,0.11642,0.11583,0.10278,0.11334,0.10651,0.10347,0.10003,0.086705,0.060177,0.053665,0.02872,0.0018143,-0.014897,-0.020383,-0.049869,-0.057426,-0.050655,-0.046676,-0.053445,-0.067204,-0.082731,-0.099084,-0.10812,-0.13165,-0.13922,-0.14795,-0.15034,-0.13658,-0.14852,-0.12615,-0.13317,-0.14088,-0.12703,-0.12916,-0.10554,-0.11477,-0.09674,-0.070784,-0.067958,-0.066516,-0.042406,-0.045978,-0.041527,-0.030789,-0.02623,-0.049377,-0.056519,-0.059809,-0.06247,-0.057828,-0.068972,-0.085889,-0.096049,-0.089173,-0.098816,-0.095493,-0.11622,-0.096055,-0.10174,-0.10143,-0.10849,-0.099663,-0.1033,-0.098853,-0.1261,-0.081056,-0.097642,-0.07178,-0.074845,-0.061802,-0.060919,-0.056342,-0.054037,-0.04251,-0.064585,-0.060357,-0.071485,-0.039841,-0.036129,-0.030173,-0.039326,-0.022104,-0.038118,-0.025913,-0.0051743,-0.019657,-0.0047681,0.010897,0.030138,0.015231,0.024549,0.0067049,0.02832,0.050553,0.046843,0.019313,0.032218,0.033106,0.038574,0.037425,0.0094119,0.0078629,0.0043265,0.013917,0.0047566,-0.015223,-0.020109,-0.018939,-0.049427,-0.033953,-0.062709,-0.036262,-0.071576,-0.055102,-0.075029,-0.096455,-0.098898,-0.10264,-0.076769,-0.094138,-0.062322,-0.079048,-0.067081,-0.087895,-0.095285,-0.071145,-0.083888,-0.069705,-0.085177,-0.082099,-0.10419,-0.073001,-0.085684,-0.068709,-0.085558,-0.072386,-0.092594,-0.072027,-0.073461,-0.080653,-0.084225,-0.084132,-0.077003,-0.071314,-0.058654,-0.076694,-0.072054,-0.060503,-0.057576,-0.049013,-0.054894,-0.041744,-0.039673,-0.048242,-0.051001,-0.051354,-0.056946,-0.036356,-0.047327,-0.033684,-0.030496,-0.030363,-0.033445,-0.01567,-0.004484,-0.017349,-0.0051037,-0.0011119,0.0109,0.0083631,0.0081151,0.0079694,0.0084451,0.014553,0.0071119,0.016907,0.013372,0.0098922,0.016446,0.011943,0.016896,0.017264,0.018565,0.025842,0.019321,0.018656,0.008012,0.013281,0.010553,0.0051939,0.0022623,0.0061827,0.003725,0.00094574,-0.017231,-0.0018411,0.0082883,0.017999,6.3362e-05,0.0030483,0.0025564,0.00012042,-0.0003217,-0.0043608,0.0013256,0.0074176,-0.0023261,-0.0048449,0.0093893,0.0017284,0.009156,0.0046321,0.010079,0.019974,0.017202,0.022035,0.025747,0.028271,0.027435,0.026705
