0.30477,0.29915,0.3042,0.30703,0.30433,0.30703,0.30388,0.30829,0.30466,0.30169,0.30658,0.30013,0.29774,0.29736,0.29897,0.30683,0.30096,0.30711,0.30645,0.30168,0.30327,0.30066,0.3019,0.30204,0.29856,0.29777,0.30023,0.29885,0.29873,0.30109,0.30373,0.30084,0.29957,0.3024,0.30101,0.29774,0.29592,0.29761,0.29909,0.29366,0.29989,0.30799,0.30369,0.30352,0.30834,0.30399,0.30279,0.30015,0.30508,0.30483,0.30507,0.39532,0.4268,0.43144,0.42985,0.41662,0.39114,0.37263,0.3476,0.33114,0.32277,0.31438,0.30693,0.30027,0.29734,0.28709,0.28681,0.27778,0.27841,0.2667,0.2817,0.26212,0.28304,0.26443,0.26853,0.27392,0.26071,0.26357,0.28145,0.27105,0.26719,0.28379,0.27881,0.27855,0.27951,0.28843,0.28246,0.282,0.29157,0.28559,0.29134,0.2818,0.29336,0.29177,0.29172,0.28742,0.30079,0.29384,0.30071,0.29582,0.30246,0.30088,0.29396,0.30512,0.29197,0.30423,0.29782,0.29227,0.30904,0.30302,0.29463,0.30531,0.29538,0.29334,0.29453,0.29539,0.29328,0.29157,0.29301,0.29269,0.29083,0.2883,0.29999,0.28929,0.29898,0.2862,0.29899,0.28746,0.2987,0.28998,0.29335,0.29656,0.29095,0.29503,0.29339,0.29135,0.29785,0.29045,0.30098,0.29305,0.29444,0.2987,0.29436,0.30186,0.28563,0.29815,0.2996,0.2911,0.30064,0.29656,0.30292,0.29387,0.29991,0.30259,0.29675,0.29632,0.3,0.29971,0.29936,0.29925,0.3048,0.29794,0.30382,0.2981,0.30271,0.29992,0.30152,0.30312,0.29707,0.30504,0.29804,0.29699,0.30045,0.30291,0.29543,0.3006,0.29852,0.30005,0.29683,0.29669,0.30108,0.29526,0.30459,0.29685,0.2981,0.29705,0.2934,0.29526,0.29634,0.30123,0.29224,0.30491,0.29024,0.29811,0.3024,0.28983,0.29987,0.2948,0.29729,0.29823,0.29807,0.30451,0.3013,0.30369,0.30007,0.3072,0.29923,0.29649,0.30237,0.30484,0.30004,0.29907,0.29984,0.30075,0.30001,0.29983,0.30139,0.29915,0.30569,0.29784,0.308,0.30091,0.30103,0.30502,0.30336,0.29815,0.30571,0.30283,0.30124,0.30769,0.30729,0.30164,0.3052,0.30401,0.3012,0.30489,0.29902,0.30561,0.3005,0.30255,0.306,0.29909,0.30681,0.30082,0.30003,0.30623,0.30134,0.30069,0.30257,0.30374,0.30137,0.30174,0.29904,0.30492,0.30251,0.30559,0.30197,0.30007,0.30571,0.30418,0.30426,0.30534,0.30236,0.30647,0.30224,0.30625,0.29975,0.30525,0.30465,0.30062,0.30534,0.30354,0.3042,0.30387,0.30474
-0.02346,-0.019344,-0.00055317,-0.031624,0.00062615,-0.037912,-0.031319,-0.001715,-0.047729,-0.0021896,-0.020856,-0.022431,-0.021281,-0.027201,0.016484,0.0097416,0.0048487,0.038842,-0.0099394,-0.0026451,0.0078077,0.014253,0.027339,0.0068827,0.0084496,0.0070835,0.017699,0.019961,0.020909,0.021338,0.022737,0.0074172,0.010745,0.017493,0.0059795,0.0056326,0.01832,0.028153,0.014793,-0.0078519,0.011233,-0.0037031,-0.0044105,0.0094045,0.021793,-0.00098335,-0.020719,-0.0018378,0.0015374,0.019638,0.008824,-0.31016,-0.24723,-0.23577,-0.12252,-0.075961,-0.040637,0.013648,0.004148,0.062956,0.08815,0.093041,0.083754,0.07837,0.069719,0.023466,0.036989,-0.0080879,-0.075146,-0.050626,-0.037752,-0.060999,0.026923,-0.1305,0.0078006,-0.062729,-0.1107,-0.014462,-0.0020459,-0.067034,-0.019806,-0.018621,-0.045176,-0.021956,-0.0031783,0.046273,-0.014313,0.044585,0.051218,0.041094,0.052279,0.0093274,0.10026,0.069021,0.04907,0.056886,0.042914,0.015446,0.065817,-0.0081268,0.058283,-0.015304,0.038111,0.028221,-0.025561,0.070015,-0.067947,-0.0053332,0.060549,-0.04473,0.0070148,0.021777,-0.056717,-0.020916,-0.031627,-0.030005,-0.011694,-0.023765,-0.029525,-0.031945,-0.07366,-0.0092793,-0.01864,-0.044223,-0.019821,-0.050063,0.0062506,-0.042226,0.0080025,-0.068757,-0.012221,-0.032776,-0.020795,0.0013366,-0.033215,0.0045802,-0.019506,0.01248,0.047701,-0.019935,0.015575,-0.0037984,0.029491,0.0054468,-0.013456,0.08848,-0.017982,0.014693,0.029043,0.013799,0.031903,-0.020462,0.052289,0.0015637,-0.0046475,-0.0070121,0.024135,0.021455,-0.0003244,0.0047397,0.01437,-0.01517,0.022974,-0.00046332,0.012365,0.0066072,0.032223,-0.020282,-0.00018108,0.042512,-0.010027,0.0036995,0.0059506,0.0093038,-0.0032461,0.011678,0.018108,0.024429,-0.019024,0.027988,0.0070407,3.4575e-05,0.027853,0.011652,0.034784,0.0032981,0.014711,-0.0004944,0.02625,0.027494,0.019736,0.061374,-0.044999,0.061891,-0.012676,-0.010822,0.046961,0.00016272,0.03813,-0.0089307,0.017241,0.020299,0.0010428,-0.0034608,0.0063447,0.03104,-0.01826,-0.0095418,0.013911,0.023127,-0.00603,0.013885,-0.0028987,-0.0041083,-0.0082436,-0.0069936,-0.01986,0.0016856,-0.0050254,-0.032919,0.0088861,-0.04948,-0.0062644,0.0090311,-0.029684,-0.034545,-0.010603,-0.053689,-0.015796,-0.00014699,-0.040765,-0.021857,0.0054943,-0.031719,0.0012796,-0.01912,-0.013878,0.024332,-0.036177,0.012462,-0.027436,-0.0037221,0.036625,-0.021351,0.024864,0.013039,-0.0054119,0.013069,0.0077578,0.025889,0.019046,0.015143,0.016032,0.012331,0.010699,0.039171,0.0012784,0.019691,0.017154,0.0074849,0.02496,0.0075811,0.01609,0.013689,0.027222,0.025044,-0.012324,0.036537,-0.004661,0.010357,0.019976,-0.0030332,0.0081906,0.018518,0.0050589
-0.0070947,-6.102e-05,0.014683,-0.011593,0.01717,0.0026994,-0.021501,0.00019219,9.4638e-05,-0.0050209,-0.033376,0.0038573,-0.025955,-0.011362,-0.028355,-0.0005241,-0.016908,-0.027142,0.007648,-0.036473,-0.039246,0.028614,0.016273,-0.036369,-0.0067031,-0.0014583,-0.017764,0.0054721,0.013451,-0.024313,-0.019156,0.024829,0.011995,0.024904,0.044131,0.017232,0.043059,0.017622,0.019651,0.052649,0.017511,-0.0050888,0.065047,-0.0004281,0.02082,0.058535,-0.012638,0.033496,0.019727,0.030951,0.022846,1.0902,1.0386,0.82718,0.55158,0.34436,0.13031,-0.067501,-0.21672,-0.32299,-0.3676,-0.41306,-0.40725,-0.42462,-0.35355,-0.39442,-0.37306,-0.32165,-0.32272,-0.34941,-0.21753,-0.24451,-0.22199,-0.13301,-0.22411,-0.075283,-0.044386,-0.083738,0.022869,0.089884,0.022393,0.077216,0.15951,0.16553,0.13664,0.20528,0.23456,0.15894,0.26023,0.22924,0.24772,0.22965,0.18885,0.26075,0.19843,0.17486,0.18874,0.12891,0.17692,0.11353,0.070144,0.13153,0.0097235,0.065954,0.037941,-0.045357,0.055008,-0.095067,-0.049287,0.03947,-0.12622,-0.064222,-0.028658,-0.10554,-0.039084,-0.080692,-0.061758,-0.052603,-0.099303,-0.063817,-0.066967,-0.08901,-0.029696,-0.064134,-0.062863,-0.054121,-0.031853,-0.016325,-0.072523,0.012927,-0.059926,-0.0087503,-0.0065318,-0.051458,-0.016015,-0.022631,-0.01605,0.0037096,-0.005136,0.025542,-0.056111,0.035194,0.027107,0.0067064,0.0020499,0.0029815,0.089629,-0.024674,0.016353,0.038996,0.046822,0.025108,0.013919,0.0601,0.050081,-0.0033461,0.033395,0.029064,0.040866,-0.015687,0.048059,-0.011285,-0.00049456,0.030586,-0.04812,-0.015092,0.0061963,-0.0068447,-0.055955,-0.035051,0.0012958,-0.036263,-0.066541,-0.029321,-0.021671,-0.06237,-0.03719,-0.027147,-0.058442,-0.07705,0.015711,-0.030218,-0.071687,0.0098295,-0.048711,-0.048753,-0.019175,-0.028706,-0.077801,0.046873,-0.080276,-0.010331,0.022646,-0.10222,0.064451,-0.001396,-0.031097,0.039458,0.0050503,0.010346,-0.0065419,0.020941,0.021721,0.011975,0.029574,-0.0030087,0.057903,0.018545,-0.013829,0.072632,0.028296,0.00508,0.023924,0.033116,0.02107,0.013142,0.037537,0.0069134,0.061386,0.031564,0.0027319,0.069554,-0.015395,0.0050917,0.063174,-0.019513,-0.0141,0.042507,0.0095765,0.028055,0.04281,-0.0027235,0.016598,0.028003,0.0032463,0.015835,-0.019169,0.018918,0.030241,-0.033807,0.023335,-0.01398,-0.0041033,0.027306,-0.036399,-0.0030834,-0.0050828,-0.0099499,-0.014407,0.0068005,-0.020397,-0.021962,0.0048821,0.0075984,-0.010781,-0.018572,0.00011213,-0.017893,-0.014008,0.013292,-0.0088831,-0.0095716,-0.015494,-0.005772,-0.013172,0.0025538,0.0018628,-0.029584,0.0099045,-0.027676,-0.0088738,0.012133,-0.013565,0.0083571,0.013336
-0.012797,-0.01705,-0.024976,-0.026809,-0.034207,-0.031089,-0.026972,-0.023139,-0.016411,-0.01379,-0.0084053,-0.013401,-0.020613,-0.021355,-0.030739,-0.035525,-0.02963,-0.035663,-0.034519,-0.032622,-0.032983,-0.037037,-0.044449,-0.059982,-0.071829,-0.071076,-0.073281,-0.074166,-0.069039,-0.073699,-0.082787,-0.08658,-0.088557,-0.088495,-0.094192,-0.093385,-0.088541,-0.096393,-0.10355,-0.091342,-0.085153,-0.093943,-0.092226,-0.088522,-0.087682,-0.091014,-0.09799,-0.11173,-0.11423,-0.11939,-0.11291,-0.11799,-0.12853,-0.12319,-0.12189,-0.1134,-0.12799,-0.11066,-0.11756,-0.11293,-0.092208,-0.085398,-0.081847,-0.07024,-0.03586,-0.015634,0.0073293,-0.0035421,0.0014776,0.0040599,-0.00064339,-0.0053817,-0.03007,-0.022074,-0.041874,-0.056599,-0.073025,-0.081671,-0.094238,-0.081248,-0.080596,-0.067455,-0.06563,-0.051368,-0.024938,-0.017355,-0.0059502,0.0088899,0.015297,0.012978,0.0069067,0.0030241,0.0072736,0.006753,0.0062849,0.0094754,0.011144,0.0065204,0.023518,0.035667,0.025231,0.044477,0.053792,0.056399,0.083149,0.073089,0.081835,0.090803,0.085668,0.1057,0.093144,0.095049,0.088838,0.077281,0.064277,0.066245,0.053138,0.042869,0.041137,0.013347,0.020406,0.0173,0.014384,-0.00085418,0.016417,0.0037723,0.0075869,0.0084001,0.006777,0.008208,-0.0016803,-0.001456,0.0039424,0.0011326,-0.0060889,-0.025091,-0.022792,-0.010898,-0.018058,-0.0099225,-0.027104,-0.02042,-0.030685,-0.030816,-0.013903,-0.024093,-0.01733,-0.019795,-0.00070318,0.006738,0.012879,0.030667,0.036148,0.031314,0.04401,0.056417,0.070095,0.071086,0.080311,0.084811,0.091825,0.084845,0.09503,0.092527,0.10096,0.11281,0.093866,0.097187,0.10043,0.10826,0.10161,0.10524,0.099856,0.10226,0.0934,0.1002,0.090745,0.090833,0.092617,0.088967,0.083404,0.081703,0.075079,0.083092,0.079893,0.07344,0.074313,0.072137,0.080321,0.090542,0.096433,0.095619,0.10717,0.10052,0.10907,0.11828,0.12577,0.12941,0.12615,0.1354,0.1411,0.15526,0.15291,0.15541,0.16999,0.17281,0.16579,0.17929,0.18845,0.19214,0.19018,0.19703,0.20248,0.19665,0.20128,0.19338,0.19764,0.18958,0.18937,0.18085,0.17871,0.17467,0.17331,0.16958,0.15795,0.15595,0.14357,0.1361,0.136,0.12616,0.12787,0.12729,0.12422,0.13084,0.12082,0.1247,0.13064,0.13547,0.14305,0.12999,0.13806,0.14344,0.13575,0.13757,0.13807,0.13885,0.14141,0.14931,0.15234,0.15791,0.1524,0.15403,0.15324,0.15393,0.15372,0.14459,0.15727,0.15328,0.15506,0.1541,0.15662,0.15323,0.14222,0.15164,0.14434,0.13248,0.14039,0.13733,0.13732,0.13198,0.12328,0.1143,0.11649,0.11142,0.10994
