0.30352,0.30786,0.30339,0.30466,0.30235,0.30655,0.30422,0.31166,0.29949,0.31182,0.30554,0.30344,0.30255,0.30518,0.30455,0.30574,0.30229,0.30429,0.29725,0.3044,0.29553,0.30251,0.29189,0.29829,0.29971,0.30391,0.29974,0.30021,0.30371,0.30229,0.30083,0.3047,0.29685,0.30218,0.29914,0.29963,0.29759,0.30671,0.29897,0.30058,0.30469,0.30422,0.30195,0.30504,0.29738,0.30529,0.30128,0.29854,0.29614,0.30051,0.30074,0.38782,0.41413,0.4215,0.41118,0.39038,0.36303,0.34917,0.33816,0.33945,0.32456,0.32849,0.31582,0.30478,0.29922,0.28937,0.28962,0.28102,0.27471,0.28422,0.27755,0.28156,0.28069,0.27982,0.28395,0.27844,0.28018,0.2792,0.27712,0.28336,0.28808,0.28544,0.28068,0.28451,0.28516,0.28622,0.28531,0.287,0.28631,0.28824,0.28595,0.29452,0.28463,0.28967,0.29111,0.29209,0.2968,0.29379,0.29838,0.29019,0.30536,0.29265,0.29413,0.30075,0.29723,0.3007,0.29958,0.29801,0.29641,0.30156,0.29618,0.30171,0.29707,0.3082,0.29458,0.30488,0.29867,0.30044,0.2948,0.30317,0.29991,0.29335,0.30805,0.29478,0.29859,0.30285,0.29097,0.3052,0.29957,0.30299,0.29768,0.29929,0.30401,0.29288,0.30822,0.30008,0.29696,0.30865,0.29535,0.30173,0.30175,0.30514,0.29693,0.30752,0.30855,0.30763,0.30692,0.31083,0.30335,0.30451,0.30729,0.30343,0.30462,0.30586,0.30306,0.30471,0.31044,0.30799,0.30554,0.30827,0.30641,0.30589,0.30357,0.3032,0.30437,0.30384,0.30114,0.30039,0.30099,0.30157,0.30089,0.30264,0.30189,0.30397,0.3034,0.30745,0.30242,0.30812,0.30232,0.30262,0.31253,0.30483,0.30601,0.30157,0.30531,0.30914,0.303,0.30812,0.30316,0.30481,0.30871,0.30497,0.30512,0.30579,0.30788,0.31309,0.30349,0.30957,0.3044,0.30977,0.30652,0.30495,0.30265,0.30987,0.30678,0.30254,0.30374,0.3094,0.30375,0.30429,0.30231,0.30615,0.30492,0.30765,0.3075,0.30198,0.30758,0.30334,0.30427,0.31018,0.30337,0.30494,0.31053,0.3038,0.31147,0.30127,0.30706,0.3057,0.29782,0.31157,0.2982,0.31096,0.30383,0.30198,0.30868,0.30153,0.30433,0.30258,0.30407,0.30936,0.29677,0.31243,0.30267,0.30745,0.30216,0.30334,0.30845,0.30654,0.30534,0.3022,0.3052,0.30843,0.2987,0.30592,0.30405
0.029957,0.012725,-0.014371,0.0010119,0.0082657,0.018409,0.026887,0.0085658,0.010631,0.022261,-0.0095111,0.004292,-0.0067168,0.0067042,-8.0077e-05,0.017253,0.019475,0.025136,0.027251,0.019742,0.032841,0.023551,0.018832,0.050367,0.046609,0.041262,0.046722,0.070483,0.060316,0.062103,0.049108,0.044904,0.0084534,0.028227,0.0065752,0.0097907,0.032599,0.019794,-0.00045573,0.019669,0.0081247,0.005542,0.0037197,-0.01942,-0.026679,-0.011477,-0.015145,-0.028408,-0.010834,0.014622,-0.013282,-0.70042,-0.55791,-0.41782,-0.30243,-0.19144,-0.13315,-0.036877,0.022615,0.032744,0.091686,0.094454,0.11166,0.10342,0.13683,0.14989,0.14799,0.12667,0.15314,0.16316,0.14266,0.12343,0.096511,0.076295,0.072,0.078855,0.077256,0.032908,0.017619,0.03625,0.036625,0.0086046,-0.0096845,-0.02413,-0.039012,-0.034535,-0.039745,-0.035302,-0.071295,-0.042323,-0.0129,-0.022126,-0.065687,-0.066997,-0.050834,-0.020926,0.014624,-0.020948,-0.05482,-0.010036,-0.0014181,-0.033406,0.0094315,0.0062579,-0.019866,-0.0079147,0.027438,0.018031,0.020974,-0.021176,-0.017957,-0.0066026,0.030862,0.0089215,-0.0075181,0.019068,-0.013629,-0.034438,0.0064929,0.015139,-0.028359,-0.012691,-0.032963,-0.0048582,0.026085,-0.01298,-0.0032722,0.02559,-0.010895,-0.02206,0.040439,0.021099,-0.051097,0.024225,0.039286,0.0028086,0.00093649,0.025181,-0.024507,0.012304,0.027736,0.014382,0.0093402,0.022762,-0.003273,0.028348,0.034286,0.012738,-0.014791,0.0044722,0.0025365,0.02769,0.064121,0.017031,-0.022384,0.021012,0.051543,0.025612,0.0008489,0.011176,0.047567,0.039262,0.010242,-0.014832,0.0059904,0.019761,0.023149,0.030899,0.034477,0.016963,-0.0087017,-0.025463,-0.018152,0.034766,0.040583,0.030347,0.023462,-0.0052587,-0.00073399,0.037389,0.020984,0.0052603,0.0063694,0.039606,0.043384,0.0078172,0.014879,0.017338,0.021599,0.039173,0.045387,0.020331,0.007031,0.038404,0.044581,0.027935,0.013247,0.02906,0.029174,0.0060993,-0.0052064,0.011728,0.027643,0.013056,-0.011084,0.0046487,0.0043401,0.0093036,0.0061321,0.0054036,-0.017417,-0.016099,0.0034748,0.0024428,-0.0078596,-0.008948,-0.017361,-0.020272,-0.0023901,-0.047286,-0.032603,-0.029323,-0.036283,-0.02616,-0.042572,-0.046379,-0.071382,-0.060324,-0.041417,-0.061868,-0.065294,-0.06509,-0.064145,-0.024776,-0.039408,-0.065448,-0.074177,-0.0033633,0.0015906,-0.02804,-0.04007,-0.018347,-0.016938,-0.004841,-0.011197,0.021421,0.019394,0.019846,-0.0035096,0.026866,0.044797,0.010954,0.035969,0.024567,0.0085531
0.0061915,0.030223,0.012522,0.027569,0.024816,0.017394,0.044306,0.011827,-0.0020596,0.0067944,0.020604,-0.016865,-0.017622,-0.0053276,-0.017401,-0.0065847,-0.020664,-0.011603,-0.032115,-0.0305,-0.02918,-0.02009,-0.025839,-0.059012,-0.041238,-0.016398,-0.071674,-0.056592,-0.0026949,-0.072253,-0.0098979,-0.025409,-0.026711,0.019076,0.0060451,-0.011835,0.0060717,0.042229,-0.0017927,0.011963,0.031621,0.0043074,0.023294,0.032748,0.02403,0.051948,0.031762,0.0091123,0.018089,0.014247,-0.0135,1.1995,1.0709,0.82863,0.51389,0.25907,0.027915,-0.13761,-0.20461,-0.26456,-0.37996,-0.31027,-0.37904,-0.38588,-0.41806,-0.41645,-0.36397,-0.42194,-0.33741,-0.318,-0.30044,-0.21394,-0.21125,-0.15452,-0.12119,-0.087618,-0.034759,0.0033555,0.026786,0.068132,0.12314,0.11802,0.10977,0.15706,0.19638,0.16733,0.1833,0.16895,0.17461,0.13359,0.14864,0.15941,0.11005,0.10612,0.096338,0.1169,0.065273,0.05046,0.019083,0.039732,0.056515,-0.012235,0.017658,0.0027194,-0.040011,0.008414,-0.02314,-0.022358,-0.043333,-0.0017423,-0.042258,-0.053128,0.012802,-0.043169,-0.05928,-0.018918,-0.0095545,-0.054292,-0.038023,0.0024385,-0.064516,-0.033261,-0.013017,-0.048381,-0.0018194,-0.053203,-0.047716,-0.031799,-0.046045,-0.017747,-0.048742,-0.027388,-0.056192,-0.043256,0.052261,-0.093152,-0.018346,0.0013117,-0.043301,0.0063153,0.0025399,0.0022976,-0.0035299,0.009585,0.029576,0.011205,0.031958,0.012808,-0.0051718,0.038084,0.0021858,0.0095952,0.031324,-0.013935,-0.040388,0.0064485,0.034068,-0.010632,-0.024725,-0.0075627,-0.0355,-0.014639,-0.025534,-0.021387,0.0019981,-0.0036344,-0.023763,-0.032305,-0.015707,0.0084061,0.017614,0.0062759,0.042877,0.02003,0.019262,0.035712,0.025303,0.02733,0.001769,0.026543,0.033418,0.011253,0.0066311,-0.0097865,0.012301,0.0011109,0.0070255,0.022392,-0.034198,-0.002164,-0.0049268,-0.034083,-0.0042177,-0.032217,-0.0020741,-0.019343,-0.021909,0.013239,-0.049888,-0.039339,-5.9395e-05,-0.020228,-0.051029,-0.005523,0.015557,-0.058578,-0.027808,0.0022137,-0.021595,-0.044023,-0.015047,-0.015463,-0.059168,-0.0064642,-0.04289,-0.05489,-0.021591,-0.03947,-0.044838,-0.019147,-0.033598,-0.022752,-0.011995,0.0076048,0.01445,-0.025961,0.033769,-0.011026,0.01552,0.010988,-0.011355,0.055877,0.010376,0.017542,0.017413,-0.0034482,0.020852,-0.019923,0.041167,-0.013993,-0.024298,0.025768,0.0034622,0.0023596,0.011781,-0.0011477,0.0010919,0.024911,-0.001025,0.0040206,0.033591,0.025903,-0.010485,0.025276,0.0087905
-0.069668,-0.069352,-0.058876,-0.056516,-0.035456,-0.043021,-0.032947,-0.022679,-0.005614,-0.016696,-0.016747,-0.022489,-0.027093,-0.044377,-0.05687,-0.073784,-0.066999,-0.074119,-0.064909,-0.074536,-0.073282,-0.068674,-0.05508,-0.050535,-0.036647,-0.020716,-0.012581,0.0061744,0.013813,0.031993,0.035327,0.04597,0.057327,0.049716,0.062144,0.076191,0.083887,0.095577,0.11549,0.12153,0.14064,0.14119,0.14199,0.15624,0.17227,0.16355,0.16583,0.17338,0.17529,0.17452,0.17066,0.16058,0.17011,0.1918,0.20741,0.22333,0.23397,0.22928,0.22548,0.21815,0.19944,0.18746,0.17366,0.14424,0.137,0.10713,0.088724,0.078848,0.054967,0.044226,0.029556,0.016814,0.002764,-0.016631,-0.0338,-0.050126,-0.067176,-0.084038,-0.11038,-0.11654,-0.13328,-0.13798,-0.13732,-0.151,-0.15415,-0.16445,-0.15196,-0.16859,-0.15385,-0.14314,-0.13653,-0.12643,-0.12404,-0.11174,-0.10944,-0.074101,-0.062129,-0.053919,-0.039991,-0.035604,-0.010296,-0.0080764,0.0042613,-0.0011292,-3.2741e-05,0.0049994,0.017157,0.011237,0.0080091,-0.010521,-0.0046992,-0.0068315,-0.030451,-0.038747,-0.037585,-0.06,-0.094518,-0.088976,-0.12705,-0.12963,-0.14368,-0.18487,-0.17269,-0.19432,-0.20887,-0.21663,-0.22117,-0.23345,-0.25628,-0.22304,-0.25682,-0.27386,-0.25554,-0.27546,-0.2813,-0.28187,-0.29035,-0.30204,-0.30664,-0.31253,-0.31225,-0.3113,-0.31599,-0.31189,-0.3083,-0.30259,-0.30742,-0.29655,-0.28639,-0.28921,-0.26941,-0.25664,-0.26279,-0.25102,-0.23165,-0.22362,-0.22373,-0.22416,-0.22076,-0.20263,-0.18842,-0.17559,-0.16364,-0.14819,-0.13672,-0.12641,-0.10686,-0.093005,-0.073053,-0.058326,-0.04872,-0.048708,-0.031294,-0.019548,0.00044765,0.013021,0.0094768,0.014897,0.016469,0.023562,0.028819,0.023948,0.038286,0.031502,0.028653,0.030649,0.024705,0.02896,0.032967,0.033974,0.034584,0.025932,0.036973,0.030971,0.03256,0.028098,0.037117,0.044075,0.04926,0.043222,0.050468,0.067712,0.072418,0.076111,0.082559,0.077397,0.083717,0.07701,0.078597,0.079472,0.081848,0.083748,0.078831,0.079536,0.073505,0.06877,0.075607,0.071963,0.071538,0.076893,0.071765,0.065539,0.074106,0.070027,0.075085,0.069001,0.079779,0.078941,0.07686,0.072315,0.072661,0.078028,0.075993,0.078981,0.072883,0.054262,0.061673,0.055419,0.057817,0.054857,0.05646,0.057839,0.05912,0.058097,0.062419,0.080561,0.083335,0.084929,0.10202,0.10145,0.108,0.12058,0.11437,0.12079,0.12764
