0.30122,0.30318,0.30509,0.30002,0.30783,0.31045,0.30705,0.31254,0.30521,0.31115,0.30549,0.30179,0.30486,0.30594,0.30689,0.30718,0.30641,0.30939,0.30915,0.30634,0.30659,0.30921,0.30893,0.30788,0.31237,0.31327,0.30559,0.31246,0.31223,0.30735,0.30895,0.31104,0.30959,0.3089,0.3102,0.31508,0.3087,0.30543,0.3129,0.31232,0.30649,0.31061,0.31138,0.30523,0.30907,0.30939,0.307,0.30179,0.3089,0.3078,0.30539,0.37342,0.40843,0.42264,0.42266,0.40941,0.3826,0.37184,0.35535,0.34618,0.33776,0.32343,0.32082,0.31164,0.30038,0.30563,0.29613,0.2955,0.29857,0.2871,0.2906,0.29227,0.28335,0.28932,0.28053,0.28903,0.27687,0.2898,0.28658,0.28625,0.2866,0.27918,0.29163,0.28415,0.28668,0.28564,0.28453,0.29215,0.29065,0.29282,0.29222,0.29546,0.29282,0.29281,0.29835,0.2996,0.29056,0.2986,0.29581,0.29948,0.30315,0.2999,0.30367,0.30334,0.29874,0.30638,0.30057,0.29979,0.30363,0.30571,0.30122,0.3017,0.3069,0.30442,0.30827,0.29962,0.30368,0.30537,0.30928,0.30395,0.30634,0.31004,0.30759,0.30333,0.30668,0.30705,0.30023,0.30965,0.30879,0.30415,0.31014,0.30295,0.31189,0.30724,0.30447,0.30891,0.3077,0.30527,0.30947,0.31017,0.30357,0.31023,0.31196,0.30644,0.30578,0.31052,0.30384,0.30264,0.31203,0.30797,0.30467,0.3079,0.30725,0.31054,0.31366,0.30684,0.30618,0.31026,0.30913,0.30595,0.30746,0.3085,0.30714,0.30726,0.30446,0.31277,0.30823,0.30543,0.30726,0.31065,0.30815,0.31025,0.3091,0.30699,0.30666,0.30685,0.30796,0.30788,0.30967,0.30642,0.30823,0.31095,0.30972,0.31101,0.30948,0.30865,0.30831,0.30932,0.30746,0.30765,0.3048,0.30828,0.30815,0.30738,0.30866,0.30889,0.30827,0.3091,0.30837,0.30795,0.3085,0.30648,0.30828,0.30558,0.31083,0.3035,0.31002,0.30573,0.30728,0.30844,0.30695,0.31051,0.30699,0.30713,0.30687,0.30571,0.30668,0.30628,0.30897,0.30704,0.30757,0.30742,0.308,0.30653,0.30575,0.30732,0.30421,0.30703,0.30628,0.30532,0.31157,0.30872,0.30607,0.30861,0.30692,0.30865,0.30427,0.30437,0.30687,0.30443,0.30988,0.30869,0.30671,0.31166,0.30387,0.30358,0.30977,0.30256,0.30341,0.30469,0.30497
-0.025824,-0.02019,-0.066198,-0.056085,-0.026065,-0.024847,0.014001,-0.021403,-0.010217,-0.011667,-0.035319,0.012765,0.012465,0.030594,0.023654,-0.00821,0.0016906,0.00090941,0.0083217,0.023382,0.020216,0.034498,0.0024138,0.025963,0.052963,0.0087777,0.012972,0.025105,0.0001793,0.018834,0.01641,0.010562,-0.0087562,-0.026133,0.011802,0.00053822,-0.039254,-0.014708,0.00064302,-0.026772,-0.023496,0.0029692,-0.029775,-0.034575,-0.012617,-0.0063927,-0.038737,-0.038363,-0.013011,-0.016337,-0.021937,-0.52984,-0.40835,-0.31468,-0.22324,-0.20222,-0.14617,-0.11449,-0.091483,-0.031291,-0.037286,0.052711,0.085764,0.07982,0.14165,0.13284,0.15464,0.2146,0.18043,0.19028,0.24466,0.18124,0.21975,0.16662,0.20624,0.17304,0.16509,0.21768,0.15587,0.21993,0.087931,0.15912,0.098098,0.09806,0.098993,0.03298,0.044901,-0.012223,0.0069814,-0.010944,-0.024477,-0.043827,-0.096158,-0.065679,-0.054804,-0.10144,-0.11503,-0.13158,-0.14487,-0.086276,-0.12572,-0.097136,-0.1218,-0.12823,-0.086303,-0.079751,-0.098507,-0.066165,-0.060713,-0.050411,-0.069268,-0.02156,-0.035476,0.020761,-0.025605,-0.022278,0.0093086,0.032541,0.03509,-0.006616,0.046478,0.02434,0.032828,0.034732,0.072363,-0.0021925,0.047481,0.050196,0.019333,0.043593,-0.0039461,0.024922,0.039633,0.0068284,0.042861,0.002191,-0.0063305,-0.005326,0.027521,-0.023634,-0.01458,0.014425,-0.016586,-0.042323,-0.014344,-0.0042744,-0.052493,-0.0055679,-0.012861,-0.032824,-0.036799,-0.049599,-0.032714,0.010943,-0.019883,-0.037202,-0.019595,-0.016793,-0.025755,-0.018741,-0.013856,-0.019545,-0.018828,-0.046198,0.012984,0.020706,-0.029653,-0.014124,-0.007667,0.0021191,-0.0037554,0.014411,-0.0013458,0.010719,-0.010765,0.0055285,-0.010452,0.012507,-0.0046779,-0.0063557,0.009144,0.0018916,0.012848,0.0092525,0.013551,0.0080926,-0.00028759,-0.0058151,0.0035246,-0.009517,-0.0050274,0.0072032,-0.016179,-0.0055417,-0.0086721,-0.011492,-0.015509,-0.0091775,-0.020636,-0.011138,-0.025289,-0.001569,-0.021645,-0.00031605,-0.030299,-0.0086102,0.0054331,-0.017774,0.016617,-0.020281,0.032658,0.0038673,0.0079268,-0.0018747,-0.014503,-0.020162,-0.012161,2.1086e-05,0.0059226,-0.0088628,0.0015584,0.00058092,0.01445,-0.0028396,0.012758,-0.0090094,0.0021519,0.011979,-0.019766,-0.0049445,0.0032442,-0.0052953,0.0060526,0.0089922,0.024259,0.0090227,-0.0020098,0.016654,-0.017952,0.010308,0.019103,0.0055729,0.060041,0.019332,-0.025833,0.011662,-0.016923,-0.010442,0.0052335,-0.008493,0.0034109
-0.02036,-0.028262,-0.0097739,-0.042366,-0.016244,0.0064941,-0.021053,0.022177,-0.029802,0.03927,0.015537,0.0089461,0.027925,-0.0034141,0.01918,0.024729,0.016505,0.013515,0.030204,0.036247,-0.0097627,0.039874,-0.0073749,-0.0085545,0.043286,0.017741,-0.02769,0.024633,-0.0066351,-0.015675,-0.0027263,-0.017114,-0.015011,-0.023243,-0.034132,-0.0094909,-0.035666,-0.051329,-0.011931,-0.0020505,-0.05523,-0.015055,-0.021205,-0.051132,0.0057047,-0.037196,0.0018038,-0.063602,0.0013815,-0.01901,-0.017336,0.78882,0.73737,0.62545,0.43184,0.25591,0.11187,0.071312,-0.063175,-0.10645,-0.14836,-0.24405,-0.23367,-0.25958,-0.326,-0.27287,-0.2886,-0.30371,-0.19284,-0.26993,-0.20846,-0.18408,-0.1979,-0.097005,-0.19454,0.056029,-0.14305,0.037436,-0.00033668,0.071346,0.10614,0.047791,0.18622,0.10379,0.16942,0.17229,0.17088,0.20722,0.17289,0.1878,0.13564,0.17096,0.11958,0.12899,0.12044,0.1107,0.014451,0.083457,-0.011178,0.021614,0.005417,-0.037021,-0.054287,-0.044609,-0.1044,-0.035962,-0.10057,-0.10124,-0.094311,-0.078031,-0.10288,-0.088994,-0.079872,-0.11121,-0.044263,-0.11361,-0.038625,-0.096462,-0.025794,-0.08178,-0.032051,-0.040566,0.0075189,-0.042301,-0.0086753,0.019507,-0.053634,0.0091757,0.049202,-0.014632,0.042689,-0.052573,0.051265,-0.00097534,0.0092079,0.0051127,0.036068,-4.3326e-05,0.020214,0.050429,-0.024637,-0.0068372,0.039355,0.012336,-0.025691,0.034526,0.0027161,-0.038611,-0.0016536,0.0076895,-0.020715,-0.0081236,-0.024372,-0.020744,0.025209,-0.026023,-0.028545,0.0055113,0.016366,-0.040412,-0.012365,-0.0047391,-0.010771,-0.0074023,-0.048918,0.040116,-0.023091,-0.0046674,-0.00030332,0.031489,-0.010629,0.0064854,-0.025486,0.014784,-0.016108,-0.01192,0.0083564,-0.01324,0.010647,-0.0065182,0.0038138,0.0019612,-0.0020004,0.0041129,0.01558,-0.0040091,-0.0033595,-0.007333,-0.020708,0.0062059,-0.038624,-0.0011034,-0.026426,-0.012208,-0.021526,-0.014807,-0.03062,-0.015129,-0.045042,-0.01289,-0.00053589,-0.01563,0.00083072,-0.047319,0.02599,-0.05054,0.016691,-0.038244,0.0017172,-0.014538,-0.024248,0.0059966,-0.012879,-0.013429,-0.0029175,-0.015501,0.0078409,-0.037885,0.01254,-0.011495,-0.0074318,-0.008424,0.0091676,0.0077838,-0.0079638,0.010772,-0.0076128,0.0078617,0.013051,-0.030071,0.0035515,0.011976,-0.0073381,0.0088768,-0.019946,0.015384,-0.0032462,0.0065227,0.036961,-0.015723,0.025678,-0.0051614,-0.017844,0.04787,-0.027664,-0.018034,0.045832,0.014391,0.022319,0.0079926,-0.032004
-0.16806,-0.1778,-0.17639,-0.17496,-0.17429,-0.15954,-0.16326,-0.1528,-0.14879,-0.14756,-0.13704,-0.12628,-0.11765,-0.10822,-0.1084,-0.095904,-0.086858,-0.08323,-0.080047,-0.06384,-0.065442,-0.065417,-0.05578,-0.049732,-0.05629,-0.05314,-0.057624,-0.060098,-0.061435,-0.066807,-0.066361,-0.073258,-0.083916,-0.072765,-0.073608,-0.080123,-0.075698,-0.062735,-0.062351,-0.055336,-0.040779,-0.042477,-0.034623,-0.031519,-0.026125,-0.033563,-0.024883,-0.032965,-0.02217,-0.023955,-0.01946,-0.026261,-0.018209,-0.0078647,-0.0086015,0.003878,-0.012811,-0.021172,-0.019106,-0.04563,-0.050871,-0.059089,-0.065653,-0.058022,-0.056492,-0.057162,-0.045861,-0.058494,-0.049686,-0.045468,-0.027355,-0.019466,-0.019515,-0.0056781,0.0013799,0.0011728,0.0078406,0.0080269,0.01008,0.025086,0.021249,0.027986,0.037214,0.044215,0.04392,0.056387,0.049841,0.05327,0.067563,0.073734,0.068325,0.071165,0.074257,0.077742,0.066936,0.071994,0.05796,0.058883,0.047116,0.04566,0.0397,0.03042,0.020945,0.031537,0.017134,0.020856,-6.3846e-05,0.012595,-0.0085832,-0.011399,-0.013259,-0.0075067,-0.0020256,-0.018929,-0.011648,-0.019006,-0.0046781,-0.014064,-0.004357,-0.017844,-0.0039883,-0.025243,-0.0090948,-0.0079182,-0.013544,-0.0073726,-0.0094983,-0.00087629,-0.0021689,-0.01193,-0.00076677,-0.014322,0.0058763,0.004444,0.013442,0.0037566,0.015797,0.020955,0.016373,0.014199,0.020266,0.034266,0.013317,0.022894,0.033055,0.026112,0.030556,0.031343,0.028577,0.029388,0.015489,0.022257,0.034496,0.032483,0.01907,0.021153,0.02298,0.016429,0.020379,0.020269,0.014483,0.013611,-0.0039914,0.010978,0.014806,0.02104,0.0093429,0.020085,0.014583,0.025204,0.022498,0.030502,0.024398,0.025148,0.023117,0.024844,0.031624,0.026455,0.0281,0.027682,0.024594,0.025324,0.020045,0.01861,0.017023,0.019641,0.01605,0.023393,0.012758,0.017174,0.010256,0.010443,0.0036883,0.0085104,0.00057197,0.0078529,0.0018113,0.004755,-0.0066047,-0.016543,-0.019334,-0.026378,-0.017165,-0.041269,-0.024719,-0.03767,-0.027654,-0.040786,-0.040815,-0.041863,-0.034296,-0.03241,-0.022861,-0.026022,-0.022787,-0.027127,-0.019387,-0.018608,-0.0151,-0.021738,-0.015438,-0.012495,-0.0066336,-0.0027929,-0.011503,-0.0089325,-0.0064109,-0.010244,-0.0087469,-0.0056383,-0.0059493,-0.0059646,-0.011621,-0.0078342,-0.014579,-0.010543,-0.01015,-0.018684,-0.017535,-0.022787,-0.028765,-0.011934,-0.015743,-0.021434,-0.015664,-0.015563,-0.0087454,-0.0063882,-0.0049688,-0.0034133,0.004757
