0.30306,0.30795,0.30524,0.30366,0.30975,0.30827,0.30115,0.30155,0.30533,0.30785,0.30646,0.30398,0.31627,0.30811,0.309,0.30641,0.29842,0.30161,0.29905,0.30388,0.30516,0.30369,0.30856,0.30407,0.30744,0.30435,0.30489,0.30508,0.30645,0.30275,0.30508,0.30474,0.30084,0.3072,0.30284,0.30489,0.30842,0.30346,0.30766,0.30432,0.30953,0.30146,0.30872,0.30223,0.30157,0.3073,0.30292,0.30599,0.3045,0.30603,0.31056,0.41008,0.43805,0.44315,0.44132,0.40936,0.38304,0.36107,0.34723,0.34084,0.33634,0.33134,0.31912,0.3096,0.29842,0.29476,0.28653,0.27607,0.28088,0.27506,0.27054,0.27603,0.26964,0.27554,0.26645,0.2705,0.26883,0.28174,0.27671,0.28153,0.27293,0.27736,0.28353,0.29345,0.29072,0.29238,0.29394,0.30293,0.29455,0.29639,0.29377,0.29724,0.29587,0.3002,0.30315,0.30264,0.30535,0.30204,0.30505,0.30647,0.30641,0.30709,0.31186,0.30654,0.30957,0.31704,0.30597,0.31514,0.31623,0.30818,0.3088,0.31416,0.30813,0.30802,0.30979,0.30578,0.30986,0.3033,0.30236,0.30452,0.3038,0.30553,0.29584,0.29852,0.30238,0.29487,0.29941,0.30488,0.29564,0.29902,0.3048,0.29805,0.30005,0.29733,0.30079,0.30211,0.29411,0.29672,0.29979,0.29136,0.30508,0.2965,0.29975,0.30633,0.30358,0.30935,0.30858,0.29907,0.31121,0.30248,0.30524,0.2994,0.30596,0.29987,0.30159,0.30531,0.30684,0.31066,0.30798,0.30644,0.3133,0.30585,0.30104,0.30512,0.3025,0.30671,0.30455,0.30699,0.30665,0.30309,0.30476,0.30183,0.30473,0.30349,0.30171,0.30146,0.30308,0.30273,0.30575,0.30283,0.30086,0.29933,0.30349,0.30398,0.30569,0.30318,0.30504,0.30187,0.31347,0.30752,0.30454,0.30342,0.31377,0.30984,0.30419,0.3114,0.31065,0.3071,0.30837,0.30469,0.30715,0.30803,0.30307,0.3071,0.30077,0.30934,0.30757,0.30891,0.30778,0.30322,0.30785,0.30295,0.30425,0.30818,0.31111,0.30535,0.30728,0.30942,0.30756,0.30645,0.30837,0.30921,0.30392,0.3072,0.30066,0.31012,0.30868,0.3097,0.3027,0.30761,0.30776,0.30671,0.30444,0.31062,0.31193,0.30912,0.30588,0.30928,0.30431,0.30494,0.3042,0.30696,0.30608,0.30629,0.30856,0.30889,0.30446,0.30826,0.30706,0.30792,0.31238,0.3045,0.30699,0.30651,0.30239,0.30954,0.30769,0.30581,0.30362,0.31174
0.04908,0.056136,0.039013,0.053901,0.063394,0.054143,0.023619,0.0085388,0.028353,-0.0029614,-0.00024807,-0.0046568,-0.013383,0.001726,-0.026249,-0.050429,-0.055528,-0.06991,-0.038991,-0.054229,-0.03398,-0.058683,-0.048068,-0.061016,-0.065075,-0.067507,-0.079723,-0.060506,-0.070246,-0.070782,-0.076861,-0.053759,-0.062717,-0.064521,-0.049698,-0.055251,-0.040742,-0.047423,-0.021578,-0.030895,-0.015744,-0.0041236,-0.011896,-0.0054279,0.0039415,0.028965,0.033934,0.016737,0.020148,0.011299,0.036902,-0.26128,-0.11517,-0.07458,-0.021808,-0.0371,-0.065573,-0.058376,-0.076909,-0.041632,-0.055059,-0.04605,-0.036238,-0.048003,-0.034173,-0.029752,-0.025595,0.0055329,-0.05769,-0.012402,-0.052993,-0.015002,-0.018385,-0.012523,-0.033724,-0.042611,-0.064441,-0.014611,-0.021031,-0.03598,-0.077426,-0.038069,-0.027541,0.02372,-0.050114,-0.0023909,0.00084213,0.030791,0.026426,0.024662,0.038937,0.042931,0.083937,0.086291,0.12423,0.11088,0.11546,0.094423,0.093228,0.073492,0.13733,0.11576,0.083538,0.15745,0.09863,0.10829,0.10537,0.11056,0.056497,0.083851,0.11038,0.024033,0.038833,0.0076796,0.044697,0.062962,-0.0086339,-0.012596,-0.050673,-0.040669,-0.046905,-0.082586,-0.00964,-0.059958,-0.060027,-0.066522,-0.065704,-0.067574,-0.039262,-0.034409,-0.074036,-0.074933,-0.10389,-0.058436,-0.044103,-0.06941,-0.0086691,-0.1022,-0.014899,-0.0097038,-0.019178,-0.0055787,-0.01524,0.01174,0.083467,0.027867,0.038266,0.042764,0.048741,0.036109,0.027579,0.042984,0.050519,0.06525,0.047954,0.053844,0.061265,0.041324,0.024754,0.06187,0.012725,0.014979,-0.013667,0.031156,0.029102,0.035283,0.022249,-0.01198,-0.026145,-0.024132,0.0011426,0.025486,0.014272,-0.016069,-0.032712,-0.044582,-0.012201,-0.0024068,0.0077358,-0.016331,-0.044082,-0.03111,-0.010332,-0.015888,0.016132,-0.055691,-0.037857,-0.022796,-0.033092,-0.04136,-0.018749,0.0074252,0.0087223,-0.012553,-0.021448,-0.058924,-0.015953,-0.01845,-0.053268,-0.0040005,-0.022748,0.027509,-0.0044551,-0.033613,-0.040861,-0.040485,0.024071,0.0061361,0.0034643,-0.013204,-0.032339,-0.017301,0.023369,0.02701,0.0080815,0.0041247,-0.0052397,0.0067133,0.0027135,0.016863,0.0062058,0.041022,0.0096525,0.0065218,0.014715,0.038305,0.013614,-0.0073009,-0.0088709,0.023075,0.010859,-0.0061394,-0.014107,0.012142,-0.012369,0.0054969,-0.00012689,-0.00040419,0.0040169,0.0014423,0.018855,0.014293,-0.0087236,0.019375,-0.0047498,0.004941,0.011483,-0.011752,0.010631,-0.00084142,-0.016669,0.0080458,-0.027176,-0.02767,-0.007308,0.0083237,-0.016708,-0.00091172,-0.0030558,-0.024483
0.071024,0.040754,-0.0061837,0.047146,0.034896,0.0087487,0.0068127,0.02154,0.065249,-0.0072039,0.016668,0.046921,-0.0031175,0.031612,0.0010549,-0.0027794,-0.0017868,0.016235,0.019553,-0.014809,-0.012946,-0.011972,-0.015131,-0.024853,0.015284,-0.036029,0.0055045,-0.0015449,-0.03209,0.016513,-0.012544,0.0056485,0.02975,-0.034258,0.0065026,0.014289,-0.0044287,-0.031201,0.027372,-0.01672,-0.010507,0.016896,-0.023162,-0.0042834,0.010915,-0.027161,-0.0085004,-0.025959,-0.041133,-0.0016627,-0.027237,1.1798,1.0534,0.83743,0.59127,0.33773,0.20112,0.027759,-0.051437,-0.12276,-0.1749,-0.24247,-0.32012,-0.37119,-0.36336,-0.41985,-0.44468,-0.43049,-0.42715,-0.41047,-0.44356,-0.33547,-0.39137,-0.32017,-0.34042,-0.24051,-0.19802,-0.13017,-0.14029,-0.093022,-0.052266,0.033466,0.063397,0.071709,0.04204,0.1559,0.17389,0.22427,0.1563,0.2299,0.23818,0.23838,0.21893,0.2129,0.18635,0.16879,0.16932,0.14156,0.14138,0.10793,0.14602,0.08774,0.031482,0.058771,0.070831,-0.035863,-0.014002,0.043122,-0.082524,-0.020667,-0.051261,-0.058885,-0.059397,-0.053744,0.0059166,-0.056472,-0.098453,-0.077746,-0.049887,0.0093089,-0.076727,-0.06312,-0.029306,-0.013174,-0.07368,-0.052305,0.030962,-0.066943,-0.0063182,-0.047329,-0.041258,-0.015357,0.0038581,0.049627,-0.0037963,-0.026492,0.016358,-0.0092915,0.015657,0.015919,-0.0092401,-0.062104,0.042497,-0.032634,0.017616,-0.062449,-0.023224,-0.021052,0.036415,-0.056773,-0.0039672,0.026657,0.015059,-0.027468,-0.0062741,-0.020325,0.022542,-0.020061,0.004423,0.033566,-0.011702,-0.006489,0.0096259,0.025668,0.0097617,-0.020959,-0.036265,-0.017636,-0.014207,-0.00094172,-0.0098274,-0.040167,-0.044185,-0.057628,-0.027921,-0.010291,0.011728,-0.0064702,-0.020189,-0.077543,-0.031624,-0.017958,-0.0030714,-0.028865,-0.026902,-0.060668,0.0097779,-0.0041575,0.0086296,-0.057105,-0.01938,0.026895,-0.047946,-0.068631,-0.0069295,-0.012614,0.011455,-0.011217,-0.036435,-0.013141,-0.0040982,0.017065,-0.059752,-0.024783,-0.007088,0.030567,0.024915,-0.013403,-0.016567,-0.0020126,0.036334,0.0039443,0.0188,-0.0048218,-0.030101,-0.020529,0.0071145,0.0095609,-0.022976,0.011557,-0.034028,0.014882,-0.030444,-0.016526,-0.011401,0.040612,-0.030114,-0.026663,0.0069929,0.046554,-0.018302,-0.033743,0.01011,0.054886,-0.0054349,-0.024681,-0.036518,0.010376,-0.021657,-0.02513,-0.011485,-0.023758,-0.029526,-0.012198,-0.034527,-0.043398,-0.024606,-0.017038,-0.00097415,-0.005484,-0.042838,-0.0025902,-0.012317,0.00057557,0.0011134,0.043826,-0.030624,0.0038579,-0.0087102,-0.0018893
0.060687,0.066752,0.077361,0.10222,0.11636,0.13121,0.14225,0.16035,0.16567,0.17355,0.17567,0.18095,0.19243,0.19323,0.19979,0.19592,0.19252,0.19195,0.18642,0.17978,0.15797,0.1455,0.12172,0.10357,0.088684,0.068625,0.058892,0.044172,0.025753,0.0069114,-0.0086025,-0.018722,-0.030606,-0.044573,-0.045894,-0.051785,-0.063003,-0.062618,-0.062945,-0.068116,-0.069752,-0.074745,-0.074739,-0.080417,-0.07321,-0.069576,-0.071799,-0.079085,-0.076277,-0.063933,-0.074347,-0.077865,-0.073362,-0.063822,-0.05446,-0.042194,-0.029045,-0.042627,-0.040108,-0.068947,-0.079951,-0.093017,-0.12554,-0.1323,-0.16255,-0.17861,-0.18129,-0.19326,-0.1933,-0.22435,-0.21968,-0.22897,-0.22646,-0.23005,-0.23447,-0.23487,-0.22865,-0.20955,-0.21655,-0.22128,-0.21838,-0.19583,-0.18137,-0.20099,-0.19957,-0.18524,-0.16429,-0.16153,-0.1521,-0.1488,-0.1382,-0.1318,-0.12445,-0.12826,-0.11894,-0.1047,-0.11178,-0.11892,-0.14212,-0.12385,-0.1309,-0.16791,-0.15245,-0.15798,-0.19308,-0.19113,-0.16672,-0.19488,-0.20331,-0.17423,-0.19704,-0.19406,-0.19872,-0.18618,-0.15282,-0.16935,-0.15487,-0.16526,-0.13271,-0.14521,-0.16152,-0.13465,-0.12067,-0.13276,-0.13424,-0.1244,-0.13993,-0.13246,-0.1292,-0.12959,-0.13098,-0.15645,-0.13416,-0.13364,-0.13523,-0.12241,-0.13686,-0.13459,-0.11497,-0.12989,-0.13681,-0.1349,-0.14394,-0.11774,-0.13792,-0.12785,-0.11355,-0.097604,-0.11402,-0.12675,-0.11349,-0.11571,-0.10757,-0.11388,-0.12624,-0.10466,-0.129,-0.12111,-0.10548,-0.12041,-0.12224,-0.14162,-0.12477,-0.13079,-0.13027,-0.12814,-0.13616,-0.14243,-0.14773,-0.13997,-0.12831,-0.12497,-0.13784,-0.14626,-0.15012,-0.13833,-0.13889,-0.131,-0.1328,-0.1499,-0.1533,-0.13554,-0.13977,-0.1198,-0.13027,-0.12713,-0.10723,-0.10205,-0.13793,-0.13494,-0.11205,-0.090711,-0.091702,-0.09602,-0.11275,-0.10851,-0.10228,-0.12513,-0.11628,-0.12648,-0.10935,-0.11581,-0.12163,-0.13063,-0.1403,-0.12353,-0.13365,-0.14004,-0.14089,-0.14246,-0.14633,-0.12516,-0.12522,-0.13425,-0.12365,-0.12028,-0.12342,-0.13312,-0.12398,-0.13732,-0.11406,-0.1186,-0.1135,-0.1103,-0.090539,-0.09742,-0.1101,-0.12414,-0.11149,-0.1138,-0.11647,-0.11982,-0.098158,-0.10078,-0.09963,-0.096816,-0.089308,-0.086225,-0.083581,-0.077877,-0.080835,-0.096261,-0.0836,-0.086149,-0.082155,-0.072391,-0.079677,-0.07105,-0.073559,-0.08252,-0.069932,-0.081078,-0.082126,-0.080977,-0.06377,-0.076874,-0.063631,-0.060616,-0.075192,-0.063598
