-0.44899,-0.44927,-0.44972,-0.45019,-0.45084,-0.45156,-0.45235,-0.45311,-0.4538,-0.45459,-0.45517,-0.45568,-0.45605,-0.45633,-0.45654,-0.45659,-0.45666,-0.4565,-0.45635,-0.45603,-0.45572,-0.45537,-0.4548,-0.45418,-0.4536,-0.45284,-0.45203,-0.45132,-0.45049,-0.44983,-0.44912,-0.44856,-0.44814,-0.44784,-0.44761,-0.44748,-0.44757,-0.44775,-0.448,-0.44835,-0.44877,-0.44923,-0.44982,-0.45045,-0.4512,-0.45194,-0.45265,-0.45338,-0.45401,-0.45448,-0.45481,-0.45503,-0.45501,-0.45432,-0.45242,-0.44844,-0.44176,-0.43204,-0.41956,-0.40418,-0.38678,-0.36738,-0.34652,-0.32423,-0.30112,-0.27743,-0.25346,-0.22961,-0.20608,-0.18324,-0.16143,-0.14075,-0.12142,-0.10354,-0.087271,-0.072682,-0.05991,-0.048871,-0.039601,-0.032132,-0.026377,-0.022129,-0.019415,-0.018195,-0.018146,-0.019237,-0.021211,-0.024029,-0.027366,-0.031182,-0.035379,-0.0398,-0.044222,-0.048626,-0.052992,-0.057139,-0.060921,-0.064376,-0.067489,-0.070169,-0.072434,-0.074256,-0.075597,-0.076402,-0.076914,-0.076884,-0.076575,-0.075713,-0.074782,-0.073294,-0.071586,-0.069666,-0.06751,-0.065091,-0.062562,-0.059944,-0.05713,-0.054252,-0.051266,-0.048246,-0.045138,-0.042028,-0.038957,-0.035864,-0.032804,-0.029764,-0.026696,-0.023686,-0.020823,-0.018002,-0.015154,-0.012463,-0.0098709,-0.0075732,-0.005169,-0.003047,-0.0010049,0.00084328,0.0024876,0.0039611,0.0052197,0.0062634,0.0071453,0.0077353,0.0081773,0.008366,0.0084791,0.0084357,0.0082553,0.0080736,0.0077757,0.0074057,0.0071012,0.0068829,0.0066367,0.0063342,0.0060851,0.0059206,0.0057794,0.0058259,0.0058853,0.0060422,0.0062226,0.0064412,0.0066795,0.0069872,0.0073408,0.0077069,0.0079507,0.0081122,0.0082321,0.0081558,0.0080353,0.007817,0.0074027,0.0068908,0.0063517,0.0057788,0.0052272,0.0045821,0.003954,0.003385,0.0028909,0.0024828,0.0020676,0.0016834,0.0013405,0.0011839,0.0010542,0.0010266,0.0011107,0.0012442,0.0015189,0.0018509,0.0022507,0.0026632,0.0030235,0.0036346,0.004319,0.0049544,0.00563,0.006512,0.0073321,0.0080165,0.0088969,0.0098072,0.01063,0.011448,0.012372,0.013221,0.014088,0.015083,0.016017,0.017005,0.018047,0.019107,0.020122,0.02128,0.022328,0.023348,0.024396,0.025285,0.026042,0.026639,0.027177,0.027544,0.027793,0.027969,0.028051,0.028045,0.027865,0.027537,0.027184,0.026746,0.026258,0.02568,0.02517,0.024558,0.023954,0.023371,0.02274,0.022055,0.021406,0.020601,0.01987,0.019062,0.018175,0.017254,0.016257,0.015229,0.014027,0.012895,0.011714,0.010481,0.0092734
-0.49653,-0.49584,-0.495,-0.4944,-0.49342,-0.49279,-0.49195,-0.49117,-0.4904,-0.48975,-0.4891,-0.48854,-0.48802,-0.48756,-0.487,-0.48655,-0.48586,-0.48537,-0.48462,-0.48396,-0.48325,-0.48251,-0.48159,-0.48068,-0.47975,-0.47863,-0.47732,-0.47613,-0.4746,-0.47326,-0.47188,-0.47068,-0.46947,-0.46864,-0.4677,-0.46691,-0.46637,-0.46586,-0.46541,-0.46525,-0.46498,-0.46506,-0.46525,-0.46562,-0.46607,-0.46675,-0.46754,-0.46827,-0.46906,-0.47004,-0.47101,-0.47201,-0.47293,-0.47354,-0.47355,-0.47266,-0.47029,-0.46694,-0.46222,-0.45609,-0.44905,-0.44074,-0.43168,-0.42157,-0.41061,-0.39931,-0.3872,-0.37474,-0.3619,-0.34878,-0.33574,-0.32262,-0.30979,-0.29705,-0.28446,-0.27221,-0.26042,-0.24895,-0.23775,-0.22705,-0.21677,-0.20697,-0.19767,-0.18893,-0.18059,-0.17277,-0.16537,-0.15865,-0.15192,-0.14561,-0.13967,-0.1341,-0.12892,-0.12384,-0.11904,-0.11405,-0.1098,-0.10537,-0.10103,-0.097077,-0.093045,-0.089117,-0.085385,-0.081825,-0.078238,-0.074777,-0.071256,-0.068038,-0.064914,-0.062191,-0.059195,-0.056635,-0.054096,-0.051757,-0.049389,-0.047535,-0.045746,-0.04381,-0.0425,-0.041008,-0.039908,-0.03908,-0.037875,-0.037186,-0.036362,-0.035593,-0.034795,-0.03425,-0.033705,-0.032676,-0.03237,-0.03185,-0.030965,-0.030537,-0.029791,-0.029173,-0.028541,-0.028063,-0.027332,-0.026752,-0.026101,-0.025424,-0.024784,-0.024212,-0.023393,-0.022665,-0.022072,-0.021404,-0.020873,-0.020362,-0.019594,-0.018815,-0.018302,-0.017733,-0.016987,-0.016296,-0.015664,-0.015133,-0.014505,-0.013737,-0.013076,-0.012555,-0.012111,-0.011664,-0.01128,-0.010906,-0.010463,-0.010046,-0.0096891,-0.0095681,-0.0095494,-0.0096296,-0.0094793,-0.0094821,-0.0093428,-0.0092464,-0.0093811,-0.0091983,-0.0091629,-0.0091173,-0.0091438,-0.0091578,-0.0088576,-0.0088232,-0.0086726,-0.0085262,-0.0084644,-0.0082513,-0.0079938,-0.0077375,-0.0074929,-0.0073475,-0.0068797,-0.006644,-0.006304,-0.0060591,-0.0057127,-0.0054902,-0.0053458,-0.0053528,-0.0052816,-0.005254,-0.0053756,-0.0056499,-0.0058104,-0.0061668,-0.0064716,-0.00687,-0.0072798,-0.0078727,-0.0085097,-0.0090103,-0.0097594,-0.01042,-0.011115,-0.012003,-0.0127,-0.013599,-0.014712,-0.015626,-0.016909,-0.017985,-0.019258,-0.020636,-0.021917,-0.023742,-0.025081,-0.026892,-0.028621,-0.03037,-0.032388,-0.034081,-0.035817,-0.03752,-0.03927,-0.041003,-0.042063,-0.043473,-0.044451,-0.045471,-0.046212,-0.046815,-0.047289,-0.047491,-0.047493,-0.047191,-0.046842,-0.04635,-0.045381,-0.044518,-0.043436,-0.042076,-0.040918,-0.039486,-0.037939
0.50486,0.50471,0.50458,0.50462,0.50439,0.50429,0.50413,0.50391,0.50364,0.50348,0.50347,0.50345,0.50352,0.50363,0.50371,0.50394,0.50406,0.50452,0.5048,0.50535,0.50594,0.50667,0.50726,0.50777,0.50817,0.5084,0.50856,0.50858,0.50859,0.50858,0.50857,0.50865,0.50873,0.50891,0.50913,0.5092,0.50931,0.50939,0.50933,0.50925,0.50903,0.50888,0.50877,0.50867,0.50855,0.50857,0.50871,0.50887,0.50901,0.50923,0.50933,0.50934,0.50932,0.50968,0.51227,0.51846,0.52826,0.54159,0.55769,0.57594,0.59581,0.61692,0.639,0.66194,0.68522,0.70893,0.73261,0.75592,0.7786,0.80047,0.82135,0.8411,0.85963,0.87706,0.89336,0.90864,0.92284,0.9361,0.94792,0.95877,0.96857,0.9773,0.98522,0.99225,0.99848,1.004,1.0086,1.0127,1.0161,1.0188,1.0211,1.023,1.0243,1.0252,1.0258,1.0258,1.0256,1.0251,1.0243,1.0234,1.0225,1.0214,1.0204,1.0191,1.0179,1.0167,1.0155,1.0143,1.0133,1.0121,1.0112,1.0102,1.009,1.0081,1.007,1.0062,1.0055,1.0048,1.0042,1.0037,1.0032,1.0026,1.0021,1.0017,1.0013,1.0009,1.0004,0.9999,0.9993,0.99876,0.99825,0.99766,0.9971,0.9966,0.99596,0.99527,0.9946,0.99413,0.99342,0.99285,0.99221,0.99169,0.99077,0.98989,0.98894,0.98784,0.98675,0.98591,0.98509,0.98439,0.98386,0.98338,0.98299,0.9826,0.98223,0.98179,0.98139,0.98093,0.98042,0.98004,0.97986,0.97975,0.97973,0.97983,0.97998,0.98026,0.98051,0.98089,0.98132,0.98171,0.98203,0.9823,0.98241,0.98248,0.98243,0.98234,0.9822,0.98215,0.98201,0.98175,0.98159,0.98145,0.98135,0.98127,0.98127,0.9812,0.98124,0.98119,0.98119,0.98116,0.98119,0.98124,0.98122,0.98112,0.981,0.98094,0.98081,0.98078,0.9807,0.98076,0.98096,0.98105,0.98117,0.98139,0.9816,0.98177,0.98187,0.98209,0.98232,0.98248,0.98265,0.9827,0.98271,0.98263,0.98256,0.98248,0.98248,0.98231,0.98223,0.98202,0.98185,0.98153,0.9812,0.98094,0.98062,0.98032,0.98019,0.98005,0.97993,0.97973,0.97949,0.97931,0.97894,0.9787,0.9784,0.97818,0.97792,0.97766,0.97739,0.97708,0.97665,0.97628,0.97587,0.97562,0.97525,0.97484,0.97459,0.97428,0.97402,0.97386,0.97369,0.97369,0.97368,0.97372,0.97379
