0.30854,0.30532,0.30424,0.30706,0.30237,0.30429,0.3033,0.30194,0.3017,0.30245,0.30082,0.30012,0.30351,0.30385,0.29978,0.29986,0.30378,0.30261,0.30264,0.30087,0.29818,0.297,0.30079,0.30115,0.30064,0.30224,0.29982,0.29958,0.30391,0.30352,0.29765,0.29886,0.30133,0.29734,0.30123,0.30468,0.30482,0.29989,0.30092,0.30142,0.29994,0.30608,0.3005,0.30392,0.30354,0.30532,0.30331,0.30175,0.30789,0.30417,0.30241,0.38683,0.41556,0.42679,0.42206,0.40494,0.38597,0.37411,0.35913,0.35346,0.34658,0.3411,0.32649,0.3129,0.30236,0.29648,0.29074,0.27778,0.27033,0.27385,0.26498,0.26758,0.26662,0.26587,0.27058,0.27505,0.26975,0.27732,0.28158,0.27675,0.28218,0.28802,0.28654,0.29072,0.29225,0.29784,0.29589,0.29693,0.30185,0.30149,0.29761,0.30058,0.29846,0.30423,0.3074,0.30208,0.30146,0.30569,0.31278,0.30895,0.30847,0.31473,0.31565,0.31675,0.31317,0.31223,0.31393,0.31373,0.3089,0.31456,0.31549,0.30717,0.31601,0.31315,0.30481,0.30767,0.30936,0.30355,0.30244,0.30069,0.30155,0.30226,0.30562,0.30162,0.30224,0.30148,0.30495,0.30647,0.30136,0.30455,0.30247,0.30021,0.29788,0.30029,0.3021,0.29998,0.30324,0.30024,0.29918,0.30014,0.30291,0.29991,0.30099,0.29909,0.30338,0.29856,0.29775,0.30656,0.3034,0.30234,0.3047,0.30365,0.30827,0.30702,0.30382,0.30606,0.307,0.30487,0.30628,0.30772,0.30843,0.30942,0.3067,0.30928,0.30674,0.31166,0.30607,0.307,0.30504,0.30697,0.30833,0.30641,0.30513,0.30878,0.30286,0.30485,0.3052,0.30635,0.30283,0.30106,0.30162,0.30386,0.30196,0.30336,0.30581,0.30372,0.29686,0.29986,0.30777,0.30095,0.29901,0.30337,0.30722,0.30391,0.30189,0.30354,0.30089,0.30207,0.3047,0.30269,0.30579,0.30375,0.30597,0.3065,0.30544,0.30628,0.30548,0.30503,0.30469,0.30363,0.30366,0.30499,0.30375,0.30735,0.30323,0.30064,0.3094,0.30809,0.29895,0.3016,0.3068,0.30539,0.30739,0.3009,0.30105,0.30314,0.30368,0.30706,0.30615,0.30392,0.30326,0.30042,0.30672,0.30632,0.30043,0.30049,0.29951,0.312,0.30661,0.30003,0.29987,0.30681,0.31002,0.30151
0.083302,-0.019105,0.0098886,0.057807,0.006343,-0.013775,0.05624,-0.018351,0.017625,0.034342,-0.0061768,-0.011275,0.03027,-0.018584,-0.0047283,-0.020009,-0.055843,0.009354,-0.033827,-0.011438,-0.058607,-0.047669,0.0041598,-0.069975,-0.0059092,-0.029578,-0.058527,-0.013155,-0.0036901,0.0030888,-0.038794,-0.018961,0.018168,-0.013168,0.024484,0.052304,0.027361,0.034179,0.057672,0.047658,0.07007,0.072734,0.019901,0.0678,0.038468,0.075511,0.01441,0.022763,0.066596,-0.016689,0.023391,-0.42396,-0.31437,-0.20803,-0.17573,-0.06667,-0.047055,-0.0026242,0.03396,0.023645,0.090342,0.088045,0.050757,0.034393,0.0044287,0.011384,0.019064,-0.0095905,-0.077874,0.0019008,-0.059065,-0.073679,-0.04788,-0.10665,0.028268,-0.058927,-0.11001,-0.041414,-0.10347,-0.124,-0.057847,-0.072789,-0.070293,-0.078987,-0.013691,-0.048257,-0.055246,-0.023888,0.012704,0.028886,0.0464,0.017365,-0.03833,0.10093,0.1338,0.071597,0.049521,0.08056,0.14143,0.084201,0.10564,0.054245,0.10406,0.13338,0.038072,0.12868,0.053187,0.067392,0.061644,0.060948,0.016646,0.0018706,-0.018285,0.075675,-0.0755,-0.043296,0.059006,-0.038906,-0.083892,-0.064595,-0.030909,-0.069094,-0.02947,-0.037006,-0.094842,-0.029861,-0.0019459,-0.038223,-0.089344,-0.03354,-0.034717,-0.015425,-0.022458,-0.0069276,-0.016095,-0.038872,0.019155,-0.017667,0.020164,0.0091167,0.016196,0.030433,0.017982,0.035122,0.0096218,-0.050486,0.0062414,0.062233,0.0089383,0.017924,0.070479,-0.049583,0.050624,0.031446,-0.042174,0.047748,-0.025196,-0.0054682,0.034822,-0.029392,-0.020334,0.067663,-0.064845,0.029677,-0.028989,-0.037788,0.088363,-0.072809,-0.06923,0.018524,-0.071214,-0.011956,0.060745,0.0044586,-0.044915,-0.01365,-0.020121,0.020527,-0.057768,0.01823,0.038225,-0.015871,0.0042022,-0.038175,0.074631,0.039113,-0.024987,0.033375,0.024351,0.038175,-0.007955,0.025194,0.089741,0.016942,-0.0029613,0.024871,-0.0055368,0.051215,0.052955,0.006747,0.073215,-0.0079713,-0.034952,0.048546,-0.0026908,0.025687,0.071625,-0.014279,0.034011,0.019187,-0.018067,-0.0036239,0.045534,0.019163,-0.032978,-0.054986,0.034172,0.062668,0.00098631,0.014983,0.029368,-0.02449,0.0064977,-0.0088596,-0.041286,-0.009697,0.010662,0.011159,0.036542,0.0046353,0.038387,-0.042601,-0.064544,0.080416,0.030294,-0.032596,-0.038472,0.076253,0.08569,-0.033312,0.0041767,0.016977,0.12102,-0.06991
-0.068627,0.021055,-0.04127,-0.04589,-0.037017,-0.024399,-0.063574,-0.0052451,-0.044974,-0.040499,-0.032858,-0.027815,-0.026475,-0.039506,0.0014044,-0.021431,-0.021613,-0.032528,0.018402,-0.001301,-0.026985,0.012125,-0.00018886,0.034431,0.0059694,0.0067519,0.025749,0.013877,0.032348,0.008987,0.022692,0.0046909,-0.0083348,0.036457,0.027196,0.025519,0.009341,0.022828,0.015761,-0.0020571,0.037499,0.0064992,0.017188,-0.018694,0.034988,0.025565,-0.023218,0.036518,-0.0091724,0.032647,-0.014341,1.4885,1.3168,1.0234,0.72354,0.44723,0.1653,-0.013583,-0.17681,-0.28096,-0.38911,-0.44206,-0.48046,-0.52707,-0.54425,-0.53471,-0.55839,-0.51197,-0.50974,-0.54738,-0.46972,-0.39007,-0.4986,-0.37052,-0.3656,-0.31322,-0.29407,-0.24686,-0.22421,-0.090567,-0.075914,-0.0031113,0.002645,0.065013,0.092175,0.1319,0.14897,0.1974,0.20406,0.20502,0.25233,0.23115,0.24715,0.22348,0.22768,0.25787,0.18703,0.20162,0.17179,0.18306,0.15252,0.082865,0.14699,0.064947,0.092603,0.016567,0.049816,-0.04497,0.050256,-0.040694,-0.052309,0.012435,-0.057988,-0.10762,0.03695,-0.073366,-0.12257,0.023629,-0.072601,-0.14203,-0.054114,-0.039666,-0.08776,-0.072806,-0.064907,-0.094773,-0.035011,-0.043323,-0.055507,-0.084026,-0.059729,-0.032363,-0.036495,-0.023314,-0.060861,-0.0026198,-0.042972,-0.03291,-0.010428,-0.012216,-0.014967,-0.01117,0.0054192,0.04936,0.028897,0.018461,0.049084,0.053141,0.07175,0.045206,0.0047965,0.085673,0.074386,0.022389,0.09422,0.020886,0.056294,0.018156,0.034576,0.019104,-0.0022276,-0.0037281,0.031713,-0.015981,-0.014331,0.0016321,-0.040253,0.026681,-0.051236,-0.033448,-0.0071601,-0.031731,-0.030597,-0.029385,-0.029542,-0.05005,-0.0073927,0.022053,-0.030823,-0.033263,-0.019754,0.02326,-0.043514,-0.0041925,-0.017349,-0.025121,0.01188,-0.032835,-0.020369,0.0040899,0.029794,-0.0074039,-0.0099216,0.018376,0.011337,-0.026631,0.02807,0.027487,0.020592,0.039145,0.0068997,0.044027,0.029085,0.012289,0.055919,0.032165,0.0067736,0.054034,-0.0088662,0.041131,0.0352,0.00097796,0.025537,0.0088741,-0.0039222,0.050688,0.0072393,-0.010562,0.048433,-0.0066171,-0.02702,0.032856,-0.013601,0.0064348,0.020149,-0.012686,-0.0006908,0.0092663,-0.014536,-0.017877,-0.030044,0.028721,-0.033318,-0.033947,0.049102,0.038861,-0.029231,0.0073773,-0.0041539,0.086063,-0.060795,0.041776,0.0058575,0.064948
0.32197,0.33416,0.34891,0.35232,0.35951,0.36333,0.35766,0.36002,0.35917,0.35226,0.34385,0.33994,0.3369,0.33027,0.31031,0.29484,0.27842,0.26489,0.26182,0.24994,0.23426,0.22136,0.20404,0.20115,0.18866,0.16984,0.15427,0.14031,0.12801,0.1104,0.086062,0.07112,0.05224,0.043599,0.03883,0.029603,0.022742,0.017534,0.011494,0.0032467,0.013938,-0.0020456,0.0050535,0.0012615,0.013918,-0.0043218,-0.00046711,0.0085982,0.0055015,0.0087224,0.0024053,-0.0063743,-0.0075217,-0.02168,-0.027219,-0.030049,-0.02685,-0.023986,-0.037566,-0.038115,-0.058625,-0.064711,-0.065256,-0.086536,-0.097064,-0.10332,-0.10133,-0.12351,-0.11981,-0.12989,-0.12869,-0.15101,-0.17313,-0.15987,-0.16243,-0.16418,-0.19342,-0.16646,-0.17419,-0.16345,-0.14339,-0.13134,-0.12349,-0.09635,-0.088532,-0.069759,-0.046291,-0.031647,-0.034494,-0.0021054,-0.00033994,-0.017543,-0.02209,-0.0092267,-0.0050298,-0.027275,-0.037109,-0.054842,-0.060872,-0.081109,-0.11494,-0.10983,-0.11506,-0.1246,-0.11911,-0.11301,-0.11644,-0.11212,-0.12549,-0.12958,-0.14443,-0.15225,-0.15123,-0.16482,-0.16405,-0.1596,-0.14203,-0.14683,-0.15943,-0.15923,-0.17195,-0.15133,-0.14361,-0.14455,-0.14875,-0.14551,-0.13112,-0.13512,-0.14328,-0.16486,-0.16904,-0.15593,-0.15457,-0.1685,-0.15927,-0.1722,-0.1717,-0.18001,-0.17748,-0.16565,-0.16229,-0.14917,-0.12177,-0.11651,-0.12188,-0.1353,-0.13055,-0.12763,-0.12129,-0.11343,-0.12074,-0.10024,-0.10212,-0.10414,-0.096928,-0.114,-0.10616,-0.11521,-0.1216,-0.13225,-0.11502,-0.13725,-0.13484,-0.13752,-0.14016,-0.12963,-0.13185,-0.13325,-0.12336,-0.14254,-0.14446,-0.13112,-0.11864,-0.13734,-0.14775,-0.13826,-0.11944,-0.12202,-0.11791,-0.1191,-0.11525,-0.10152,-0.11267,-0.099826,-0.10598,-0.10008,-0.089355,-0.092769,-0.1049,-0.10869,-0.10478,-0.09654,-0.10574,-0.10193,-0.10561,-0.11704,-0.11986,-0.11808,-0.12088,-0.10813,-0.11589,-0.12378,-0.12501,-0.12697,-0.1383,-0.13514,-0.13651,-0.13958,-0.13084,-0.13387,-0.13726,-0.14541,-0.15038,-0.16514,-0.18351,-0.17914,-0.16601,-0.1622,-0.15822,-0.15516,-0.16175,-0.16157,-0.16183,-0.17269,-0.17508,-0.17696,-0.16802,-0.15753,-0.15938,-0.15078,-0.16718,-0.19139,-0.17685,-0.17602,-0.16257,-0.19216,-0.17002,-0.16649,-0.15827,-0.18518,-0.18333,-0.15957,-0.17576,-0.18749
