-0.46433,-0.46603,-0.46777,-0.4695,-0.47129,-0.47297,-0.47463,-0.47623,-0.4777,-0.47917,-0.48047,-0.48166,-0.48268,-0.48364,-0.48433,-0.48484,-0.48512,-0.48526,-0.48525,-0.48508,-0.48477,-0.48415,-0.48342,-0.48253,-0.48144,-0.48021,-0.47893,-0.47761,-0.47633,-0.47491,-0.47358,-0.47215,-0.47089,-0.46964,-0.46862,-0.46753,-0.46674,-0.46591,-0.46535,-0.46489,-0.46449,-0.46418,-0.464,-0.46391,-0.46393,-0.46408,-0.46441,-0.46493,-0.46556,-0.46623,-0.46717,-0.46808,-0.46917,-0.46971,-0.46904,-0.46576,-0.45833,-0.44513,-0.42525,-0.39768,-0.36247,-0.31972,-0.27024,-0.21509,-0.15514,-0.091556,-0.025537,0.041929,0.10987,0.17743,0.24415,0.30932,0.37253,0.43306,0.49084,0.54505,0.59614,0.64362,0.68501,0.72194,0.75303,0.77928,0.79979,0.81525,0.82493,0.82921,0.82843,0.82237,0.81093,0.79515,0.77527,0.75161,0.72514,0.69641,0.66574,0.6341,0.60181,0.56949,0.53718,0.5058,0.47535,0.44649,0.41936,0.3945,0.37187,0.35182,0.33391,0.31916,0.30681,0.29701,0.28993,0.28527,0.28306,0.28307,0.2854,0.2895,0.29559,0.30316,0.31209,0.3222,0.33325,0.34526,0.35783,0.37097,0.38417,0.39775,0.41113,0.42442,0.43727,0.44985,0.46201,0.47352,0.48433,0.49458,0.50415,0.51279,0.52059,0.52764,0.53382,0.53918,0.54361,0.54709,0.54973,0.55165,0.55262,0.55288,0.55225,0.5512,0.54937,0.5471,0.54441,0.54119,0.53768,0.53381,0.52981,0.52568,0.52143,0.51721,0.51299,0.50884,0.50471,0.50073,0.49697,0.49333,0.49014,0.48694,0.48413,0.48154,0.47919,0.4773,0.47579,0.47452,0.47372,0.4733,0.47324,0.47359,0.47414,0.47504,0.47612,0.47747,0.47895,0.48067,0.48241,0.48432,0.48634,0.48844,0.49044,0.49258,0.49471,0.49674,0.49869,0.50061,0.50236,0.50392,0.50527,0.50665,0.50769,0.50858,0.50923,0.50982,0.51018,0.51027,0.51025,0.5101,0.50985,0.50944,0.50888,0.50822,0.50743,0.50657,0.50577,0.50475,0.50379,0.50292,0.50195,0.501,0.50009,0.49918,0.49823,0.49735,0.49651,0.4956,0.49476,0.49377,0.49294,0.49201,0.49112,0.49029,0.48939,0.48863,0.48785,0.48708,0.48635,0.48571,0.48502,0.48445,0.48394,0.4835,0.48311,0.48281,0.48257,0.48238,0.48222,0.48205,0.48204,0.482,0.48205,0.48218,0.48236,0.48261,0.48297,0.48328,0.48371,0.48418,0.48481,0.48549,0.48616,0.48699,0.48768,0.48844,0.48929,0.49016,0.49095,0.49171,0.49257,0.49336,0.49398,0.49461,0.49517,0.49569,0.49602,0.49623,0.49631,0.49629,0.49614,0.49581,0.49551,0.49519,0.49486,0.49456,0.49418,0.49383,0.49342,0.49305,0.49251,0.49196,0.49145,0.49086,0.49025,0.48969,0.48911,0.48858,0.48795,0.48746,0.48705,0.48672,0.48643,0.48607,0.48583,0.48551,0.48529
-0.46241,-0.46232,-0.46268,-0.46326,-0.46416,-0.46528,-0.46653,-0.46794,-0.46934,-0.47092,-0.47266,-0.47434,-0.47606,-0.47749,-0.47897,-0.4804,-0.48163,-0.48256,-0.48343,-0.48416,-0.48456,-0.48476,-0.48485,-0.48476,-0.48444,-0.48396,-0.48323,-0.48244,-0.48149,-0.48034,-0.47922,-0.4781,-0.47681,-0.47552,-0.47413,-0.47264,-0.4713,-0.46991,-0.4687,-0.46741,-0.46635,-0.46549,-0.46487,-0.46433,-0.46386,-0.46362,-0.46341,-0.46341,-0.46334,-0.4636,-0.46374,-0.46407,-0.4644,-0.46447,-0.46401,-0.46244,-0.4596,-0.45527,-0.44963,-0.44236,-0.43388,-0.42431,-0.41388,-0.40254,-0.39067,-0.37773,-0.3646,-0.3507,-0.33654,-0.32172,-0.30678,-0.29124,-0.27527,-0.25928,-0.243,-0.22554,-0.20915,-0.1939,-0.17451,-0.1558,-0.13491,-0.11484,-0.093542,-0.071752,-0.049958,-0.027111,-0.0044826,0.018519,0.042582,0.066144,0.090467,0.11466,0.1382,0.16119,0.18344,0.20515,0.22633,0.24693,0.26597,0.2849,0.30256,0.31904,0.33472,0.34889,0.36279,0.37498,0.38527,0.39532,0.4034,0.41055,0.4163,0.4214,0.42524,0.42858,0.43047,0.43153,0.43206,0.43177,0.43103,0.42952,0.42792,0.42514,0.42233,0.41905,0.4151,0.41137,0.40668,0.4025,0.39762,0.39326,0.38871,0.38423,0.3798,0.3753,0.3713,0.36702,0.36329,0.35984,0.35655,0.35372,0.35128,0.3493,0.34745,0.34624,0.34529,0.34463,0.34445,0.34448,0.34503,0.3459,0.34709,0.34853,0.35021,0.3523,0.35437,0.35671,0.35912,0.36176,0.36435,0.36676,0.3695,0.37179,0.37392,0.3761,0.37818,0.37981,0.38124,0.38239,0.38324,0.38401,0.38429,0.38446,0.38447,0.38401,0.38337,0.38236,0.38142,0.38016,0.37878,0.37739,0.37559,0.37386,0.37186,0.36977,0.36795,0.36595,0.36378,0.3616,0.35961,0.35748,0.35541,0.35362,0.35171,0.35006,0.34847,0.34684,0.34535,0.34385,0.34264,0.34139,0.34008,0.33913,0.33831,0.33761,0.33689,0.33613,0.33561,0.33511,0.33496,0.33479,0.33463,0.33485,0.3351,0.33549,0.33586,0.33636,0.33704,0.33769,0.33837,0.33913,0.33998,0.34083,0.34161,0.34247,0.34324,0.34402,0.34485,0.34547,0.34617,0.34695,0.34749,0.34823,0.3487,0.34917,0.34943,0.34979,0.35005,0.3505,0.35071,0.35092,0.35097,0.35106,0.35088,0.35085,0.35077,0.35079,0.35053,0.35044,0.35018,0.34998,0.34983,0.34946,0.34918,0.34873,0.34849,0.34844,0.34812,0.34784,0.34756,0.34743,0.34731,0.34707,0.34717,0.34714,0.3473,0.3474,0.34761,0.34773,0.34804,0.34829,0.34848,0.34872,0.34904,0.34934,0.34964,0.35004,0.35062,0.35105,0.35148,0.35201,0.35275,0.35353,0.35404,0.35469,0.35534,0.35602,0.35663,0.35722,0.35795,0.35839,0.3587,0.35912,0.3593,0.35963,0.35962,0.35986,0.35991,0.35981,0.35968,0.35938,0.35909
0.496,0.49647,0.49687,0.49727,0.49778,0.49805,0.49817,0.49814,0.49802,0.49794,0.49772,0.49752,0.49723,0.49705,0.49693,0.49704,0.49721,0.49728,0.49748,0.49771,0.49789,0.49798,0.49809,0.49826,0.4984,0.49845,0.4985,0.49852,0.49856,0.49859,0.49876,0.49887,0.49904,0.49921,0.4993,0.49949,0.49961,0.49987,0.50019,0.50059,0.50086,0.5011,0.50134,0.50153,0.50165,0.50177,0.50178,0.50187,0.50183,0.50201,0.50207,0.50209,0.50208,0.50314,0.50732,0.51633,0.53044,0.54939,0.57275,0.60038,0.63178,0.66656,0.70447,0.74581,0.79036,0.83756,0.88768,0.93937,0.9921,1.0443,1.0951,1.1435,1.1888,1.2306,1.2687,1.3034,1.3341,1.3611,1.386,1.4072,1.4258,1.4414,1.4539,1.4634,1.4704,1.4749,1.4775,1.4787,1.4787,1.4779,1.4765,1.4747,1.4727,1.4707,1.4686,1.4663,1.4641,1.4617,1.4591,1.4564,1.4537,1.4508,1.448,1.4452,1.4423,1.4398,1.438,1.4366,1.4357,1.4351,1.4353,1.4358,1.437,1.4387,1.4412,1.4442,1.4477,1.4516,1.4556,1.4599,1.4642,1.4683,1.4724,1.4762,1.4799,1.4836,1.4869,1.49,1.4929,1.4954,1.4973,1.4989,1.5,1.5009,1.5014,1.5015,1.5014,1.5009,1.5001,1.4988,1.4973,1.4954,1.4934,1.4911,1.4888,1.4863,1.4838,1.4814,1.479,1.4764,1.474,1.4715,1.469,1.4666,1.4643,1.4622,1.4601,1.4584,1.457,1.4556,1.4545,1.4533,1.4522,1.4512,1.4504,1.4498,1.4495,1.4495,1.4494,1.4494,1.4496,1.4497,1.4501,1.4505,1.4509,1.4514,1.452,1.4527,1.4534,1.4542,1.455,1.4559,1.4568,1.4575,1.4582,1.4586,1.459,1.4591,1.4592,1.4593,1.4595,1.4597,1.4598,1.4599,1.4599,1.4596,1.4591,1.4586,1.4582,1.4578,1.4574,1.4571,1.4568,1.4563,1.4558,1.4552,1.4547,1.4543,1.4539,1.4535,1.4531,1.4527,1.4524,1.4521,1.4519,1.4517,1.4516,1.4515,1.4514,1.4513,1.451,1.4509,1.4508,1.4508,1.4509,1.4509,1.4509,1.4509,1.451,1.4512,1.4514,1.4516,1.4518,1.4521,1.4522,1.4524,1.4527,1.453,1.4533,1.4537,1.4541,1.4545,1.4548,1.4551,1.4554,1.4558,1.4561,1.4565,1.4568,1.4571,1.4573,1.4573,1.4574,1.4575,1.4575,1.4576,1.4577,1.4578,1.4579,1.4581,1.4582,1.4584,1.4584,1.4585,1.4586,1.4587,1.4585,1.4584,1.4582,1.4579,1.4576,1.4575,1.4575,1.4574,1.4574,1.4574,1.4575,1.4575,1.4575,1.4574,1.4573,1.4571,1.457,1.4568,1.4567,1.4566,1.4567,1.4566,1.4566,1.4566,1.4567,1.4568,1.4568,1.4568,1.4568,1.4568,1.4569,1.457,1.4572,1.4573,1.4574
