-0.0354563,-0.0354497,-0.0348384,-0.0335549,-0.0313066,-0.0285513,-0.0248907,-0.0208575,-0.0159769,-0.0105356,-0.00442549,0.00199357,0.00946761,0.0169996,0.0254319,0.0341109,0.0434422,0.0533811,0.0635862,0.0744945,0.085719,0.0973232,0.109514,0.121684,0.134591,0.147501,0.160825,0.174206,0.188195,0.201567,0.215788,0.229987,0.243977,0.258339,0.273084,0.286651,0.30146,0.316091,0.329714,0.344023,0.358582,0.372128,0.385922,0.400021,0.413292,0.426352,0.439871,0.453239,0.465278,0.478727,0.4914,0.504269,0.517202,0.529128,0.535482,0.525338,0.525275,0.524159,0.52522,0.523577,0.523822,0.524195,0.525777,0.52794,0.530076,0.533387,0.536892,0.541187,0.545993,0.551339,0.557256,0.563343,0.57034,0.577584,0.585361,0.593525,0.602027,0.611079,0.62047,0.630479,0.640596,0.651622,0.662992,0.662992,0.674593,0.699077,0.712119,0.725971,0.739849,0.739849,0.750099,0.76983,0.78101,0.790971,0.801772,0.812328,0.822802,0.833113,0.843661,0.85439,0.862646,0.874219,0.881637,0.893402
0.0207858,0.0206495,0.0202263,0.0195138,0.0182918,0.016738,0.015244,0.0134747,0.0112704,0.0090441,0.00679373,0.00418336,0.00136321,-0.00154348,-0.00464627,-0.00756139,-0.0110838,-0.0145854,-0.0180618,-0.021923,-0.025475,-0.0295721,-0.0335057,-0.0377176,-0.0418599,-0.0461054,-0.0506309,-0.0551493,-0.0599216,-0.0646649,-0.0699061,-0.0747639,-0.0798828,-0.0849483,-0.0899575,-0.0953744,-0.100548,-0.105334,-0.110852,-0.116491,-0.12185,-0.127189,-0.132792,-0.13847,-0.144287,-0.149996,-0.156021,-0.162399,-0.168373,-0.1752,-0.181615,-0.188475,-0.195699,-0.203235,-0.208406,-0.205626,-0.20616,-0.203529,-0.204818,-0.203328,-0.203021,-0.203122,-0.203565,-0.204374,-0.205612,-0.20745,-0.209555,-0.212212,-0.215422,-0.218894,-0.22296,-0.227647,-0.232643,-0.238094,-0.24413,-0.250413,-0.257195,-0.264254,-0.27165,-0.279407,-0.287218,-0.295605,-0.304276,-0.304276,-0.312917,-0.331089,-0.340409,-0.350344,-0.360514,-0.360514,-0.372083,-0.397808,-0.413211,-0.430484,-0.448607,-0.466282,-0.485147,-0.503633,-0.522331,-0.541045,-0.560869,-0.581773,-0.599825,-0.61959
0.968226,0.968774,0.969973,0.972078,0.974386,0.976532,0.977497,0.978523,0.978661,0.978414,0.977378,0.976105,0.973685,0.971168,0.967515,0.96351,0.958888,0.953427,0.947482,0.941022,0.933757,0.926487,0.917946,0.90973,0.900144,0.890742,0.880359,0.86994,0.858621,0.847486,0.834906,0.822869,0.810034,0.79597,0.781998,0.767899,0.75213,0.736671,0.720967,0.70421,0.687468,0.669545,0.65213,0.633878,0.615309,0.595816,0.57669,0.556663,0.535928,0.514964,0.493482,0.471033,0.448937,0.426866,0.417957,0.437524,0.44399,0.455299,0.463107,0.471318,0.479064,0.485818,0.492082,0.497812,0.502504,0.506858,0.510388,0.512995,0.515299,0.516638,0.517498,0.517639,0.516961,0.516055,0.514064,0.511515,0.508376,0.504335,0.499983,0.494699,0.488921,0.482475,0.475841,0.475841,0.467892,0.451193,0.441753,0.432591,0.423313,0.423313,0.415803,0.408272,0.400798,0.395346,0.389188,0.38152,0.37473,0.367723,0.359344,0.3513,0.341691,0.330834,0.32192,0.309921
-0.0149019,-0.0148987,-0.0145487,-0.0137737,-0.01254,-0.0112316,-0.00954975,-0.00770632,-0.00544567,-0.0029825,-0.000236431,0.00260639,0.00601306,0.00928819,0.0130394,0.0168595,0.0210059,0.0253989,0.0298212,0.034685,0.0395548,0.0446501,0.049992,0.0552402,0.0609063,0.0665103,0.0722972,0.0780729,0.0842293,0.0898585,0.0960994,0.102315,0.108199,0.114486,0.12095,0.126544,0.133106,0.139519,0.145118,0.151393,0.157863,0.163375,0.169416,0.175684,0.181205,0.186707,0.192827,0.198607,0.2034,0.209643,0.215095,0.220558,0.226404,0.231333,0.233076,0.225253,0.227286,0.227847,0.226532,0.226312,0.22643,0.226498,0.227442,0.228501,0.229326,0.230972,0.232549,0.23447,0.236692,0.23905,0.241719,0.244374,0.247516,0.250758,0.254164,0.257754,0.261501,0.2655,0.269644,0.274083,0.278466,0.283425,0.288468,0.288468,0.293416,0.304252,0.309981,0.316221,0.322209,0.322209,0.325853,0.334259,0.339438,0.343536,0.348343,0.352932,0.357503,0.361875,0.36662,0.3714,0.37433,0.380176,0.382572,0.388462
0.00876438,0.00863392,0.00840919,0.00796511,0.00743996,0.00672851,0.00625671,0.00556366,0.00480714,0.00408098,0.00341073,0.00252815,0.00174343,0.000817491,-1.38282e-05,-0.000752641,-0.0017983,-0.00268058,-0.00357506,-0.00457624,-0.00535597,-0.00648501,-0.0073141,-0.00846126,-0.00929341,-0.0103451,-0.0114009,-0.0124639,-0.0135469,-0.0147557,-0.0159591,-0.0170494,-0.0182999,-0.0193209,-0.0203902,-0.0218116,-0.0226719,-0.0235873,-0.0250617,-0.0261459,-0.0272378,-0.0284596,-0.0296054,-0.0307265,-0.0322052,-0.0333178,-0.0346095,-0.0361572,-0.0375073,-0.0389943,-0.0404595,-0.0421129,-0.0437776,-0.0458562,-0.0476512,-0.0475599,-0.0469496,-0.0479527,-0.0499525,-0.048306,-0.0485221,-0.0488755,-0.0491962,-0.0497341,-0.0504678,-0.0512751,-0.0522281,-0.0533853,-0.0546878,-0.0560551,-0.0576579,-0.0595237,-0.0613574,-0.0634295,-0.0657023,-0.0679765,-0.0704689,-0.0729727,-0.0756268,-0.0783423,-0.081069,-0.0839661,-0.0870001,-0.0870001,-0.0899156,-0.096051,-0.0991448,-0.102537,-0.106039,-0.106039,-0.110777,-0.120913,-0.127246,-0.134419,-0.141366,-0.147978,-0.155588,-0.162544,-0.169628,-0.176835,-0.184749,-0.192437,-0.199329,-0.206454
0.988945,0.989482,0.990183,0.991094,0.991926,0.992516,0.992763,0.99298,0.992899,0.992669,0.992246,0.991689,0.990741,0.989745,0.988452,0.986953,0.985288,0.983299,0.981204,0.978949,0.976371,0.973859,0.970859,0.968008,0.964725,0.961421,0.957859,0.954252,0.950359,0.946507,0.94216,0.938027,0.933649,0.92872,0.923926,0.919044,0.913675,0.908292,0.902923,0.897156,0.891374,0.88517,0.879317,0.872941,0.866499,0.859866,0.853274,0.846268,0.839098,0.831952,0.82434,0.816648,0.808991,0.801336,0.800082,0.811558,0.814505,0.816819,0.82012,0.822393,0.824852,0.826965,0.829025,0.830782,0.832192,0.833587,0.834537,0.83528,0.835868,0.836135,0.836237,0.83603,0.835627,0.835089,0.834166,0.833049,0.831739,0.830104,0.828381,0.826328,0.824097,0.821677,0.819144,0.819144,0.816181,0.81002,0.806538,0.803247,0.79989,0.79989,0.797075,0.79459,0.791401,0.788868,0.786493,0.783119,0.780327,0.77751,0.773903,0.770648,0.766422,0.762164,0.758561,0.754226
0.000221634,0.000146513,0.000238187,0.000421616,0.000638454,0.000676057,0.000845697,0.00101655,0.0013002,0.00152518,0.00185762,0.00211343,0.00258428,0.00284447,0.00335481,0.00379051,0.00428936,0.00483101,0.00532543,0.00600936,0.00657635,0.00719305,0.00792739,0.00846693,0.00932463,0.00994967,0.0107272,0.0114127,0.0123195,0.0128508,0.0138173,0.0146336,0.0153065,0.0162415,0.0171814,0.0177046,0.0188638,0.0198255,0.0203283,0.0214272,0.0224952,0.0230445,0.0241052,0.0252471,0.0257689,0.0267339,0.0279403,0.0287806,0.0292831,0.0308187,0.0316125,0.0324427,0.0337303,0.0343068,0.0338542,0.0305988,0.0333434,0.0315056,0.0300322,0.0309664,0.0306841,0.030422,0.030608,0.0305873,0.0303474,0.0305783,0.0305973,0.0306318,0.0308476,0.0309423,0.0311476,0.0312648,0.0315552,0.0318292,0.0320422,0.0323418,0.0326701,0.033035,0.0334057,0.033862,0.0342079,0.0348177,0.035299,0.035299,0.0357037,0.0369531,0.0375337,0.0383096,0.0388172,0.0388172,0.0382935,0.0388569,0.0390344,0.039039,0.0394356,0.039708,0.0397299,0.0399443,0.0402223,0.0404217,0.039874,0.0409807,0.0402959,0.0415421
0.00251043,0.00241564,0.00227034,0.0020877,0.00191485,0.00167123,0.00150246,0.00123691,0.00103642,0.000710032,0.000516016,0.000155718,-0.0001127,-0.00051751,-0.000735138,-0.00110611,-0.00148263,-0.0018547,-0.00220429,-0.00259966,-0.00294431,-0.00343474,-0.0037593,-0.00430087,-0.00456076,-0.0051347,-0.00548597,-0.00601056,-0.00643089,-0.00696986,-0.00738151,-0.00793596,-0.00830121,-0.0088104,-0.00923645,-0.00975281,-0.0100762,-0.0105824,-0.0110163,-0.0114829,-0.0120166,-0.0123049,-0.0127609,-0.0132555,-0.0138141,-0.0140296,-0.014612,-0.0151166,-0.015492,-0.0159603,-0.0164988,-0.0168701,-0.0174921,-0.0180911,-0.0185023,-0.0180296,-0.0186787,-0.0211156,-0.0181525,-0.018617,-0.0187418,-0.0188618,-0.0189687,-0.0191861,-0.0194333,-0.0197133,-0.020066,-0.0203905,-0.0208314,-0.0212234,-0.0217372,-0.0222957,-0.0227839,-0.0234216,-0.0240243,-0.0246743,-0.0253389,-0.026,-0.0267346,-0.0274331,-0.0281743,-0.0289263,-0.0298035,-0.0298035,-0.0304921,-0.0321375,-0.0329854,-0.0339467,-0.0348947,-0.0348947,-0.0363331,-0.0391741,-0.0408075,-0.0423204,-0.0437116,-0.0454265,-0.0471413,-0.0484103,-0.0501451,-0.0516415,-0.0532764,-0.0549416,-0.056174,-0.0573472
0.998692,0.999102,0.999358,0.999561,0.999563,0.999572,0.999402,0.999388,0.999201,0.99911,0.998955,0.998804,0.998522,0.998402,0.99807,0.997869,0.997527,0.99721,0.996916,0.996537,0.996189,0.995825,0.995374,0.995056,0.994533,0.994169,0.99364,0.99323,0.99268,0.992307,0.991591,0.991273,0.990673,0.989985,0.989498,0.988939,0.988139,0.987691,0.987016,0.986228,0.98572,0.984965,0.984288,0.983575,0.982903,0.98211,0.981418,0.98063,0.979877,0.978973,0.978302,0.977303,0.976564,0.975837,0.977396,0.982437,0.980471,0.98292,0.98232,0.982491,0.982632,0.98269,0.98278,0.982866,0.982841,0.982843,0.982869,0.982751,0.982732,0.982628,0.982515,0.982389,0.982211,0.982115,0.981848,0.98166,0.981432,0.981141,0.980912,0.980571,0.980302,0.979909,0.979641,0.979641,0.979209,0.978456,0.978002,0.977647,0.977317,0.977317,0.977238,0.977467,0.976831,0.976917,0.976517,0.976223,0.976042,0.975844,0.97537,0.975236,0.974696,0.97403,0.974527,0.973265
0.00533935,0.00529457,0.00527542,0.00514912,0.00483601,0.00438252,0.0039592,0.00348844,0.00291951,0.00226474,0.00161396,0.000871009,9.39705e-05,-0.000763014,-0.00158752,-0.00250533,-0.0034778,-0.00449328,-0.00551615,-0.00657636,-0.00772084,-0.00887891,-0.0100568,-0.0112908,-0.0124724,-0.0137783,-0.0150338,-0.0163345,-0.0176204,-0.0189586,-0.0202013,-0.0215335,-0.0228748,-0.0241191,-0.0254171,-0.0267543,-0.027895,-0.0291851,-0.0304727,-0.0315726,-0.0327806,-0.03396,-0.0349409,-0.0361194,-0.0372787,-0.0381051,-0.0390823,-0.0402046,-0.0410544,-0.0417588,-0.0428143,-0.0436368,-0.044397,-0.0453284,-0.0458799,-0.0460294,-0.0464677,-0.0477569,-0.0477055,-0.0472085,-0.0475559,-0.047792,-0.0480133,-0.0484961,-0.0489485,-0.0493372,-0.0499272,-0.0504964,-0.0510997,-0.0518065,-0.0525161,-0.053286,-0.0540504,-0.0549041,-0.0558097,-0.056689,-0.0576155,-0.0585842,-0.0595877,-0.0606317,-0.0617,-0.0627856,-0.064006,-0.064006,-0.0651844,-0.0675901,-0.0689117,-0.0702624,-0.0717466,-0.0717466,-0.0730876,-0.0754992,-0.07657,-0.0775827,-0.07865,-0.0797804,-0.0808779,-0.0819726,-0.0831549,-0.0842489,-0.0853116,-0.0860242,-0.0870258,-0.0877621
-0.000963396,-0.00101389,-0.00101057,-0.000949147,-0.000944504,-0.000949006,-0.000902014,-0.000783118,-0.000822466,-0.000739297,-0.000729956,-0.00068063,-0.000686545,-0.000578046,-0.000637733,-0.00055663,-0.00058285,-0.000555436,-0.000521217,-0.000575564,-0.000552968,-0.000569024,-0.000616712,-0.000550195,-0.000677353,-0.000592348,-0.000695737,-0.000661137,-0.000741398,-0.000677237,-0.000778946,-0.000674444,-0.00078011,-0.000756109,-0.000665367,-0.000736031,-0.000820686,-0.000655117,-0.000753084,-0.000823851,-0.000703963,-0.000682747,-0.000731879,-0.000773515,-0.000613135,-0.000624423,-0.000594248,-0.000555315,-0.000385798,-0.000427385,-0.000238249,-0.000172822,-0.000102433,3.32714e-05,-0.000212261,-0.00189271,-0.0038116,0.0006267,0.000749872,-0.000188652,-0.000144545,-6.76116e-05,-6.23786e-05,-3.59581e-05,2.4398e-06,4.08663e-05,0.000129254,0.000222933,0.000325001,0.000426183,0.000571106,0.000738496,0.000915769,0.00111784,0.00130945,0.001596,0.00183475,0.00209954,0.00240306,0.00265973,0.00301029,0.0032695,0.00360367,0.00360367,0.0039193,0.00456726,0.0049153,0.00522641,0.00551368,0.00551368,0.00596112,0.00653003,0.00775545,0.00892053,0.00923233,0.0102416,0.011417,0.0123012,0.0133628,0.0145927,0.0157606,0.0168078,0.0182379,0.0187422
1.00064,1.00089,1.00094,1.00088,1.00081,1.00064,1.00064,1.00072,1.00077,1.00091,1.00107,1.00128,1.00156,1.00187,1.00221,1.00264,1.00308,1.0036,1.00413,1.00474,1.00536,1.00604,1.00675,1.00751,1.00828,1.00913,1.00996,1.01087,1.01181,1.01272,1.01372,1.01482,1.01572,1.01685,1.01805,1.01902,1.02025,1.02155,1.02256,1.0239,1.02528,1.02638,1.02779,1.02919,1.03043,1.03182,1.03336,1.03472,1.03605,1.03776,1.03923,1.04067,1.04242,1.04388,1.04504,1.04443,1.04471,1.04603,1.04471,1.04416,1.04365,1.0432,1.04294,1.04261,1.04225,1.04217,1.04202,1.04191,1.04196,1.04195,1.04208,1.04223,1.04247,1.04276,1.04304,1.04347,1.0439,1.04439,1.04495,1.04554,1.04618,1.04692,1.04768,1.04768,1.04839,1.05019,1.0511,1.05215,1.05308,1.05308,1.05382,1.05562,1.05665,1.05776,1.05843,1.05944,1.06052,1.06153,1.06258,1.06377,1.06464,1.06619,1.06715,1.06835
0.00321488,0.00328591,0.00328143,0.0031411,0.00283275,0.00257322,0.00228665,0.00192776,0.00145165,0.0010285,0.00049924,-5.53865e-05,-0.000686007,-0.00126742,-0.00199527,-0.00266813,-0.00348999,-0.00425559,-0.00505787,-0.00599273,-0.00685127,-0.00782935,-0.00877564,-0.0097377,-0.0107874,-0.0117841,-0.0128715,-0.0138834,-0.0150111,-0.0160016,-0.0171301,-0.0181985,-0.0193169,-0.0203422,-0.0214993,-0.0225212,-0.0236031,-0.0246795,-0.0257535,-0.0267467,-0.0277868,-0.0287264,-0.0297773,-0.0308014,-0.0316396,-0.0325099,-0.0335231,-0.0344348,-0.0350447,-0.0360918,-0.0368417,-0.037672,-0.0385244,-0.0392265,-0.0399585,-0.0401672,-0.0410613,-0.0398632,-0.0408044,-0.040182,-0.0402468,-0.0402578,-0.0404954,-0.0407614,-0.0409241,-0.0412692,-0.0415601,-0.0419391,-0.0423587,-0.04279,-0.0432786,-0.0437453,-0.0442918,-0.0448702,-0.0454704,-0.0460469,-0.0467069,-0.0473768,-0.04808,-0.0488384,-0.0495436,-0.0504186,-0.0512563,-0.0512563,-0.0520474,-0.0539072,-0.0548378,-0.0559367,-0.0569595,-0.0569595,-0.0575084,-0.05897,-0.0595111,-0.0600715,-0.0608299,-0.0611738,-0.0618769,-0.0625379,-0.0630766,-0.0637195,-0.0639303,-0.0646364,-0.0646736,-0.0657961
-0.00270087,-0.00265364,-0.00251968,-0.00241582,-0.00232684,-0.00210691,-0.00188373,-0.00179932,-0.00162165,-0.00142318,-0.00128533,-0.00113639,-0.000923522,-0.000814539,-0.000652315,-0.000531184,-0.000404491,-0.00024228,-0.000162584,-6.77398e-05,5.21898e-05,0.000120578,0.000254527,0.000289382,0.000386852,0.000438057,0.000493125,0.000555906,0.00061592,0.000618004,0.000767126,0.000687234,0.000727798,0.000879601,0.000742306,0.000700669,0.000849411,0.00065942,0.000551184,0.000681463,0.000528942,0.000423735,0.000298225,0.000261996,0.000192879,5.74564e-05,-0.000108284,-0.000182983,-0.000261367,-0.000428662,-0.000598653,-0.000664796,-0.000885033,-0.00099918,-0.00215439,-0.00369234,0.00084963,0.00125233,9.35691e-05,0.000314807,0.0005881,0.000856182,0.000992012,0.00117769,0.00147148,0.00170586,0.00195945,0.0022662,0.00250888,0.00283742,0.00316092,0.0035029,0.00387491,0.00418733,0.00462762,0.00502587,0.00539788,0.00583795,0.00622605,0.00667221,0.00708799,0.00751708,0.00793191,0.00793191,0.00843082,0.00922592,0.0097197,0.0100844,0.0105449,0.0105449,0.0110853,0.0128859,0.0141036,0.0144692,0.0154917,0.0168661,0.0178258,0.0189116,0.0203354,0.0212929,0.0225824,0.0238344,0.0244424,0.025929
1.00335,1.00335,1.00315,1.00291,1.00256,1.00228,1.00209,1.00187,1.00166,1.00147,1.00128,1.00114,1.00099,1.00087,1.00078,1.00071,1.00068,1.00064,1.00064,1.00068,1.0007,1.00081,1.00086,1.00101,1.00111,1.0013,1.00146,1.00169,1.0019,1.00216,1.00247,1.00273,1.00304,1.00349,1.00382,1.00425,1.00478,1.00519,1.00575,1.00637,1.00688,1.0075,1.00826,1.00883,1.0096,1.01036,1.01116,1.01189,1.01282,1.01375,1.01452,1.01559,1.01652,1.01751,1.01835,1.01859,1.01926,1.01856,1.01716,1.01694,1.0164,1.01594,1.01545,1.01492,1.01454,1.01416,1.01371,1.01341,1.01305,1.01274,1.01249,1.01223,1.01203,1.0118,1.01165,1.01152,1.01141,1.01134,1.0113,1.01127,1.01129,1.01133,1.01134,1.01134,1.01143,1.01166,1.01183,1.01197,1.01207,1.01207,1.01239,1.01249,1.01282,1.01257,1.01269,1.0128,1.01305,1.0131,1.01342,1.01359,1.01393,1.01443,1.01445,1.0152
-0.00105568,-0.000920117,-0.000848316,-0.000836382,-0.000783181,-0.000721797,-0.000644074,-0.000669574,-0.000633428,-0.00065334,-0.000721674,-0.00076564,-0.000830798,-0.000933517,-0.00105428,-0.00122495,-0.00135892,-0.001526,-0.00175647,-0.00196835,-0.00221883,-0.00246615,-0.00272867,-0.00302896,-0.00333086,-0.00367454,-0.00398034,-0.00433109,-0.00469231,-0.00505296,-0.00541896,-0.00586785,-0.00624197,-0.00669168,-0.00719821,-0.00756025,-0.00806536,-0.00865708,-0.00906006,-0.00951694,-0.0101141,-0.0106493,-0.0111988,-0.0117049,-0.0122615,-0.0128497,-0.0134537,-0.0139711,-0.0145804,-0.015226,-0.0158172,-0.0164708,-0.017091,-0.0176402,-0.018084,-0.0177247,-0.0169418,-0.0174446,-0.0170783,-0.0166162,-0.0163387,-0.0161118,-0.0159614,-0.0157733,-0.0155835,-0.0154523,-0.0153084,-0.0152188,-0.0151125,-0.0150354,-0.0149828,-0.0148988,-0.0148918,-0.0148827,-0.014858,-0.0148936,-0.0149294,-0.0149881,-0.0150708,-0.0151551,-0.0152821,-0.0154116,-0.015529,-0.015529,-0.0156991,-0.0160915,-0.0163145,-0.0165343,-0.0166892,-0.0166892,-0.0166265,-0.0163008,-0.0164078,-0.0162948,-0.0161143,-0.0161359,-0.0161972,-0.0161214,-0.0161379,-0.0162101,-0.0160299,-0.0161005,-0.0162304,-0.0163922
-0.00348117,-0.00330056,-0.0031296,-0.0029649,-0.00272689,-0.00250704,-0.00246404,-0.00234735,-0.00229919,-0.00228973,-0.00235253,-0.0023835,-0.00255828,-0.00270773,-0.00297847,-0.0032417,-0.0035561,-0.00395578,-0.0043936,-0.00485434,-0.00536753,-0.0058813,-0.00652225,-0.00710226,-0.00783577,-0.00850661,-0.0092827,-0.0100491,-0.010926,-0.0117093,-0.0127167,-0.0136047,-0.014539,-0.0156579,-0.0167264,-0.017753,-0.0190632,-0.0202629,-0.021399,-0.0227708,-0.0241383,-0.0255202,-0.0268835,-0.0283413,-0.0298041,-0.0314018,-0.032951,-0.0345288,-0.0362048,-0.0379858,-0.0396721,-0.0415194,-0.0433155,-0.0450264,-0.0449897,-0.0411553,-0.0403278,-0.0390877,-0.0385468,-0.0383594,-0.0376915,-0.0371895,-0.0367442,-0.0362526,-0.035849,-0.0355023,-0.0351893,-0.0349617,-0.0347325,-0.0345772,-0.0344572,-0.0343757,-0.0343935,-0.0343846,-0.0344534,-0.0345841,-0.034751,-0.0349853,-0.035226,-0.0355476,-0.035889,-0.0363045,-0.0366879,-0.0366879,-0.0372147,-0.0382818,-0.0389184,-0.0394992,-0.0400231,-0.0400231,-0.0403096,-0.0403487,-0.0409882,-0.041222,-0.0415704,-0.0419543,-0.0421251,-0.0422746,-0.0427162,-0.0430313,-0.0435069,-0.0443824,-0.0446606,-0.0454916
1.00242,1.00227,1.00208,1.0018,1.00157,1.00147,1.0013,1.00113,1.00096,1.00088,1.00074,1.00063,1.00052,1.00048,1.00037,1.00038,1.00029,1.0003,1.00032,1.00028,1.00039,1.00038,1.00047,1.00054,1.00062,1.00075,1.00084,1.00101,1.00112,1.00134,1.00145,1.00168,1.0019,1.00215,1.00235,1.0027,1.00296,1.0033,1.00361,1.00398,1.00434,1.00478,1.00511,1.00559,1.00606,1.00651,1.00693,1.00744,1.00809,1.0084,1.00911,1.00961,1.01016,1.01084,1.01151,1.01284,1.01227,1.01141,1.0098,1.0103,1.01001,1.00971,1.00931,1.00903,1.00879,1.00843,1.00824,1.00794,1.00769,1.00749,1.00725,1.00706,1.00685,1.00668,1.0065,1.00637,1.00622,1.00611,1.00601,1.00591,1.00588,1.00575,1.00572,1.00572,1.00575,1.00568,1.00572,1.00564,1.0057,1.0057,1.00588,1.00576,1.00509,1.00481,1.00462,1.00474,1.00436,1.00432,1.00427,1.00404,1.00417,1.00373,1.00427,1.00372
-9.85499e-05,-6.05655e-05,-0.000119007,-0.000140674,-0.000154919,-9.04945e-05,-0.000178159,-0.000182912,-0.000245738,-0.000308184,-0.000411621,-0.00045666,-0.000611692,-0.000695062,-0.000858371,-0.00101227,-0.00112967,-0.00134337,-0.00151441,-0.00170704,-0.00194552,-0.00208483,-0.00240815,-0.00254644,-0.00289314,-0.00308153,-0.00338222,-0.00362976,-0.00397174,-0.00421149,-0.00459492,-0.00491182,-0.00520205,-0.00564223,-0.00597595,-0.00625135,-0.00676728,-0.00716564,-0.0074039,-0.00792419,-0.00840857,-0.00880031,-0.00918692,-0.00975919,-0.01013,-0.0106907,-0.0111748,-0.0116973,-0.0122056,-0.0128118,-0.0134244,-0.0139035,-0.0145849,-0.0150993,-0.0147152,-0.0130646,-0.0142257,-0.0141302,-0.0128301,-0.0133069,-0.013148,-0.0130358,-0.0129826,-0.0128914,-0.0128161,-0.0128064,-0.0128505,-0.0128332,-0.0129102,-0.0129898,-0.0130786,-0.0132176,-0.0133846,-0.0135615,-0.0137604,-0.0140087,-0.0142579,-0.0145508,-0.0148263,-0.0151623,-0.0154882,-0.0158367,-0.0161938,-0.0161938,-0.0166091,-0.0174201,-0.0178433,-0.0182424,-0.0186649,-0.0186649,-0.0188949,-0.0199031,-0.020519,-0.0210235,-0.0216752,-0.0226642,-0.0232069,-0.023964,-0.0247601,-0.0254776,-0.0261898,-0.0271731,-0.0279715,-0.028728
-0.000987514,-0.000879871,-0.000901253,-0.000824329,-0.000803738,-0.000756536,-0.000762785,-0.000659854,-0.000664294,-0.000500301,-0.000444134,-0.000332289,-0.000270011,-0.000107554,-6.60682e-05,0.000127028,0.000196864,0.000339641,0.000500898,0.000601915,0.000794857,0.000964384,0.00106489,0.00132314,0.0013752,0.00167291,0.00172404,0.00199338,0.00208591,0.00232929,0.0023963,0.00268887,0.00280325,0.00298369,0.00319581,0.00329644,0.00345035,0.00370859,0.00374856,0.00389537,0.0040947,0.00415168,0.00434322,0.00441289,0.00460921,0.00461284,0.00477372,0.00481082,0.0049671,0.00494793,0.00505823,0.00517235,0.00518196,0.00528614,0.00616641,0.00802082,0.00789339,0.00943882,0.00832327,0.00822004,0.00825358,0.00823608,0.00819891,0.00823363,0.00824544,0.00828373,0.00829982,0.0083718,0.00840643,0.00848909,0.00858444,0.00861685,0.00874308,0.00884677,0.00892976,0.00908872,0.00917838,0.00931757,0.00948945,0.00961014,0.00981662,0.0099488,0.0101535,0.0101535,0.0103288,0.0106874,0.0109494,0.0111604,0.0113935,0.0113935,0.0115701,0.0119691,0.0120955,0.0121016,0.0121971,0.0125912,0.0128938,0.0131614,0.0135366,0.0137943,0.0138438,0.0139448,0.0143922,0.014496
0.9992,0.999098,0.998987,0.998952,0.999035,0.999181,0.999264,0.999374,0.999603,0.999877,1.00012,1.00039,1.00075,1.00108,1.00149,1.00189,1.00233,1.00283,1.00333,1.00386,1.00443,1.00501,1.00562,1.00624,1.0069,1.00756,1.00824,1.00897,1.00968,1.0104,1.01118,1.01191,1.01268,1.01353,1.01425,1.01505,1.01601,1.01667,1.01751,1.01847,1.01921,1.02003,1.02096,1.02175,1.02265,1.02347,1.02432,1.02517,1.02611,1.02694,1.02776,1.02879,1.02962,1.03055,1.03138,1.03155,1.0315,1.02962,1.02868,1.02969,1.02962,1.02953,1.02946,1.02942,1.0295,1.02957,1.0296,1.02981,1.02992,1.03018,1.03042,1.03067,1.03104,1.03133,1.03175,1.03217,1.03259,1.0331,1.03359,1.03414,1.03471,1.03531,1.03594,1.03594,1.03663,1.03797,1.03877,1.03951,1.04032,1.04032,1.04102,1.04214,1.04283,1.04306,1.04426,1.04504,1.04572,1.0465,1.04739,1.04807,1.04876,1.04981,1.05028,1.05146
0.00114965,0.00103757,0.000922654,0.000801258,0.000796511,0.000727796,0.000666365,0.000634923,0.000626068,0.000596522,0.000656557,0.000674584,0.000731537,0.000791147,0.000896971,0.00101876,0.00113842,0.0012784,0.00145109,0.00163118,0.00185736,0.00203185,0.00230452,0.00249617,0.00280971,0.00304644,0.00336116,0.00360765,0.00394025,0.00423008,0.00452927,0.00487155,0.00522348,0.00556744,0.00596271,0.00631597,0.00667903,0.00715899,0.00755601,0.00786254,0.00833397,0.008831,0.00916356,0.00964448,0.0100582,0.0105008,0.0109174,0.0113993,0.0118065,0.012211,0.0127571,0.0131501,0.0136011,0.0140019,0.0140581,0.013684,0.0133491,0.0136648,0.0134625,0.0131422,0.0129616,0.0127536,0.0126024,0.012482,0.0123313,0.0121425,0.0120572,0.0119124,0.011788,0.0116894,0.0115633,0.0114577,0.0113353,0.0112579,0.0111638,0.0110617,0.0109951,0.0109312,0.0108677,0.0108345,0.0108041,0.0107733,0.0107561,0.0107561,0.0107731,0.0108198,0.0108474,0.0108732,0.0109013,0.0109013,0.01067,0.00996159,0.00959129,0.00912339,0.00859674,0.00819982,0.00774337,0.00730313,0.00684639,0.00649458,0.00597353,0.00539621,0.00518595,0.00472302
0.000294686,0.00018272,0.000192985,8.30839e-05,0.000126463,1.43902e-05,0.000143031,0.000127131,0.000410129,0.00040869,0.000686166,0.000870896,0.00121699,0.00138807,0.00190477,0.002139,0.00266904,0.0030933,0.00354854,0.00416582,0.0046843,0.00524188,0.00597601,0.00644557,0.00736921,0.00783833,0.00881,0.00939192,0.0103474,0.0110446,0.0120878,0.0127793,0.0139015,0.0147496,0.0156809,0.0167618,0.0178118,0.0186702,0.019989,0.0209889,0.0219944,0.0233724,0.0244206,0.0257072,0.0268103,0.0282093,0.0293772,0.0308715,0.0320508,0.0335641,0.0349781,0.0364775,0.037953,0.0394832,0.0400636,0.0395202,0.0406744,0.0369217,0.0394891,0.0377308,0.0373061,0.0368905,0.0366542,0.0364693,0.0363204,0.0361861,0.0361819,0.0362339,0.0363273,0.0365209,0.0367025,0.0370392,0.0373743,0.037775,0.038343,0.0387762,0.0394283,0.0400949,0.0407491,0.0415824,0.0422927,0.0432144,0.0440565,0.0440565,0.045035,0.0470465,0.0480228,0.0491241,0.0502846,0.0502846,0.0511749,0.0534493,0.0546975,0.0561708,0.0580776,0.0593465,0.0610107,0.0628536,0.0642755,0.0660044,0.0677979,0.0696473,0.0711829,0.0736651
0.999476,0.999333,0.999321,0.99937,0.999504,0.99955,0.999653,0.999794,1.00006,1.00019,1.00046,1.00072,1.00103,1.00131,1.00172,1.00203,1.00249,1.00289,1.00333,1.00384,1.00431,1.00482,1.00539,1.00587,1.00653,1.00703,1.00774,1.00827,1.00897,1.00959,1.01031,1.0109,1.01172,1.01235,1.01307,1.01391,1.01455,1.01527,1.01621,1.01687,1.0176,1.01856,1.01924,1.02012,1.02089,1.02176,1.02254,1.02353,1.0243,1.02519,1.02616,1.02706,1.02801,1.02898,1.02902,1.02763,1.02674,1.02472,1.02659,1.02608,1.02596,1.02584,1.02577,1.02583,1.02587,1.02587,1.02603,1.02615,1.02636,1.02659,1.02682,1.02716,1.02744,1.02783,1.02827,1.02866,1.02916,1.02966,1.03017,1.03076,1.03131,1.03196,1.0326,1.0326,1.03329,1.03471,1.0354,1.03619,1.03702,1.03702,1.03775,1.03882,1.03939,1.04057,1.0416,1.04239,1.04333,1.04435,1.04516,1.04612,1.04731,1.04814,1.04914,1.05023
-0.000599864,-0.000674604,-0.000699747,-0.000591568,-0.000530479,-0.000503352,-0.000415607,-0.00030982,-0.000228882,-9.63087e-05,4.8281e-05,0.00018315,0.000362494,0.000529708,0.000724996,0.000941278,0.00113501,0.00136865,0.00161158,0.00186145,0.00211726,0.00237932,0.00265945,0.00293778,0.00323677,0.00354436,0.00382483,0.00414637,0.00447886,0.00475722,0.00512383,0.00546148,0.00576015,0.00613995,0.00651448,0.00675943,0.00718326,0.00759085,0.00779824,0.00821464,0.00862659,0.00890597,0.00928329,0.00966631,0.00995471,0.0103428,0.010743,0.0110449,0.01137,0.0118437,0.0121459,0.0125153,0.0129288,0.0131992,0.0130586,0.0119713,0.0126749,0.0127226,0.0125786,0.0125415,0.0124719,0.0124711,0.0125192,0.0125367,0.0125234,0.012634,0.0126923,0.0127761,0.0129024,0.0130068,0.0131646,0.0132898,0.0134877,0.0136759,0.0138519,0.0140926,0.0143151,0.0145607,0.0148214,0.0150937,0.0153722,0.0156907,0.0159832,0.0159832,0.0163036,0.0169895,0.017353,0.0177332,0.0180607,0.0180607,0.0181958,0.0187896,0.0191859,0.0195679,0.0198405,0.0203563,0.0207204,0.0211056,0.0215815,0.0219735,0.0222909,0.0228695,0.0231657,0.0237621
0.000102799,0.000126928,5.07627e-05,0.000119846,3.19718e-05,7.21017e-05,9.71778e-07,0.000129369,9.74158e-06,5.15215e-05,3.45387e-05,4.89927e-05,-4.41328e-05,7.55205e-05,-3.5765e-05,4.93254e-05,-4.52874e-06,-1.93286e-05,3.63313e-05,3.0807e-05,-9.73542e-08,5.4491e-05,-3.0618e-05,0.000108771,-1.03932e-05,0.000133717,3.88581e-05,0.000142163,0.000146284,0.000258452,0.000172449,0.000462048,0.000370586,0.000367597,0.000583382,0.000614133,0.000519904,0.000924117,0.000805577,0.000818834,0.00123848,0.0011741,0.00134527,0.00153897,0.00165863,0.00177545,0.0021669,0.00225935,0.00240275,0.00277907,0.00310332,0.00314419,0.00366719,0.00392409,0.00512263,0.00628243,0.00308769,0.00489703,0.00329242,0.00391948,0.00370369,0.00360853,0.0036619,0.00366133,0.00350108,0.00355923,0.00363486,0.00356086,0.00372025,0.00371521,0.00383582,0.00393922,0.00404533,0.00431514,0.0043456,0.00458201,0.00481245,0.00497739,0.00526211,0.00543898,0.00570404,0.00593514,0.0062558,0.0062558,0.00639453,0.00703071,0.00726515,0.00766972,0.00793352,0.00793352,0.00841955,0.00971995,0.0100985,0.0115178,0.0120831,0.0129973,0.0139147,0.0145812,0.0153486,0.0162582,0.0169225,0.0178763,0.0193743,0.0194787
0.998945,0.998935,0.999029,0.999192,0.999236,0.999335,0.999474,0.999656,0.999716,0.999893,1.00002,1.00018,1.00031,1.00052,1.00063,1.00083,1.00098,1.00115,1.00135,1.00151,1.00167,1.00189,1.002,1.00227,1.00234,1.00262,1.00271,1.00294,1.00308,1.00327,1.0034,1.00363,1.00373,1.00387,1.00413,1.00417,1.00429,1.00456,1.00457,1.00467,1.00488,1.00493,1.00505,1.00508,1.00523,1.00526,1.00538,1.0054,1.00546,1.00555,1.00556,1.00568,1.00568,1.00566,1.00541,1.00363,1.00206,1.00411,1.0053,1.00426,1.00434,1.00449,1.00463,1.00478,1.00487,1.00506,1.00516,1.00535,1.00551,1.00564,1.00583,1.00594,1.00614,1.0063,1.00643,1.00664,1.00678,1.00694,1.00713,1.00727,1.00745,1.00763,1.0078,1.0078,1.00795,1.00829,1.0085,1.00872,1.00885,1.00885,1.00882,1.00859,1.00906,1.00954,1.00935,1.00941,1.00967,1.00965,1.00976,1.00993,1.00992,1.01009,1.01011,1.01014
-8.51137e-05,-0.000107573,-1.96919e-05,1.85602e-05,-3.06221e-05,-4.71245e-05,-4.49443e-05,-0.000105878,-0.000182269,-0.000192457,-0.000292745,-0.000380564,-0.000468471,-0.000564302,-0.000713034,-0.000821891,-0.00100401,-0.00112713,-0.00130274,-0.00151951,-0.00167711,-0.00190243,-0.00210842,-0.00231473,-0.00258131,-0.0027859,-0.00307618,-0.003284,-0.0035907,-0.0038244,-0.0041229,-0.00436603,-0.00470904,-0.00493435,-0.0052476,-0.00559466,-0.00582257,-0.00616799,-0.00654162,-0.00676731,-0.00710647,-0.00747411,-0.00776362,-0.00813187,-0.00839366,-0.00874458,-0.00910173,-0.00945404,-0.00969166,-0.0101171,-0.0104447,-0.0107571,-0.0111531,-0.0114684,-0.0116607,-0.0116593,-0.0114701,-0.0101186,-0.0110002,-0.0109247,-0.0108066,-0.010724,-0.0107081,-0.0107137,-0.0106616,-0.0106425,-0.010668,-0.0106518,-0.0107011,-0.0107165,-0.0107606,-0.0108173,-0.010846,-0.0109526,-0.0110187,-0.0110722,-0.0111983,-0.0112836,-0.0113951,-0.0115272,-0.0116284,-0.0117986,-0.011939,-0.011939,-0.0120771,-0.0124576,-0.0126044,-0.0128412,-0.0130443,-0.0130443,-0.0131825,-0.0134122,-0.0132753,-0.0135437,-0.0136816,-0.0136364,-0.0137066,-0.0137538,-0.0137407,-0.0137776,-0.0138543,-0.0138319,-0.013898,-0.0140994
0.00206481,0.00195499,0.00190836,0.00171785,0.00161696,0.00152046,0.00150554,0.00137952,0.001377,0.00140326,0.00141079,0.00140814,0.00158333,0.0016322,0.00183517,0.00197819,0.00215444,0.00246005,0.00269666,0.00298763,0.00331068,0.00360422,0.00405848,0.00437569,0.0048843,0.00526063,0.00576487,0.00627976,0.00684512,0.0073132,0.00807411,0.00859949,0.00914666,0.00999629,0.0106161,0.0112157,0.0122942,0.0128971,0.0135442,0.0147437,0.0155559,0.0163412,0.0173893,0.0183674,0.0192891,0.0204787,0.0215232,0.022545,0.0237621,0.0251034,0.0261432,0.0274629,0.0287847,0.0299723,0.0298169,0.026864,0.0281301,0.0265631,0.0253778,0.0259854,0.0255554,0.0252866,0.0250329,0.0246241,0.0243857,0.0242913,0.0240633,0.0239772,0.0238997,0.0238612,0.0238702,0.0239202,0.0240961,0.0241415,0.0243326,0.0245959,0.0248204,0.0251459,0.0254373,0.0258125,0.0261869,0.0266374,0.0270386,0.0270386,0.0275739,0.0286102,0.0292147,0.0297458,0.0302697,0.0302697,0.0307641,0.0319645,0.0330318,0.0335568,0.0344799,0.0353995,0.0359301,0.0366765,0.0375606,0.0382275,0.0391432,0.0407409,0.0410653,0.0423303
1.00084,1.00087,1.00093,1.00084,1.00082,1.00074,1.0008,1.00067,1.00065,1.00055,1.0005,1.0004,1.00038,1.00025,1.0002,1.00008,1.00001,0.999946,0.999808,0.999714,0.999627,0.999468,0.999439,0.99923,0.9992,0.99901,0.998964,0.998783,0.998715,0.99854,0.9985,0.998322,0.99821,0.998168,0.998047,0.997899,0.997892,0.99775,0.997671,0.997624,0.99753,0.997508,0.997352,0.997378,0.997323,0.997291,0.997203,0.99728,0.997205,0.99719,0.997256,0.997229,0.997205,0.997183,0.99599,0.993374,0.99491,0.996125,0.995944,0.994978,0.994973,0.994912,0.994857,0.994796,0.994753,0.994665,0.994625,0.994567,0.994474,0.994412,0.994306,0.994249,0.994155,0.994026,0.993979,0.993857,0.99375,0.993671,0.993535,0.993458,0.993324,0.99322,0.993089,0.993089,0.992985,0.99272,0.99259,0.99241,0.992232,0.992232,0.991871,0.991383,0.991675,0.991337,0.991006,0.990848,0.990673,0.990504,0.990379,0.990305,0.990194,0.990193,0.98979,0.989794
-0.000685844,-0.000578488,-0.000515492,-0.000517554,-0.000507081,-0.00046195,-0.00044575,-0.000457409,-0.00040689,-0.000403459,-0.000416832,-0.000401503,-0.000396852,-0.000422646,-0.000440348,-0.000478946,-0.000484881,-0.000518969,-0.000587743,-0.000627408,-0.00067891,-0.00073796,-0.000790218,-0.000879139,-0.000944155,-0.00103629,-0.00109784,-0.00119671,-0.00128477,-0.00137602,-0.00145261,-0.00160401,-0.00165694,-0.00177234,-0.00193202,-0.00197942,-0.00213134,-0.00231639,-0.00236751,-0.00248889,-0.00269107,-0.00279983,-0.00296893,-0.00305754,-0.00320822,-0.00338461,-0.00354896,-0.00363061,-0.00380887,-0.00400303,-0.00410849,-0.00428115,-0.00444632,-0.00453549,-0.00479218,-0.00458321,-0.00335619,-0.00385108,-0.00391929,-0.00401967,-0.00391576,-0.00386331,-0.00386017,-0.00377677,-0.00369664,-0.00366983,-0.00358898,-0.00354726,-0.00348978,-0.00342683,-0.00337764,-0.00329571,-0.00326406,-0.00320865,-0.00312278,-0.00308682,-0.0030292,-0.00297116,-0.00292725,-0.00286503,-0.00282961,-0.00278449,-0.00273067,-0.00273067,-0.00269254,-0.00263354,-0.00260986,-0.00260081,-0.00253037,-0.00253037,-0.00236501,-0.00191513,-0.00189094,-0.00176459,-0.00152737,-0.00129076,-0.00109109,-0.000778231,-0.000500495,-0.000319858,7.48563e-05,0.000185151,0.000354555,0.000613611
0.000837374,0.000840488,0.000758457,0.000745213,0.000709681,0.00064128,0.000511193,0.000358815,0.000246598,2.81467e-05,-0.000219769,-0.000424038,-0.000721425,-0.00100666,-0.0013338,-0.00172581,-0.00204838,-0.00246489,-0.00290129,-0.00333983,-0.00383026,-0.00428417,-0.00480381,-0.00530787,-0.00586361,-0.00643515,-0.00694972,-0.00754458,-0.00815548,-0.00868791,-0.00931159,-0.0100254,-0.01057,-0.0112422,-0.0120177,-0.0124505,-0.0132383,-0.0140846,-0.0144694,-0.015195,-0.0160518,-0.0165926,-0.0173077,-0.0180662,-0.0186384,-0.0193499,-0.0201509,-0.0207706,-0.0213677,-0.0222424,-0.0229353,-0.0236177,-0.0244042,-0.0249624,-0.0252826,-0.0244499,-0.0249049,-0.0257861,-0.0253255,-0.0246414,-0.0244479,-0.0242993,-0.0243325,-0.0243228,-0.0241877,-0.0243007,-0.0243472,-0.0244235,-0.0245696,-0.0247065,-0.024903,-0.0250393,-0.0253406,-0.0256193,-0.0258574,-0.0262202,-0.0265555,-0.0269454,-0.0273675,-0.0278024,-0.0282622,-0.0287764,-0.0292776,-0.0292776,-0.0297929,-0.0309615,-0.0315863,-0.0322461,-0.0328058,-0.0328058,-0.0328039,-0.0336356,-0.0341705,-0.0346872,-0.0350318,-0.0357731,-0.0363492,-0.0370047,-0.0376834,-0.0383887,-0.0386098,-0.0394992,-0.0401791,-0.0410273
1.00009,1.00019,1.00016,1.0002,1.00018,1.00017,1.00002,0.99991,0.999693,0.999469,0.99917,0.998865,0.998448,0.998044,0.997536,0.997059,0.996497,0.995866,0.99522,0.994554,0.993805,0.993088,0.992243,0.991459,0.990555,0.989716,0.988745,0.987826,0.986837,0.985849,0.984779,0.983784,0.982671,0.981569,0.980426,0.979298,0.978091,0.976959,0.975696,0.974476,0.973292,0.971893,0.970705,0.969464,0.968085,0.966703,0.965511,0.964074,0.962609,0.961318,0.959867,0.958301,0.956936,0.955429,0.955049,0.957212,0.958769,0.958684,0.957009,0.958392,0.958641,0.958844,0.959074,0.959218,0.959248,0.959303,0.959291,0.959152,0.959044,0.95882,0.958588,0.958274,0.957895,0.957546,0.957037,0.956529,0.955989,0.955368,0.95474,0.954025,0.953281,0.952502,0.951688,0.951688,0.950737,0.948932,0.947921,0.946931,0.945861,0.945861,0.944971,0.943903,0.94266,0.941527,0.940613,0.939658,0.938591,0.937517,0.93656,0.935401,0.934158,0.932999,0.931887,0.930754
-0.000329655,-0.000269717,-0.000285908,-0.000271481,-0.000257345,-0.000258211,-0.000261739,-0.000220132,-0.000230647,-0.000222633,-0.000243963,-0.000224114,-0.000261672,-0.000253963,-0.000305202,-0.000308043,-0.000329731,-0.000377892,-0.000412184,-0.000448527,-0.000497984,-0.000514982,-0.000612768,-0.000617943,-0.000732193,-0.000744762,-0.00084591,-0.000891619,-0.00100051,-0.00104925,-0.00118884,-0.00122976,-0.00133312,-0.00148221,-0.00152551,-0.00162945,-0.00182185,-0.00187551,-0.00198543,-0.00216367,-0.00228836,-0.00245814,-0.00254834,-0.00272218,-0.00288767,-0.00308469,-0.00320325,-0.0034052,-0.0036216,-0.00379782,-0.00399206,-0.00421181,-0.00440312,-0.00460411,-0.00423301,-0.00322365,-0.00411786,-0.00377136,-0.00347302,-0.00387656,-0.00382572,-0.00380471,-0.00375858,-0.00369234,-0.00369216,-0.00364254,-0.0036345,-0.00362938,-0.00360388,-0.00362194,-0.00361955,-0.00364721,-0.00367661,-0.00369156,-0.0037515,-0.00379207,-0.00384476,-0.00391438,-0.00396012,-0.00404691,-0.00411599,-0.00419428,-0.00426477,-0.00426477,-0.00440105,-0.00456527,-0.0046834,-0.00475804,-0.00486647,-0.00486647,-0.0049657,-0.00526654,-0.00559538,-0.0055806,-0.0058785,-0.00616341,-0.00623887,-0.00636502,-0.00660947,-0.00674898,-0.00699974,-0.00730951,-0.00741227,-0.00772483
-0.000567317,-0.00058025,-0.000524291,-0.000419954,-0.000417457,-0.000301963,-0.000290776,-0.000158803,-0.000148782,-3.23394e-05,1.11161e-05,0.000115568,0.000137649,0.000275502,0.000257515,0.000408427,0.000439698,0.000510949,0.000594055,0.000644081,0.000734756,0.000822494,0.000847215,0.000977888,0.000943868,0.00110887,0.00107141,0.00117155,0.00115329,0.00122604,0.00110892,0.00120584,0.00111763,0.00108745,0.0010818,0.00103803,0.000849815,0.000940473,0.000773442,0.000601706,0.000556739,0.000325107,0.000158502,6.80728e-06,-0.000204522,-0.000559068,-0.000737893,-0.00105757,-0.00140261,-0.00181875,-0.00209777,-0.00261278,-0.00295046,-0.00343296,-0.00357123,-0.00325388,-0.00438953,-0.00331142,-0.00459088,-0.00312103,-0.00290029,-0.00273518,-0.00260019,-0.00240218,-0.00229881,-0.00222236,-0.00211007,-0.00212728,-0.00207141,-0.00210187,-0.00212079,-0.0022032,-0.00234924,-0.00242291,-0.00263839,-0.00280497,-0.00303212,-0.00329498,-0.00352976,-0.00383571,-0.00409636,-0.00443124,-0.00469507,-0.00469507,-0.00507394,-0.00575071,-0.0060981,-0.0064266,-0.00677641,-0.00677641,-0.0071838,-0.00863818,-0.00985358,-0.010774,-0.0120052,-0.0129947,-0.0142494,-0.015548,-0.016699,-0.0179662,-0.0193164,-0.020903,-0.0220092,-0.0237645
1.0013,1.00124,1.00118,1.00107,1.00099,1.00088,1.00067,1.00048,1.00027,1.00007,0.999834,0.999544,0.999248,0.998942,0.998639,0.998324,0.997912,0.997554,0.99719,0.996769,0.996388,0.995926,0.995511,0.995048,0.994629,0.994133,0.99365,0.993198,0.992683,0.99221,0.99169,0.991207,0.990709,0.990186,0.989638,0.989143,0.988697,0.988121,0.987562,0.987138,0.98658,0.986038,0.985616,0.98507,0.984487,0.984096,0.983562,0.982946,0.982552,0.982014,0.981448,0.980915,0.980393,0.979882,0.980561,0.983588,0.983067,0.980773,0.980523,0.981755,0.981701,0.981672,0.981619,0.981477,0.981347,0.981218,0.981023,0.98079,0.98056,0.980318,0.980019,0.979695,0.979403,0.979042,0.978639,0.978276,0.977861,0.977438,0.976992,0.976513,0.976054,0.975524,0.974982,0.974982,0.974486,0.97337,0.972785,0.972132,0.971539,0.971539,0.971047,0.970321,0.969169,0.968467,0.968119,0.967524,0.966651,0.966172,0.96541,0.96461,0.96388,0.963121,0.962825,0.961976
0.00113192,0.00107609,0.00100667,0.000922583,0.000829819,0.000759086,0.000690214,0.000671291,0.000640797,0.000606247,0.000619156,0.000620796,0.000653937,0.00068228,0.000745625,0.000828225,0.000905102,0.00100516,0.00112365,0.00125059,0.00140766,0.00153748,0.00172861,0.0018844,0.00210352,0.00229941,0.00252689,0.00273639,0.00298948,0.00322697,0.00350301,0.00378775,0.0040593,0.00439765,0.00475668,0.00503136,0.00540142,0.00581959,0.00615384,0.00651333,0.00693885,0.00738944,0.00778878,0.00822185,0.00865693,0.00915684,0.0096171,0.0100938,0.0105968,0.011126,0.0116707,0.0121989,0.012749,0.013244,0.0132189,0.0120917,0.0118091,0.0126418,0.0126505,0.0120357,0.0118104,0.0116085,0.011442,0.0112616,0.011093,0.0109502,0.0108273,0.0107215,0.010627,0.010544,0.0104778,0.0104278,0.0103978,0.0103757,0.0103738,0.0103974,0.0104307,0.010488,0.0105504,0.010636,0.0107401,0.0108529,0.0109575,0.0109575,0.0111079,0.0114465,0.0116193,0.0117854,0.0119242,0.0119242,0.0119279,0.0117506,0.0120234,0.0121532,0.0120413,0.012183,0.0123667,0.0124837,0.0126103,0.012835,0.0129688,0.0131685,0.0133914,0.0136013
3.19095e-05,3.75948e-05,0.000110469,4.82925e-05,0.000139035,0.000102849,0.000274958,0.00025776,0.000424844,0.000438092,0.000622808,0.00070676,0.00093182,0.0009703,0.00129185,0.00138519,0.00165723,0.00185966,0.00208259,0.00237737,0.0026261,0.00288492,0.00322591,0.00340697,0.00386127,0.00402436,0.0044588,0.0046691,0.00506561,0.00524507,0.00569665,0.00584693,0.00628467,0.0065716,0.00689901,0.00714544,0.00762399,0.00778712,0.00820285,0.0085039,0.00867031,0.00908589,0.00937621,0.00959564,0.00979279,0.0101585,0.0103009,0.0105565,0.010697,0.0110031,0.0110155,0.0114096,0.0114198,0.0114534,0.0108997,0.00946442,0.0104857,0.00806514,0.0112236,0.00992192,0.00991511,0.00988689,0.00994417,0.00994345,0.00995559,0.00998178,0.00988905,0.00998039,0.00989835,0.0099117,0.00986417,0.00976941,0.00977142,0.00963002,0.00962387,0.00948816,0.00939779,0.00933208,0.00920307,0.00916652,0.00902804,0.00902093,0.00886136,0.00886136,0.00885583,0.00869808,0.00865107,0.0085982,0.00850329,0.00850329,0.00778819,0.00638547,0.00599002,0.00501315,0.00446568,0.00331774,0.00247947,0.00173106,0.000749406,-6.63677e-05,-0.00114175,-0.0018773,-0.00333285,-0.00324408
0.9989,0.998909,0.998886,0.998938,0.999017,0.999052,0.999087,0.999206,0.999307,0.999409,0.999539,0.999684,0.999811,1.00001,1.00018,1.00035,1.00055,1.00075,1.00099,1.0012,1.00143,1.00168,1.00192,1.00222,1.00247,1.00274,1.00305,1.00335,1.00363,1.00401,1.00429,1.00464,1.00501,1.00527,1.00564,1.00606,1.00631,1.00663,1.0071,1.00738,1.00771,1.00818,1.00852,1.00879,1.00925,1.00969,1.00997,1.01038,1.01089,1.01119,1.01162,1.01209,1.01248,1.01303,1.01395,1.01486,1.01231,1.01248,1.01431,1.01367,1.01364,1.01367,1.01365,1.01366,1.01375,1.01381,1.0139,1.01404,1.0142,1.01438,1.01458,1.01484,1.0151,1.01539,1.01571,1.01606,1.01642,1.01679,1.01719,1.01759,1.01804,1.01846,1.01893,1.01893,1.01944,1.02042,1.02091,1.02145,1.02206,1.02206,1.0229,1.02412,1.02493,1.02625,1.02716,1.02794,1.02901,1.03002,1.03077,1.03182,1.03296,1.03381,1.03512,1.03571
-0.000216493,-0.000251213,-0.000239184,-0.000263099,-0.000228164,-0.000261218,-0.000242892,-0.000246511,-0.000231029,-0.000272895,-0.00024562,-0.000286723,-0.000285697,-0.000344438,-0.00032152,-0.000378176,-0.000410476,-0.000456347,-0.000494394,-0.000529067,-0.000584537,-0.000659948,-0.000674186,-0.000785201,-0.000768357,-0.000893397,-0.000910043,-0.00101827,-0.00103216,-0.00114135,-0.00113709,-0.00125372,-0.00127781,-0.00132144,-0.00141939,-0.00151237,-0.00151797,-0.00162108,-0.0017128,-0.00177937,-0.00184344,-0.00186709,-0.00198889,-0.00203635,-0.00213864,-0.00213122,-0.00223293,-0.00229028,-0.00235241,-0.00235956,-0.00245199,-0.00249696,-0.00256095,-0.00265223,-0.00306655,-0.00349802,-0.00198329,-0.002201,-0.00168488,-0.00171066,-0.00172013,-0.00169159,-0.00165374,-0.00166139,-0.00164995,-0.00164192,-0.00161741,-0.00159508,-0.00158345,-0.00155353,-0.00153203,-0.00149856,-0.00145582,-0.00141829,-0.00136107,-0.00132434,-0.0012615,-0.00120371,-0.00116599,-0.00109312,-0.00105508,-0.000989041,-0.000970268,-0.000970268,-0.000878609,-0.000781862,-0.000743372,-0.000714278,-0.000680096,-0.000680096,-0.000699024,-0.000230802,0.000145638,0.000306854,0.000631398,0.000987943,0.00125115,0.00154194,0.00185183,0.0021262,0.0024162,0.00276152,0.00299387,0.00350387
0.00053596,0.000556322,0.000479591,0.000485636,0.000413648,0.000445219,0.000318828,0.000285981,0.000111766,2.62994e-05,-9.64319e-05,-0.000210976,-0.000431438,-0.000517412,-0.000763646,-0.000917761,-0.00113228,-0.00137985,-0.00156144,-0.00185555,-0.00209902,-0.00233896,-0.0026921,-0.00287785,-0.00329321,-0.00349433,-0.00387864,-0.00416543,-0.0045492,-0.00479769,-0.00525475,-0.00552789,-0.00586683,-0.00627324,-0.00656964,-0.00688699,-0.00740316,-0.00761553,-0.00792392,-0.00849296,-0.00877096,-0.00901525,-0.0094935,-0.00994238,-0.0101053,-0.0105822,-0.0109729,-0.0113051,-0.0115676,-0.0121296,-0.0123855,-0.0126874,-0.0132071,-0.013488,-0.0136637,-0.0138473,-0.0156127,-0.0129998,-0.012554,-0.0137114,-0.0136666,-0.0136361,-0.0137118,-0.0136935,-0.0136904,-0.0138392,-0.0138831,-0.0139307,-0.0140868,-0.0141898,-0.0143226,-0.0144825,-0.0146671,-0.0148234,-0.0150219,-0.015227,-0.0154413,-0.0156782,-0.0158907,-0.0161664,-0.0163826,-0.0167007,-0.0169741,-0.0169741,-0.0172541,-0.0179182,-0.0182099,-0.0185713,-0.0189446,-0.0189446,-0.0191919,-0.0203032,-0.0203628,-0.0206442,-0.0213024,-0.0216759,-0.0218241,-0.0223335,-0.0225962,-0.0228104,-0.0230469,-0.0236929,-0.0236018,-0.0242044
0.998773,0.998752,0.998799,0.998869,0.998927,0.999037,0.999185,0.999395,0.999623,0.999871,1.00017,1.00051,1.00086,1.00126,1.00168,1.0021,1.00261,1.00311,1.00365,1.00423,1.00478,1.00544,1.00605,1.00674,1.00739,1.00811,1.00884,1.00956,1.01034,1.01111,1.0119,1.0127,1.01348,1.01435,1.01514,1.01599,1.01681,1.01766,1.01858,1.01935,1.02026,1.02119,1.022,1.02283,1.02385,1.02463,1.02553,1.02648,1.02736,1.02826,1.02919,1.03017,1.03109,1.03204,1.03225,1.03053,1.03045,1.03177,1.03086,1.03117,1.03111,1.03105,1.03104,1.03106,1.03119,1.03125,1.0314,1.03165,1.03184,1.03213,1.03246,1.03282,1.03319,1.03363,1.03413,1.0346,1.03515,1.03571,1.0363,1.03693,1.03758,1.03828,1.03902,1.03902,1.03976,1.04132,1.04217,1.04307,1.04395,1.04395,1.04488,1.04621,1.04768,1.04833,1.04937,1.05034,1.05147,1.05212,1.05321,1.05425,1.05518,1.05635,1.05699,1.05821
-0.00113052,-0.00111132,-0.0010755,-0.0010007,-0.000948477,-0.000898359,-0.000836689,-0.000813214,-0.000784299,-0.000796181,-0.000782406,-0.000801261,-0.000850423,-0.000893125,-0.000921344,-0.00103595,-0.00109681,-0.00122109,-0.00131713,-0.00142449,-0.00159957,-0.00171171,-0.00189221,-0.00204031,-0.0022084,-0.00242311,-0.00258817,-0.00280454,-0.00299342,-0.00319577,-0.00340413,-0.00365917,-0.00384225,-0.00413306,-0.00445241,-0.00464349,-0.00494178,-0.00532502,-0.00552092,-0.00586125,-0.00619563,-0.00647318,-0.00679525,-0.00718452,-0.00746441,-0.00779815,-0.00816761,-0.00851197,-0.00883555,-0.00919173,-0.00962323,-0.0099326,-0.0103325,-0.0106313,-0.0102821,-0.00873852,-0.00850375,-0.00944337,-0.00899393,-0.00854751,-0.00841893,-0.00826768,-0.00812554,-0.00802212,-0.00785973,-0.00775697,-0.00765645,-0.00751901,-0.00743464,-0.00731899,-0.00721853,-0.00710903,-0.00701362,-0.00691041,-0.00680186,-0.00673923,-0.00663697,-0.00657216,-0.00650672,-0.00644563,-0.00640899,-0.00636438,-0.00633495,-0.00633495,-0.00629653,-0.00629059,-0.0063007,-0.00627808,-0.00623562,-0.00623562,-0.00594442,-0.00509846,-0.00473223,-0.00445751,-0.00374017,-0.00342879,-0.00298339,-0.0026497,-0.00229596,-0.00195372,-0.00157112,-0.0011678,-0.000842191,-0.000355367
-0.000806704,-0.00083906,-0.000778137,-0.000755485,-0.00062479,-0.000621567,-0.000509571,-0.000504108,-0.000432723,-0.000348206,-0.000274778,-0.000246433,-0.000124445,-9.78283e-05,-2.49249e-05,5.19465e-05,8.48346e-05,0.000184673,0.000211834,0.000259342,0.000350251,0.000340683,0.000461817,0.000429019,0.000535722,0.000542875,0.000582821,0.000603555,0.000668867,0.000628554,0.000702475,0.000733715,0.000704562,0.000783105,0.000804997,0.000686063,0.000814543,0.000848032,0.000650705,0.000738603,0.000797412,0.000663692,0.000582568,0.000705027,0.000560884,0.000502583,0.000495067,0.000470891,0.000305516,0.000304621,0.000308804,0.000132238,9.57612e-05,-5.93933e-05,-0.000820677,-0.00195301,0.000540791,0.00140432,0.000250052,4.79734e-05,0.000129248,0.000165194,0.000267343,0.000365342,0.000373905,0.000474336,0.000594462,0.00063791,0.000733303,0.000826071,0.000901952,0.000976724,0.00109195,0.00117896,0.00126568,0.00137087,0.00145327,0.00157335,0.00166138,0.00178151,0.00186764,0.00197829,0.00208546,0.00208546,0.00218402,0.00238717,0.0025063,0.00258206,0.00265761,0.00265761,0.00239756,0.00291076,0.00308964,0.00299449,0.0030284,0.00340452,0.00342124,0.00369297,0.00401183,0.00419915,0.00422388,0.00456282,0.00465647,0.00490926
1.00019,1.00019,1.00022,1.00019,1.00021,1.00017,1.00028,1.0003,1.00042,1.00043,1.00056,1.00064,1.00078,1.00085,1.00106,1.00115,1.00137,1.00153,1.00171,1.00195,1.00213,1.00236,1.00263,1.00281,1.00315,1.00334,1.00368,1.00389,1.00425,1.00444,1.00483,1.00501,1.00542,1.00566,1.00597,1.0063,1.00661,1.00692,1.00729,1.00757,1.00789,1.00827,1.0085,1.00895,1.00917,1.00952,1.00984,1.01024,1.0104,1.01084,1.01114,1.01147,1.01178,1.01204,1.01149,1.01021,1.0119,1.01016,1.01201,1.01128,1.01119,1.01113,1.01111,1.01115,1.01109,1.01107,1.01111,1.0111,1.01112,1.01114,1.01117,1.01119,1.01122,1.01127,1.01133,1.01133,1.01141,1.01147,1.01152,1.01163,1.01166,1.01181,1.01188,1.01188,1.012,1.01225,1.01237,1.01254,1.01268,1.01268,1.01253,1.01262,1.01242,1.01241,1.01237,1.01209,1.01182,1.01169,1.01151,1.01127,1.01115,1.01093,1.01054,1.01081
-0.000241766,-0.000255318,-0.000245121,-0.000255974,-0.000252515,-0.000173867,-0.00011673,-6.28749e-05,1.71574e-05,0.000115643,0.000221131,0.000365001,0.000484592,0.000678791,0.0008495,0.00101947,0.00125934,0.00147061,0.00172854,0.00198816,0.00223127,0.00255742,0.00281325,0.00317078,0.00344975,0.00380024,0.00414973,0.0045126,0.00487389,0.00528476,0.0056514,0.0060332,0.00647835,0.00682939,0.00722124,0.00776159,0.00810451,0.00850902,0.00908587,0.00947822,0.00992469,0.0104527,0.0109017,0.011346,0.0119241,0.0123653,0.0128514,0.0134052,0.0139505,0.0144151,0.0149614,0.0155656,0.0160868,0.0167509,0.0174865,0.017932,0.0165026,0.0153175,0.015478,0.0154568,0.015361,0.0153026,0.0152205,0.0152137,0.0152596,0.0152403,0.0152934,0.0153788,0.0154541,0.015576,0.0157094,0.0158815,0.0160372,0.0162439,0.0164693,0.0166787,0.016943,0.0171962,0.0174829,0.0177754,0.0180839,0.018407,0.0187697,0.0187697,0.0191296,0.0198672,0.0202755,0.0207164,0.0211918,0.0211918,0.0218828,0.0227153,0.023077,0.0236151,0.0243063,0.0246774,0.0251936,0.0255847,0.0260531,0.0264976,0.0271399,0.0276004,0.0281554,0.0286197
-0.000750452,-0.00069703,-0.00067125,-0.000573006,-0.000560538,-0.000560762,-0.000648963,-0.000714106,-0.000762353,-0.000937471,-0.00108065,-0.00125638,-0.00147695,-0.00176759,-0.00199904,-0.0023556,-0.00265531,-0.00306739,-0.00348601,-0.00386241,-0.00437488,-0.00481846,-0.00534196,-0.00588493,-0.0063899,-0.00701965,-0.00755941,-0.00820142,-0.00879556,-0.00945364,-0.0100594,-0.0107616,-0.0113999,-0.0121278,-0.0128785,-0.0135644,-0.014288,-0.015157,-0.0158385,-0.0165958,-0.0174492,-0.0182768,-0.0189609,-0.0198034,-0.0206986,-0.0214507,-0.0222335,-0.0231162,-0.0240156,-0.0246972,-0.0256872,-0.0265544,-0.0273557,-0.028219,-0.0279986,-0.0256459,-0.0243942,-0.0258993,-0.0256118,-0.0251966,-0.0250576,-0.0249268,-0.0247238,-0.0246543,-0.0245837,-0.0244619,-0.0244596,-0.0244383,-0.0244222,-0.024462,-0.0244989,-0.0245498,-0.0246283,-0.0247153,-0.024824,-0.0249815,-0.0251044,-0.0252843,-0.0254777,-0.0256861,-0.0259557,-0.0261793,-0.0264837,-0.0264837,-0.0268295,-0.0274487,-0.0278771,-0.0282236,-0.0286163,-0.0286163,-0.0287924,-0.0283987,-0.0285338,-0.0285526,-0.028212,-0.0282892,-0.0280798,-0.0278749,-0.0278609,-0.0277662,-0.0277564,-0.0275273,-0.0276311,-0.0272334
1.00118,1.00119,1.00113,1.00111,1.00097,1.00094,1.00085,1.00076,1.00055,1.00047,1.00027,1.0001,0.999897,0.999747,0.999459,0.999303,0.999013,0.998794,0.998544,0.998234,0.997987,0.997698,0.997368,0.997131,0.996724,0.996503,0.996079,0.995827,0.995413,0.995117,0.994668,0.994442,0.993933,0.993608,0.993318,0.992839,0.992488,0.992225,0.991694,0.991373,0.991079,0.990557,0.990263,0.98984,0.989491,0.989053,0.988733,0.988253,0.987902,0.987477,0.987091,0.986631,0.986232,0.985772,0.985816,0.985914,0.984564,0.987075,0.985821,0.985833,0.985853,0.985846,0.985839,0.985759,0.985639,0.985587,0.985433,0.985279,0.985109,0.984891,0.984676,0.984399,0.984156,0.98385,0.983481,0.983195,0.982802,0.982424,0.982052,0.9816,0.981213,0.98074,0.980306,0.980306,0.979789,0.978819,0.978336,0.977812,0.97722,0.97722,0.976612,0.975267,0.974728,0.974023,0.972937,0.972148,0.971344,0.970461,0.969641,0.968893,0.967866,0.967125,0.966413,0.965178
0.000478106,0.00047149,0.000412393,0.000374206,0.000395771,0.000462386,0.000478688,0.00053596,0.000610585,0.000768464,0.000879126,0.00103947,0.00123469,0.00148104,0.00167556,0.00197665,0.00224142,0.00259381,0.00292886,0.00327015,0.00368462,0.00407084,0.00450694,0.00495913,0.00538685,0.00590561,0.00636456,0.00690744,0.0074092,0.00795363,0.00846047,0.00907241,0.00957898,0.0101648,0.0108001,0.0113938,0.0119858,0.0126972,0.0132588,0.01394,0.0146568,0.015254,0.0158999,0.0166549,0.017319,0.0179473,0.0186789,0.0194034,0.0200778,0.0207484,0.0215778,0.0222268,0.023014,0.0237463,0.0239969,0.0229158,0.0214327,0.0214927,0.0206139,0.0208669,0.0207371,0.0206056,0.0204931,0.0204597,0.0203767,0.0203381,0.0203641,0.0203277,0.0203821,0.0204235,0.0204814,0.0205628,0.0206529,0.0207746,0.020874,0.0210358,0.0211814,0.0213568,0.0215561,0.0217582,0.0219977,0.0222308,0.0225386,0.0225386,0.0228021,0.0234271,0.0237873,0.0241455,0.0245209,0.0245209,0.0247656,0.0248347,0.0246914,0.0248902,0.0248353,0.0249038,0.0247567,0.0247411,0.0247526,0.0247239,0.0247465,0.02476,0.0249103,0.0245818
0.00088225,0.000900721,0.000873734,0.000812917,0.000666315,0.00053973,0.000360445,0.000332468,6.29504e-05,2.4409e-05,-0.000207651,-0.000334287,-0.000603618,-0.000651596,-0.000994142,-0.00106903,-0.00136886,-0.00156033,-0.00173134,-0.00203655,-0.00221717,-0.00243443,-0.00275863,-0.00283604,-0.00327071,-0.00332135,-0.00373328,-0.0038202,-0.00419539,-0.00427197,-0.00467726,-0.00472736,-0.00505852,-0.00529535,-0.00544012,-0.00563445,-0.00598375,-0.00598716,-0.00631627,-0.00649291,-0.00656977,-0.00682971,-0.00693441,-0.00713446,-0.00718708,-0.00737237,-0.00743848,-0.0076593,-0.00757718,-0.00783341,-0.00781065,-0.00796688,-0.00800481,-0.00795787,-0.00694097,-0.00483022,-0.00734797,-0.00519893,-0.00660685,-0.00644166,-0.00655264,-0.00660882,-0.00680397,-0.00692792,-0.00708628,-0.00721609,-0.00732842,-0.00752453,-0.00762798,-0.00779871,-0.00791888,-0.00806245,-0.00820037,-0.00829918,-0.00851651,-0.00855886,-0.00871194,-0.00885853,-0.00893643,-0.00913659,-0.00918381,-0.0094,-0.009488,-0.009488,-0.00965221,-0.00993024,-0.0100524,-0.0102349,-0.0103767,-0.0103767,-0.0100841,-0.00996781,-0.0102717,-0.00977886,-0.0100974,-0.00977105,-0.00964165,-0.00949741,-0.00932033,-0.0092062,-0.00888407,-0.0090292,-0.00809218,-0.00888483
1.00055,1.00052,1.00051,1.00045,1.00045,1.00045,1.00043,1.00035,1.00031,1.00028,1.00021,1.00016,1.00016,1.00008,1.00002,0.999996,0.999924,0.999912,0.999821,0.999752,0.999734,0.999629,0.99963,0.999511,0.999481,0.999408,0.999341,0.999283,0.999214,0.999115,0.999116,0.998987,0.998898,0.998944,0.998851,0.998726,0.998783,0.998702,0.99855,0.998665,0.998558,0.99847,0.998429,0.998475,0.998364,0.998381,0.998319,0.99829,0.998279,0.998261,0.998242,0.998181,0.998182,0.998102,0.997071,0.995331,0.997703,0.998193,0.99733,0.996997,0.996999,0.997002,0.99692,0.996855,0.996805,0.996785,0.996736,0.996653,0.996608,0.99653,0.996463,0.996399,0.996325,0.996206,0.996134,0.996074,0.995953,0.995879,0.995766,0.995681,0.995586,0.995487,0.995367,0.995367,0.995289,0.995071,0.994973,0.994792,0.994644,0.994644,0.99442,0.994122,0.993969,0.993627,0.99307,0.993083,0.992744,0.992635,0.992553,0.992296,0.992262,0.99208,0.99169,0.991527
0.000300405,0.000272469,0.000250219,0.000294316,0.000345128,0.000338837,0.00033292,0.000344069,0.000375767,0.000403438,0.000407606,0.000422746,0.000485118,0.000479502,0.000513515,0.000552257,0.000580769,0.000637017,0.000646299,0.000698778,0.00074248,0.000775271,0.000836342,0.000853077,0.000913876,0.000954089,0.000989379,0.00103727,0.00107926,0.00106591,0.00113298,0.00116742,0.00112521,0.00120827,0.00126948,0.00118866,0.00131018,0.00133281,0.00124644,0.00137261,0.00137745,0.00126545,0.00135944,0.00138481,0.001281,0.00128653,0.00132756,0.00125106,0.00114191,0.00122708,0.00111673,0.00103703,0.00103884,0.000854752,0.000403389,-0.0008339,-0.000395097,-0.000206458,-0.00041855,-0.000147216,-0.0001133,-9.90082e-05,-1.92351e-05,-1.83144e-05,-6.15834e-05,1.51082e-05,-3.04313e-05,-5.28337e-05,-5.66686e-05,-0.000113589,-0.000152144,-0.000233139,-0.000276666,-0.000381013,-0.000486359,-0.000569497,-0.00069852,-0.00080829,-0.000936569,-0.00106324,-0.00120824,-0.00131511,-0.00146032,-0.00146032,-0.00163742,-0.00189647,-0.0020433,-0.00217707,-0.00238278,-0.00238278,-0.00283931,-0.00362239,-0.00397357,-0.00444936,-0.00503308,-0.00559351,-0.00619099,-0.00670676,-0.00726047,-0.00780684,-0.0085326,-0.00886823,-0.00977269,-0.0101897
4.18066e-06,5.31723e-05,2.76555e-06,-2.62134e-05,-8.68188e-05,-0.000120971,-3.83228e-06,5.88375e-05,0.000234279,0.000389713,0.000562396,0.000768654,0.00110139,0.00134911,0.0016835,0.00206224,0.00243131,0.00292543,0.00332338,0.00382709,0.00439259,0.00485888,0.00554761,0.00603733,0.00675139,0.0073417,0.00805744,0.00872559,0.00946865,0.0101621,0.0109594,0.0117607,0.0124404,0.0133767,0.0142195,0.0149485,0.0159363,0.0168051,0.0175701,0.0186285,0.0195502,0.0203832,0.0213516,0.0224276,0.0232751,0.0243052,0.0253063,0.0263502,0.0272961,0.0283997,0.0295486,0.0304491,0.0317057,0.0327114,0.0328213,0.031139,0.03181,0.0331943,0.0314338,0.0316722,0.0314828,0.0312414,0.0311128,0.030952,0.030827,0.0308287,0.0308435,0.0308243,0.0309587,0.0310655,0.0312123,0.0314534,0.0316951,0.0319548,0.0322878,0.032676,0.0330535,0.0335127,0.0339622,0.0344875,0.0350226,0.0355991,0.0362352,0.0362352,0.0368512,0.0382706,0.0389756,0.039722,0.0404964,0.0404964,0.0410473,0.0422867,0.0431391,0.0438688,0.044416,0.0453582,0.0460866,0.0470184,0.0477984,0.0487356,0.0494821,0.0506274,0.051315,0.0519527
0.998038,0.998125,0.998225,0.998423,0.998587,0.998681,0.998727,0.998764,0.998765,0.998698,0.998633,0.998546,0.9984,0.998202,0.997984,0.997738,0.997434,0.997093,0.996696,0.996315,0.995871,0.995389,0.994903,0.99433,0.993795,0.993161,0.992546,0.991865,0.991179,0.990458,0.989684,0.988923,0.988115,0.987253,0.986381,0.985464,0.984496,0.983544,0.982521,0.981505,0.980435,0.97928,0.978217,0.977126,0.975831,0.974683,0.973471,0.972189,0.970826,0.96957,0.968205,0.966678,0.965403,0.963934,0.963472,0.96546,0.966749,0.967082,0.966983,0.967548,0.967985,0.968345,0.968725,0.969044,0.969277,0.969561,0.969759,0.969837,0.970002,0.970028,0.970051,0.970036,0.969934,0.969853,0.96968,0.969487,0.969251,0.968955,0.968639,0.968281,0.967878,0.967449,0.966999,0.966999,0.966455,0.965388,0.964716,0.964127,0.963532,0.963532,0.962953,0.962488,0.961644,0.961216,0.960558,0.960076,0.959534,0.959135,0.958422,0.957858,0.957087,0.956232,0.955616,0.954711
0.000957854,0.000940959,0.000958286,0.000979326,0.000907701,0.000767866,0.000660707,0.000532836,0.000345859,0.000136391,-9.17734e-05,-0.000345089,-0.000634417,-0.000952895,-0.00129833,-0.00163583,-0.00204057,-0.00245735,-0.00289798,-0.00335982,-0.00383005,-0.00434491,-0.0048599,-0.00541186,-0.00596325,-0.00653577,-0.00714013,-0.00774848,-0.00838405,-0.00902425,-0.00969505,-0.0103452,-0.0110496,-0.0117124,-0.0124,-0.0131481,-0.0138482,-0.014539,-0.0153197,-0.016049,-0.0167959,-0.0175813,-0.0183093,-0.0190767,-0.0198981,-0.0206495,-0.0214246,-0.0222738,-0.0230828,-0.0238803,-0.0247279,-0.0256251,-0.0264556,-0.0273814,-0.0279847,-0.0276508,-0.0270532,-0.0262882,-0.0265461,-0.0262653,-0.0261592,-0.0260875,-0.0260317,-0.026049,-0.0261066,-0.0261652,-0.0262876,-0.0264635,-0.0266482,-0.0268972,-0.0271684,-0.0274873,-0.0278407,-0.0282226,-0.0286603,-0.029102,-0.0295929,-0.0301103,-0.0306538,-0.0312344,-0.0318255,-0.032459,-0.0331278,-0.0331278,-0.0338219,-0.0352345,-0.0360037,-0.0367977,-0.0376315,-0.0376315,-0.0384943,-0.0400595,-0.0409667,-0.0419439,-0.0430756,-0.044032,-0.0450438,-0.0460237,-0.0470491,-0.0480471,-0.0491537,-0.0502661,-0.0512742,-0.0523765
-0.000637288,-0.0006941,-0.000657734,-0.000682777,-0.000677116,-0.000541674,-0.000481494,-0.000395068,-0.000284345,-0.000208262,-9.89205e-05,5.30956e-05,0.000173389,0.000271386,0.000463689,0.000556886,0.000774725,0.000883859,0.0010585,0.00126783,0.00138458,0.00165094,0.00177299,0.00200789,0.00218271,0.00239313,0.002605,0.00280764,0.00302991,0.00321514,0.00354063,0.00358438,0.00392967,0.00418544,0.00427818,0.00458155,0.00484484,0.00488829,0.0052687,0.00551518,0.0055534,0.00587437,0.00615443,0.00624033,0.00652896,0.00675493,0.00693183,0.00711393,0.00739979,0.00766786,0.00764531,0.00813638,0.00823205,0.00847134,0.00825951,0.00780823,0.0101525,0.00758295,0.00846928,0.00855324,0.00855079,0.00863895,0.00860986,0.00862007,0.00878291,0.00885829,0.00886493,0.00907239,0.00913477,0.00927552,0.00946231,0.00960344,0.00978024,0.00993217,0.0101905,0.0103691,0.0105896,0.0108167,0.0110409,0.0113021,0.0115341,0.0118422,0.0120488,0.0120488,0.0123817,0.0129139,0.0132442,0.0135489,0.0138559,0.0138559,0.0143662,0.0149735,0.0155314,0.0155642,0.0162508,0.0166909,0.0172489,0.0175671,0.0182026,0.0184528,0.0191331,0.0195885,0.0193888,0.0207612
0.999851,0.999894,0.999983,1.00002,1.00001,0.999969,0.99992,0.999929,0.999862,0.999817,0.999777,0.999749,0.999651,0.999608,0.999538,0.999452,0.999386,0.999259,0.999195,0.9991,0.998962,0.998909,0.998721,0.998675,0.998493,0.998406,0.998248,0.998134,0.997972,0.997867,0.997702,0.997558,0.997453,0.99726,0.997117,0.996991,0.99679,0.996624,0.996541,0.996313,0.996125,0.996014,0.995909,0.995616,0.995537,0.995378,0.995211,0.995003,0.994912,0.994755,0.99449,0.994469,0.994248,0.994129,0.994657,0.995885,0.9953,0.995137,0.99612,0.995666,0.995645,0.995662,0.995651,0.995629,0.995649,0.995651,0.995584,0.995629,0.995591,0.995572,0.995579,0.995539,0.995533,0.995516,0.995501,0.995482,0.995466,0.995435,0.99543,0.995394,0.995379,0.995359,0.995311,0.995311,0.995284,0.995198,0.995162,0.995151,0.995106,0.995106,0.995205,0.995198,0.99537,0.995505,0.995664,0.995693,0.996018,0.996104,0.996224,0.996393,0.996532,0.996624,0.996767,0.997138
-2.9956e-05,1.11288e-05,8.3146e-05,7.90804e-05,3.23034e-05,4.033e-06,-4.67671e-06,-9.34489e-05,-0.00016331,-0.000293794,-0.000371799,-0.000522916,-0.000669065,-0.000874151,-0.00101442,-0.0012374,-0.00146122,-0.00171658,-0.00196858,-0.00222622,-0.00251936,-0.00283663,-0.00312771,-0.00350455,-0.00378171,-0.00419688,-0.00452719,-0.00494405,-0.00530345,-0.00573356,-0.00611523,-0.00657131,-0.00696393,-0.00738571,-0.00788691,-0.00834194,-0.00874242,-0.00927563,-0.00973751,-0.0102241,-0.0107443,-0.0112127,-0.0117135,-0.0122412,-0.0127894,-0.0132577,-0.0138165,-0.0143762,-0.0149082,-0.0154337,-0.016052,-0.0166057,-0.0171915,-0.0178092,-0.0180655,-0.0171535,-0.0160304,-0.01703,-0.0172326,-0.0166221,-0.0165384,-0.0164616,-0.0163708,-0.0163555,-0.0163099,-0.0163146,-0.0163453,-0.0163789,-0.0164619,-0.0165346,-0.0166485,-0.0167844,-0.0169307,-0.0171,-0.0172763,-0.0174983,-0.0177134,-0.0179504,-0.0182199,-0.0184812,-0.0187803,-0.0190837,-0.019438,-0.019438,-0.0197509,-0.0204859,-0.0208838,-0.0212992,-0.0217156,-0.0217156,-0.0221576,-0.0226978,-0.023107,-0.0237853,-0.0239793,-0.0243168,-0.0247404,-0.0251214,-0.0255148,-0.0259402,-0.0264484,-0.0268605,-0.0273154,-0.0274833
-0.000350829,-0.000351832,-0.000353969,-0.000387825,-0.000284513,-0.00024421,-0.000187323,-0.000195176,-0.000131057,-0.000145834,-6.38051e-05,-5.90804e-05,-4.71422e-05,-2.36028e-05,3.40314e-05,2.04927e-05,4.41043e-05,5.02034e-05,8.41677e-05,8.5455e-05,0.000127033,9.24182e-05,0.000146506,9.68235e-05,0.000170127,8.78548e-05,0.000160938,8.65321e-05,9.87215e-05,0.000104798,2.3297e-05,-1.64728e-05,7.47175e-05,-9.71756e-05,-0.000148791,-8.0534e-05,-0.000262639,-0.000336474,-0.00023647,-0.00051022,-0.000605713,-0.000497499,-0.000773553,-0.00086793,-0.000933221,-0.00105978,-0.00133485,-0.00134304,-0.00147542,-0.00185548,-0.0018651,-0.00206101,-0.00234218,-0.00242579,-0.00211052,-0.000629858,-0.00235843,-0.00331399,-0.00169868,-0.00203296,-0.00191218,-0.00187854,-0.00186138,-0.00172542,-0.00161361,-0.00168164,-0.00157109,-0.00154779,-0.00155043,-0.00148241,-0.00152196,-0.00150405,-0.00155422,-0.0015611,-0.00156461,-0.00165959,-0.00169544,-0.00176167,-0.00184434,-0.00190119,-0.00198301,-0.00210709,-0.00217979,-0.00217979,-0.00221789,-0.00248029,-0.00260875,-0.00273907,-0.00274217,-0.00274217,-0.00286221,-0.00334931,-0.00389999,-0.00407413,-0.0041263,-0.00452019,-0.00488445,-0.00510249,-0.00564318,-0.00593636,-0.00627739,-0.00709405,-0.00694208,-0.00762592
1.00142,1.00142,1.00136,1.00119,1.00108,1.00094,1.00086,1.00078,1.00077,1.00071,1.00074,1.00074,1.00077,1.00083,1.00094,1.001,1.00115,1.00128,1.00147,1.00165,1.00186,1.00207,1.00234,1.00258,1.00291,1.00316,1.00355,1.00384,1.00423,1.00462,1.00504,1.0054,1.00596,1.00635,1.00684,1.00744,1.00789,1.00841,1.00916,1.00959,1.01018,1.01105,1.01154,1.01219,1.01301,1.01373,1.01435,1.01525,1.0161,1.01676,1.0177,1.01868,1.01939,1.02041,1.02078,1.0202,1.01928,1.01916,1.02103,1.01946,1.01916,1.01887,1.01852,1.0183,1.01814,1.01783,1.0177,1.01762,1.01745,1.01742,1.01735,1.01736,1.01737,1.01741,1.01755,1.01762,1.01779,1.01798,1.01817,1.01843,1.01869,1.01896,1.01925,1.01925,1.01966,1.02035,1.02077,1.02114,1.02159,1.02159,1.02203,1.02245,1.02313,1.02369,1.02428,1.02468,1.02532,1.02589,1.02644,1.02712,1.02796,1.02844,1.02935,1.03012
-0.000547662,-0.000493725,-0.00047677,-0.000516854,-0.000476555,-0.000430811,-0.000435073,-0.000419481,-0.000417375,-0.000410652,-0.000393235,-0.000386963,-0.000417753,-0.000399704,-0.000400474,-0.000438251,-0.00044538,-0.000489669,-0.000484761,-0.000534428,-0.000577177,-0.000597234,-0.000676579,-0.000682502,-0.000759641,-0.000807781,-0.000861621,-0.000914049,-0.000989233,-0.00101094,-0.00108747,-0.00118082,-0.00114625,-0.00130057,-0.00137732,-0.00135556,-0.00150751,-0.00161367,-0.00157388,-0.00173854,-0.00185474,-0.00180808,-0.00194113,-0.00209198,-0.00207872,-0.00214728,-0.00230101,-0.00234594,-0.00232483,-0.00250753,-0.00258046,-0.00253003,-0.00271916,-0.00266772,-0.00231166,-0.00132554,-0.00228711,-0.00317853,-0.00144113,-0.0021215,-0.00208799,-0.00202043,-0.00203981,-0.00197905,-0.00189447,-0.0018972,-0.0018515,-0.00176273,-0.00174066,-0.00165728,-0.00159704,-0.00152867,-0.00144765,-0.00137053,-0.00126668,-0.00118977,-0.00108766,-0.000996899,-0.000894556,-0.00079862,-0.000691806,-0.000607417,-0.000519654,-0.000519654,-0.000372262,-0.000226404,-0.000118978,-3.98846e-05,0.000102559,0.000102559,0.000394328,0.000792366,0.000984028,0.00145756,0.00193348,0.00221639,0.00264694,0.00306582,0.00340831,0.00377155,0.00434434,0.00452423,0.0051759,0.00556644
-0.00136511,-0.00136942,-0.00134579,-0.00119129,-0.00105142,-0.00089587,-0.000710044,-0.000510115,-0.000285361,-2.00856e-05,0.000274587,0.000563524,0.00092226,0.00129076,0.00168252,0.00207247,0.00252127,0.00298799,0.00347171,0.0039811,0.00447736,0.00502753,0.00557146,0.00614962,0.00672772,0.00732852,0.00793756,0.00855561,0.0092257,0.00982361,0.0105039,0.0112036,0.0118479,0.0124739,0.0132547,0.0138671,0.0145557,0.015343,0.0159525,0.0166343,0.0174637,0.0181061,0.0187752,0.019547,0.02023,0.0209055,0.0216883,0.0224477,0.0230462,0.0238937,0.0246497,0.0253993,0.0261894,0.0269057,0.0270536,0.0252181,0.0241841,0.0245058,0.0255546,0.024706,0.0246408,0.0246186,0.0247241,0.0248595,0.0248919,0.0250802,0.0252735,0.025494,0.0257725,0.0260489,0.0263771,0.0267077,0.0271198,0.0275509,0.0279743,0.0284447,0.0289498,0.0294696,0.0300288,0.0306104,0.0311802,0.0318394,0.0325072,0.0325072,0.0331417,0.0345495,0.0352908,0.0361219,0.0368819,0.0368819,0.0373331,0.0385829,0.0394942,0.0406447,0.0414833,0.0422349,0.043107,0.0439173,0.0447431,0.045672,0.0464023,0.0475252,0.0483157,0.0492689
0.99979,0.999758,0.999686,0.999673,0.999689,0.999716,0.999761,0.999882,0.999994,1.00012,1.00028,1.00044,1.00063,1.00085,1.00106,1.00133,1.00159,1.00188,1.00218,1.00252,1.00285,1.0032,1.00359,1.00395,1.00437,1.00479,1.00522,1.00563,1.00614,1.00657,1.00704,1.00761,1.00802,1.00857,1.00911,1.00959,1.0101,1.01077,1.01122,1.01173,1.01247,1.01295,1.01348,1.01419,1.01473,1.01526,1.01599,1.01664,1.01711,1.01786,1.01862,1.01911,1.01994,1.02055,1.02075,1.0198,1.01987,1.02093,1.0189,1.01987,1.01973,1.01958,1.01959,1.01959,1.01952,1.01953,1.01965,1.01967,1.01982,1.01993,1.0201,1.0203,1.02048,1.02079,1.02103,1.02131,1.02166,1.02199,1.02236,1.02276,1.02315,1.02359,1.02408,1.02408,1.02448,1.02553,1.02603,1.02664,1.02718,1.02718,1.0276,1.02878,1.02944,1.03004,1.03074,1.03154,1.03221,1.03275,1.03352,1.03428,1.03479,1.03571,1.03644,1.03705
-0.000573456,-0.000578117,-0.000637149,-0.000631973,-0.000579234,-0.000511181,-0.000469407,-0.000371086,-0.000251398,-0.000101943,4.15956e-05,0.00022251,0.000411205,0.000656445,0.000863588,0.00111531,0.00138974,0.00169138,0.0019966,0.00230425,0.0026531,0.00300047,0.00336849,0.00376783,0.00413304,0.00456165,0.00498372,0.00542223,0.00585931,0.00635989,0.0067921,0.00731641,0.00779629,0.00828462,0.00881687,0.00937255,0.00983413,0.0103965,0.0109927,0.0114817,0.0120749,0.0126938,0.0132012,0.0137856,0.0144737,0.0150096,0.015596,0.0162995,0.0169509,0.0174922,0.0182695,0.0189289,0.0195936,0.0203711,0.0208365,0.0202771,0.0188966,0.0201697,0.0200527,0.0195614,0.0194967,0.019408,0.0193213,0.0193193,0.0193532,0.0193425,0.019443,0.0195529,0.0196792,0.0198614,0.0200495,0.0203094,0.0205587,0.0208577,0.0212011,0.021551,0.0219347,0.022346,0.0227824,0.0232378,0.0237281,0.0242074,0.0247682,0.0247682,0.0253116,0.0264435,0.0270548,0.0276795,0.0283511,0.0283511,0.0290954,0.030235,0.0311901,0.0321386,0.0329581,0.0338236,0.0348171,0.0356903,0.0365989,0.037621,0.0386421,0.0395872,0.040694,0.0413773
0.00152807,0.00147406,0.00147552,0.00140921,0.00135591,0.00125388,0.00114634,0.000993068,0.000835696,0.000695034,0.000508473,0.000313427,0.00012449,-8.29484e-05,-0.00031315,-0.000544391,-0.000784681,-0.00102451,-0.00129087,-0.00156604,-0.00185534,-0.0021365,-0.00244118,-0.00272878,-0.00305808,-0.00335358,-0.00368426,-0.00398868,-0.00431777,-0.00464289,-0.00496703,-0.00525545,-0.00566619,-0.00592436,-0.00624441,-0.00660696,-0.00683946,-0.00716952,-0.00750221,-0.00774196,-0.00799835,-0.00834316,-0.00856225,-0.00886505,-0.00906436,-0.00934768,-0.00954304,-0.00980232,-0.0100139,-0.0101929,-0.0104314,-0.0106207,-0.0108319,-0.0110554,-0.0113441,-0.012317,-0.0127337,-0.0116943,-0.0129201,-0.0127218,-0.0127759,-0.0128355,-0.012863,-0.0130021,-0.0130956,-0.0131962,-0.0133591,-0.013473,-0.0136649,-0.0138418,-0.0140388,-0.0142508,-0.0144506,-0.0147093,-0.0149588,-0.0152141,-0.0154928,-0.0157664,-0.0160605,-0.0163752,-0.0166883,-0.0170168,-0.0173584,-0.0173584,-0.0177344,-0.0184582,-0.0188148,-0.0192089,-0.0196789,-0.0196789,-0.0200932,-0.0209704,-0.020961,-0.0215926,-0.0219952,-0.0225141,-0.0229327,-0.0235401,-0.0239376,-0.0243371,-0.0248941,-0.0249997,-0.0256458,-0.0260081
1.0006,1.00051,1.00046,1.00041,1.00034,1.00031,1.00031,1.0002,1.0001,1.00009,0.999989,0.999859,0.999781,0.999648,0.999548,0.99943,0.999251,0.99914,0.999005,0.998828,0.998683,0.99852,0.99834,0.998187,0.998,0.99784,0.997591,0.997476,0.997255,0.99702,0.996882,0.99665,0.996412,0.996265,0.995992,0.995694,0.995696,0.995362,0.994977,0.994995,0.994729,0.994348,0.994262,0.993996,0.993714,0.99352,0.993324,0.99294,0.992774,0.992601,0.992157,0.992025,0.991682,0.991369,0.991445,0.992361,0.994124,0.991845,0.991168,0.992106,0.992092,0.992153,0.992175,0.992104,0.992056,0.992095,0.991963,0.991933,0.99181,0.99173,0.991631,0.991436,0.991393,0.991187,0.991002,0.990864,0.990641,0.990461,0.990246,0.990014,0.989786,0.989554,0.98926,0.98926,0.98904,0.988452,0.988242,0.987905,0.987567,0.987567,0.987172,0.98703,0.98654,0.985755,0.985701,0.985408,0.984718,0.98433,0.984061,0.983376,0.982813,0.982652,0.981943,0.981918
-0.000146158,-0.000187744,-0.000201808,-0.00017397,-0.000191753,-0.000185139,-0.000161443,-8.43614e-05,-3.96714e-05,6.61178e-05,0.000107635,0.000219447,0.000331926,0.000457201,0.000541775,0.000717213,0.00086147,0.00103784,0.00119028,0.00137746,0.00157186,0.00179176,0.00198724,0.00223756,0.00241771,0.00272329,0.00291607,0.00321078,0.00345611,0.00371807,0.00400103,0.00431272,0.00452154,0.0048862,0.00520068,0.00543674,0.00577346,0.00614292,0.00634813,0.00674751,0.00710831,0.00731657,0.00770117,0.00808584,0.00839259,0.00867166,0.00911492,0.00943311,0.00972371,0.0101602,0.0105193,0.0108362,0.0112732,0.011594,0.0114601,0.0104059,0.0115938,0.012794,0.0114542,0.0115897,0.011527,0.0114638,0.0114231,0.0113937,0.0113369,0.0113762,0.0113878,0.0114013,0.0114721,0.0115082,0.0116076,0.0116925,0.0118006,0.0119277,0.012045,0.0122172,0.0123654,0.0125427,0.0127388,0.0129294,0.0131416,0.0133774,0.0136277,0.0136277,0.0138256,0.01438,0.0146734,0.0149758,0.0152316,0.0152316,0.0154647,0.0160565,0.0164654,0.0167204,0.016826,0.017258,0.0175897,0.0178603,0.018336,0.0186395,0.0189446,0.0194257,0.0195175,0.019903
0.00163472,0.00163941,0.00156178,0.00149584,0.00138154,0.00126801,0.00104722,0.000883841,0.000713419,0.000484623,0.000251751,1.29515e-05,-0.000269725,-0.000560037,-0.000851159,-0.00116598,-0.00147986,-0.00184441,-0.0021976,-0.00255502,-0.00295276,-0.00333078,-0.00373799,-0.00415479,-0.00455952,-0.00499543,-0.00541279,-0.00586147,-0.00629609,-0.00674694,-0.00716933,-0.00768789,-0.00810544,-0.00853415,-0.0090724,-0.00942615,-0.00988893,-0.0103913,-0.0107601,-0.0111869,-0.0116806,-0.0120742,-0.0124918,-0.0129019,-0.0133379,-0.0137287,-0.0141254,-0.0145568,-0.0149313,-0.0153212,-0.015755,-0.0161679,-0.0165652,-0.0169676,-0.0174442,-0.0172778,-0.0165139,-0.0182268,-0.0188737,-0.0176457,-0.0176926,-0.0177075,-0.0177946,-0.0179121,-0.0179975,-0.0181842,-0.0183421,-0.0185649,-0.0187999,-0.0190571,-0.0193391,-0.0196245,-0.0199846,-0.020323,-0.0206973,-0.021109,-0.0215021,-0.02194,-0.0223994,-0.0228687,-0.02336,-0.0238654,-0.0244145,-0.0244145,-0.0249451,-0.0260522,-0.0266436,-0.027287,-0.0279279,-0.0279279,-0.0283304,-0.029412,-0.0303073,-0.031202,-0.0317843,-0.0325341,-0.0334353,-0.0342871,-0.0349845,-0.0359305,-0.0365216,-0.037387,-0.0382198,-0.0388799
1.0004,1.00034,1.00029,1.00025,1.0002,1.0002,1.00016,1.00006,1.00006,0.999995,0.999905,0.999854,0.999796,0.99973,0.999656,0.999561,0.999499,0.999445,0.999338,0.999237,0.999186,0.999067,0.999015,0.998901,0.998824,0.998696,0.998656,0.998557,0.998431,0.998408,0.998279,0.998175,0.998128,0.997997,0.997895,0.997938,0.997793,0.997601,0.997718,0.997639,0.997441,0.997484,0.997407,0.997322,0.997334,0.997302,0.997138,0.997189,0.997241,0.997013,0.997098,0.997057,0.996977,0.997118,0.99755,0.998589,0.996669,0.996362,0.996864,0.996257,0.996312,0.996284,0.996176,0.996135,0.996168,0.996078,0.99605,0.996005,0.995946,0.995925,0.995836,0.995842,0.995769,0.995674,0.995663,0.995592,0.995526,0.995474,0.995395,0.995327,0.99527,0.995156,0.995106,0.995106,0.995049,0.994872,0.994769,0.994627,0.994617,0.994617,0.994844,0.994648,0.994435,0.994531,0.994498,0.994254,0.994217,0.994353,0.994114,0.994131,0.994327,0.994099,0.994313,0.993798
0.000684666,0.000680724,0.000688909,0.000663269,0.000572679,0.000474175,0.000457029,0.000349522,0.000255728,0.000137052,-7.81106e-06,-0.00015965,-0.000286262,-0.000486882,-0.000663034,-0.000830815,-0.00105677,-0.00124282,-0.00149222,-0.00172269,-0.00192959,-0.00221822,-0.00242479,-0.00273894,-0.00296317,-0.00326411,-0.00354357,-0.0038299,-0.0041301,-0.00445571,-0.00474026,-0.00505605,-0.00539981,-0.00568436,-0.00599535,-0.00639016,-0.00664683,-0.00698009,-0.0074146,-0.00764065,-0.0080097,-0.00843168,-0.0087232,-0.00900168,-0.00948267,-0.00976532,-0.0101107,-0.010511,-0.0109089,-0.0112255,-0.0116064,-0.0120827,-0.0124093,-0.0128655,-0.0132081,-0.0127768,-0.0114047,-0.0113586,-0.0117049,-0.0117367,-0.0117169,-0.0117319,-0.0117389,-0.01179,-0.0119001,-0.0119228,-0.0120188,-0.0121792,-0.0122767,-0.0124451,-0.0126203,-0.0128123,-0.0130072,-0.0132469,-0.0135038,-0.0137384,-0.014028,-0.0143063,-0.0146148,-0.0149273,-0.0152555,-0.015593,-0.0159549,-0.0159549,-0.0163295,-0.0170595,-0.0174764,-0.0179153,-0.0183467,-0.0183467,-0.0188971,-0.0195082,-0.0202088,-0.02071,-0.0214358,-0.0219117,-0.0225882,-0.0229691,-0.023582,-0.0241814,-0.0248178,-0.0254303,-0.0260171,-0.0267029
-0.00058824,-0.000582873,-0.000531207,-0.00047205,-0.000415809,-0.000472828,-0.000443068,-0.000414938,-0.000449995,-0.000507849,-0.00055651,-0.000635443,-0.000748657,-0.000851496,-0.000988049,-0.00111707,-0.0013083,-0.00149794,-0.00168833,-0.00190939,-0.00213047,-0.00239275,-0.00264851,-0.0029298,-0.0032045,-0.00352433,-0.00384324,-0.00417855,-0.00454182,-0.00489438,-0.00532546,-0.00568272,-0.00609028,-0.00659457,-0.00697372,-0.00744064,-0.00798226,-0.00840323,-0.0089449,-0.00950308,-0.0100251,-0.0106057,-0.0111575,-0.0117402,-0.0124513,-0.0130031,-0.0136581,-0.0143799,-0.0150854,-0.0157844,-0.0165175,-0.0173695,-0.0180843,-0.0189114,-0.0188915,-0.0173743,-0.0185595,-0.0187466,-0.0174593,-0.0172135,-0.0170137,-0.0168244,-0.016624,-0.0164679,-0.0164198,-0.0163094,-0.0162551,-0.0163005,-0.0162722,-0.0163478,-0.0164366,-0.0165592,-0.0167135,-0.0168707,-0.0171258,-0.01735,-0.0176154,-0.0179313,-0.0182467,-0.0186096,-0.0189758,-0.0193791,-0.0197927,-0.0197927,-0.0202454,-0.0211435,-0.0216855,-0.022181,-0.0226813,-0.0226813,-0.0232474,-0.0242513,-0.0253329,-0.0256533,-0.0265171,-0.0273835,-0.0282461,-0.0289041,-0.0299408,-0.0307563,-0.0316953,-0.0328124,-0.0333666,-0.0346558
0.999063,0.999047,0.999081,0.99913,0.999229,0.999356,0.999461,0.999688,0.999918,1.00009,1.00036,1.00072,1.00104,1.00141,1.00181,1.0022,1.00275,1.00318,1.00368,1.00427,1.00477,1.00543,1.00598,1.00664,1.00725,1.00794,1.00865,1.00931,1.01005,1.01077,1.01155,1.01222,1.01305,1.0138,1.01462,1.01549,1.01616,1.01702,1.01802,1.0187,1.0195,1.02048,1.02128,1.0221,1.02301,1.02385,1.02472,1.02566,1.02647,1.02743,1.02829,1.02927,1.03021,1.03112,1.03088,1.0283,1.02772,1.02783,1.02896,1.02769,1.02757,1.02752,1.02747,1.02751,1.02759,1.02766,1.02778,1.02797,1.02819,1.02839,1.02869,1.02902,1.0293,1.02969,1.03012,1.03051,1.03099,1.03146,1.03197,1.03253,1.03307,1.03371,1.03432,1.03432,1.03494,1.03635,1.03703,1.03783,1.03856,1.03856,1.03937,1.03997,1.04085,1.04177,1.04215,1.04267,1.04365,1.04418,1.0449,1.04568,1.04666,1.0473,1.04769,1.04872
-0.000158924,-0.000149648,-0.00014022,-0.000131639,-7.26703e-05,-2.46755e-05,-2.93069e-05,-9.21558e-06,1.277e-05,1.22432e-05,7.18375e-05,9.49258e-05,0.000102909,0.000139549,0.000196558,0.000191223,0.000245734,0.000245813,0.000303685,0.000343131,0.000339194,0.000396527,0.000399052,0.000443433,0.000474403,0.000479358,0.000532431,0.000531007,0.000577125,0.000600474,0.000620959,0.000617872,0.000687482,0.000657571,0.000655027,0.000733496,0.000706096,0.000691693,0.000806737,0.000723131,0.000736092,0.00083017,0.000800321,0.00073921,0.000813934,0.000814454,0.000781316,0.000796459,0.00082266,0.000802899,0.000758086,0.000837246,0.000783175,0.00080265,0.000962876,0.0010512,-8.31344e-05,-0.00104289,-0.000271809,-0.00010951,-0.000101105,-5.24784e-05,-2.12138e-06,3.62193e-05,0.000119123,0.000123447,0.000153775,0.00022697,0.000234529,0.000282304,0.000314261,0.000343918,0.000364955,0.000402493,0.000438928,0.000434689,0.000476349,0.000485262,0.000503096,0.000523879,0.000531966,0.000552332,0.000555345,0.000555345,0.000589534,0.000590113,0.000601094,0.000637723,0.000658609,0.000658609,0.000740413,0.000565236,0.000618331,0.000570127,0.000772101,0.000622148,0.000637254,0.000470624,0.000389362,0.000353156,0.000317896,0.000271132,0.000234572,0.000342649
-0.000603197,-0.000573418,-0.000572132,-0.00058679,-0.000606725,-0.000523464,-0.000454619,-0.000394879,-0.000314164,-0.000181556,-6.45594e-05,8.9633e-05,0.000268042,0.00044541,0.000633326,0.000849499,0.00107676,0.00133354,0.0015804,0.0018468,0.00214313,0.00244257,0.00275241,0.00308331,0.00339361,0.00376406,0.00409762,0.00447782,0.00484445,0.00523302,0.00564149,0.00604457,0.00644272,0.00691602,0.00732915,0.00771821,0.00820769,0.00863955,0.0090653,0.00955855,0.0100159,0.010481,0.0109547,0.0114283,0.0119787,0.0124304,0.012927,0.0134696,0.0140107,0.0145168,0.0150668,0.0156792,0.0162116,0.0168076,0.01702,0.0165554,0.0178266,0.0190108,0.0183005,0.017583,0.0175033,0.0174079,0.0173027,0.0172538,0.0172653,0.0172847,0.0173159,0.0174319,0.0175213,0.0176728,0.017856,0.0180537,0.0182996,0.0185423,0.0188621,0.0191894,0.0195161,0.0199015,0.0202973,0.0207234,0.0211719,0.0216352,0.0221267,0.0221267,0.022643,0.0236779,0.024266,0.0248389,0.0254346,0.0254346,0.0260046,0.0272593,0.0282971,0.0288757,0.0295943,0.0305897,0.0315811,0.0324641,0.0334999,0.0344671,0.0353941,0.036424,0.0372042,0.038333
0.999962,1.00006,1.00011,1.00017,1.00019,1.00015,1.00011,1.00004,0.999892,0.999801,0.999646,0.999419,0.999195,0.998953,0.998659,0.998396,0.997992,0.997656,0.997282,0.996845,0.996439,0.995942,0.995478,0.994965,0.994449,0.993916,0.993303,0.992757,0.992143,0.991519,0.990843,0.990282,0.989539,0.988886,0.988196,0.987388,0.986748,0.98606,0.985115,0.984419,0.983731,0.982803,0.982039,0.981252,0.980357,0.979522,0.978725,0.977776,0.976899,0.976025,0.975117,0.974108,0.97321,0.972182,0.971911,0.97301,0.973305,0.973688,0.972721,0.974228,0.974414,0.974566,0.974756,0.974844,0.974852,0.974906,0.974893,0.974805,0.974722,0.974597,0.974427,0.974185,0.973983,0.973726,0.973372,0.973068,0.972683,0.972288,0.971868,0.971398,0.970931,0.970397,0.969866,0.969866,0.969292,0.968074,0.967451,0.966782,0.966087,0.966087,0.965228,0.964271,0.963447,0.962618,0.96206,0.961518,0.960591,0.959869,0.959142,0.958327,0.957245,0.95652,0.95591,0.954943
-0.00126743,-0.00140494,-0.00144542,-0.00142281,-0.00100791,-0.000745401,-0.000752347,-0.000596256,-0.000265817,2.92906e-05,0.000567474,0.000892097,0.00129123,0.0018194,0.00249079,0.00283003,0.00352538,0.00405299,0.0048592,0.00549569,0.00610976,0.00691887,0.00758604,0.00842128,0.00923865,0.00993287,0.0108916,0.0116229,0.012577,0.0134186,0.0143217,0.01499,0.0162548,0.0168225,0.0175962,0.0188731,0.0196036,0.0202981,0.021745,0.0221898,0.0231014,0.0245725,0.0250339,0.0256944,0.0270802,0.0278444,0.0284213,0.0295635,0.0306524,0.0311266,0.0319764,0.0334526,0.0337268,0.0349105,0.0354036,0.0340582,0.0288178,0.0229847,0.029566,0.0292236,0.0292704,0.0294799,0.0295247,0.0297961,0.030243,0.0301379,0.0304056,0.0309113,0.0309448,0.0314368,0.0317169,0.0320377,0.0324418,0.0328222,0.0333487,0.0336167,0.0341384,0.0345894,0.0350469,0.0355994,0.036088,0.0366354,0.0371625,0.0371625,0.0380066,0.0389879,0.0397976,0.0404933,0.0413296,0.0413296,0.0421152,0.0420578,0.0427371,0.0428061,0.0445374,0.0441276,0.0441703,0.0438037,0.0439666,0.043972,0.0444844,0.0444392,0.0448615,0.0458514
0.00018379,8.1836e-05,-1.68233e-05,-0.000289993,-0.000164659,-0.000194389,-0.000195976,-0.0003081,-0.000104416,-0.000141172,2.41462e-05,0.000175021,0.000417893,0.000480124,0.000816797,0.000943628,0.00134698,0.00160498,0.00184788,0.00227646,0.00262798,0.00300178,0.00350133,0.00376834,0.00439413,0.0047011,0.00536975,0.00571966,0.00639282,0.00684841,0.00761088,0.0079908,0.00891299,0.00948714,0.010053,0.0108669,0.0115442,0.0121242,0.0131345,0.0137879,0.0144552,0.0155112,0.0161289,0.0172373,0.0180667,0.018949,0.0198241,0.0211323,0.021903,0.0229742,0.0242099,0.0253636,0.0264539,0.0277999,0.0279946,0.0288503,0.0356664,0.0337132,0.0343546,0.0308554,0.0305062,0.0300156,0.0295937,0.0294922,0.0293545,0.0291509,0.0292137,0.0292612,0.0293529,0.0295812,0.0298076,0.0301809,0.0305068,0.030978,0.03164,0.0320979,0.0327849,0.0335203,0.0342443,0.0351564,0.0359263,0.0368983,0.0378357,0.0378357,0.0388537,0.0409116,0.0419668,0.0430892,0.0443665,0.0443665,0.0454376,0.0490853,0.0507012,0.0521424,0.0542228,0.0564208,0.0587601,0.0612864,0.0636524,0.0659205,0.068448,0.0704757,0.0725527,0.0758903
1.00116,1.00141,1.00138,1.00139,1.00129,1.001,1.00067,1.0003,0.999822,0.999413,0.998624,0.997907,0.997066,0.996275,0.99519,0.99422,0.992997,0.991908,0.99061,0.989267,0.987877,0.986419,0.984884,0.983404,0.981703,0.980117,0.978325,0.976799,0.974955,0.973338,0.971467,0.969946,0.967965,0.966082,0.964238,0.9625,0.96063,0.958704,0.956633,0.955186,0.95341,0.951099,0.949649,0.948016,0.946016,0.944339,0.942896,0.941088,0.939446,0.937995,0.936495,0.934559,0.93345,0.932136,0.934165,0.941122,0.938961,0.936904,0.934776,0.939209,0.939294,0.939329,0.939431,0.939369,0.939117,0.939169,0.939035,0.938624,0.93859,0.93827,0.93798,0.937736,0.937471,0.937221,0.936752,0.936508,0.936136,0.935724,0.935357,0.934837,0.934358,0.93377,0.933336,0.933336,0.932535,0.931251,0.930435,0.929718,0.929071,0.929071,0.929238,0.931744,0.931066,0.932992,0.934896,0.936185,0.936965,0.938721,0.939779,0.940845,0.942204,0.944004,0.946233,0.946301
