n_hidden,Tini,Q_x_y,Q_z,Q_yaw,R_thrust,R_roll_pitch,R_yaw,P_x_y,P_xy_ang,P_z,P_roll_pitch,P_yaw,svd_weighing,svd_cutoff,lambda1_g,lambda2_g,lambda1_s,lambda2_s,solve_time,input_cost,output_cost,opt_input_cost,opt_output_cost,opt_cost_lambda1_g,opt_cost_lambda2_g,opt_cost_lambda1_s,opt_cost_lambda2_s
2,6,40,40,10,160,4,1,657.21,317.06,355.26,629.6,84.215,0,0,0,1,0,1e+05,0.016133,872.1,20996,12393,3.3972e+05,0,4.396e+07,0,6.4235e+07
2,6,40,40,10,160,4,1,657.21,317.06,355.26,629.6,84.215,0,0,0,1,0,2e+05,0.01752,825.18,18719,12898,3.698e+05,0,6.2177e+07,0,7.2727e+07
2,6,40,40,10,160,4,1,657.21,317.06,355.26,629.6,84.215,0,0,0,1,0,4e+05,0.020619,804.7,17161,13756,3.811e+05,0,8.8374e+07,0,7.7132e+07
2,6,40,40,10,160,4,1,657.21,317.06,355.26,629.6,84.215,0,0,0,1,0,6e+05,0.022269,809.21,16387,14378,3.8553e+05,0,1.0599e+08,0,7.4658e+07
2,6,40,40,10,160,4,1,657.21,317.06,355.26,629.6,84.215,0,0,0,1,0,8e+05,0.024341,815.88,15854,14830,3.8564e+05,0,1.1815e+08,0,7.011e+07
2,6,40,40,10,160,4,1,657.21,317.06,355.26,629.6,84.215,0,0,0,1,0,1e+06,0.023508,821.66,15527,15467,3.838e+05,0,1.2843e+08,0,6.6182e+07
2,6,40,40,10,160,4,1,657.21,317.06,355.26,629.6,84.215,0,0,0,1,0,2e+06,0.029294,837.02,14639,16174,3.8263e+05,0,1.559e+08,0,4.9193e+07
2,6,40,40,10,160,4,1,657.21,317.06,355.26,629.6,84.215,0,0,0,1,0,4e+06,0.033211,836.61,14116,16585,3.7476e+05,0,1.8052e+08,0,3.3234e+07
2,6,40,40,10,160,4,1,657.21,317.06,355.26,629.6,84.215,0,0,0,1,0,6e+06,0.031914,836.15,13921,16674,3.6791e+05,0,1.9254e+08,0,2.5364e+07
2,6,40,40,10,160,4,1,657.21,317.06,355.26,629.6,84.215,0,0,0,1,0,8e+06,0.036218,833.3,13819,16815,3.6382e+05,0,1.9979e+08,0,2.0579e+07
2,6,40,40,10,160,4,1,657.21,317.06,355.26,629.6,84.215,0,0,0,1,0,1e+07,0.036384,832.85,13757,16818,3.6031e+05,0,2.045e+08,0,1.7307e+07
2,6,40,40,10,160,4,1,657.21,317.06,355.26,629.6,84.215,0,0,0,1,0,2e+07,0.036815,830,13618,16839,3.527e+05,0,2.1511e+08,0,9.6841e+06
2,6,40,40,10,160,4,1,657.21,317.06,355.26,629.6,84.215,0,0,0,1,0,4e+07,0.044822,828.75,13539,16973,3.4829e+05,0,2.2114e+08,0,5.1636e+06
2,6,40,40,10,160,4,1,657.21,317.06,355.26,629.6,84.215,0,0,0,1,0,6e+07,0.046654,827.03,13510,16996,3.4681e+05,0,2.233e+08,0,3.5228e+06
2,6,40,40,10,160,4,1,657.21,317.06,355.26,629.6,84.215,0,0,0,1,0,8e+07,0.047536,826.77,13495,17000,3.4598e+05,0,2.2437e+08,0,2.6729e+06
2,6,40,40,10,160,4,1,657.21,317.06,355.26,629.6,84.215,0,0,0,1,0,1e+08,0.067001,826.49,13487,17047,3.4551e+05,0,2.2503e+08,0,2.1536e+06
2,6,40,40,10,160,4,1,657.21,317.06,355.26,629.6,84.215,0,0,0,2,0,1e+05,0.021006,997.47,26989,21356,6.1193e+05,0,7.488e+07,0,1.402e+08
2,6,40,40,10,160,4,1,657.21,317.06,355.26,629.6,84.215,0,0,0,2,0,2e+05,0.021643,610.5,19025,15284,3.7432e+05,0,7.9202e+07,0,1.2988e+08
2,6,40,40,10,160,4,1,657.21,317.06,355.26,629.6,84.215,0,0,0,2,0,4e+05,0.025941,890.34,13901,17019,3.6655e+05,0,8.0058e+07,0,9.9305e+07
2,6,40,40,10,160,4,1,657.21,317.06,355.26,629.6,84.215,0,0,0,2,0,6e+05,0.026765,872.19,12288,17084,3.6409e+05,0,8.7255e+07,0,9.2777e+07
2,6,40,40,10,160,4,1,657.21,317.06,355.26,629.6,84.215,0,0,0,2,0,8e+05,0.028165,860.79,11411,17311,3.6455e+05,0,9.3521e+07,0,8.835e+07
2,6,40,40,10,160,4,1,657.21,317.06,355.26,629.6,84.215,0,0,0,2,0,1e+06,0.028853,852,10777,17585,3.6522e+05,0,9.768e+07,0,8.3509e+07
2,6,40,40,10,160,4,1,657.21,317.06,355.26,629.6,84.215,0,0,0,2,0,2e+06,0.031392,829.03,9434.1,17812,3.6841e+05,0,1.1665e+08,0,6.9183e+07
2,6,40,40,10,160,4,1,657.21,317.06,355.26,629.6,84.215,0,0,0,2,0,4e+06,0.032551,800.35,8526.6,17139,3.6781e+05,0,1.3617e+08,0,5.142e+07
2,6,40,40,10,160,4,1,657.21,317.06,355.26,629.6,84.215,0,0,0,2,0,6e+06,0.036282,788.89,8134.6,16270,3.672e+05,0,1.4661e+08,0,4.1152e+07
2,6,40,40,10,160,4,1,657.21,317.06,355.26,629.6,84.215,0,0,0,2,0,8e+06,0.041996,783.29,7941.1,15904,3.6517e+05,0,1.5456e+08,0,3.4642e+07
2,6,40,40,10,160,4,1,657.21,317.06,355.26,629.6,84.215,0,0,0,2,0,1e+07,0.047715,779.84,7788.1,15479,3.6452e+05,0,1.5869e+08,0,2.9706e+07
2,6,40,40,10,160,4,1,657.21,317.06,355.26,629.6,84.215,0,0,0,2,0,2e+07,0.042779,764.75,7416,14669,3.5844e+05,0,1.6541e+08,0,1.7084e+07
2,6,40,40,10,160,4,1,657.21,317.06,355.26,629.6,84.215,0,0,0,2,0,4e+07,0.053869,761.31,7228.7,14479,3.5461e+05,0,1.7251e+08,0,9.4825e+06
2,6,40,40,10,160,4,1,657.21,317.06,355.26,629.6,84.215,0,0,0,2,0,6e+07,0.056537,757.5,7144.8,14376,3.5318e+05,0,1.7411e+08,0,6.5414e+06
2,6,40,40,10,160,4,1,657.21,317.06,355.26,629.6,84.215,0,0,0,2,0,8e+07,0.053902,759.65,7100.6,14375,3.5241e+05,0,1.7495e+08,0,4.9961e+06
2,6,40,40,10,160,4,1,657.21,317.06,355.26,629.6,84.215,0,0,0,2,0,1e+08,0.060325,758.01,7073,14380,3.5193e+05,0,1.7534e+08,0,4.0382e+06
2,6,40,40,10,160,4,1,657.21,317.06,355.26,629.6,84.215,0,0,0,4,0,1e+05,0.029472,989.89,42172,25682,7.2382e+05,0,1.8659e+08,0,4.0623e+08
2,6,40,40,10,160,4,1,657.21,317.06,355.26,629.6,84.215,0,0,0,4,0,2e+05,0.025792,984.83,17042,21695,4.2297e+05,0,9.2916e+07,0,1.6184e+08
2,6,40,40,10,160,4,1,657.21,317.06,355.26,629.6,84.215,0,0,0,4,0,4e+05,0.026341,857.26,9765.1,19655,2.4778e+05,0,6.1026e+07,0,8.5793e+07
2,6,40,40,10,160,4,1,657.21,317.06,355.26,629.6,84.215,0,0,0,4,0,6e+05,0.027556,796.84,7147.6,16495,1.7251e+05,0,4.341e+07,0,5.3035e+07
2,6,40,40,10,160,4,1,657.21,317.06,355.26,629.6,84.215,0,0,0,4,0,8e+05,0.028655,731.04,5677,13085,1.208e+05,0,3.1269e+07,0,3.4383e+07
2,6,40,40,10,160,4,1,657.21,317.06,355.26,629.6,84.215,0,0,0,4,0,1e+06,0.029878,667.68,4695.1,9749.2,78197,0,2.213e+07,0,2.2642e+07
2,6,40,40,10,160,4,1,657.21,317.06,355.26,629.6,84.215,0,0,0,4,0,2e+06,0.032807,272.22,2144.8,-8432.4,-84918,0,1.2584e+06,0,1.3923e+06
2,6,40,40,10,160,4,1,657.21,317.06,355.26,629.6,84.215,0,0,0,4,0,4e+06,0.0063446,6.0209,1236.6,-16732,-1.4251e+05,0,-2.031e+05,0,5122.4
2,6,40,40,10,160,4,1,657.21,317.06,355.26,629.6,84.215,0,0,0,4,0,6e+06,0.0063181,5.61,1076,-16888,-1.6089e+05,0,-2.078e+05,0,3824.7
2,6,40,40,10,160,4,1,657.21,317.06,355.26,629.6,84.215,0,0,0,4,0,8e+06,0.0063134,5.397,990.62,-16971,-1.7065e+05,0,-2.1019e+05,0,3073.3
2,6,40,40,10,160,4,1,657.21,317.06,355.26,629.6,84.215,0,0,0,4,0,1e+07,0.0063682,5.2693,936.96,-17023,-1.7679e+05,0,-2.1165e+05,0,2574.4
2,6,40,40,10,160,4,1,657.21,317.06,355.26,629.6,84.215,0,0,0,4,0,2e+07,0.0063497,5.0235,821.04,-17141,-1.9009e+05,0,-2.1467e+05,0,1428
2,6,40,40,10,160,4,1,657.21,317.06,355.26,629.6,84.215,0,0,0,4,0,4e+07,0.0062937,4.9176,756.35,-17212,-1.9754e+05,0,-2.1628e+05,0,757.08
2,6,40,40,10,160,4,1,657.21,317.06,355.26,629.6,84.215,0,0,0,4,0,6e+07,0.0063955,4.8883,733.26,-17240,-2.0021e+05,0,-2.1684e+05,0,515.32
2,6,40,40,10,160,4,1,657.21,317.06,355.26,629.6,84.215,0,0,0,4,0,8e+07,0.0063311,4.8753,721.35,-17254,-2.0159e+05,0,-2.1713e+05,0,390.64
2,6,40,40,10,160,4,1,657.21,317.06,355.26,629.6,84.215,0,0,0,4,0,1e+08,0.0063103,4.8684,714.08,-17263,-2.0243e+05,0,-2.173e+05,0,314.56
2,6,40,40,10,160,4,1,657.21,317.06,355.26,629.6,84.215,0,0,0,6,0,1e+05,0.033451,1079.6,39664,30110,8.4694e+05,0,2.0422e+08,0,4.5909e+08
2,6,40,40,10,160,4,1,657.21,317.06,355.26,629.6,84.215,0,0,0,6,0,2e+05,0.030049,975.98,17192,23690,4.6844e+05,0,1.0486e+08,0,1.952e+08
2,6,40,40,10,160,4,1,657.21,317.06,355.26,629.6,84.215,0,0,0,6,0,4e+05,0.025438,605.08,5521.2,6375.1,1.5735e+05,0,1.8387e+07,0,2.881e+07
2,6,40,40,10,160,4,1,657.21,317.06,355.26,629.6,84.215,0,0,0,6,0,6e+05,0.006322,10.112,1306.4,-16230,-1.316e+05,0,-3.1878e+05,0,8593.9
2,6,40,40,10,160,4,1,657.21,317.06,355.26,629.6,84.215,0,0,0,6,0,8e+05,0.0064044,10.268,974.93,-16812,-1.702e+05,0,-3.2797e+05,0,6040.7
2,6,40,40,10,160,4,1,657.21,317.06,355.26,629.6,84.215,0,0,0,6,0,1e+06,0.0063765,10.972,821.41,-17079,-1.874e+05,0,-3.3187e+05,0,4990
2,6,40,40,10,160,4,1,657.21,317.06,355.26,629.6,84.215,0,0,0,6,0,2e+06,0.00895,26.058,604.34,-17107,-2.1198e+05,0,-3.1071e+05,0,33710
2,6,40,40,10,160,4,1,657.21,317.06,355.26,629.6,84.215,0,0,0,6,0,4e+06,0.013071,51.253,528.8,-16052,-2.1298e+05,0,-1.5532e+05,0,1.6053e+05
2,6,40,40,10,160,4,1,657.21,317.06,355.26,629.6,84.215,0,0,0,6,0,6e+06,0.012403,59.337,504.31,-15557,-2.1233e+05,0,-27867,0,2.2104e+05
2,6,40,40,10,160,4,1,657.21,317.06,355.26,629.6,84.215,0,0,0,6,0,8e+06,0.015439,65.099,491.28,-15254,-2.1185e+05,0,68836,0,2.4593e+05
2,6,40,40,10,160,4,1,657.21,317.06,355.26,629.6,84.215,0,0,0,6,0,1e+07,0.02263,67.198,482.95,-15078,-2.116e+05,0,1.4318e+05,0,2.5365e+05
2,6,40,40,10,160,4,1,657.21,317.06,355.26,629.6,84.215,0,0,0,6,0,2e+07,0.016357,74.008,464.85,-14726,-2.1054e+05,0,3.678e+05,0,2.3002e+05
2,6,40,40,10,160,4,1,657.21,317.06,355.26,629.6,84.215,0,0,0,6,0,4e+07,0.020933,77.915,455.48,-14450,-2.0997e+05,0,5.7587e+05,0,1.7114e+05
2,6,40,40,10,160,4,1,657.21,317.06,355.26,629.6,84.215,0,0,0,6,0,6e+07,0.022114,79.831,452.56,-14325,-2.0958e+05,0,6.8088e+05,0,1.343e+05
2,6,40,40,10,160,4,1,657.21,317.06,355.26,629.6,84.215,0,0,0,6,0,8e+07,0.023185,81.179,451.23,-14253,-2.0927e+05,0,7.4687e+05,0,1.1044e+05
2,6,40,40,10,160,4,1,657.21,317.06,355.26,629.6,84.215,0,0,0,6,0,1e+08,0.03539,81.959,450.38,-14211,-2.0904e+05,0,7.8415e+05,0,93115
2,6,40,40,10,160,4,1,657.21,317.06,355.26,629.6,84.215,0,0,0,10,0,1e+05,0.034305,1088.5,57582,36855,9.9288e+05,0,3.9738e+08,0,9.3004e+08
2,6,40,40,10,160,4,1,657.21,317.06,355.26,629.6,84.215,0,0,0,10,0,2e+05,0.033974,817.49,15129,20598,4.9747e+05,0,9.6771e+07,0,1.9426e+08
2,6,40,40,10,160,4,1,657.21,317.06,355.26,629.6,84.215,0,0,0,10,0,4e+05,0.010244,78.349,889.27,-13972,-1.6609e+05,0,-4.1942e+05,0,3.6354e+05
2,6,40,40,10,160,4,1,657.21,317.06,355.26,629.6,84.215,0,0,0,10,0,6e+05,0.013023,155.87,837.08,-10450,-1.5282e+05,0,2.8933e+05,0,1.8209e+06
2,6,40,40,10,160,4,1,657.21,317.06,355.26,629.6,84.215,0,0,0,10,0,8e+05,0.019062,207.81,861.16,-8344.1,-1.3697e+05,0,1.0154e+06,0,3.0895e+06
2,6,40,40,10,160,4,1,657.21,317.06,355.26,629.6,84.215,0,0,0,10,0,1e+06,0.022521,235.15,874.04,-7198.1,-1.2727e+05,0,1.5519e+06,0,3.8998e+06
2,6,40,40,10,160,4,1,657.21,317.06,355.26,629.6,84.215,0,0,0,10,0,2e+06,0.020842,273.28,842.47,-5659.4,-1.1896e+05,0,2.5949e+06,0,4.6533e+06
2,6,40,40,10,160,4,1,657.21,317.06,355.26,629.6,84.215,0,0,0,10,0,4e+06,0.03011,258.12,720.78,-7263.2,-1.4399e+05,0,1.7898e+06,0,2.5812e+06
2,6,40,40,10,160,4,1,657.21,317.06,355.26,629.6,84.215,0,0,0,10,0,6e+06,0.04083,218.33,633,-10446,-1.7816e+05,0,4.9811e+05,0,9.614e+05
2,6,40,40,10,160,4,1,657.21,317.06,355.26,629.6,84.215,0,0,0,10,0,8e+06,0.025801,90.65,560.6,-15846,-2.1634e+05,0,-4.8478e+05,0,75461
2,6,40,40,10,160,4,1,657.21,317.06,355.26,629.6,84.215,0,0,0,10,0,1e+07,0.030167,38.822,521.71,-16947,-2.1572e+05,0,-5.6968e+05,0,10575
2,6,40,40,10,160,4,1,657.21,317.06,355.26,629.6,84.215,0,0,0,10,0,2e+07,0.0063451,34.66,464.74,-17191,-2.2124e+05,0,-5.8512e+05,0,1188.9
2,6,40,40,10,160,4,1,657.21,317.06,355.26,629.6,84.215,0,0,0,10,0,4e+07,0.0063592,33.853,430.02,-17258,-2.2639e+05,0,-5.8634e+05,0,711.25
2,6,40,40,10,160,4,1,657.21,317.06,355.26,629.6,84.215,0,0,0,10,0,6e+07,0.0063267,33.677,417.22,-17280,-2.2824e+05,0,-5.8673e+05,0,509.53
2,6,40,40,10,160,4,1,657.21,317.06,355.26,629.6,84.215,0,0,0,10,0,8e+07,0.0063641,33.629,410.62,-17291,-2.2919e+05,0,-5.8692e+05,0,397.47
2,6,40,40,10,160,4,1,657.21,317.06,355.26,629.6,84.215,0,0,0,10,0,1e+08,0.0063893,33.617,406.6,-17298,-2.2976e+05,0,-5.8702e+05,0,325.98
2,6,40,40,10,160,4,1,657.21,317.06,355.26,629.6,84.215,0,0,0,20,0,1e+05,0.043295,1154.4,76467,42614,1.0858e+06,0,6.8794e+08,0,1.7174e+09
2,6,40,40,10,160,4,1,657.21,317.06,355.26,629.6,84.215,0,0,0,20,0,2e+05,0.0067332,31.436,1060.7,-12836,-1.4056e+05,0,-1.1642e+06,0,20297
2,6,40,40,10,160,4,1,657.21,317.06,355.26,629.6,84.215,0,0,0,20,0,4e+05,0.0063055,41.791,629.82,-15702,-1.9548e+05,0,-1.1812e+06,0,8484.1
2,6,40,40,10,160,4,1,657.21,317.06,355.26,629.6,84.215,0,0,0,20,0,6e+05,0.006253,45.41,468.25,-16462,-2.2026e+05,0,-1.1864e+06,0,4837.4
2,6,40,40,10,160,4,1,657.21,317.06,355.26,629.6,84.215,0,0,0,20,0,8e+05,0.0063722,54.814,390.57,-16744,-2.3014e+05,0,-1.1878e+06,0,3788.4
2,6,40,40,10,160,4,1,657.21,317.06,355.26,629.6,84.215,0,0,0,20,0,1e+06,0.0063616,63.054,352.97,-16850,-2.3387e+05,0,-1.188e+06,0,3380.4
2,6,40,40,10,160,4,1,657.21,317.06,355.26,629.6,84.215,0,0,0,20,0,2e+06,0.0063676,84.578,309.86,-16904,-2.3508e+05,0,-1.1871e+06,0,2770.3
2,6,40,40,10,160,4,1,657.21,317.06,355.26,629.6,84.215,0,0,0,20,0,4e+06,0.0063378,97.137,304.99,-16876,-2.3292e+05,0,-1.1866e+06,0,2370.5
2,6,40,40,10,160,4,1,657.21,317.06,355.26,629.6,84.215,0,0,0,20,0,6e+06,0.0063393,100.72,303.97,-16871,-2.3222e+05,0,-1.1868e+06,0,2159.4
2,6,40,40,10,160,4,1,657.21,317.06,355.26,629.6,84.215,0,0,0,20,0,8e+06,0.006338,101.96,302.65,-16874,-2.3207e+05,0,-1.187e+06,0,2010.7
2,6,40,40,10,160,4,1,657.21,317.06,355.26,629.6,84.215,0,0,0,20,0,1e+07,0.0062909,102.36,301.23,-16879,-2.3212e+05,0,-1.1873e+06,0,1891.9
2,6,40,40,10,160,4,1,657.21,317.06,355.26,629.6,84.215,0,0,0,20,0,2e+07,0.0063777,101.63,295.5,-16898,-2.3283e+05,0,-1.1881e+06,0,1484.8
2,6,40,40,10,160,4,1,657.21,317.06,355.26,629.6,84.215,0,0,0,20,0,4e+07,0.0063842,99.91,290.07,-16914,-2.3371e+05,0,-1.1888e+06,0,1044.3
2,6,40,40,10,160,4,1,657.21,317.06,355.26,629.6,84.215,0,0,0,20,0,6e+07,0.0063618,99.076,287.82,-16918,-2.3408e+05,0,-1.189e+06,0,805.7
2,6,40,40,10,160,4,1,657.21,317.06,355.26,629.6,84.215,0,0,0,20,0,8e+07,0.0063349,98.635,286.69,-16919,-2.3427e+05,0,-1.1891e+06,0,656.19
2,6,40,40,10,160,4,1,657.21,317.06,355.26,629.6,84.215,0,0,0,20,0,1e+08,0.0063729,98.371,286.03,-16919,-2.3437e+05,0,-1.1892e+06,0,553.65
2,6,40,40,10,160,4,1,657.21,317.06,355.26,629.6,84.215,0,0,0,40,0,1e+05,0.056283,1365,55037,44522,1.0731e+06,0,4.4908e+08,0,1.2727e+09
2,6,40,40,10,160,4,1,657.21,317.06,355.26,629.6,84.215,0,0,0,40,0,2e+05,0.0063789,38.37,551.61,-14044,-2.0855e+05,0,-2.3867e+06,0,11113
2,6,40,40,10,160,4,1,657.21,317.06,355.26,629.6,84.215,0,0,0,40,0,4e+05,0.0063467,68.345,305.1,-16225,-2.3879e+05,0,-2.3955e+06,0,5843.1
2,6,40,40,10,160,4,1,657.21,317.06,355.26,629.6,84.215,0,0,0,40,0,6e+05,0.0063685,88.29,293.47,-16411,-2.3742e+05,0,-2.3957e+06,0,5072.9
2,6,40,40,10,160,4,1,657.21,317.06,355.26,629.6,84.215,0,0,0,40,0,8e+05,0.00641,93.516,293.86,-16496,-2.368e+05,0,-2.396e+06,0,4305.9
2,6,40,40,10,160,4,1,657.21,317.06,355.26,629.6,84.215,0,0,0,40,0,1e+06,0.0063855,93.159,291.17,-16566,-2.3751e+05,0,-2.3966e+06,0,3683.8
2,6,40,40,10,160,4,1,657.21,317.06,355.26,629.6,84.215,0,0,0,40,0,2e+06,0.0063522,86.911,265.44,-16761,-2.4391e+05,0,-2.3987e+06,0,2292.6
2,6,40,40,10,160,4,1,657.21,317.06,355.26,629.6,84.215,0,0,0,40,0,4e+06,0.0063525,90.458,232.53,-16871,-2.5087e+05,0,-2.4003e+06,0,1616.1
2,6,40,40,10,160,4,1,657.21,317.06,355.26,629.6,84.215,0,0,0,40,0,6e+06,0.0063834,95.077,215.43,-16915,-2.5411e+05,0,-2.4009e+06,0,1348.3
2,6,40,40,10,160,4,1,657.21,317.06,355.26,629.6,84.215,0,0,0,40,0,8e+06,0.0063617,98.433,204.68,-16943,-2.5603e+05,0,-2.4013e+06,0,1189.2
2,6,40,40,10,160,4,1,657.21,317.06,355.26,629.6,84.215,0,0,0,40,0,1e+07,0.0063659,100.73,197.13,-16966,-2.5734e+05,0,-2.4016e+06,0,1080.1
2,6,40,40,10,160,4,1,657.21,317.06,355.26,629.6,84.215,0,0,0,40,0,2e+07,0.0063568,105.14,177.65,-17038,-2.6057e+05,0,-2.4024e+06,0,799.7
2,6,40,40,10,160,4,1,657.21,317.06,355.26,629.6,84.215,0,0,0,40,0,4e+07,0.0063005,105.22,163.55,-17104,-2.6282e+05,0,-2.4031e+06,0,571.82
2,6,40,40,10,160,4,1,657.21,317.06,355.26,629.6,84.215,0,0,0,40,0,6e+07,0.0063767,104.84,157.55,-17132,-2.6375e+05,0,-2.4034e+06,0,455.87
2,6,40,40,10,160,4,1,657.21,317.06,355.26,629.6,84.215,0,0,0,40,0,8e+07,0.006383,104.59,154.19,-17147,-2.6426e+05,0,-2.4035e+06,0,381.3
2,6,40,40,10,160,4,1,657.21,317.06,355.26,629.6,84.215,0,0,0,40,0,1e+08,0.0063392,104.46,152.06,-17156,-2.6458e+05,0,-2.4036e+06,0,328.46
2,6,40,40,10,160,4,1,657.21,317.06,355.26,629.6,84.215,0,0,0,60,0,1e+05,0.056508,1374.9,42267,44738,1.0038e+06,0,3.2952e+08,0,9.8363e+08
2,6,40,40,10,160,4,1,657.21,317.06,355.26,629.6,84.215,0,0,0,60,0,2e+05,0.0063377,54.376,433.94,-14103,-2.2229e+05,0,-3.5924e+06,0,10178
2,6,40,40,10,160,4,1,657.21,317.06,355.26,629.6,84.215,0,0,0,60,0,4e+05,0.0063473,81.532,294.42,-15948,-2.3863e+05,0,-3.6018e+06,0,6332.1
2,6,40,40,10,160,4,1,657.21,317.06,355.26,629.6,84.215,0,0,0,60,0,6e+05,0.0063551,77.585,264.14,-16349,-2.4456e+05,0,-3.6049e+06,0,4359
2,6,40,40,10,160,4,1,657.21,317.06,355.26,629.6,84.215,0,0,0,60,0,8e+05,0.0063561,75.881,237.69,-16529,-2.5019e+05,0,-3.6067e+06,0,3229.4
2,6,40,40,10,160,4,1,657.21,317.06,355.26,629.6,84.215,0,0,0,60,0,1e+06,0.0063996,79.808,217.06,-16621,-2.5433e+05,0,-3.6079e+06,0,2625.8
2,6,40,40,10,160,4,1,657.21,317.06,355.26,629.6,84.215,0,0,0,60,0,2e+06,0.0063103,102.03,168.02,-16817,-2.6291e+05,0,-3.6098e+06,0,1652.2
2,6,40,40,10,160,4,1,657.21,317.06,355.26,629.6,84.215,0,0,0,60,0,4e+06,0.0063926,112.31,141.79,-16970,-2.6677e+05,0,-3.6107e+06,0,1202.9
2,6,40,40,10,160,4,1,657.21,317.06,355.26,629.6,84.215,0,0,0,60,0,6e+06,0.0062961,113.92,132.49,-17038,-2.6805e+05,0,-3.6111e+06,0,1026.7
2,6,40,40,10,160,4,1,657.21,317.06,355.26,629.6,84.215,0,0,0,60,0,8e+06,0.0063308,113.96,127.43,-17078,-2.6875e+05,0,-3.6114e+06,0,919.8
2,6,40,40,10,160,4,1,657.21,317.06,355.26,629.6,84.215,0,0,0,60,0,1e+07,0.0064164,113.55,124.12,-17105,-2.6921e+05,0,-3.6116e+06,0,844.21
2,6,40,40,10,160,4,1,657.21,317.06,355.26,629.6,84.215,0,0,0,60,0,2e+07,0.0063685,110.54,116.08,-17173,-2.704e+05,0,-3.6123e+06,0,641.5
2,6,40,40,10,160,4,1,657.21,317.06,355.26,629.6,84.215,0,0,0,60,0,4e+07,0.0063172,106.3,110.34,-17223,-2.7132e+05,0,-3.6129e+06,0,477.18
2,6,40,40,10,160,4,1,657.21,317.06,355.26,629.6,84.215,0,0,0,60,0,6e+07,0.0063513,103.88,107.81,-17244,-2.7175e+05,0,-3.6131e+06,0,392.25
2,6,40,40,10,160,4,1,657.21,317.06,355.26,629.6,84.215,0,0,0,60,0,8e+07,0.0063808,102.36,106.36,-17256,-2.7199e+05,0,-3.6133e+06,0,335.91
2,6,40,40,10,160,4,1,657.21,317.06,355.26,629.6,84.215,0,0,0,60,0,1e+08,0.0063155,101.34,105.42,-17263,-2.7215e+05,0,-3.6134e+06,0,294.68
2,6,40,40,10,160,4,1,657.21,317.06,355.26,629.6,84.215,0,0,0,80,0,1e+05,0.051069,1362.6,37560,44705,9.7688e+05,0,2.8278e+08,0,9.2478e+08
2,6,40,40,10,160,4,1,657.21,317.06,355.26,629.6,84.215,0,0,0,80,0,2e+05,0.0063665,71.905,423.27,-13682,-2.2017e+05,0,-4.7945e+06,0,11706
2,6,40,40,10,160,4,1,657.21,317.06,355.26,629.6,84.215,0,0,0,80,0,4e+05,0.0062985,76.928,280.95,-15806,-2.4189e+05,0,-4.8086e+06,0,5972.9
2,6,40,40,10,160,4,1,657.21,317.06,355.26,629.6,84.215,0,0,0,80,0,6e+05,0.0063664,73.012,222.75,-16293,-2.5359e+05,0,-4.8134e+06,0,3581.6
2,6,40,40,10,160,4,1,657.21,317.06,355.26,629.6,84.215,0,0,0,80,0,8e+05,0.0063898,81.682,187.16,-16486,-2.6022e+05,0,-4.8155e+06,0,2618.6
2,6,40,40,10,160,4,1,657.21,317.06,355.26,629.6,84.215,0,0,0,80,0,1e+06,0.0064154,89.447,165.65,-16605,-2.6388e+05,0,-4.8167e+06,0,2143
2,6,40,40,10,160,4,1,657.21,317.06,355.26,629.6,84.215,0,0,0,80,0,2e+06,0.0063232,100.68,127.33,-16895,-2.6973e+05,0,-4.8188e+06,0,1347.5
2,6,40,40,10,160,4,1,657.21,317.06,355.26,629.6,84.215,0,0,0,80,0,4e+06,0.0064119,101.69,111.6,-17068,-2.7195e+05,0,-4.8199e+06,0,990.45
2,6,40,40,10,160,4,1,657.21,317.06,355.26,629.6,84.215,0,0,0,80,0,6e+06,0.0063556,100.24,106.37,-17133,-2.7272e+05,0,-4.8204e+06,0,850.92
2,6,40,40,10,160,4,1,657.21,317.06,355.26,629.6,84.215,0,0,0,80,0,8e+06,0.0063556,98.71,103.55,-17167,-2.7316e+05,0,-4.8207e+06,0,765.19
2,6,40,40,10,160,4,1,657.21,317.06,355.26,629.6,84.215,0,0,0,80,0,1e+07,0.0063578,97.326,101.68,-17190,-2.7348e+05,0,-4.8209e+06,0,703.59
2,6,40,40,10,160,4,1,657.21,317.06,355.26,629.6,84.215,0,0,0,80,0,2e+07,0.0063279,92.314,97.018,-17241,-2.7434e+05,0,-4.8215e+06,0,534.99
2,6,40,40,10,160,4,1,657.21,317.06,355.26,629.6,84.215,0,0,0,80,0,4e+07,0.0063356,86.911,93.394,-17278,-2.7509e+05,0,-4.822e+06,0,399.36
2,6,40,40,10,160,4,1,657.21,317.06,355.26,629.6,84.215,0,0,0,80,0,6e+07,0.0064258,83.929,91.658,-17295,-2.7547e+05,0,-4.8223e+06,0,331.69
2,6,40,40,10,160,4,1,657.21,317.06,355.26,629.6,84.215,0,0,0,80,0,8e+07,0.0064091,82.044,90.614,-17305,-2.7571e+05,0,-4.8225e+06,0,287.3
2,6,40,40,10,160,4,1,657.21,317.06,355.26,629.6,84.215,0,0,0,80,0,1e+08,0.0063729,80.745,89.915,-17311,-2.7586e+05,0,-4.8226e+06,0,254.67
2,6,40,40,10,160,4,1,657.21,317.06,355.26,629.6,84.215,0,0,0,100,0,1e+05,0.06045,1338.4,35897,44487,9.917e+05,0,2.6713e+08,0,9.4103e+08
2,6,40,40,10,160,4,1,657.21,317.06,355.26,629.6,84.215,0,0,0,100,0,2e+05,0.0064057,84.735,438.11,-13143,-2.1538e+05,0,-5.9957e+06,0,13382
2,6,40,40,10,160,4,1,657.21,317.06,355.26,629.6,84.215,0,0,0,100,0,4e+05,0.0063548,72.399,262.3,-15674,-2.4615e+05,0,-6.0153e+06,0,5513.6
2,6,40,40,10,160,4,1,657.21,317.06,355.26,629.6,84.215,0,0,0,100,0,6e+05,0.0063376,76.593,191.93,-16209,-2.5962e+05,0,-6.0211e+06,0,3184.6
2,6,40,40,10,160,4,1,657.21,317.06,355.26,629.6,84.215,0,0,0,100,0,8e+05,0.0063784,85.087,157.31,-16448,-2.6557e+05,0,-6.0235e+06,0,2342.8
2,6,40,40,10,160,4,1,657.21,317.06,355.26,629.6,84.215,0,0,0,100,0,1e+06,0.0063366,88.902,138.82,-16601,-2.6852e+05,0,-6.0248e+06,0,1915.1
2,6,40,40,10,160,4,1,657.21,317.06,355.26,629.6,84.215,0,0,0,100,0,2e+06,0.0063809,90.401,109.37,-16934,-2.73e+05,0,-6.0273e+06,0,1181.4
2,6,40,40,10,160,4,1,657.21,317.06,355.26,629.6,84.215,0,0,0,100,0,4e+06,0.0063425,86.643,97.738,-17115,-2.7484e+05,0,-6.0286e+06,0,847.53
2,6,40,40,10,160,4,1,657.21,317.06,355.26,629.6,84.215,0,0,0,100,0,6e+06,0.0063422,83.921,93.85,-17176,-2.7552e+05,0,-6.0291e+06,0,724.91
2,6,40,40,10,160,4,1,657.21,317.06,355.26,629.6,84.215,0,0,0,100,0,8e+06,0.0063827,81.91,91.701,-17207,-2.7593e+05,0,-6.0294e+06,0,652.28
2,6,40,40,10,160,4,1,657.21,317.06,355.26,629.6,84.215,0,0,0,100,0,1e+07,0.0063459,80.332,90.258,-17225,-2.7621e+05,0,-6.0296e+06,0,600.83
2,6,40,40,10,160,4,1,657.21,317.06,355.26,629.6,84.215,0,0,0,100,0,2e+07,0.0063341,75.455,86.557,-17265,-2.7701e+05,0,-6.0302e+06,0,460.63
2,6,40,40,10,160,4,1,657.21,317.06,355.26,629.6,84.215,0,0,0,100,0,4e+07,0.0062887,70.764,83.58,-17291,-2.7769e+05,0,-6.0306e+06,0,347.96
2,6,40,40,10,160,4,1,657.21,317.06,355.26,629.6,84.215,0,0,0,100,0,6e+07,0.0063891,68.243,82.105,-17302,-2.7805e+05,0,-6.0309e+06,0,292.56
2,6,40,40,10,160,4,1,657.21,317.06,355.26,629.6,84.215,0,0,0,100,0,8e+07,0.0063715,66.636,81.191,-17309,-2.7827e+05,0,-6.031e+06,0,256.34
2,6,40,40,10,160,4,1,657.21,317.06,355.26,629.6,84.215,0,0,0,100,0,1e+08,0.0063514,65.522,80.563,-17314,-2.7842e+05,0,-6.0311e+06,0,229.56
2,6,40,40,10,160,4,1,657.21,317.06,355.26,629.6,84.215,0,0,0,200,0,1e+05,0.06116,1102.9,28685,40066,8.0755e+05,0,1.68e+08,0,8.3805e+08
2,6,40,40,10,160,4,1,657.21,317.06,355.26,629.6,84.215,0,0,0,200,0,2e+05,0.0063449,95.278,550.27,-8571.9,-1.9457e+05,0,-1.1997e+07,0,21437
2,6,40,40,10,160,4,1,657.21,317.06,355.26,629.6,84.215,0,0,0,200,0,4e+05,0.006329,63.493,208.74,-14609,-2.5751e+05,0,-1.2049e+07,0,5085.9
2,6,40,40,10,160,4,1,657.21,317.06,355.26,629.6,84.215,0,0,0,200,0,6e+05,0.0064108,64.385,138.71,-15612,-2.6964e+05,0,-1.2058e+07,0,2898.8
2,6,40,40,10,160,4,1,657.21,317.06,355.26,629.6,84.215,0,0,0,200,0,8e+05,0.006406,62.03,114.15,-16034,-2.737e+05,0,-1.2062e+07,0,2121
2,6,40,40,10,160,4,1,657.21,317.06,355.26,629.6,84.215,0,0,0,200,0,1e+06,0.0063821,59.333,102.44,-16271,-2.7566e+05,0,-1.2064e+07,0,1711.7
2,6,40,40,10,160,4,1,657.21,317.06,355.26,629.6,84.215,0,0,0,200,0,2e+06,0.006441,50.997,83.119,-16741,-2.7912e+05,0,-1.2067e+07,0,985.25
2,6,40,40,10,160,4,1,657.21,317.06,355.26,629.6,84.215,0,0,0,200,0,4e+06,0.0067285,46.995,74.178,-16986,-2.8081e+05,0,-1.2069e+07,0,734.85
2,6,40,40,10,160,4,1,657.21,317.06,355.26,629.6,84.215,0,0,0,200,0,6e+06,0.0067679,45.963,70.842,-17057,-2.8144e+05,0,-1.2069e+07,0,728.25
2,6,40,40,10,160,4,1,657.21,317.06,355.26,629.6,84.215,0,0,0,200,0,8e+06,0.0068087,45.843,69.134,-17055,-2.8175e+05,0,-1.2069e+07,0,825.86
2,6,40,40,10,160,4,1,657.21,317.06,355.26,629.6,84.215,0,0,0,200,0,1e+07,0.0068457,48.192,68.402,-16911,-2.8181e+05,0,-1.2069e+07,0,1412.4
2,6,40,40,10,160,4,1,657.21,317.06,355.26,629.6,84.215,0,0,0,200,0,2e+07,0.0065987,118.7,75.087,-13759,-2.7907e+05,0,-1.2054e+07,0,10814
2,6,40,40,10,160,4,1,657.21,317.06,355.26,629.6,84.215,0,0,0,200,0,4e+07,0.0083582,162.21,79.726,-12315,-2.7753e+05,0,-1.2045e+07,0,9674.4
2,6,40,40,10,160,4,1,657.21,317.06,355.26,629.6,84.215,0,0,0,200,0,6e+07,0.0065128,161.96,79.132,-11710,-2.7758e+05,0,-1.204e+07,0,10788
2,6,40,40,10,160,4,1,657.21,317.06,355.26,629.6,84.215,0,0,0,200,0,8e+07,0.0082621,162.92,79.161,-11358,-2.7756e+05,0,-1.2038e+07,0,9200.4
2,6,40,40,10,160,4,1,657.21,317.06,355.26,629.6,84.215,0,0,0,200,0,1e+08,0.0089096,185.65,80.686,-11082,-2.7702e+05,0,-1.2036e+07,0,7564.3
2,6,40,40,10,160,4,1,657.21,317.06,355.26,629.6,84.215,0,0,0,400,0,1e+05,0.081977,1307.1,41384,61832,1.0338e+06,0,4.0919e+08,0,1.7882e+09
2,6,40,40,10,160,4,1,657.21,317.06,355.26,629.6,84.215,0,0,0,400,0,2e+05,0.052616,542.74,5135.8,28800,1.907e+05,0,-9.4276e+06,0,7.1173e+07
2,6,40,40,10,160,4,1,657.21,317.06,355.26,629.6,84.215,0,0,0,400,0,4e+05,0.0063883,35.486,386.3,-321.93,-2.3139e+05,0,-2.4058e+07,0,24150
2,6,40,40,10,160,4,1,657.21,317.06,355.26,629.6,84.215,0,0,0,400,0,6e+05,0.006408,33.958,177.34,-8587.5,-2.6559e+05,0,-2.4118e+07,0,7791.6
2,6,40,40,10,160,4,1,657.21,317.06,355.26,629.6,84.215,0,0,0,400,0,8e+05,0.0063545,32.728,130.96,-11832,-2.7281e+05,0,-2.413e+07,0,4877.3
2,6,40,40,10,160,4,1,657.21,317.06,355.26,629.6,84.215,0,0,0,400,0,1e+06,0.0063874,31.905,110.87,-13258,-2.7597e+05,0,-2.4135e+07,0,3654.9
2,6,40,40,10,160,4,1,657.21,317.06,355.26,629.6,84.215,0,0,0,400,0,2e+06,0.0066018,31.365,81.115,-15378,-2.8073e+05,0,-2.4142e+07,0,1892
2,6,40,40,10,160,4,1,657.21,317.06,355.26,629.6,84.215,0,0,0,400,0,4e+06,0.0065848,32.222,68.575,-16249,-2.8273e+05,0,-2.4144e+07,0,1251.9
2,6,40,40,10,160,4,1,657.21,317.06,355.26,629.6,84.215,0,0,0,400,0,6e+06,0.0068865,33.194,64.277,-16505,-2.8339e+05,0,-2.4145e+07,0,1162.5
2,6,40,40,10,160,4,1,657.21,317.06,355.26,629.6,84.215,0,0,0,400,0,8e+06,0.0068188,34.639,62.122,-16550,-2.8368e+05,0,-2.4145e+07,0,1529.9
2,6,40,40,10,160,4,1,657.21,317.06,355.26,629.6,84.215,0,0,0,400,0,1e+07,0.0068712,53.385,61.546,-15103,-2.8316e+05,0,-2.4139e+07,0,8903.1
2,6,40,40,10,160,4,1,657.21,317.06,355.26,629.6,84.215,0,0,0,400,0,2e+07,0.0069412,120.69,68.184,-12031,-2.8042e+05,0,-2.4122e+07,0,20040
2,6,40,40,10,160,4,1,657.21,317.06,355.26,629.6,84.215,0,0,0,400,0,4e+07,0.0065665,135.3,71.211,-9873.7,-2.7927e+05,0,-2.4108e+07,0,24995
2,6,40,40,10,160,4,1,657.21,317.06,355.26,629.6,84.215,0,0,0,400,0,6e+07,0.0065678,151.15,72.41,-8854.5,-2.7871e+05,0,-2.4099e+07,0,25351
2,6,40,40,10,160,4,1,657.21,317.06,355.26,629.6,84.215,0,0,0,400,0,8e+07,0.0065506,161.28,72.971,-8054.3,-2.7838e+05,0,-2.4091e+07,0,27634
2,6,40,40,10,160,4,1,657.21,317.06,355.26,629.6,84.215,0,0,0,400,0,1e+08,0.0066067,163.09,74.201,-7582.6,-2.7805e+05,0,-2.4086e+07,0,26765
2,6,40,40,10,160,4,1,657.21,317.06,355.26,629.6,84.215,0,0,0,600,0,1e+05,0.10487,1560.4,1.4082e+05,73215,1.3068e+06,0,2.0381e+09,0,9.122e+09
2,6,40,40,10,160,4,1,657.21,317.06,355.26,629.6,84.215,0,0,0,600,0,2e+05,0.10014,1205.7,31998,60739,9.5995e+05,0,4.9276e+08,0,2.198e+09
2,6,40,40,10,160,4,1,657.21,317.06,355.26,629.6,84.215,0,0,0,600,0,4e+05,0.060593,380.45,2874.9,29938,1.9952e+05,0,-3.1136e+07,0,1.7213e+07
2,6,40,40,10,160,4,1,657.21,317.06,355.26,629.6,84.215,0,0,0,600,0,6e+05,0.0063636,16.776,559.17,9001.3,-2.0456e+05,0,-3.5971e+07,0,68466
2,6,40,40,10,160,4,1,657.21,317.06,355.26,629.6,84.215,0,0,0,600,0,8e+05,0.0063489,21.273,289.88,3012.5,-2.4893e+05,0,-3.6122e+07,0,28941
2,6,40,40,10,160,4,1,657.21,317.06,355.26,629.6,84.215,0,0,0,600,0,1e+06,0.0068728,24.533,207.49,499.04,-2.622e+05,0,-3.6164e+07,0,17550
2,6,40,40,10,160,4,1,657.21,317.06,355.26,629.6,84.215,0,0,0,600,0,2e+06,0.0070992,28.319,99.235,-11644,-2.7851e+05,0,-3.6208e+07,0,4802.5
2,6,40,40,10,160,4,1,657.21,317.06,355.26,629.6,84.215,0,0,0,600,0,4e+06,0.0070577,29.526,73.731,-14986,-2.8226e+05,0,-3.6217e+07,0,2436.6
2,6,40,40,10,160,4,1,657.21,317.06,355.26,629.6,84.215,0,0,0,600,0,6e+06,0.0069961,30.264,66.623,-15766,-2.833e+05,0,-3.6219e+07,0,1934.6
2,6,40,40,10,160,4,1,657.21,317.06,355.26,629.6,84.215,0,0,0,600,0,8e+06,0.0069296,31.159,63.206,-16059,-2.8378e+05,0,-3.6219e+07,0,1981.6
2,6,40,40,10,160,4,1,657.21,317.06,355.26,629.6,84.215,0,0,0,600,0,1e+07,0.0082689,37.878,61.367,-15570,-2.8378e+05,0,-3.6217e+07,0,5935.5
2,6,40,40,10,160,4,1,657.21,317.06,355.26,629.6,84.215,0,0,0,600,0,2e+07,0.0065332,98.563,63.037,-11276,-2.8151e+05,0,-3.6193e+07,0,29250
2,6,40,40,10,160,4,1,657.21,317.06,355.26,629.6,84.215,0,0,0,600,0,4e+07,0.0065738,141.2,71.343,-8877.6,-2.7909e+05,0,-3.6173e+07,0,34934
2,6,40,40,10,160,4,1,657.21,317.06,355.26,629.6,84.215,0,0,0,600,0,6e+07,0.006695,138.33,72.526,-7485.8,-2.7869e+05,0,-3.6161e+07,0,38618
2,6,40,40,10,160,4,1,657.21,317.06,355.26,629.6,84.215,0,0,0,600,0,8e+07,0.006557,151.98,72.62,-6625.5,-2.7843e+05,0,-3.6152e+07,0,40073
2,6,40,40,10,160,4,1,657.21,317.06,355.26,629.6,84.215,0,0,0,600,0,1e+08,0.0066236,166.45,73.206,-5836.5,-2.7807e+05,0,-3.6144e+07,0,41198
2,6,40,40,10,160,4,1,657.21,317.06,355.26,629.6,84.215,0,0,0,800,0,1e+05,0.10744,1574.9,2.2176e+05,79533,1.4553e+06,0,3.9654e+09,0,1.6824e+10
2,6,40,40,10,160,4,1,657.21,317.06,355.26,629.6,84.215,0,0,0,800,0,2e+05,0.13801,1452,1.2448e+05,72672,1.311e+06,0,3.2331e+09,0,1.4649e+10
2,6,40,40,10,160,4,1,657.21,317.06,355.26,629.6,84.215,0,0,0,800,0,4e+05,0.10135,980.18,19377,55759,7.7806e+05,0,2.7214e+08,0,1.7018e+09
2,6,40,40,10,160,4,1,657.21,317.06,355.26,629.6,84.215,0,0,0,800,0,6e+05,0.045089,366.61,2592.9,35061,2.1334e+05,0,-4.3127e+07,0,1.6091e+07
2,6,40,40,10,160,4,1,657.21,317.06,355.26,629.6,84.215,0,0,0,800,0,8e+05,0.0073435,25.477,685.15,16614,-1.8189e+05,0,-4.7831e+07,0,1.2041e+05
2,6,40,40,10,160,4,1,657.21,317.06,355.26,629.6,84.215,0,0,0,800,0,1e+06,0.0071256,26.938,386.03,9071.3,-2.3279e+05,0,-4.8073e+07,0,59184
2,6,40,40,10,160,4,1,657.21,317.06,355.26,629.6,84.215,0,0,0,800,0,2e+06,0.0070296,29.243,153.66,-607.66,-2.7081e+05,0,-4.825e+07,0,15004
2,6,40,40,10,160,4,1,657.21,317.06,355.26,629.6,84.215,0,0,0,800,0,4e+06,0.0070134,29.548,84.902,-12597,-2.808e+05,0,-4.8285e+07,0,4783.4
2,6,40,40,10,160,4,1,657.21,317.06,355.26,629.6,84.215,0,0,0,800,0,6e+06,0.0070046,29.81,72.189,-14608,-2.8262e+05,0,-4.829e+07,0,3270.4
2,6,40,40,10,160,4,1,657.21,317.06,355.26,629.6,84.215,0,0,0,800,0,8e+06,0.0070075,30.175,66.671,-15348,-2.8339e+05,0,-4.8292e+07,0,2818.9
2,6,40,40,10,160,4,1,657.21,317.06,355.26,629.6,84.215,0,0,0,800,0,1e+07,0.0069649,32.153,63.622,-15553,-2.8376e+05,0,-4.8292e+07,0,3726.9
2,6,40,40,10,160,4,1,657.21,317.06,355.26,629.6,84.215,0,0,0,800,0,2e+07,0.0065227,94.638,66.353,-11011,-2.8123e+05,0,-4.8264e+07,0,31822
2,6,40,40,10,160,4,1,657.21,317.06,355.26,629.6,84.215,0,0,0,800,0,4e+07,0.0065298,151.91,73.497,-7470,-2.7857e+05,0,-4.8236e+07,0,46387
2,6,40,40,10,160,4,1,657.21,317.06,355.26,629.6,84.215,0,0,0,800,0,6e+07,0.006576,154.67,71.795,-6719.2,-2.7874e+05,0,-4.8226e+07,0,47934
2,6,40,40,10,160,4,1,657.21,317.06,355.26,629.6,84.215,0,0,0,800,0,8e+07,0.006608,143.29,73.507,-5509.9,-2.7831e+05,0,-4.8214e+07,0,51279
2,6,40,40,10,160,4,1,657.21,317.06,355.26,629.6,84.215,0,0,0,800,0,1e+08,0.0065551,165.62,73.14,-4877.5,-2.7811e+05,0,-4.8205e+07,0,53189
2,6,40,40,10,160,4,1,657.21,317.06,355.26,629.6,84.215,0,0,0,1000,0,1e+05,0.12528,1705.1,2.6535e+05,84088,1.4992e+06,0,5.0436e+09,0,2.1168e+10
2,6,40,40,10,160,4,1,657.21,317.06,355.26,629.6,84.215,0,0,0,1000,0,2e+05,0.15275,1580.8,1.9566e+05,79140,1.5004e+06,0,6.3052e+09,0,2.7142e+10
2,6,40,40,10,160,4,1,657.21,317.06,355.26,629.6,84.215,0,0,0,1000,0,4e+05,0.096477,1288.8,64229,68792,1.1607e+06,0,2.3325e+09,0,1.1077e+10
2,6,40,40,10,160,4,1,657.21,317.06,355.26,629.6,84.215,0,0,0,1000,0,6e+05,0.098268,885.93,13407,56214,6.8886e+05,0,1.7089e+08,0,1.266e+09
2,6,40,40,10,160,4,1,657.21,317.06,355.26,629.6,84.215,0,0,0,1000,0,8e+05,0.079088,395.36,2702.8,40419,2.5262e+05,0,-5.3234e+07,0,2.2635e+07
2,6,40,40,10,160,4,1,657.21,317.06,355.26,629.6,84.215,0,0,0,1000,0,1e+06,0.0070658,35.751,841.73,24280,-1.5235e+05,0,-5.9596e+07,0,1.9207e+05
2,6,40,40,10,160,4,1,657.21,317.06,355.26,629.6,84.215,0,0,0,1000,0,2e+06,0.0070768,31.773,201.41,3914.2,-2.6313e+05,0,-6.0268e+07,0,29596
2,6,40,40,10,160,4,1,657.21,317.06,355.26,629.6,84.215,0,0,0,1000,0,4e+06,0.0070755,30.574,105.67,-7710.2,-2.7794e+05,0,-6.0343e+07,0,9748.4
2,6,40,40,10,160,4,1,657.21,317.06,355.26,629.6,84.215,0,0,0,1000,0,6e+06,0.0070852,30.23,80.739,-12736,-2.8146e+05,0,-6.0358e+07,0,5506.4
2,6,40,40,10,160,4,1,657.21,317.06,355.26,629.6,84.215,0,0,0,1000,0,8e+06,0.0070548,30.324,71.839,-14286,-2.8272e+05,0,-6.0363e+07,0,4231.4
2,6,40,40,10,160,4,1,657.21,317.06,355.26,629.6,84.215,0,0,0,1000,0,1e+07,0.0070396,30.936,67.174,-14960,-2.8336e+05,0,-6.0365e+07,0,4006.9
2,6,40,40,10,160,4,1,657.21,317.06,355.26,629.6,84.215,0,0,0,1000,0,2e+07,0.0068655,84.464,67.014,-10702,-2.8145e+05,0,-6.0336e+07,0,35622
2,6,40,40,10,160,4,1,657.21,317.06,355.26,629.6,84.215,0,0,0,1000,0,4e+07,0.0065281,133.38,71.75,-6913.4,-2.7929e+05,0,-6.0306e+07,0,53111
2,6,40,40,10,160,4,1,657.21,317.06,355.26,629.6,84.215,0,0,0,1000,0,6e+07,0.0065945,164.93,75.797,-5339.5,-2.7799e+05,0,-6.0286e+07,0,59915
2,6,40,40,10,160,4,1,657.21,317.06,355.26,629.6,84.215,0,0,0,1000,0,8e+07,0.0065569,168.63,74.029,-4643.8,-2.7819e+05,0,-6.0278e+07,0,60824
2,6,40,40,10,160,4,1,657.21,317.06,355.26,629.6,84.215,0,0,0,1000,0,1e+08,0.0066277,160.27,74.842,-3770.9,-2.7791e+05,0,-6.0266e+07,0,63837
