0.30227,0.30418,0.30145,0.29972,0.30708,0.30214,0.29855,0.30766,0.30311,0.29804,0.30296,0.30573,0.30321,0.3001,0.30568,0.29814,0.30364,0.30905,0.29525,0.30114,0.30349,0.2989,0.30655,0.2989,0.30296,0.30105,0.30532,0.30195,0.30401,0.30044,0.30281,0.30573,0.29933,0.30405,0.30278,0.30412,0.29694,0.30276,0.30411,0.30134,0.2987,0.30346,0.30679,0.30241,0.30225,0.30408,0.29836,0.30111,0.30001,0.30179,0.30175,0.34718,0.34912,0.35132,0.34355,0.33618,0.33161,0.32245,0.32414,0.31661,0.31452,0.31539,0.3111,0.31203,0.3127,0.3094,0.30467,0.31066,0.31184,0.30509,0.30225,0.30799,0.30434,0.29997,0.30393,0.2993,0.2991,0.30057,0.29319,0.29502,0.2999,0.3014,0.29374,0.29335,0.29666,0.29355,0.30212,0.29909,0.29175,0.30294,0.29734,0.29037,0.30342,0.3005,0.29352,0.29746,0.29757,0.30069,0.29925,0.30233,0.30318,0.29707,0.29837,0.30013,0.29994,0.30289,0.30093,0.30097,0.30271,0.30848,0.30603,0.30274,0.30681,0.31292,0.30467,0.30292,0.31082,0.30866,0.30485,0.30494,0.30517,0.30293,0.30131,0.30479,0.30256,0.30221,0.30866,0.30017,0.30294,0.30514,0.30318,0.30436,0.3036,0.30068,0.30357,0.30173,0.3012,0.30423,0.30405,0.30195,0.30158,0.3046,0.303,0.29938,0.30683,0.3015,0.30052,0.30459,0.30113,0.30368,0.30558,0.30129,0.30482,0.30647,0.30248,0.30394,0.30504,0.30446,0.30439,0.30554,0.30693,0.30646,0.30729,0.30252,0.30705,0.30544,0.3052,0.30729,0.30241,0.30505,0.30539,0.30869,0.30414,0.30381,0.30739,0.30532,0.30155,0.30627,0.30448,0.30128,0.30035,0.2997,0.30261,0.30266,0.29982,0.30063,0.30383,0.29948,0.30132,0.30283,0.30049,0.3034,0.30094,0.30038,0.3025,0.30251,0.3034,0.29962,0.30328,0.30571,0.30212,0.30455,0.30338,0.30313,0.3029,0.30354,0.3036,0.30398,0.30272,0.30225,0.30426,0.30212,0.30322,0.30274,0.301,0.30223,0.3038,0.30224,0.30183,0.30471,0.30286,0.30061,0.30362,0.30339,0.30324,0.30469,0.30521,0.30207,0.30145,0.30578,0.3029,0.30503,0.29935,0.30595,0.3049,0.30262,0.30323,0.30577,0.30301,0.30031,0.30476,0.30252,0.30347,0.30237,0.30106,0.30073,0.30412,0.30135,0.30094,0.30232,0.29991,0.30497,0.30387,0.2988,0.29993,0.30259,0.30162,0.30132,0.29913,0.30115,0.30222,0.29908,0.30074,0.30187,0.30079,0.29918,0.30052,0.30047,0.2984,0.30113,0.30243,0.29682,0.29745,0.30195,0.30246,0.29866,0.29791,0.29821,0.30296,0.29987,0.29516,0.30206,0.2998,0.30017,0.30259
-0.019715,-0.0060313,-0.0051868,-0.012472,-0.015864,-0.017484,-0.032194,-0.04233,-0.031175,-0.02137,-0.039765,-0.027327,-0.036808,-0.040251,-0.044183,-0.034768,-0.041641,-0.029923,-0.028506,-0.054606,-0.045694,-0.0365,-0.049187,-0.03506,-0.056183,-0.043336,-0.052324,-0.04688,-0.057456,-0.046387,-0.047408,-0.038969,-0.043591,-0.044491,-0.034765,-0.034634,-0.038399,-0.052472,-0.030851,-0.033567,-0.038881,-0.036977,-0.017478,-0.011527,-0.015254,-0.018833,-0.018803,-0.021851,-0.016138,-0.0040357,0.0056153,-0.34149,-0.29705,-0.26549,-0.19888,-0.19401,-0.16449,-0.10532,-0.075733,-0.054187,-0.042559,-0.017311,0.0078501,0.018317,0.049791,0.075504,0.085417,0.10882,0.1386,0.17558,0.17496,0.18196,0.22117,0.22813,0.21211,0.23932,0.21399,0.22173,0.20289,0.2025,0.20087,0.19339,0.18646,0.12617,0.13262,0.1272,0.10484,0.10047,0.069344,0.034869,0.037428,-0.0025832,-0.00855,-0.0018063,-0.021484,-0.058018,-0.067704,-0.083657,-0.081056,-0.08202,-0.086656,-0.083476,-0.10262,-0.10307,-0.092761,-0.086869,-0.10124,-0.095753,-0.081069,-0.091729,-0.066096,-0.074374,-0.079129,-0.059126,-0.042007,-0.05547,-0.040147,-0.0026519,0.013346,0.0032276,-0.0081429,0.00073196,0.016188,0.025549,0.033888,0.024701,0.022701,0.039185,0.01811,0.020542,0.031293,0.026416,0.020156,0.029342,0.022665,0.021005,0.021852,0.022545,0.018721,0.026264,0.019005,0.021613,0.026068,0.0078883,-0.0013729,0.030887,0.026743,0.020641,0.039802,0.027659,0.030415,0.051877,0.046876,0.048178,0.053819,0.038759,0.04174,0.051688,0.049845,0.055476,0.051638,0.045173,0.023911,0.032002,0.023029,0.029236,0.029352,0.026778,0.025826,0.010143,0.00069953,0.006156,0.011116,-0.0040652,-0.014581,-0.0082559,-0.01151,-0.011099,-0.00049114,-0.012604,-0.022139,-0.021956,-0.022487,-0.012001,-0.0072616,-0.0039116,-0.0056719,0.00067871,-0.013133,-0.032104,-0.03516,-0.033079,-0.02524,-0.026334,-0.025765,-0.015979,-0.036618,-0.038417,-0.041356,-0.020487,-0.026499,-0.033621,-0.027024,-0.031336,-0.018592,-0.023007,-0.022548,-0.0094959,-0.0094125,-0.011045,-0.0064039,0.0028153,0.0076835,0.0072213,0.018467,0.017201,0.016962,0.029768,0.023985,0.022863,0.03141,0.02861,0.015345,0.026734,0.020504,0.019593,0.029089,0.019092,0.0094856,0.010225,0.023324,0.0049786,0.0016531,-0.0081973,0.0080382,-0.0053386,-0.011326,-0.011236,-0.01733,-0.030243,-0.036879,-0.017285,-0.029233,-0.024425,-0.030915,-0.042932,-0.051955,-0.033293,-0.046103,-0.040012,-0.035791,-0.048234,-0.033132,-0.031118,-0.049955,-0.039679,-0.038729,-0.037127,-0.026486,-0.029418,-0.024496,-0.017119,-0.027621,-0.021254,-0.012426,-0.0058264,-0.0062393,-0.0055604,0.007865,-0.0011798,0.010369,0.025966,0.010027,0.014049,0.028961,0.030494,0.031201,0.022094,0.028774,0.05437,0.040811,0.021836,0.042405,0.043142,0.041991
-0.023522,0.010532,-0.016725,0.0014283,0.00019527,-0.013866,0.00020608,0.0041236,0.0046004,0.0033898,0.0065736,-0.0012677,-0.0056533,0.006846,-0.011938,-0.0069778,-0.008075,-0.025245,-0.0089121,-0.025492,-0.010095,-0.024235,-0.029612,-0.025712,-0.052948,-0.012575,-0.056749,-0.019207,-0.05662,-0.036474,-0.036296,-0.045408,-0.036295,-0.038891,-0.027965,-0.04131,-0.019186,-0.029393,-0.016946,-0.034954,-0.022231,-0.021333,-0.019764,-0.027056,-0.0042031,-0.016515,-0.0045706,0.001707,0.0067221,-0.012738,-0.0020457,0.76729,0.68517,0.58779,0.45165,0.39287,0.32859,0.26094,0.18629,0.098618,0.035052,-0.031841,-0.088382,-0.16411,-0.19968,-0.25876,-0.2968,-0.32978,-0.34403,-0.3752,-0.40033,-0.36909,-0.40537,-0.36002,-0.36646,-0.31793,-0.31766,-0.25622,-0.24391,-0.20826,-0.17225,-0.13238,-0.12975,-0.046005,-0.027636,0.0031696,0.054693,0.081525,0.11034,0.14852,0.17518,0.1973,0.21992,0.21721,0.2327,0.22556,0.25394,0.21344,0.23735,0.20952,0.21566,0.18197,0.18303,0.15241,0.13565,0.11255,0.064847,0.089947,0.00055585,0.035478,-0.039565,-0.041633,-0.06214,-0.083199,-0.11074,-0.11993,-0.13363,-0.15263,-0.16177,-0.16725,-0.17288,-0.1588,-0.1728,-0.14817,-0.18501,-0.14507,-0.15887,-0.14132,-0.12611,-0.11001,-0.093413,-0.073111,-0.064278,-0.05043,-0.026416,-0.026136,0.0048752,-0.010533,0.027301,0.015291,0.037753,0.053535,0.053345,0.048982,0.087134,0.065131,0.05882,0.089532,0.054176,0.077584,0.068521,0.050966,0.05583,0.04981,0.055304,0.043176,0.050919,0.030689,0.034189,0.017908,0.017935,0.0078634,0.0054844,0.01181,-0.01037,0.0012646,-0.020438,-0.0047767,-0.016079,-0.017982,-0.025952,-0.023044,-0.037024,-0.029907,-0.026127,-0.033646,-0.031389,-0.031667,-0.032638,-0.03352,-0.036954,-0.029408,-0.029192,-0.029065,-0.02348,-0.03172,-0.031501,-0.024676,-0.034988,-0.030753,-0.016107,-0.037669,0.0025707,-0.026016,0.0067373,-0.0072777,0.0048927,0.01175,0.007771,0.02933,-0.0052224,0.025164,0.0089189,0.017012,0.027204,0.015259,0.026621,0.030872,0.017944,0.027203,0.024024,0.019435,0.025623,0.011827,0.028782,0.019689,0.028651,0.032272,0.023613,0.028801,0.023694,0.020199,0.026465,0.0066222,0.019718,0.0070158,0.016589,-0.0029115,0.014941,0.0040975,0.015574,0.0059717,0.020415,0.022812,0.016617,0.013832,0.013639,0.0082717,0.013868,0.0070314,0.01255,0.01917,-0.008509,0.0086272,-0.0053568,-0.014138,-0.0010315,-0.019585,-0.013013,-0.010889,-0.024696,-0.024798,-0.021874,-0.034461,-0.031107,-0.025904,-0.036066,-0.030063,-0.032503,-0.032424,-0.039017,-0.028417,-0.037709,-0.025457,-0.031012,-0.017593,-0.037452,0.00014431,-0.023163,-0.013392,-0.0042497,-0.014904,-0.0011178,0.00080329,-0.0042238,-0.0011996,0.016299,-0.0031001,0.025983,0.0058074,0.018888,0.020167,0.027972,0.014826,0.015301
0.011867,0.014384,0.01402,0.01406,0.0064505,0.0059035,0.0095674,0.0065272,0.0031538,-0.0042608,0.0099117,7.6989e-05,0.0087309,-0.0037674,-0.014928,0.002546,-0.011427,-0.0037386,-0.017596,-0.027296,-0.023451,-0.035156,-0.035885,-0.0537,-0.047064,-0.056319,-0.057788,-0.08545,-0.088174,-0.097291,-0.10943,-0.12684,-0.12357,-0.12338,-0.14784,-0.1497,-0.14594,-0.14304,-0.15832,-0.16199,-0.1549,-0.14666,-0.13644,-0.11467,-0.11091,-0.093474,-0.079799,-0.061827,-0.044998,-0.026458,-0.016166,0.0011309,0.024708,0.049072,0.074416,0.092579,0.10834,0.12315,0.12557,0.1532,0.147,0.15042,0.13891,0.15426,0.12438,0.087549,0.067173,0.03828,0.00047867,-0.037725,-0.056675,-0.08533,-0.090328,-0.10153,-0.1155,-0.088916,-0.10905,-0.11767,-0.093018,-0.087627,-0.070626,-0.065479,-0.057666,-0.070716,-0.049142,-0.052128,-0.056867,-0.04848,-0.041966,-0.068047,-0.051882,-0.04908,-0.041505,-0.011894,-0.015269,-0.0040536,0.0069864,0.0035651,0.008494,0.013541,0.014749,0.0098047,0.0093124,-0.0013449,0.011839,0.0034708,-0.0053555,0.00010786,0.0052335,-0.0085827,-0.010605,-0.002281,-0.0060873,-0.017891,-0.01521,-0.006484,0.0052598,0.0091652,0.0081855,0.014066,0.020613,0.032344,0.025831,0.035309,0.059199,0.055314,0.068897,0.084024,0.083273,0.093343,0.094166,0.10462,0.10902,0.10986,0.10705,0.098167,0.10812,0.10228,0.096131,0.1077,0.10413,0.096477,0.1109,0.099049,0.1091,0.10622,0.10266,0.11629,0.12068,0.11081,0.11616,0.1257,0.13008,0.12321,0.12928,0.11059,0.1113,0.1021,0.096969,0.08461,0.09119,0.070531,0.081133,0.064297,0.055368,0.061498,0.050753,0.035323,0.023981,0.03196,0.031732,0.030801,0.042245,0.037967,0.025916,0.027974,0.039202,0.048116,0.049508,0.048371,0.051529,0.057778,0.046204,0.035481,0.045167,0.04139,0.042077,0.045382,0.04715,0.053909,0.0634,0.06663,0.066102,0.072509,0.085063,0.070667,0.08176,0.08202,0.087299,0.092868,0.087989,0.093905,0.097036,0.096818,0.095361,0.11024,0.12097,0.12223,0.13472,0.13041,0.15255,0.1521,0.16567,0.17221,0.18066,0.18549,0.18046,0.18652,0.19611,0.2014,0.20052,0.17417,0.17108,0.15748,0.15827,0.13345,0.13348,0.11078,0.11012,0.095682,0.08436,0.08439,0.071667,0.080065,0.06438,0.080952,0.073718,0.080661,0.08438,0.085739,0.084793,0.10451,0.10441,0.10876,0.12712,0.12822,0.14173,0.14822,0.14159,0.14656,0.16039,0.16614,0.17006,0.16561,0.16429,0.15559,0.15025,0.13901,0.1324,0.12018,0.11307,0.098122,0.097417,0.082782,0.088827,0.084164,0.06214,0.051849,0.063163,0.057712,0.047231,0.041064,0.039226,0.043736,0.035877,0.017404,0.021776,0.022784,0.011072,0.015049,0.006443,0.0059826,0.0051174,0.011684,0.012267
