-0.46099,-0.46246,-0.46412,-0.4661,-0.46819,-0.47058,-0.47308,-0.47572,-0.47856,-0.48132,-0.48428,-0.48716,-0.49016,-0.49299,-0.49582,-0.49857,-0.50111,-0.5035,-0.50577,-0.50782,-0.50955,-0.51114,-0.51248,-0.51347,-0.51439,-0.51494,-0.51535,-0.51565,-0.51576,-0.51572,-0.51556,-0.51536,-0.51497,-0.5145,-0.51391,-0.51323,-0.51244,-0.51151,-0.51053,-0.50947,-0.50832,-0.50705,-0.50586,-0.50435,-0.50292,-0.5014,-0.49986,-0.4982,-0.49656,-0.49477,-0.49297,-0.4911,-0.48916,-0.48713,-0.48449,-0.48072,-0.47495,-0.46647,-0.45463,-0.43921,-0.4201,-0.39714,-0.37047,-0.33997,-0.3058,-0.2681,-0.22715,-0.1833,-0.137,-0.088691,-0.038818,0.011959,0.063245,0.1145,0.16512,0.21461,0.26277,0.30856,0.35229,0.39342,0.4314,0.4654,0.49682,0.52334,0.54701,0.56603,0.58161,0.59332,0.60129,0.60553,0.60643,0.60379,0.59833,0.58973,0.57875,0.56548,0.55028,0.53348,0.51543,0.49653,0.47687,0.45691,0.43695,0.41748,0.39838,0.38009,0.3628,0.34685,0.33233,0.31923,0.30774,0.29857,0.29097,0.28525,0.28154,0.27973,0.27983,0.28179,0.28545,0.29103,0.29802,0.30659,0.31628,0.32721,0.33904,0.35168,0.36505,0.37874,0.39269,0.40688,0.42076,0.43442,0.44776,0.46047,0.47244,0.48369,0.49389,0.50348,0.51166,0.51905,0.5255,0.53047,0.53445,0.53729,0.53907,0.53967,0.53941,0.53812,0.53586,0.53277,0.52904,0.52442,0.5195,0.51393,0.50803,0.50182,0.4952,0.48855,0.4818,0.47503,0.46826,0.46172,0.45518,0.44896,0.44308,0.43743,0.43207,0.42725,0.42284,0.41887,0.41541,0.4124,0.40977,0.40765,0.40598,0.40465,0.4038,0.40331,0.40319,0.40342,0.40384,0.40474,0.40581,0.4072,0.40891,0.41084,0.41296,0.41538,0.41794,0.42066,0.42351,0.42642,0.42931,0.4323,0.43511,0.438,0.44056,0.44316,0.44554,0.44788,0.45006,0.45181,0.45354,0.45505,0.45645,0.45759,0.45847,0.45925,0.45991,0.4604,0.46075,0.46092,0.4611,0.46114,0.46111,0.46094,0.46058,0.4602,0.45969,0.45898,0.45823,0.45735,0.45636,0.4554,0.45429,0.4531,0.45191,0.45075,0.4496,0.44837,0.44728,0.44606,0.44497,0.4439,0.44292,0.44201,0.44121,0.44058,0.43998,0.43949,0.4391,0.43876,0.43857,0.4384,0.43821,0.438,0.43792,0.43789,0.43795,0.438,0.43813,0.43834,0.43862,0.43895,0.43921,0.43953,0.43985,0.44009,0.44032,0.44064,0.44095,0.44131,0.44179,0.4423,0.44287,0.44355,0.44437,0.44529,0.44613,0.44706,0.44804,0.44904,0.45009,0.45109,0.45216,0.45307,0.45403,0.45485,0.45575,0.45663,0.4574,0.45808,0.45878,0.45944,0.45998,0.4604,0.46076,0.46102,0.46104,0.46115,0.46118,0.4611,0.46099,0.46074,0.46041,0.45992,0.45932,0.45868,0.45804,0.4572,0.45638
-0.44656,-0.4461,-0.4455,-0.44471,-0.444,-0.44299,-0.44201,-0.441,-0.43967,-0.43838,-0.43713,-0.43555,-0.43388,-0.4324,-0.43087,-0.4293,-0.42788,-0.42655,-0.42507,-0.42373,-0.42255,-0.42141,-0.42031,-0.41927,-0.41836,-0.41763,-0.41705,-0.4165,-0.41604,-0.41595,-0.41563,-0.41575,-0.41604,-0.41632,-0.41694,-0.41757,-0.41836,-0.41955,-0.42064,-0.42187,-0.42346,-0.42484,-0.42642,-0.42811,-0.42982,-0.43154,-0.43322,-0.43484,-0.43659,-0.4383,-0.43992,-0.44149,-0.44316,-0.44478,-0.4461,-0.44703,-0.44722,-0.4463,-0.44405,-0.44018,-0.43459,-0.42732,-0.41815,-0.40706,-0.39411,-0.37929,-0.36253,-0.34378,-0.32385,-0.30188,-0.27845,-0.25387,-0.22833,-0.20141,-0.17394,-0.14565,-0.11811,-0.089062,-0.061109,-0.033574,-0.0060546,0.022072,0.048401,0.075572,0.10131,0.127,0.15094,0.1741,0.19646,0.2173,0.23632,0.25542,0.27251,0.28828,0.30285,0.31596,0.32782,0.33861,0.34804,0.35625,0.36324,0.36926,0.37395,0.37783,0.38084,0.38296,0.38434,0.38476,0.38467,0.38369,0.3818,0.37961,0.37646,0.3729,0.36881,0.36447,0.35967,0.35428,0.3491,0.34377,0.33842,0.33282,0.32763,0.32246,0.31726,0.31237,0.30745,0.30304,0.29879,0.29481,0.29082,0.28737,0.28408,0.28116,0.27854,0.27661,0.27455,0.27318,0.27211,0.27179,0.27184,0.27195,0.27264,0.2736,0.27536,0.27717,0.27947,0.28221,0.28527,0.28866,0.2928,0.29656,0.3006,0.30507,0.30976,0.31463,0.31919,0.32406,0.32898,0.33388,0.33866,0.34304,0.34784,0.35225,0.35646,0.36041,0.36422,0.36773,0.3711,0.37398,0.37697,0.37927,0.38149,0.3833,0.38458,0.38538,0.38618,0.38629,0.38603,0.38559,0.38471,0.38319,0.38162,0.37972,0.37733,0.37456,0.37166,0.36838,0.3652,0.36161,0.35788,0.35391,0.35003,0.34616,0.34191,0.33791,0.33375,0.32975,0.32562,0.32167,0.31761,0.31348,0.3098,0.30626,0.30332,0.30016,0.29734,0.29503,0.29286,0.29117,0.28944,0.28814,0.28722,0.28659,0.28609,0.28599,0.28627,0.28674,0.28741,0.28865,0.29022,0.29217,0.29407,0.29619,0.29874,0.30147,0.30434,0.30743,0.31065,0.31399,0.31731,0.32054,0.32381,0.32713,0.33022,0.33319,0.33602,0.3388,0.34135,0.34357,0.34548,0.34724,0.34868,0.35001,0.35093,0.35171,0.35211,0.35211,0.35182,0.3511,0.35012,0.3491,0.34784,0.34629,0.34481,0.34278,0.34104,0.33886,0.33666,0.33442,0.33213,0.32987,0.3276,0.3253,0.323,0.32084,0.31858,0.31648,0.31473,0.31278,0.31103,0.30948,0.30808,0.30691,0.30557,0.30486,0.30412,0.30345,0.30295,0.30282,0.30278,0.30267,0.303,0.30337,0.30395,0.30458,0.30565,0.30676,0.30815,0.30971,0.31117,0.31269,0.31444,0.31624,0.31802,0.32001,0.32176,0.32375,0.32545,0.32722,0.32901
0.49385,0.49411,0.49434,0.49448,0.49458,0.49441,0.4942,0.49391,0.49346,0.4928,0.49203,0.49116,0.49017,0.48918,0.48796,0.48664,0.48544,0.48424,0.48291,0.48168,0.48062,0.47944,0.47844,0.47731,0.47628,0.47513,0.47419,0.4731,0.4719,0.47096,0.46981,0.46872,0.4677,0.46687,0.46594,0.46522,0.46456,0.46406,0.46372,0.46353,0.46343,0.46354,0.46365,0.46402,0.46432,0.46477,0.46534,0.46585,0.46645,0.46712,0.46794,0.46889,0.47016,0.47157,0.47338,0.47774,0.48523,0.49587,0.50917,0.52445,0.54113,0.55914,0.57761,0.59653,0.61581,0.63515,0.65468,0.67449,0.69471,0.71546,0.73668,0.75843,0.78038,0.80311,0.82559,0.84825,0.87048,0.89274,0.91442,0.9355,0.95603,0.97654,0.99552,1.0146,1.0323,1.0495,1.0652,1.08,1.0937,1.1061,1.1174,1.1279,1.1374,1.1458,1.1535,1.1603,1.1666,1.1722,1.1774,1.1821,1.1864,1.1902,1.1938,1.1968,1.1994,1.2016,1.2033,1.2046,1.2055,1.2063,1.2067,1.207,1.2072,1.2071,1.207,1.2068,1.2067,1.2066,1.2067,1.207,1.2075,1.2083,1.2094,1.2109,1.2125,1.2146,1.2168,1.2193,1.2221,1.2251,1.2282,1.2313,1.2349,1.2382,1.2416,1.2448,1.2482,1.2512,1.2541,1.257,1.2599,1.2622,1.2643,1.2664,1.2681,1.2696,1.2709,1.2719,1.2728,1.2732,1.2736,1.2735,1.2733,1.2728,1.2721,1.2713,1.2702,1.2691,1.2679,1.2666,1.2653,1.264,1.2627,1.2612,1.2598,1.2586,1.2572,1.256,1.2547,1.2535,1.2523,1.2512,1.2502,1.2493,1.2484,1.2477,1.2471,1.2467,1.2463,1.2459,1.2457,1.2457,1.2458,1.2461,1.2466,1.2472,1.2478,1.2488,1.2496,1.2506,1.2516,1.2527,1.2537,1.2548,1.2559,1.257,1.2583,1.2595,1.2606,1.2618,1.2628,1.2636,1.2645,1.2653,1.266,1.2667,1.2673,1.2677,1.2681,1.2683,1.2684,1.2686,1.2688,1.269,1.2691,1.2692,1.2692,1.269,1.2686,1.2681,1.2674,1.2667,1.2659,1.2651,1.2643,1.2636,1.263,1.2621,1.2612,1.2604,1.2593,1.2583,1.2571,1.2561,1.255,1.254,1.2531,1.2522,1.2516,1.251,1.2504,1.2499,1.2496,1.2493,1.2491,1.2489,1.2487,1.2485,1.2485,1.2484,1.2485,1.2487,1.249,1.2494,1.2498,1.2503,1.2508,1.2512,1.2517,1.2522,1.2526,1.2531,1.2536,1.2541,1.2547,1.255,1.2554,1.2556,1.2558,1.256,1.256,1.256,1.2561,1.2562,1.2562,1.2561,1.256,1.2558,1.2557,1.2556,1.2555,1.2554,1.2551,1.2549,1.2546,1.2543,1.2541,1.254,1.2539,1.2538,1.2537,1.2534,1.2532,1.253,1.2527,1.2525,1.2524,1.2523,1.2521,1.252,1.2519
