-0.49906,-0.49951,-0.5,-0.50055,-0.50115,-0.50181,-0.50243,-0.50324,-0.50404,-0.50482,-0.50575,-0.50666,-0.50756,-0.50852,-0.50954,-0.51053,-0.51146,-0.51233,-0.51304,-0.51364,-0.51415,-0.51457,-0.51489,-0.51514,-0.51532,-0.5155,-0.5156,-0.51557,-0.51554,-0.5154,-0.51521,-0.51491,-0.51449,-0.51392,-0.51336,-0.51279,-0.51211,-0.51144,-0.51066,-0.50989,-0.50919,-0.50829,-0.50732,-0.50637,-0.5054,-0.50441,-0.50329,-0.5023,-0.50137,-0.50049,-0.49973,-0.49907,-0.49852,-0.49765,-0.49602,-0.49253,-0.48645,-0.47715,-0.4648,-0.44958,-0.43156,-0.41096,-0.38831,-0.36383,-0.33839,-0.31162,-0.28437,-0.25681,-0.22935,-0.202,-0.17522,-0.14902,-0.12392,-0.10015,-0.077551,-0.056584,-0.03719,-0.019811,-0.0043339,0.0091279,0.020557,0.030011,0.037586,0.043146,0.046897,0.049,0.049391,0.048144,0.045719,0.041896,0.037095,0.031428,0.024789,0.017387,0.0097041,0.0014597,-0.0067042,-0.01487,-0.022994,-0.030681,-0.03806,-0.044932,-0.051294,-0.057189,-0.062197,-0.066819,-0.07048,-0.073414,-0.075597,-0.077098,-0.077726,-0.077649,-0.076864,-0.075448,-0.073337,-0.070563,-0.067241,-0.063677,-0.05938,-0.054841,-0.050101,-0.04499,-0.039703,-0.034336,-0.028986,-0.023591,-0.018365,-0.013201,-0.0082525,-0.0035714,0.00088037,0.0049662,0.0087884,0.012264,0.015498,0.018119,0.020557,0.022523,0.024104,0.025217,0.026017,0.026393,0.026396,0.026068,0.025325,0.02447,0.023123,0.021624,0.019829,0.017959,0.016015,0.013831,0.011789,0.0096019,0.0075539,0.005382,0.0036055,0.0017199,0.00018877,-0.0014246,-0.0026558,-0.0037955,-0.0046126,-0.0053682,-0.0057262,-0.0059051,-0.0058313,-0.0056416,-0.0052533,-0.0047384,-0.004032,-0.0033387,-0.0024182,-0.0014793,-0.00052206,0.00049945,0.0015975,0.0026545,0.0037996,0.004838,0.0059073,0.0068519,0.0077516,0.0084884,0.0091346,0.0098393,0.010332,0.010778,0.01104,0.011328,0.011505,0.011552,0.011439,0.011285,0.011,0.010667,0.010117,0.0094436,0.0086744,0.0077884,0.0067899,0.0055985,0.004455,0.003129,0.0019027,0.00042751,-0.00098816,-0.0024232,-0.0038067,-0.0053083,-0.0066958,-0.007981,-0.0091757,-0.010385,-0.011386,-0.012248,-0.012873,-0.013465,-0.013957,-0.014245,-0.014439,-0.014447,-0.014302,-0.014012,-0.013609,-0.013052,-0.012648,-0.012024,-0.01129,-0.010563,-0.0098525,-0.0090984,-0.0082055,-0.0073518,-0.0065597,-0.0058483,-0.0050266,-0.0043566,-0.0037063,-0.0031183,-0.0026583,-0.0022538,-0.0019006,-0.0016414,-0.0015718,-0.0014618,-0.0015532,-0.0017449,-0.0019395,-0.002259,-0.0026825,-0.0031889,-0.0036883,-0.0042652,-0.0049005,-0.0054807,-0.0062247,-0.0067259,-0.0073537
-0.54814,-0.54749,-0.54681,-0.5461,-0.54538,-0.54468,-0.54434,-0.54382,-0.54321,-0.54275,-0.54234,-0.5419,-0.54168,-0.54148,-0.54142,-0.54155,-0.54165,-0.54181,-0.54211,-0.54221,-0.54275,-0.54296,-0.54336,-0.5436,-0.54395,-0.54411,-0.54429,-0.5445,-0.54488,-0.54521,-0.54548,-0.54573,-0.5461,-0.5464,-0.54684,-0.54734,-0.54785,-0.54844,-0.54903,-0.54981,-0.55063,-0.55141,-0.5522,-0.55275,-0.55332,-0.55393,-0.55439,-0.55491,-0.55516,-0.55565,-0.55605,-0.5564,-0.55662,-0.55645,-0.55573,-0.55368,-0.55023,-0.54519,-0.53874,-0.53092,-0.52166,-0.51092,-0.49953,-0.48723,-0.47445,-0.46085,-0.44706,-0.43265,-0.41908,-0.40477,-0.39107,-0.37748,-0.36397,-0.35121,-0.33834,-0.32605,-0.31363,-0.30192,-0.29064,-0.28007,-0.26938,-0.25903,-0.24927,-0.23953,-0.22955,-0.2201,-0.21074,-0.20107,-0.19186,-0.18284,-0.17394,-0.16488,-0.1559,-0.14719,-0.1385,-0.12964,-0.12099,-0.11231,-0.1038,-0.095532,-0.087186,-0.079231,-0.07134,-0.063976,-0.05683,-0.050066,-0.043599,-0.037424,-0.031921,-0.02679,-0.02223,-0.018215,-0.014743,-0.011813,-0.0094708,-0.0074738,-0.0061145,-0.0052252,-0.0044182,-0.0043365,-0.0047692,-0.0051734,-0.0059778,-0.0070579,-0.0082234,-0.009981,-0.011572,-0.013218,-0.015055,-0.016652,-0.017969,-0.019672,-0.020983,-0.02199,-0.023058,-0.023911,-0.024076,-0.024396,-0.024182,-0.02392,-0.023561,-0.022883,-0.02232,-0.021583,-0.020876,-0.019668,-0.018864,-0.017933,-0.017278,-0.016392,-0.015648,-0.015067,-0.014464,-0.014036,-0.013605,-0.013356,-0.01325,-0.013373,-0.013359,-0.013815,-0.013993,-0.014379,-0.014736,-0.015256,-0.015976,-0.01677,-0.017561,-0.018285,-0.018958,-0.019723,-0.020633,-0.021219,-0.02201,-0.02276,-0.02342,-0.024071,-0.024735,-0.025101,-0.025283,-0.025638,-0.025908,-0.02577,-0.025589,-0.025509,-0.025327,-0.024901,-0.024537,-0.024065,-0.023537,-0.022756,-0.021969,-0.021247,-0.020537,-0.019635,-0.018521,-0.01765,-0.016875,-0.01584,-0.014995,-0.014312,-0.013392,-0.012766,-0.012202,-0.011647,-0.011073,-0.010911,-0.010523,-0.01036,-0.010447,-0.010164,-0.010252,-0.010335,-0.010226,-0.010211,-0.010346,-0.010335,-0.010327,-0.010342,-0.010369,-0.010289,-0.010149,-0.01011,-0.010106,-0.010276,-0.010482,-0.010507,-0.010961,-0.011198,-0.011559,-0.011992,-0.01264,-0.013131,-0.013552,-0.014,-0.014429,-0.015111,-0.015539,-0.016137,-0.016644,-0.016795,-0.01718,-0.017569,-0.017745,-0.017764,-0.017848,-0.017771,-0.017624,-0.017583,-0.01741,-0.017039,-0.016665,-0.016294,-0.015753,-0.015368,-0.014801,-0.014206,-0.013877,-0.013395,-0.013026
0.48608,0.48625,0.48622,0.48604,0.48589,0.4856,0.48555,0.48531,0.48508,0.48476,0.4843,0.48374,0.48317,0.48281,0.48239,0.48223,0.48196,0.48172,0.48152,0.48121,0.48107,0.48072,0.48061,0.4804,0.4804,0.48039,0.48051,0.48074,0.48102,0.48129,0.48153,0.48176,0.48211,0.48242,0.48283,0.4832,0.48351,0.48366,0.48362,0.48362,0.48361,0.48363,0.48371,0.48375,0.48372,0.48376,0.48368,0.48355,0.4833,0.48325,0.48303,0.48284,0.48259,0.4829,0.4859,0.493,0.50474,0.52094,0.54084,0.56424,0.59025,0.61866,0.64873,0.68036,0.71325,0.74613,0.77902,0.81089,0.84227,0.87174,0.90018,0.92706,0.95228,0.97645,0.99859,1.0191,1.0377,1.0546,1.0696,1.0829,1.0943,1.1038,1.1116,1.1177,1.1222,1.1254,1.1273,1.128,1.1274,1.126,1.1238,1.1207,1.117,1.1129,1.1082,1.1032,1.0979,1.0925,1.0871,1.0817,1.0763,1.0709,1.0656,1.0605,1.0554,1.0509,1.0466,1.0424,1.0387,1.0355,1.0327,1.0304,1.0286,1.0271,1.026,1.0252,1.0246,1.0245,1.0246,1.0247,1.0251,1.0255,1.026,1.0266,1.0273,1.028,1.0287,1.0291,1.0296,1.0299,1.0299,1.0301,1.0301,1.03,1.0295,1.0289,1.028,1.027,1.026,1.0251,1.024,1.023,1.022,1.0208,1.0196,1.0182,1.0167,1.0153,1.0139,1.0124,1.011,1.0095,1.0079,1.0065,1.0051,1.0039,1.0027,1.0018,1.0009,1.0002,0.99943,0.99866,0.99788,0.99724,0.99679,0.99647,0.99637,0.99633,0.99638,0.99648,0.99672,0.99698,0.9973,0.99762,0.99799,0.99827,0.99856,0.99882,0.99902,0.99924,0.99947,0.9996,0.99981,1,1.0003,1.0005,1.0008,1.0012,1.0016,1.0019,1.0022,1.0024,1.0026,1.0028,1.0029,1.0031,1.0033,1.0035,1.0038,1.0041,1.0044,1.0046,1.0048,1.005,1.0052,1.0055,1.0056,1.0056,1.0054,1.0052,1.0051,1.0049,1.0049,1.0048,1.0048,1.0049,1.0048,1.005,1.005,1.0051,1.0051,1.0053,1.0055,1.0058,1.0062,1.0066,1.007,1.0073,1.0077,1.0079,1.0084,1.0088,1.0091,1.0095,1.0099,1.0104,1.0107,1.011,1.0111,1.0112,1.0112,1.0112,1.0111,1.011,1.0108,1.0106,1.0104,1.0101,1.0098,1.0095,1.0092,1.0089,1.0087,1.0085,1.0083,1.0082,1.0081,1.0078,1.0077
