0.242486,0.184754,0.190828,0.195785,0.200813,0.208975,0.221812,0.240906,0.457157,0.273069,0.276478,0.472968,0.273646,0.264785,0.456113,0.453445,0.248048,0.227838,0.210849,0.206974,0.401881,0.404887,0.401164,0.190834,0.174228,0.357826,0.160767,0.355607,0.155806,0.156647,0.164537,0.372735,0.379942,0.184003,0.379265,0.383795,0.382274,0.371402,0.161218,0.146079,0.142461,0.146101,0.350558,0.167829,0.183572,0.199962,0.415989,0.239347,0.245086,0.245662,0.251394,0.458238,0.273137,0.476804,0.479681,0.474048,0.456433,0.43588,0.215847,0.388381,0.37091,0.362579,0.347836,0.328812,0.307041,0.092082,0.273358,0.0759308,0.0742866,0.272611,0.0916237,0.111189,0.131894,0.156059,0.187839,0.415959,0.443904,0.259702,0.262174,0.463233,0.272521,0.267851,0.260939,0.461027,0.467825,0.470426,0.265932,0.447176,0.240793,0.226035,0.216721,0.413072,0.221277,0.414417,0.412589,0.212365,0.20103,0.392188,0.388224,0.186487,0.373146,0.170166,0.364562,0.171699,0.36683,0.168003,0.35838,0.358078,0.167199,0.368404,0.373303,0.174691,0.358814,0.355756,0.353896,0.150066,0.335701,0.135101,0.333577,0.337003,0.340996,0.340652,0.140209,0.330024,0.327202,0.130561,0.126084,0.327546,0.148422,0.356637,0.370795,0.376364,0.174764,0.166717,0.167936,0.183306,0.199143,0.409281,0.22292,0.429536,0.244091,0.253404,0.456282,0.267179,0.469439,0.475183,0.274168,0.454737,0.24408,0.430246,0.421765,0.218285,0.205811,0.192738,0.193004,0.200785,0.206664,0.410123,0.422977,0.42553,0.417574,0.403202,0.388199,0.374472,0.158747,0.138768,0.321284,0.126031,0.131565,0.337499,0.153688,0.35392,0.164266,0.365482,0.372178,0.377409,0.17822,0.364257,0.357999,0.160175,0.35268,0.153605,0.154586,0.158087,0.164859,0.371518,0.391531,0.210344,0.407698,0.206703,0.204749,0.403272,0.414184,0.417932,0.214089,0.397008,0.384964,0.376612,0.172458,0.160594,0.349854,0.353679,0.162719,0.163702,0.36571,0.372943,0.374426,0.175658,0.165363,0.161692,0.358259,0.363714,0.37398,0.379002,0.177881,0.169449,0.360943,0.368929,0.377774,0.37989,0.369498,0.158743,0.145431,0.144563,0.344743,0.160462,0.16869,0.376508,0.392987,0.400332,0.398512,0.197737,0.385955,0.186128,0.376331,0.179069,0.176886,0.373029,0.382497,0.192532,0.380038,0.383397,0.184604,0.175402,0.171344,0.377937,0.394905,0.212443,0.213353,0.210339,0.407743,0.221662,0.423211,0.224969,0.421404
-3.63161,1.09568,-0.235787,2.72139,2.71043,1.7764,-1.23797,0.60674,1.09717,-0.978965,0.555219,-1.65247,-1.51339,-1.4276,-0.932577,1.45038,1.57957,-1.05241,0.484808,-1.35433,-1.15621,1.02037,1.32851,1.1081,-1.58855,0.31921,0.759329,1.17144,-1.44482,-2.05332,0.419995,1.38435,-0.337376,-0.974839,0.745888,1.3308,1.68442,-1.1586,-1.75361,-1.48599,1.13468,1.80364,1.38213,0.568239,-1.96566,-1.86275,0.799688,1.3597,1.08749,0.209766,0.00694251,-1.90168,-1.96395,-1.68885,1.1093,-0.547454,-0.806563,1.11617,1.61398,1.85029,1.21063,-1.40348,0.488032,-1.36339,0.619388,-1.38522,-1.36849,0.872434,1.29029,-0.826326,0.708657,0.485358,-1.20034,-1.30105,-1.25424,1.44621,1.87186,-0.612774,-1.42482,-1.10305,1.82402,0.0591152,1.45953,-1.25847,0.717424,-1.18664,-1.09527,-1.07608,-0.58905,-0.26987,-0.177549,-0.0604392,0.129174,2.27848,0.178988,-0.317498,1.4608,-0.237797,-0.269744,1.5362,1.74965,-0.697427,-1.285,-1.32745,-0.741092,1.69293,1.65869,1.12888,-1.62118,-1.7985,0.863905,-0.547067,1.34977,-1.06825,-1.2014,-1.09264,1.19548,1.77953,-0.59301,0.938922,0.574342,0.791895,0.552452,-1.98702,-2.06483,-1.84941,-0.959428,1.65454,-0.264226,-0.69575,-0.966113,1.57858,-0.055034,-0.257997,-0.54685,-0.175643,2.34964,0.292782,1.69562,1.07642,0.890388,0.765051,0.542761,-1.88097,0.0934703,0.699192,1.07539,0.483267,-0.107428,-0.141481,-2.17732,-0.114943,-1.77612,-1.7396,0.506187,-0.956662,-0.678508,-0.780859,-0.511132,-0.18698,2.0643,2.19584,-0.14184,-0.456669,1.22833,-0.74634,-1.0079,-1.20298,1.3711,1.84165,1.88234,-1.07656,0.353056,-1.60114,-1.25115,-1.10791,1.34957,-0.59095,1.21024,1.06105,-0.892616,-1.37363,0.677697,1.37501,-0.448447,0.905456,-1.78478,0.341533,-1.37346,0.732203,-1.398,0.721028,0.87517,-1.1016,0.455719,0.413792,-1.48345,0.479662,0.899722,1.14884,-1.44398,0.203947,-1.55795,1.07703,1.32408,1.13518,0.537466,-1.74576,0.341886,0.610022,-1.25634,-1.71226,0.359901,-0.962922,1.65794,1.57304,1.14621,-1.52306,-1.72539,-1.24045,-0.661928,-0.455548,1.78205,-0.0806413,1.71939,-0.693791,-0.88616,1.26269,-0.220096,1.72389,1.23979,-1.16491,0.57501,-1.24846,0.976431,0.903988,-1.36351,-1.87829,-1.67017,-0.914495,-0.497099,-0.344135,1.90543,2.05326,1.5774,0.852991,0.477517,0.484483,0.378722,-2.01243,-2.21825,0.327189,-0.944811,-1.01047,0.860803
1.41452,-1.0933,0.752759,-1.39476,-1.36778,-1.1643,1.30471,-0.420348,1.62364,1.41169,-0.979491,-1.3833,0.72827,1.15352,-0.800116,0.855047,-1.53167,0.471538,-1.33541,0.999857,-0.923709,1.13156,1.15658,-0.963966,0.80525,0.708454,-1.35076,0.732099,0.868844,0.865897,-1.55639,0.195075,-1.82801,0.514754,0.767271,0.754756,0.548927,-1.82423,0.0709339,0.271121,-1.55564,-1.51028,0.727627,-0.97511,1.3535,1.42689,1.26249,-1.26577,-1.63843,-1.51167,-0.884989,-0.268529,2.13108,0.0473197,1.72194,-0.724151,-0.942249,1.17252,-0.607715,1.78171,1.82775,-0.616821,0.87227,-1.48039,0.613587,0.782185,-1.31066,-1.56084,-1.5377,-1.03409,-0.353341,0.105341,2.28814,2.13687,1.6733,1.00751,0.537866,0.311372,0.168107,-2.09378,-2.18966,0.198685,-1.25551,-0.810356,1.46528,-0.490812,1.55721,-0.619704,1.24524,1.17467,1.02603,-1.42865,0.315291,0.347061,-1.63789,0.384827,-1.72391,-1.70049,-1.41278,-0.897162,1.65346,1.92899,-0.393935,1.02987,-1.44449,-1.4675,1.02295,1.62717,1.8555,-0.725509,0.610875,0.225737,0.228923,-1.80935,-1.84605,0.456012,1.01048,-0.703055,-0.838405,1.05523,1.1632,1.2771,-1.07823,-1.52818,-1.64031,0.884396,1.5869,1.98095,1.70506,-1.12623,-1.77876,0.189206,0.789512,1.43312,1.49068,0.910665,-1.89146,-2.25942,-1.96607,0.881388,-0.57245,-0.44639,1.5621,1.68213,1.62739,1.15059,-1.48401,0.249372,-1.71335,0.595182,-1.23169,-1.19068,0.973364,1.28568,-0.722372,0.979303,0.715525,-1.44098,-1.5106,-1.2776,1.32029,1.75006,-0.376664,-0.929064,-1.45827,0.661169,-0.834806,1.83387,-0.0768147,1.67127,-0.936899,-1.35571,-1.35694,-0.921,-0.355204,-0.053664,-0.0239118,0.0233699,2.2501,0.228536,-0.0241148,1.77713,-0.396946,-0.473089,1.63906,1.75235,-0.511845,-1.07627,-1.42397,-1.1646,1.47187,1.80409,1.59127,-1.15436,-1.73985,0.188707,-1.48329,1.04364,-0.85985,-0.902871,-0.886974,1.4592,1.77989,-0.286259,1.3427,0.904835,0.611186,0.358498,-1.95497,-2.094,-1.82482,-1.16388,1.56942,-0.216712,-0.309417,-0.410487,1.8467,0.0390562,-0.090149,-0.350545,-0.244817,2.14245,0.136169,1.86576,1.42813,1.02588,0.634943,0.291651,-2.0264,-0.0426307,0.105297,0.140429,-0.113096,-0.392436,-0.494965,-2.54332,-0.32114,-1.99877,-1.59829,0.91115,-0.722032,-0.61498,-0.592777,-0.280161,0.0851618,2.40389,2.3702,-0.174542,-0.833352,1.01819,-0.735977,-0.417762,-0.299086,1.8763,1.85605
-0.0504293,-0.0488238,-0.0427493,-0.0779102,-0.10562,-0.150153,-0.157808,-0.13656,-0.134382,-0.15796,-0.181031,-0.214706,-0.2196,-0.192552,-0.160096,-0.10956,-0.0918561,-0.08592,-0.0771653,-0.0607349,-0.0791472,-0.0905989,-0.0984846,-0.129006,-0.143442,-0.146968,-0.137166,-0.133117,-0.15158,-0.152126,-0.178721,-0.174285,-0.228288,-0.28536,-0.325757,-0.323804,-0.31115,-0.300244,-0.288899,-0.267795,-0.23156,-0.171667,-0.154141,-0.119554,-0.0767856,-0.0469488,-0.0376182,-0.0173489,0.00475926,0.0279076,0.0881098,0.140181,0.169837,0.176889,0.197288,0.243048,0.226362,0.158633,0.0876804,0.00688509,-0.0380536,-0.0872672,-0.139799,-0.165067,-0.161484,-0.13478,-0.119099,-0.103946,-0.104503,-0.130885,-0.141122,-0.114743,-0.0993781,-0.0749165,-0.11097,-0.0830985,-0.0514793,-0.0393235,-0.0359947,-0.0223443,-0.00165848,-0.0151602,-0.0828126,-0.0968428,-0.10518,-0.12165,-0.170474,-0.21084,-0.229223,-0.229897,-0.216035,-0.183324,-0.145767,-0.144929,-0.155971,-0.186295,-0.210954,-0.223682,-0.240514,-0.230285,-0.213525,-0.193909,-0.217921,-0.291519,-0.311856,-0.297783,-0.284027,-0.247307,-0.232783,-0.262442,-0.323514,-0.320933,-0.316737,-0.322418,-0.330092,-0.324763,-0.312951,-0.290811,-0.289318,-0.265436,-0.261733,-0.230682,-0.244574,-0.2619,-0.261062,-0.225405,-0.180995,-0.149672,-0.0884809,0.0218991,0.0900724,0.117217,0.0575166,-0.0448548,-0.0984098,-0.119237,-0.10784,-0.113353,-0.187829,-0.218757,-0.195309,-0.232948,-0.288604,-0.301405,-0.330258,-0.383557,-0.405985,-0.424934,-0.397162,-0.361265,-0.344911,-0.356627,-0.387213,-0.43405,-0.465245,-0.460633,-0.474857,-0.495791,-0.481649,-0.492527,-0.525461,-0.540315,-0.508256,-0.448284,-0.447311,-0.418837,-0.383717,-0.341504,-0.302078,-0.244565,-0.207527,-0.169874,-0.108819,-0.0113566,0.0926296,0.143587,0.163827,0.175189,0.16658,0.15595,0.116226,0.0801383,0.0504845,0.0282057,0.00596312,-0.0296016,-0.0889973,-0.15553,-0.21475,-0.228546,-0.20824,-0.178286,-0.181663,-0.165323,-0.182621,-0.218492,-0.21122,-0.220165,-0.225866,-0.243628,-0.257397,-0.233716,-0.210463,-0.201675,-0.182599,-0.183328,-0.177516,-0.170939,-0.163925,-0.156144,-0.166289,-0.160511,-0.119656,-0.117583,-0.118523,-0.117234,-0.135011,-0.133751,-0.136112,-0.147569,-0.146596,-0.155721,-0.138487,-0.0977392,-0.0579866,-0.0503186,-0.0274208,0.00129268,0.045143,0.0508809,0.0323979,0.0358381,0.0150164,0.0150396,0.0177473,0.0158174,0.0199871,0.0470708,0.050538,0.0369557,0.0312731,-0.00887998,-0.00629962,-0.0307037,-0.0232641,-0.0526841,-0.0746327,-0.120742,-0.194844,-0.222752,-0.169411,-0.135227,-0.119597,-0.118355,-0.118824
