0.30454,0.31013,0.3045,0.30983,0.30813,0.30814,0.3108,0.30838,0.31199,0.31027,0.31012,0.31238,0.31176,0.31194,0.31091,0.31376,0.31246,0.31358,0.31241,0.31556,0.31309,0.31481,0.31637,0.31176,0.3189,0.31477,0.31452,0.31602,0.31587,0.31704,0.31554,0.31712,0.31569,0.31969,0.3138,0.31612,0.31688,0.31714,0.31493,0.31519,0.31321,0.31345,0.31226,0.31244,0.31182,0.3129,0.31068,0.30909,0.31102,0.30945,0.30858,0.37537,0.3745,0.37278,0.36035,0.35858,0.35193,0.33359,0.34167,0.32767,0.3253,0.31866,0.31504,0.31087,0.31082,0.30189,0.30539,0.29733,0.29593,0.2981,0.29569,0.30098,0.29055,0.29758,0.2938,0.2984,0.29289,0.30095,0.2976,0.29394,0.29777,0.29742,0.2972,0.30159,0.29745,0.29975,0.30102,0.30688,0.29726,0.30357,0.30492,0.30446,0.3054,0.30298,0.30749,0.30358,0.30206,0.31376,0.29455,0.30953,0.30567,0.3065,0.30776,0.30473,0.30707,0.30422,0.30556,0.30541,0.30741,0.30213,0.30678,0.30277,0.30417,0.30458,0.30391,0.30377,0.3022,0.30415,0.30239,0.30484,0.30296,0.30264,0.30379,0.30292,0.30206,0.30617,0.30171,0.30551,0.3042,0.30544,0.30344,0.30758,0.3053,0.31124,0.30474,0.30833,0.30937,0.31226,0.30885,0.30951,0.31029,0.3101,0.3111,0.31022,0.31003,0.31009,0.31057,0.30867,0.30867,0.30977,0.30877,0.30955,0.30841,0.30991,0.30884,0.31061,0.30832,0.30831,0.30858,0.30297,0.30884,0.3076,0.30536,0.30766,0.30465,0.30589,0.30502,0.30441,0.30593,0.30505,0.303,0.30976,0.30341,0.30664,0.30557,0.30471,0.30333,0.30412,0.30579,0.30347,0.3031,0.30325,0.30462,0.30441,0.30349,0.3041,0.30792,0.30161,0.30519,0.30537,0.30319,0.30555,0.30472,0.30411,0.30185,0.30384,0.30484,0.30536,0.30516,0.30501,0.30541,0.30364,0.30615,0.30388,0.30634,0.30449,0.30822,0.3056,0.30657,0.30658,0.30628,0.30616,0.30755,0.30884,0.30656,0.30882,0.30759,0.30841,0.30729,0.30936,0.30684,0.30799,0.30677,0.30874,0.30765,0.30661,0.30928,0.30597,0.30612,0.30739,0.30788,0.30681,0.30648,0.30581,0.30578,0.3072,0.30544,0.30565,0.30635,0.30563,0.30701,0.30689,0.30422,0.3077,0.30631,0.3041,0.30775,0.30635,0.30465,0.30396,0.30536
-0.0058061,0.020419,0.0029519,0.016567,0.040775,0.011578,0.014397,0.022395,0.027328,0.041467,0.037958,0.033625,0.030697,0.056793,0.045898,0.054125,0.059139,0.055897,0.048433,0.05482,0.065476,0.056737,0.068897,0.046279,0.054109,0.058481,0.051448,0.053793,0.055662,0.051904,0.046188,0.051802,0.042381,0.038158,0.044996,0.027724,0.025575,0.036998,0.011706,0.0082998,0.020379,0.0015861,-0.0031657,0.0056231,-0.0071767,-0.015415,-0.020704,-0.033153,-0.036548,-0.039138,-0.026432,-0.3374,-0.35216,-0.3013,-0.2909,-0.31116,-0.21443,-0.25137,-0.22876,-0.17431,-0.16789,-0.12976,-0.10726,-0.12624,-0.07952,-0.084833,-0.057032,-0.01666,-0.01721,0.053361,0.046099,0.020362,0.030115,0.0452,0.070081,0.088424,0.088372,0.11289,0.12873,0.11517,0.11919,0.13388,0.13496,0.13597,0.13237,0.14213,0.12649,0.1416,0.12914,0.1234,0.12585,0.10852,0.10985,0.10992,0.11004,0.08165,-0.038203,0.080791,0.1279,0.096487,0.10783,0.054891,0.06086,0.04394,0.027553,0.028804,0.020171,0.017372,0.023663,-0.0068,0.0057276,0.012932,-0.0032181,-0.00045709,-0.010183,-0.0077277,-0.0078478,-0.0055476,-0.011559,-0.016141,-0.0054044,-0.0047332,-0.0012334,0.0068104,-0.0070556,-0.01049,-0.0070129,-0.0022124,-0.0092322,-0.006249,-0.010306,0.011915,-0.0056857,-0.014016,-0.024451,-0.00096694,0.0019469,0.0071658,0.0014909,-0.0075624,-0.0047714,-0.0026098,-0.00043705,-0.0044954,0.0050885,0.0032188,0.001991,0.0016056,-0.00374,0.0069318,0.0085944,0.0061834,-0.004705,0.0093966,-0.0010525,0.0095008,0.013807,0.0070085,-0.003455,0.005377,0.004607,0.0021782,-0.0031847,0.0087339,0.0014309,-0.0021426,0.0084192,0.0081211,-0.011536,0.004348,-0.019133,0.006008,0.0031119,-0.014001,-0.0060578,-0.0046843,-0.0056721,-0.01719,-0.014145,-0.010814,-0.0091655,-0.013328,-0.010882,-0.017507,-0.010269,-0.019892,-0.0059205,-0.0037653,-0.024114,-0.020712,-0.0096052,-0.016358,-0.015849,-0.013107,-0.0092817,-0.0061339,-0.0051726,-0.0089351,-0.0065219,-0.0068744,0.0043194,-0.011681,-0.0022768,-0.00062851,0.014987,0.0074543,-0.00079112,0.0047237,0.0054823,0.010434,0.020529,0.019943,0.015005,0.016348,0.015694,0.016221,0.017147,0.01846,0.018049,0.024948,0.010526,0.013908,0.019666,0.02356,0.019146,0.017423,0.014899,0.026398,0.017659,0.01725,0.015704,0.013082,0.018917,0.016768,0.0068404,0.010941,0.0003782,-0.0050387,0.001793,-0.0011841,-0.011738,-0.0070703,-0.013007,-0.015161,-0.002234,-0.023541,-0.020494,-0.010061,-0.013092,-0.020867,-0.025848
0.095514,0.07186,0.10627,0.087293,0.095595,0.084274,0.094041,0.11518,0.087745,0.088507,0.10217,0.092724,0.092037,0.087883,0.097217,0.079439,0.082284,0.082253,0.076823,0.062272,0.0793,0.058908,0.059159,0.066244,0.033356,0.059583,0.034034,0.037908,0.029891,0.019186,0.0085723,0.027509,5.3098e-05,-0.011095,-0.0086658,-0.012899,-0.013403,-0.035394,-0.033764,-0.024762,-0.039779,-0.04119,-0.035957,-0.047003,-0.040832,-0.055351,-0.051927,-0.052075,-0.054574,-0.057352,-0.068485,0.2433,0.21279,0.18351,0.20278,0.15848,0.11443,0.153,0.08661,0.078076,0.061047,0.028489,0.0039371,-0.0066377,-0.040858,-0.019723,-0.081482,-0.073011,-0.074008,-0.090606,-0.13044,-0.11958,-0.11611,-0.12127,-0.13338,-0.16489,-0.12863,-0.1574,-0.15511,-0.15538,-0.13797,-0.12492,-0.1484,-0.13171,-0.12938,-0.11548,-0.1206,-0.13028,-0.073138,-0.091738,-0.083035,-0.090742,-0.052237,-0.050301,-0.059322,-0.010666,-0.0042717,-0.022251,0.022302,-0.024098,0.0081761,0.01563,0.015673,0.041626,0.027865,0.033875,0.059205,0.053823,0.041777,0.069698,0.057289,0.071947,0.058043,0.070809,0.08157,0.066827,0.072591,0.079732,0.068567,0.070556,0.078831,0.06382,0.05496,0.082739,0.059675,0.052621,0.070882,0.045484,0.055143,0.040418,0.041013,0.040459,0.037123,0.011957,0.048955,0.017087,0.017708,0.0063687,0.01997,-0.0028893,0.0049757,0.0089723,-0.010516,-0.0030438,-0.011252,-0.016244,-0.010132,-0.013102,-0.018696,-0.022571,-0.019008,-0.025422,-0.023748,-0.028823,-0.019513,-0.037691,0.018017,-0.060159,-0.025663,-0.00039744,-0.039412,-0.0090177,-0.018137,-0.035203,-0.0065647,-0.02006,-0.0092169,-0.017492,-0.018403,-0.0050424,0.0022191,-0.025134,0.00059961,-0.0063997,-0.0031324,-0.002948,0.0075781,0.0093882,0.00775,0.013699,0.0047291,0.016122,0.011351,0.012798,0.036101,0.007941,0.0052128,0.037051,0.016207,0.037448,0.022399,0.035064,0.026817,0.028743,0.039639,0.031916,0.023666,0.027484,0.0296,0.028283,0.01825,0.037138,0.018066,0.024491,0.021203,0.02157,0.0062006,0.021698,0.0097812,0.0005777,-0.0012173,0.010619,-0.0031873,-0.0045344,0.00036286,-0.008752,-0.017054,-0.0078854,-0.0093174,-0.027348,-0.011042,-0.022427,-0.015905,-0.039678,-0.014079,-0.037452,-0.029152,-0.037576,-0.031496,-0.033924,-0.049796,-0.037658,-0.04023,-0.048816,-0.037328,-0.04557,-0.042293,-0.041459,-0.040336,-0.040229,-0.045803,-0.039967,-0.034787,-0.03964,-0.038435,-0.022909,-0.031957,-0.030119,-0.024879,-0.013256,-0.023332
-0.087664,-0.074783,-0.070276,-0.082239,-0.064965,-0.038264,-0.030276,-0.015162,-0.022497,-0.01655,0.011986,0.038071,0.026257,0.052858,0.046856,0.047322,0.03881,0.056615,0.070733,0.036974,0.049247,0.040168,0.056328,0.04372,0.053109,0.050997,0.072972,0.066923,0.067912,0.053077,0.059533,0.067523,0.073865,0.066985,0.086187,0.083579,0.067668,0.083949,0.080342,0.07056,0.063936,0.065047,0.026462,0.0091657,0.01393,0.010847,-0.00019945,-0.0053388,0.0049531,-0.012946,-0.048693,-0.015646,-0.063599,-0.074025,-0.02659,-0.11988,-0.10128,-0.066206,-0.1141,-0.10717,-0.13955,-0.16863,-0.13411,-0.17137,-0.12405,-0.12354,-0.16076,-0.12209,-0.26664,-0.25245,-0.23559,-0.20116,-0.18093,-0.1408,-0.10447,-0.075656,-0.050529,-0.041767,-0.035056,-0.035464,0.0018818,0.0070336,-0.025879,0.018113,0.019305,0.0088516,-0.0097621,0.0016517,-0.0038719,-0.016021,0.010889,0.002226,-0.001824,-0.0028491,0.006033,0.28164,0.2667,0.25165,0.21084,0.19915,0.13817,0.12332,0.094076,0.063748,0.03924,0.028965,0.029582,-0.012822,-0.0096958,-0.012628,-0.0071688,-0.0076726,-0.014963,-0.015714,-0.0081808,-0.0001598,-0.0077276,-0.0047262,-0.01079,-0.019185,-0.032304,-0.014294,-0.037487,-0.054235,-0.075912,-0.062886,-0.07629,-0.092893,-0.10454,-0.088083,-0.08934,-0.096767,-0.12105,-0.088963,-0.078583,-0.094413,-0.11009,-0.11641,-0.11756,-0.11952,-0.12188,-0.13198,-0.12836,-0.12243,-0.12372,-0.12873,-0.13501,-0.10522,-0.10552,-0.098975,-0.091869,-0.074102,-0.057187,-0.078383,-0.04923,-0.080548,-0.066619,-0.070001,-0.057805,-0.069705,-0.06495,-0.058075,-0.048122,-0.055152,-0.066475,-0.058253,-0.047021,-0.049286,-0.067991,-0.06259,-0.072412,-0.07989,-0.085684,-0.090706,-0.099993,-0.097868,-0.10545,-0.12022,-0.1058,-0.092801,-0.1184,-0.10099,-0.10304,-0.090003,-0.085905,-0.069517,-0.070477,-0.056796,-0.044001,-0.057492,-0.057016,-0.044345,-0.047114,-0.03948,-0.036237,-0.03384,-0.043027,-0.039974,-0.049488,-0.034783,-0.029697,-0.029383,-0.026318,-0.044403,-0.046087,-0.05046,-0.064913,-0.062848,-0.069586,-0.074897,-0.086661,-0.079709,-0.099133,-0.11191,-0.11341,-0.10717,-0.12138,-0.12261,-0.1336,-0.15293,-0.14421,-0.14275,-0.1584,-0.157,-0.1751,-0.17531,-0.16378,-0.17031,-0.17551,-0.16279,-0.16291,-0.16225,-0.15706,-0.159,-0.15694,-0.15225,-0.16087,-0.1607,-0.15749,-0.16842,-0.14956,-0.15101,-0.15594,-0.14035,-0.13938,-0.14597,-0.13144,-0.12507,-0.12027,-0.11258,-0.11169
