-0.51946,-0.51811,-0.51696,-0.51616,-0.51567,-0.51552,-0.51563,-0.51601,-0.51664,-0.51753,-0.51878,-0.52007,-0.5217,-0.5234,-0.52536,-0.52734,-0.52952,-0.5318,-0.53427,-0.53682,-0.5393,-0.54195,-0.54465,-0.54735,-0.5501,-0.55289,-0.55561,-0.5584,-0.56098,-0.56351,-0.56598,-0.56843,-0.57075,-0.57289,-0.57483,-0.57667,-0.57828,-0.57978,-0.5809,-0.58192,-0.58268,-0.58322,-0.58357,-0.58365,-0.58351,-0.58328,-0.58282,-0.58214,-0.58132,-0.58033,-0.57926,-0.57792,-0.57661,-0.57503,-0.5731,-0.57041,-0.56641,-0.56028,-0.55192,-0.54096,-0.5272,-0.51052,-0.49069,-0.46784,-0.44189,-0.41282,-0.38085,-0.34607,-0.30838,-0.26805,-0.22544,-0.18055,-0.13377,-0.085627,-0.036455,0.013443,0.063425,0.11259,0.16317,0.21123,0.25907,0.3035,0.34827,0.38938,0.42816,0.46403,0.49743,0.52783,0.55477,0.57892,0.59985,0.6178,0.6326,0.64434,0.65357,0.65993,0.66388,0.66575,0.66568,0.66361,0.66021,0.65531,0.64955,0.64291,0.63569,0.62821,0.62061,0.61306,0.60562,0.59849,0.59206,0.58606,0.58082,0.57645,0.57286,0.57008,0.56806,0.56692,0.56669,0.56716,0.56853,0.57056,0.57314,0.57621,0.57983,0.58372,0.5878,0.59191,0.5961,0.60012,0.60401,0.60745,0.61049,0.61307,0.61491,0.61615,0.61675,0.61656,0.61553,0.61364,0.61101,0.60747,0.60311,0.59794,0.59198,0.58552,0.57833,0.57061,0.56243,0.55388,0.54522,0.53644,0.52752,0.51861,0.51006,0.50147,0.49348,0.48559,0.4786,0.47206,0.46588,0.46073,0.45623,0.45258,0.44977,0.44791,0.44707,0.44703,0.44806,0.44991,0.45273,0.45641,0.46094,0.46619,0.47233,0.47911,0.48645,0.49441,0.50283,0.51167,0.52085,0.53023,0.53978,0.5493,0.55877,0.56826,0.57734,0.5862,0.59457,0.60261,0.60994,0.61679,0.62311,0.62859,0.63338,0.63745,0.64081,0.64309,0.6445,0.64527,0.64505,0.64397,0.64229,0.63973,0.63667,0.63294,0.62865,0.62385,0.61865,0.61301,0.60703,0.60081,0.59439,0.58778,0.58137,0.57461,0.56807,0.56162,0.55517,0.54911,0.54304,0.53746,0.53193,0.52696,0.52231,0.51799,0.51411,0.5106,0.50757,0.50491,0.50271,0.50092,0.49961,0.49875,0.49813,0.49799,0.49828,0.49894,0.49992,0.50131,0.50313,0.50525,0.5077,0.51033,0.51344,0.51656,0.52011,0.52366,0.52747,0.53133,0.53514,0.53912,0.543,0.5468,0.5508,0.55438,0.55798,0.56129,0.56447,0.56743,0.57023,0.57271,0.57498,0.57697,0.57869,0.58012,0.58123,0.5822,0.58276,0.58309,0.58319,0.58296,0.58264,0.582,0.58125,0.58023,0.57908,0.57777,0.57632,0.57473,0.5731,0.57143,0.56961,0.56782,0.56597,0.56417,0.56231,0.56064,0.55881,0.55703,0.55541,0.55379,0.55225,0.55058,0.5491,0.54781,0.54642,0.54509,0.54393,0.54287,0.54172
-0.50716,-0.50504,-0.50267,-0.49992,-0.49706,-0.49404,-0.49103,-0.48777,-0.48445,-0.48117,-0.4778,-0.47437,-0.47127,-0.46807,-0.46501,-0.4619,-0.45887,-0.45617,-0.45357,-0.45115,-0.44902,-0.44698,-0.44517,-0.44342,-0.44187,-0.44082,-0.43979,-0.43906,-0.43873,-0.43871,-0.43883,-0.43924,-0.43987,-0.44073,-0.44178,-0.4428,-0.44395,-0.44537,-0.44687,-0.44872,-0.45034,-0.4522,-0.454,-0.45585,-0.4576,-0.45951,-0.46123,-0.46302,-0.46451,-0.46616,-0.46745,-0.46897,-0.46999,-0.47117,-0.47114,-0.46963,-0.46498,-0.45598,-0.44191,-0.42263,-0.39804,-0.36782,-0.33248,-0.29278,-0.24851,-0.20036,-0.1495,-0.095614,-0.039652,0.018198,0.075797,0.13511,0.19422,0.25199,0.30906,0.36507,0.41898,0.47147,0.51839,0.56522,0.60591,0.64619,0.67881,0.70981,0.73623,0.75875,0.77601,0.78918,0.79849,0.80272,0.80331,0.7998,0.79298,0.78308,0.77,0.75444,0.73653,0.71655,0.69443,0.67136,0.64733,0.62268,0.59777,0.5733,0.54923,0.52597,0.50361,0.48245,0.46284,0.44528,0.42889,0.41499,0.4031,0.39325,0.38585,0.38062,0.37771,0.37672,0.37798,0.38146,0.38686,0.39394,0.40265,0.41315,0.42483,0.43791,0.45228,0.46728,0.48321,0.4999,0.51667,0.5335,0.5507,0.56771,0.58456,0.60063,0.61623,0.63121,0.64515,0.65856,0.67068,0.68152,0.69152,0.7001,0.70762,0.71362,0.71886,0.72232,0.72474,0.72554,0.72551,0.72425,0.7217,0.71785,0.713,0.70719,0.70042,0.69283,0.68388,0.67443,0.66446,0.65372,0.6429,0.63123,0.61963,0.60774,0.59623,0.58449,0.57287,0.56131,0.55024,0.54043,0.53017,0.5205,0.5117,0.50365,0.49607,0.4897,0.48345,0.47826,0.47376,0.46996,0.46714,0.46508,0.46395,0.4631,0.46347,0.46432,0.46601,0.46811,0.47096,0.47398,0.47735,0.48168,0.48602,0.49082,0.49562,0.50109,0.50661,0.5122,0.5179,0.52376,0.52952,0.53529,0.54103,0.54668,0.552,0.55758,0.56267,0.56782,0.57272,0.57744,0.58201,0.58608,0.59001,0.59372,0.59711,0.60046,0.60349,0.60573,0.60853,0.61045,0.61236,0.61372,0.61494,0.61595,0.61637,0.6166,0.61629,0.61598,0.6153,0.61412,0.61266,0.61084,0.60886,0.60652,0.60393,0.60116,0.59847,0.5955,0.59235,0.58914,0.58584,0.5826,0.57911,0.57607,0.57254,0.56933,0.56625,0.56308,0.56017,0.55711,0.55447,0.55216,0.54954,0.54741,0.54541,0.54387,0.54235,0.54111,0.54,0.53923,0.53874,0.53859,0.53824,0.53842,0.53862,0.53888,0.53952,0.54024,0.54093,0.54188,0.54278,0.54398,0.54514,0.54661,0.5479,0.54929,0.55091,0.55243,0.55405,0.55572,0.55738,0.55907,0.56055,0.56247,0.56393,0.56532,0.56725,0.56883,0.5703,0.5716,0.57297,0.57405,0.57517,0.57586,0.57709,0.57759,0.57823,0.57873,0.57892
0.31757,0.31714,0.31689,0.31641,0.31601,0.31563,0.31518,0.31455,0.31394,0.31344,0.31284,0.31233,0.31207,0.31206,0.31228,0.31261,0.31309,0.31347,0.31377,0.31409,0.31414,0.31427,0.3145,0.31481,0.31535,0.31616,0.31693,0.31755,0.31831,0.31881,0.31895,0.31877,0.31856,0.31805,0.3173,0.31644,0.31558,0.3148,0.31411,0.31348,0.31268,0.31184,0.31125,0.31063,0.31007,0.30976,0.30941,0.30911,0.30882,0.30846,0.30819,0.30815,0.30799,0.3078,0.30779,0.31005,0.31558,0.32443,0.33648,0.35179,0.36978,0.38997,0.41229,0.43644,0.46198,0.48853,0.5159,0.54341,0.57119,0.59896,0.62709,0.65454,0.68204,0.70932,0.73648,0.76347,0.79077,0.81718,0.84433,0.87067,0.89792,0.92427,0.95112,0.97701,1.0022,1.0271,1.0513,1.075,1.0984,1.1212,1.1438,1.1656,1.1874,1.209,1.2303,1.2515,1.2722,1.2929,1.3131,1.333,1.3527,1.3719,1.3907,1.4088,1.4262,1.4427,1.4583,1.4729,1.4864,1.4985,1.5096,1.5194,1.5279,1.5351,1.5413,1.5462,1.55,1.5527,1.5545,1.5556,1.556,1.5557,1.5547,1.5532,1.5512,1.5489,1.5463,1.5437,1.5411,1.5383,1.5354,1.5325,1.5297,1.5269,1.5244,1.5221,1.52,1.5181,1.5165,1.515,1.5138,1.5128,1.5123,1.5122,1.5125,1.5132,1.5141,1.5151,1.5165,1.5179,1.5196,1.5213,1.523,1.5246,1.5263,1.5279,1.5292,1.5306,1.5316,1.5327,1.5337,1.5347,1.5357,1.5365,1.5371,1.5375,1.538,1.5382,1.5383,1.5381,1.538,1.5379,1.5375,1.5372,1.5367,1.5361,1.5353,1.5347,1.5337,1.5328,1.5319,1.531,1.5301,1.5292,1.5284,1.5277,1.5271,1.5265,1.5258,1.5252,1.5243,1.5235,1.5225,1.5213,1.5203,1.5192,1.5181,1.5172,1.5164,1.5157,1.5152,1.5148,1.5146,1.5146,1.5147,1.5149,1.5151,1.5153,1.5155,1.5157,1.5159,1.5162,1.5162,1.5164,1.5165,1.5168,1.5168,1.5168,1.5169,1.5168,1.5167,1.5163,1.5161,1.516,1.5159,1.5158,1.5159,1.5162,1.5162,1.5163,1.5165,1.5165,1.5164,1.5162,1.5162,1.5162,1.5164,1.5165,1.5169,1.5173,1.5177,1.5181,1.5184,1.5188,1.5192,1.5197,1.5202,1.5206,1.5208,1.5211,1.5212,1.5213,1.5212,1.521,1.521,1.5208,1.5209,1.5212,1.5217,1.5223,1.5229,1.5234,1.5239,1.5244,1.5247,1.525,1.5251,1.5252,1.5251,1.5251,1.525,1.5249,1.5248,1.5247,1.5246,1.5245,1.5243,1.5241,1.5238,1.5235,1.5232,1.523,1.5227,1.5224,1.522,1.5215,1.5211,1.5206,1.5203,1.5199,1.5196,1.5192,1.5191,1.5191,1.5193,1.5194,1.5196,1.5199,1.5199,1.52,1.5198
