0.29148,0.30378,0.29962,0.30664,0.30012,0.30496,0.3028,0.30425,0.29885,0.3001,0.30523,0.30315,0.30191,0.30285,0.30772,0.30368,0.30454,0.30196,0.30292,0.30548,0.30672,0.30491,0.31003,0.30336,0.3063,0.30623,0.30113,0.30904,0.29822,0.30766,0.30226,0.3027,0.3052,0.30012,0.30981,0.29505,0.31023,0.29773,0.3093,0.29551,0.30981,0.29652,0.30968,0.29732,0.31222,0.29955,0.30795,0.30251,0.306,0.30052,0.30761,0.42235,0.44936,0.45174,0.44196,0.4277,0.3991,0.38552,0.35697,0.35304,0.33321,0.33472,0.31161,0.31013,0.29371,0.30507,0.28709,0.28377,0.27442,0.27631,0.27449,0.27891,0.2755,0.2816,0.26283,0.27192,0.25437,0.27164,0.26589,0.2729,0.26536,0.27769,0.27866,0.2827,0.28248,0.2798,0.27933,0.28055,0.28726,0.28226,0.28308,0.29108,0.29419,0.29863,0.30305,0.29757,0.30191,0.29868,0.31131,0.30261,0.3143,0.30001,0.31529,0.30098,0.31374,0.30556,0.30937,0.31781,0.30104,0.31554,0.30456,0.32028,0.3074,0.30861,0.30712,0.30731,0.2984,0.31151,0.30146,0.304,0.30891,0.29389,0.30692,0.30123,0.30121,0.30803,0.29378,0.31054,0.29544,0.30116,0.30095,0.30697,0.29346,0.3142,0.29531,0.29751,0.30594,0.29199,0.30602,0.30271,0.30495,0.30324,0.30312,0.30597,0.29946,0.30129,0.3041,0.30481,0.2983,0.31326,0.28942,0.31188,0.30065,0.30451,0.29819,0.30929,0.29798,0.30517,0.30183,0.303,0.30411,0.30039,0.31315,0.29758,0.30999,0.30883,0.2925,0.30997,0.29592,0.31444,0.29524,0.31006,0.30044,0.30418,0.3036,0.30482,0.30449,0.29895,0.30311,0.30457,0.30159,0.30084,0.29574,0.29825,0.30412,0.29626,0.30632,0.30403,0.30063,0.30991,0.30189,0.30532,0.30305,0.30237,0.29996,0.30392,0.29856,0.30193,0.30055,0.30173,0.30091,0.30392,0.30161,0.303,0.30134,0.30149,0.30243,0.29811,0.30124,0.29654,0.29823,0.29967,0.30042,0.30074,0.30294,0.29913,0.30288,0.29706,0.30422,0.29301,0.30641,0.29499,0.29788,0.29616,0.29506,0.29872,0.29479,0.29897,0.29138,0.29707,0.29851,0.29387,0.29866,0.29717,0.29813,0.2946,0.29778,0.29855,0.29409,0.30292,0.2936,0.30103,0.29825,0.29338,0.29838,0.29423,0.30012,0.29563,0.29092,0.29695,0.29442,0.29785,0.29064,0.29596,0.29454,0.28897,0.29881,0.2899
-0.03512,-0.0096358,0.010038,0.036126,-0.0013599,0.005143,0.0021896,-0.0082512,-0.014077,-0.009541,0.0027253,0.008033,-0.0019577,-0.010022,0.033876,0.01262,-0.0053667,-0.0055078,0.0026841,-0.0016374,0.0095446,-0.0034498,0.0041795,0.01104,-0.00027981,0.013749,0.0047812,0.018693,0.013886,0.015848,0.031279,0.0099235,0.042599,0.006751,0.037405,0.013886,0.030188,0.011322,0.036142,0.022998,0.029651,0.017548,0.043407,0.0029531,0.025295,0.022908,0.016094,0.019159,0.034893,0.0078031,0.003156,-0.52065,-0.42384,-0.31115,-0.19699,-0.078317,-0.035262,0.020033,0.085237,0.16047,0.15034,0.13875,0.097465,0.078057,0.042044,0.090937,0.08383,0.012729,-0.0098641,-0.0073183,0.0078902,0.023878,0.039989,0.073038,-0.040588,-0.047283,-0.055853,-0.018502,-0.01842,0.0084203,-0.068208,-0.056706,0.017764,0.028789,0.0039777,-0.0034851,-0.027431,0.01792,-0.0099502,0.069807,0.00504,0.0127,0.041701,0.031619,0.0775,0.034114,0.048489,0.023746,0.10263,0.030263,0.07792,0.033536,0.061166,0.019254,0.015787,0.084485,0.035146,0.049079,0.011766,0.0097745,-0.014496,0.0044553,-0.00025089,-0.0012665,-0.05281,0.010397,-0.038712,-0.016833,-0.034526,-0.089553,-0.030979,0.0044227,-0.042663,-0.014529,-0.0024393,0.017415,-0.034215,0.006758,0.040483,0.00048748,-0.050143,0.09387,0.0028697,-0.020621,0.048799,-0.012915,-0.017602,0.041253,-0.020094,0.022692,0.026295,0.043525,0.0039866,-0.014041,0.019526,-0.023048,0.025291,0.066086,-0.021292,0.043429,0.0088564,0.023821,0.024623,0.014973,-0.030018,0.023752,0.029869,-0.0070555,-0.050463,0.008169,-0.0073219,-0.033307,0.030471,0.027501,-0.051531,0.015284,-0.0061125,-0.041639,-0.069361,0.010992,0.0089525,-0.0013307,-0.0087019,-0.0040297,-0.0030719,0.0052158,0.017998,-0.0051949,-0.048715,0.0077247,0.045785,0.028218,-0.014059,-0.033727,0.044757,0.026308,0.00096418,0.051935,0.0064024,-0.00056074,0.0086914,0.020032,0.020816,0.0012297,-0.029002,0.0027555,0.022242,0.016986,0.017548,0.012567,-0.0080673,-0.01354,-0.0077546,-0.017348,-0.024958,0.0019694,0.047613,0.019037,-0.029211,-0.03345,-0.019852,-0.024336,-0.030532,-0.014698,-0.00046098,-0.031249,0.00015185,-0.044619,-0.033314,-0.07551,-0.019135,-0.0084899,-0.076024,-0.095387,-0.071918,-0.01147,-0.055407,-0.030475,-0.021827,-0.043064,-0.0073549,-0.010793,-0.0091166,-0.022573,0.0094809,-0.0042401,-0.0031643,0.036483,0.0041573,0.031712,0.018653,0.018243,0.047517,0.032555,0.031927,0.01582,0.0057409,0.015991,0.0011999,0.011129,-0.0045383,0.027405,-0.0011847,-0.0096328,0.025381,-0.009931,0.0055689,-0.0032349
0.038814,0.03086,0.028314,0.011472,0.0032749,-0.015969,0.0056335,0.015419,0.0049721,0.014912,0.018868,0.019112,-0.0091228,0.0023662,-0.0012086,0.015593,-0.040761,-0.00060481,0.041344,0.00037358,0.016888,0.020562,-0.0076312,0.024588,-0.0065972,-0.0070573,0.023021,-0.01565,-0.0050939,-0.0072064,-0.017871,0.020605,-0.013647,0.0051241,-0.033368,0.0096696,-0.015412,-0.03589,-0.0074378,0.0050181,-0.033904,-0.015052,-0.022229,-0.0057957,-0.050432,-0.0054095,0.00093087,-0.05775,-0.0030745,-0.022996,-0.063981,1.353,1.1364,0.87864,0.59757,0.39754,0.14191,-0.073918,-0.15313,-0.22736,-0.34526,-0.44695,-0.4218,-0.45747,-0.44046,-0.40055,-0.42372,-0.41219,-0.4149,-0.31031,-0.31127,-0.30608,-0.27013,-0.29794,-0.21104,-0.23019,-0.10765,-0.095217,-0.049033,-0.059163,-0.0048411,0.030336,0.0521,0.12672,0.10888,0.04873,0.24671,0.1725,0.25023,0.1984,0.18574,0.22739,0.21128,0.21449,0.12303,0.21411,0.12134,0.14476,0.11767,0.15851,0.022384,0.085423,0.096111,0.015805,0.012216,0.034615,0.031734,-0.047362,-0.021534,-0.028099,-0.010899,-0.078246,-0.022192,-0.068355,-0.064109,-0.09129,-0.04812,-0.093863,-0.030774,-0.087627,-0.10416,0.0033313,-0.10712,-0.12093,-0.0075067,-0.046853,-0.065896,-0.10431,0.027587,-0.063666,-0.074274,-0.0098765,0.032651,-0.088205,0.00030168,0.029748,-0.026115,-0.026506,0.068301,-0.030487,0.0025097,0.055152,-0.023324,0.013451,0.015956,0.051116,-0.0018462,0.0051505,0.071491,-0.071872,0.073912,0.017791,-0.027548,0.043689,0.021171,-0.032073,0.066306,-0.042777,-0.011708,-0.00072836,0.035125,-0.0046237,-0.045534,0.05695,-0.054892,-0.077617,0.065366,-0.03714,-0.046809,-0.010337,0.057966,-0.0505,-0.059332,0.027803,0.0042245,-0.045341,-0.016436,-0.0056783,-0.023539,-0.010353,0.037345,-0.0057441,-0.050517,-0.017386,-0.011836,0.028531,-0.038465,-0.062292,0.047015,-0.041539,-0.029667,0.032674,-0.003959,-0.0046619,0.01264,-0.0056182,0.02256,0.015519,-0.037358,-0.0076351,0.0076977,-0.013557,-0.0025462,0.014068,0.008046,-0.015294,0.010664,0.040377,-0.0027061,0.01209,0.051801,0.013886,0.017629,0.040415,-0.0040864,0.043181,0.010521,0.014154,-0.014747,0.069652,0.001232,-0.011494,0.024659,-0.057828,0.021574,0.031745,-0.016116,-0.069525,0.007014,0.013078,-0.0744,0.031118,-0.031103,-0.053121,0.0037269,0.005165,-0.060273,-0.039363,0.032893,-0.083289,-0.014164,0.001958,-0.048769,0.017733,-0.019562,-0.018485,-0.012016,-0.00012792,0.042161,-0.0025922,0.032687,-0.00020355,0.028757,0.02064,0.011244,0.072234,-0.012402,0.050452
0.044838,0.041895,0.05027,0.037581,0.03221,0.039134,0.045214,0.048578,0.051853,0.05472,0.060951,0.061859,0.053587,0.056149,0.054168,0.045925,0.042961,0.042697,0.04063,0.050339,0.047685,0.051949,0.05512,0.054543,0.064271,0.058396,0.062295,0.061051,0.060945,0.07,0.058306,0.060686,0.052989,0.054872,0.035769,0.037909,0.02769,0.034618,0.028729,0.028565,0.024931,0.035149,0.023231,0.026,0.024965,0.014575,0.0029905,0.011473,-0.0017021,-0.022003,-0.030773,-0.044389,-0.065502,-0.074094,-0.07439,-0.072627,-0.077271,-0.094372,-0.09257,-0.097624,-0.091179,-0.088682,-0.062857,-0.039184,-0.0072734,0.007182,0.016353,0.012311,0.047436,0.037461,0.032577,0.034422,0.058991,0.064928,0.063593,0.028102,0.036776,0.017704,-0.0071336,-0.012436,-0.039368,-0.040183,-0.066877,-0.068778,-0.072893,-0.084077,-0.072558,-0.087208,-0.09426,-0.082992,-0.077912,-0.091039,-0.080419,-0.076351,-0.075373,-0.091849,-0.073846,-0.069382,-0.073887,-0.076274,-0.086566,-0.092158,-0.094063,-0.11254,-0.10309,-0.10916,-0.10165,-0.1098,-0.097599,-0.12183,-0.11395,-0.12345,-0.12978,-0.13551,-0.14942,-0.13754,-0.15132,-0.15361,-0.1815,-0.18968,-0.18844,-0.20841,-0.22351,-0.23405,-0.23217,-0.24295,-0.23501,-0.21534,-0.22737,-0.24973,-0.20823,-0.22663,-0.23215,-0.20654,-0.23217,-0.21912,-0.23035,-0.22243,-0.22631,-0.21785,-0.20606,-0.20402,-0.20088,-0.1997,-0.19685,-0.20339,-0.18003,-0.19428,-0.17977,-0.17834,-0.18867,-0.17876,-0.17991,-0.18693,-0.1807,-0.17403,-0.18749,-0.18733,-0.18206,-0.1792,-0.19655,-0.17655,-0.16314,-0.18258,-0.16145,-0.157,-0.15812,-0.18238,-0.16398,-0.16782,-0.16646,-0.15452,-0.14724,-0.14303,-0.14436,-0.12802,-0.12792,-0.14126,-0.13274,-0.11454,-0.10698,-0.1185,-0.13421,-0.11374,-0.094851,-0.092441,-0.067164,-0.065636,-0.067923,-0.064902,-0.057489,-0.050295,-0.041256,-0.049315,-0.040294,-0.029689,-0.023495,-0.017311,-0.008423,-0.0092245,-0.0061955,-0.0014989,-0.0059501,-0.016103,-0.018052,0.0012611,0.0094735,0.014886,0.027037,0.040474,0.046306,0.047153,0.061935,0.067468,0.061364,0.082038,0.079683,0.097553,0.087843,0.10647,0.11379,0.12119,0.13212,0.13863,0.14647,0.1498,0.16141,0.16966,0.17282,0.19396,0.18765,0.20805,0.2185,0.23747,0.24335,0.25415,0.27689,0.27403,0.28781,0.28943,0.28965,0.2989,0.29292,0.29884,0.29363,0.30013,0.2963,0.29476,0.30478,0.2999,0.30587,0.30613,0.30372,0.31037,0.29508,0.29245,0.28501,0.29355
