n_hidden,Tini,Q_x_y,Q_z,Q_yaw,R_thrust,R_roll_pitch,R_yaw,P_x_y,P_xy_ang,P_z,P_roll_pitch,P_yaw,svd_weighing,svd_cutoff,lambda1_g,lambda2_g,lambda1_s,lambda2_s,solve_time,input_cost,output_cost,opt_input_cost,opt_output_cost,opt_cost_lambda1_g,opt_cost_lambda2_g,opt_cost_lambda1_s,opt_cost_lambda2_s
0,6,40,40,10,160,4,1,657.21,317.06,355.26,629.6,84.215,0,0,0,10,0,1e+05,0.034902,1689.9,1.9692e+05,82979,1.826e+06,0,9.1723e+08,0,2.6374e+10
0,6,40,40,10,160,4,1,657.21,317.06,355.26,629.6,84.215,0,0,0,10,0,2e+05,0.032896,1289.6,44614,69870,1.3547e+06,0,3.8177e+08,0,5.5561e+09
0,6,40,40,10,160,4,1,657.21,317.06,355.26,629.6,84.215,0,0,0,10,0,4e+05,0.0045213,3.3325,303.74,-4501.8,-2.0954e+05,0,-1.3452e+06,0,13759
0,6,40,40,10,160,4,1,657.21,317.06,355.26,629.6,84.215,0,0,0,10,0,6e+05,0.0045672,6.059,83.577,-15829,-2.7254e+05,0,-1.3547e+06,0,4312.5
0,6,40,40,10,160,4,1,657.21,317.06,355.26,629.6,84.215,0,0,0,10,0,8e+05,0.0046003,9.1439,57.989,-17106,-2.7976e+05,0,-1.3557e+06,0,3838.8
0,6,40,40,10,160,4,1,657.21,317.06,355.26,629.6,84.215,0,0,0,10,0,1e+06,0.0045866,12.156,50.112,-17479,-2.8188e+05,0,-1.3559e+06,0,4074.7
0,6,40,40,10,160,4,1,657.21,317.06,355.26,629.6,84.215,0,0,0,10,0,2e+06,0.0046058,23.5,41.703,-17806,-2.8395e+05,0,-1.3554e+06,0,6153.4
0,6,40,40,10,160,4,1,657.21,317.06,355.26,629.6,84.215,0,0,0,10,0,4e+06,0.0045869,33.506,39.892,-17798,-2.8429e+05,0,-1.3538e+06,0,9526.4
0,6,40,40,10,160,4,1,657.21,317.06,355.26,629.6,84.215,0,0,0,10,0,6e+06,0.0044331,37.284,39.903,-17725,-2.8425e+05,0,-1.3519e+06,0,11731
0,6,40,40,10,160,4,1,657.21,317.06,355.26,629.6,84.215,0,0,0,10,0,8e+06,0.0044789,39.119,40.258,-17639,-2.8414e+05,0,-1.3499e+06,0,13173
0,6,40,40,10,160,4,1,657.21,317.06,355.26,629.6,84.215,0,0,0,10,0,1e+07,0.0044354,39.973,40.719,-17549,-2.8402e+05,0,-1.3479e+06,0,14116
0,6,40,40,10,160,4,1,657.21,317.06,355.26,629.6,84.215,0,0,0,10,0,2e+07,0.0044368,40.399,43.155,-17114,-2.8342e+05,0,-1.3393e+06,0,15439
0,6,40,40,10,160,4,1,657.21,317.06,355.26,629.6,84.215,0,0,0,10,0,4e+07,0.0044853,38.948,46.694,-16454,-2.8255e+05,0,-1.3281e+06,0,14010
0,6,40,40,10,160,4,1,657.21,317.06,355.26,629.6,84.215,0,0,0,10,0,6e+07,0.0044586,37.793,49.002,-16005,-2.8197e+05,0,-1.3214e+06,0,12260
0,6,40,40,10,160,4,1,657.21,317.06,355.26,629.6,84.215,0,0,0,10,0,8e+07,0.0044617,37.015,50.65,-15679,-2.8154e+05,0,-1.3169e+06,0,10828
0,6,40,40,10,160,4,1,657.21,317.06,355.26,629.6,84.215,0,0,0,10,0,1e+08,0.0044225,36.435,51.902,-15430,-2.8121e+05,0,-1.3137e+06,0,9684.7
0,6,40,40,10,160,4,1,657.21,317.06,355.26,629.6,84.215,0,0,0,20,0,1e+05,0.044277,1732.1,1.806e+05,86882,1.8877e+06,0,5.5512e+08,0,2.4924e+10
0,6,40,40,10,160,4,1,657.21,317.06,355.26,629.6,84.215,0,0,0,20,0,2e+05,0.037084,1376.7,53688,75912,1.4842e+06,0,3.3149e+08,0,7.9399e+09
0,6,40,40,10,160,4,1,657.21,317.06,355.26,629.6,84.215,0,0,0,20,0,4e+05,0.0045353,5.5446,538.21,11169,-1.3634e+05,0,-2.6791e+06,0,31486
0,6,40,40,10,160,4,1,657.21,317.06,355.26,629.6,84.215,0,0,0,20,0,6e+05,0.0046471,8.0941,121.37,-13191,-2.5898e+05,0,-2.709e+06,0,7175.6
0,6,40,40,10,160,4,1,657.21,317.06,355.26,629.6,84.215,0,0,0,20,0,8e+05,0.0045952,11.164,71.669,-16042,-2.7378e+05,0,-2.7128e+06,0,5093.2
0,6,40,40,10,160,4,1,657.21,317.06,355.26,629.6,84.215,0,0,0,20,0,1e+06,0.0046345,14.246,57.085,-16841,-2.7805e+05,0,-2.7137e+06,0,4942.7
0,6,40,40,10,160,4,1,657.21,317.06,355.26,629.6,84.215,0,0,0,20,0,2e+06,0.0046449,26.736,42.502,-17534,-2.8206e+05,0,-2.7142e+06,0,7057.9
0,6,40,40,10,160,4,1,657.21,317.06,355.26,629.6,84.215,0,0,0,20,0,4e+06,0.0046159,38.981,39.221,-17564,-2.8282e+05,0,-2.7131e+06,0,11690
0,6,40,40,10,160,4,1,657.21,317.06,355.26,629.6,84.215,0,0,0,20,0,6e+06,0.004586,44.123,38.796,-17467,-2.8289e+05,0,-2.7117e+06,0,15430
0,6,40,40,10,160,4,1,657.21,317.06,355.26,629.6,84.215,0,0,0,20,0,8e+06,0.0044439,46.359,38.919,-17337,-2.8284e+05,0,-2.71e+06,0,18397
0,6,40,40,10,160,4,1,657.21,317.06,355.26,629.6,84.215,0,0,0,20,0,1e+07,0.0044911,47.56,39.238,-17188,-2.8276e+05,0,-2.7082e+06,0,20754
0,6,40,40,10,160,4,1,657.21,317.06,355.26,629.6,84.215,0,0,0,20,0,2e+07,0.0044627,47.979,41.622,-16351,-2.8218e+05,0,-2.6986e+06,0,27050
0,6,40,40,10,160,4,1,657.21,317.06,355.26,629.6,84.215,0,0,0,20,0,4e+07,0.0044658,45.088,46.274,-14778,-2.8106e+05,0,-2.6821e+06,0,29134
0,6,40,40,10,160,4,1,657.21,317.06,355.26,629.6,84.215,0,0,0,20,0,6e+07,0.0044681,42.955,49.835,-13535,-2.802e+05,0,-2.6701e+06,0,27807
0,6,40,40,10,160,4,1,657.21,317.06,355.26,629.6,84.215,0,0,0,20,0,8e+07,0.0044613,41.493,52.573,-12564,-2.7952e+05,0,-2.6612e+06,0,25919
0,6,40,40,10,160,4,1,657.21,317.06,355.26,629.6,84.215,0,0,0,20,0,1e+08,0.0044777,40.292,54.774,-11779,-2.7897e+05,0,-2.6543e+06,0,24066
0,6,40,40,10,160,4,1,657.21,317.06,355.26,629.6,84.215,0,0,0,40,0,1e+05,0.044209,1771.9,2.0094e+05,90609,2.0161e+06,0,4.4432e+08,0,2.8285e+10
0,6,40,40,10,160,4,1,657.21,317.06,355.26,629.6,84.215,0,0,0,40,0,2e+05,0.036041,1456.7,62386,81926,1.592e+06,0,3.3355e+08,0,1.0744e+10
0,6,40,40,10,160,4,1,657.21,317.06,355.26,629.6,84.215,0,0,0,40,0,4e+05,0.0077104,120.13,1042.6,35413,66141,0,-5.2813e+06,0,1.2024e+05
0,6,40,40,10,160,4,1,657.21,317.06,355.26,629.6,84.215,0,0,0,40,0,6e+05,0.0045903,13.24,193.53,-7300.4,-2.335e+05,0,-5.4118e+06,0,14719
0,6,40,40,10,160,4,1,657.21,317.06,355.26,629.6,84.215,0,0,0,40,0,8e+05,0.0045772,16.121,98.178,-13744,-2.6273e+05,0,-5.4249e+06,0,8032.7
0,6,40,40,10,160,4,1,657.21,317.06,355.26,629.6,84.215,0,0,0,40,0,1e+06,0.0046063,19.022,70.933,-15484,-2.7117e+05,0,-5.4287e+06,0,6664.6
0,6,40,40,10,160,4,1,657.21,317.06,355.26,629.6,84.215,0,0,0,40,0,2e+06,0.0046045,31.806,45.139,-16952,-2.7889e+05,0,-5.4317e+06,0,7942.1
0,6,40,40,10,160,4,1,657.21,317.06,355.26,629.6,84.215,0,0,0,40,0,4e+06,0.0045907,46.164,39.373,-17095,-2.804e+05,0,-5.4316e+06,0,13246
0,6,40,40,10,160,4,1,657.21,317.06,355.26,629.6,84.215,0,0,0,40,0,6e+06,0.004599,52.848,38.246,-16996,-2.8066e+05,0,-5.4307e+06,0,18183
0,6,40,40,10,160,4,1,657.21,317.06,355.26,629.6,84.215,0,0,0,40,0,8e+06,0.004619,56.255,37.976,-16846,-2.8072e+05,0,-5.4296e+06,0,22558
0,6,40,40,10,160,4,1,657.21,317.06,355.26,629.6,84.215,0,0,0,40,0,1e+07,0.0046191,57.43,38.046,-16667,-2.8071e+05,0,-5.4283e+06,0,26412
0,6,40,40,10,160,4,1,657.21,317.06,355.26,629.6,84.215,0,0,0,40,0,2e+07,0.0044665,58.021,39.712,-15524,-2.8032e+05,0,-5.42e+06,0,39832
0,6,40,40,10,160,4,1,657.21,317.06,355.26,629.6,84.215,0,0,0,40,0,4e+07,0.0044735,53.593,44.576,-12889,-2.7916e+05,0,-5.4014e+06,0,51016
0,6,40,40,10,160,4,1,657.21,317.06,355.26,629.6,84.215,0,0,0,40,0,6e+07,0.0044887,50.258,49.155,-10447,-2.7804e+05,0,-5.3845e+06,0,53875
0,6,40,40,10,160,4,1,657.21,317.06,355.26,629.6,84.215,0,0,0,40,0,8e+07,0.0044405,48.055,53.196,-8434.3,-2.7704e+05,0,-5.3703e+06,0,53783
0,6,40,40,10,160,4,1,657.21,317.06,355.26,629.6,84.215,0,0,0,40,0,1e+08,0.004494,46.438,56.788,-6838.7,-2.7613e+05,0,-5.3581e+06,0,52565
0,6,40,40,10,160,4,1,657.21,317.06,355.26,629.6,84.215,0,0,0,60,0,1e+05,0.045674,1794.7,2.0289e+05,92591,2.0296e+06,0,4.5209e+08,0,2.8656e+10
0,6,40,40,10,160,4,1,657.21,317.06,355.26,629.6,84.215,0,0,0,60,0,2e+05,0.045195,1501.4,59017,85265,1.5822e+06,0,3.8944e+08,0,9.9325e+09
0,6,40,40,10,160,4,1,657.21,317.06,355.26,629.6,84.215,0,0,0,60,0,4e+05,0.015876,451.82,2330.8,48992,3.6529e+05,0,-5.4063e+06,0,5.9917e+07
0,6,40,40,10,160,4,1,657.21,317.06,355.26,629.6,84.215,0,0,0,60,0,6e+05,0.0046099,19.013,250.04,-1532.6,-2.1353e+05,0,-8.1102e+06,0,23014
0,6,40,40,10,160,4,1,657.21,317.06,355.26,629.6,84.215,0,0,0,60,0,8e+05,0.0045838,21.71,118.73,-11540,-2.5404e+05,0,-8.1357e+06,0,11185
0,6,40,40,10,160,4,1,657.21,317.06,355.26,629.6,84.215,0,0,0,60,0,1e+06,0.0046242,24.354,81.514,-14206,-2.6584e+05,0,-8.143e+06,0,8405
0,6,40,40,10,160,4,1,657.21,317.06,355.26,629.6,84.215,0,0,0,60,0,2e+06,0.0045871,36.856,47.244,-16416,-2.7651e+05,0,-8.1492e+06,0,8563.1
0,6,40,40,10,160,4,1,657.21,317.06,355.26,629.6,84.215,0,0,0,60,0,4e+06,0.0045948,52.581,39.72,-16672,-2.7858e+05,0,-8.1499e+06,0,13960
0,6,40,40,10,160,4,1,657.21,317.06,355.26,629.6,84.215,0,0,0,60,0,6e+06,0.004588,60.378,38.13,-16588,-2.7897e+05,0,-8.1494e+06,0,19366
0,6,40,40,10,160,4,1,657.21,317.06,355.26,629.6,84.215,0,0,0,60,0,8e+06,0.0046349,64.051,37.611,-16443,-2.791e+05,0,-8.1486e+06,0,24374
0,6,40,40,10,160,4,1,657.21,317.06,355.26,629.6,84.215,0,0,0,60,0,1e+07,0.0046338,65.616,37.482,-16265,-2.7914e+05,0,-8.1476e+06,0,28963
0,6,40,40,10,160,4,1,657.21,317.06,355.26,629.6,84.215,0,0,0,60,0,2e+07,0.0044492,66.715,38.517,-15073,-2.7893e+05,0,-8.1407e+06,0,46624
0,6,40,40,10,160,4,1,657.21,317.06,355.26,629.6,84.215,0,0,0,60,0,4e+07,0.0044981,62.823,42.818,-12034,-2.7794e+05,0,-8.1229e+06,0,65408
0,6,40,40,10,160,4,1,657.21,317.06,355.26,629.6,84.215,0,0,0,60,0,6e+07,0.0045171,59.108,47.542,-8936.8,-2.7679e+05,0,-8.1047e+06,0,73335
0,6,40,40,10,160,4,1,657.21,317.06,355.26,629.6,84.215,0,0,0,60,0,8e+07,0.0044656,56.139,52.219,-6352.5,-2.7559e+05,0,-8.0879e+06,0,76554
0,6,40,40,10,160,4,1,657.21,317.06,355.26,629.6,84.215,0,0,0,60,0,1e+08,0.0044753,54.198,56.629,-4145.5,-2.7445e+05,0,-8.0727e+06,0,77398
0,6,40,40,10,160,4,1,657.21,317.06,355.26,629.6,84.215,0,0,0,80,0,1e+05,0.051095,1809.9,1.9689e+05,93862,1.7971e+06,0,5.3666e+08,0,2.7774e+10
0,6,40,40,10,160,4,1,657.21,317.06,355.26,629.6,84.215,0,0,0,80,0,2e+05,0.058334,1537.5,67897,87463,1.6533e+06,0,5.0245e+08,0,1.2061e+10
0,6,40,40,10,160,4,1,657.21,317.06,355.26,629.6,84.215,0,0,0,80,0,4e+05,0.035098,623.78,4336.6,56649,6.487e+05,0,6.4994e+06,0,2.5273e+08
0,6,40,40,10,160,4,1,657.21,317.06,355.26,629.6,84.215,0,0,0,80,0,6e+05,0.0046275,24.915,293.85,3805.2,-1.9798e+05,0,-1.0807e+07,0,31185
0,6,40,40,10,160,4,1,657.21,317.06,355.26,629.6,84.215,0,0,0,80,0,8e+05,0.0046391,27.466,134.48,-9518.1,-2.4724e+05,0,-1.0846e+07,0,14302
0,6,40,40,10,160,4,1,657.21,317.06,355.26,629.6,84.215,0,0,0,80,0,1e+06,0.0046525,29.835,89.49,-13050,-2.6168e+05,0,-1.0857e+07,0,10096
0,6,40,40,10,160,4,1,657.21,317.06,355.26,629.6,84.215,0,0,0,80,0,2e+06,0.0046391,41.843,48.805,-15949,-2.7466e+05,0,-1.0867e+07,0,9091.7
0,6,40,40,10,160,4,1,657.21,317.06,355.26,629.6,84.215,0,0,0,80,0,4e+06,0.0046613,58.534,40.038,-16312,-2.7714e+05,0,-1.0868e+07,0,14427
0,6,40,40,10,160,4,1,657.21,317.06,355.26,629.6,84.215,0,0,0,80,0,6e+06,0.0046255,67.384,38.119,-16246,-2.7762e+05,0,-1.0868e+07,0,20064
0,6,40,40,10,160,4,1,657.21,317.06,355.26,629.6,84.215,0,0,0,80,0,8e+06,0.0046267,70.93,37.463,-16120,-2.7779e+05,0,-1.0867e+07,0,25427
0,6,40,40,10,160,4,1,657.21,317.06,355.26,629.6,84.215,0,0,0,80,0,1e+07,0.0045813,73.465,37.141,-15942,-2.7788e+05,0,-1.0867e+07,0,30447
0,6,40,40,10,160,4,1,657.21,317.06,355.26,629.6,84.215,0,0,0,80,0,2e+07,0.0044254,75.435,37.678,-14780,-2.7782e+05,0,-1.0861e+07,0,50873
0,6,40,40,10,160,4,1,657.21,317.06,355.26,629.6,84.215,0,0,0,80,0,4e+07,0.0044633,71.596,41.4,-11630,-2.7701e+05,0,-1.0844e+07,0,75538
0,6,40,40,10,160,4,1,657.21,317.06,355.26,629.6,84.215,0,0,0,80,0,6e+07,0.0044776,68.308,45.947,-8230.2,-2.7591e+05,0,-1.0826e+07,0,88212
0,6,40,40,10,160,4,1,657.21,317.06,355.26,629.6,84.215,0,0,0,80,0,8e+07,0.0044406,65.156,50.856,-5232.5,-2.7465e+05,0,-1.0808e+07,0,94950
0,6,40,40,10,160,4,1,657.21,317.06,355.26,629.6,84.215,0,0,0,80,0,1e+08,0.0045127,62.921,55.777,-2569.6,-2.7335e+05,0,-1.0791e+07,0,98344
0,6,40,40,10,160,4,1,657.21,317.06,355.26,629.6,84.215,0,0,0,100,0,1e+05,0.04182,1822.1,1.8953e+05,94561,1.8112e+06,0,6.2756e+08,0,2.6437e+10
0,6,40,40,10,160,4,1,657.21,317.06,355.26,629.6,84.215,0,0,0,100,0,2e+05,0.051985,1567.1,78017,88834,1.7524e+06,0,6.3181e+08,0,1.4549e+10
0,6,40,40,10,160,4,1,657.21,317.06,355.26,629.6,84.215,0,0,0,100,0,4e+05,0.034045,736.35,6587.8,61852,8.2037e+05,0,3.2454e+07,0,5.5095e+08
0,6,40,40,10,160,4,1,657.21,317.06,355.26,629.6,84.215,0,0,0,100,0,6e+05,0.004771,30.741,329.02,8659.8,-1.8544e+05,0,-1.3502e+07,0,38911
0,6,40,40,10,160,4,1,657.21,317.06,355.26,629.6,84.215,0,0,0,100,0,8e+05,0.0047473,33.176,147.04,-7675.7,-2.4169e+05,0,-1.3555e+07,0,17299
0,6,40,40,10,160,4,1,657.21,317.06,355.26,629.6,84.215,0,0,0,100,0,1e+06,0.004638,35.302,95.746,-12006,-2.583e+05,0,-1.3571e+07,0,11712
0,6,40,40,10,160,4,1,657.21,317.06,355.26,629.6,84.215,0,0,0,100,0,2e+06,0.0045958,46.539,50.048,-15543,-2.7315e+05,0,-1.3584e+07,0,9570.8
0,6,40,40,10,160,4,1,657.21,317.06,355.26,629.6,84.215,0,0,0,100,0,4e+06,0.0046299,63.826,40.36,-16010,-2.7595e+05,0,-1.3586e+07,0,14785
0,6,40,40,10,160,4,1,657.21,317.06,355.26,629.6,84.215,0,0,0,100,0,6e+06,0.0045921,73.825,38.179,-15956,-2.765e+05,0,-1.3586e+07,0,20550
0,6,40,40,10,160,4,1,657.21,317.06,355.26,629.6,84.215,0,0,0,100,0,8e+06,0.0046309,78.235,37.341,-15834,-2.7671e+05,0,-1.3586e+07,0,26136
0,6,40,40,10,160,4,1,657.21,317.06,355.26,629.6,84.215,0,0,0,100,0,1e+07,0.0046801,80.391,36.965,-15677,-2.7682e+05,0,-1.3585e+07,0,31440
0,6,40,40,10,160,4,1,657.21,317.06,355.26,629.6,84.215,0,0,0,100,0,2e+07,0.0045887,83.158,37.144,-14560,-2.7689e+05,0,-1.358e+07,0,53805
0,6,40,40,10,160,4,1,657.21,317.06,355.26,629.6,84.215,0,0,0,100,0,4e+07,0.0044558,80.508,40.267,-11435,-2.7625e+05,0,-1.3565e+07,0,83093
0,6,40,40,10,160,4,1,657.21,317.06,355.26,629.6,84.215,0,0,0,100,0,6e+07,0.0044758,77.122,44.57,-7894.3,-2.7522e+05,0,-1.3547e+07,0,99912
0,6,40,40,10,160,4,1,657.21,317.06,355.26,629.6,84.215,0,0,0,100,0,8e+07,0.0045001,74.587,49.479,-4628.9,-2.7395e+05,0,-1.3529e+07,0,1.1003e+05
0,6,40,40,10,160,4,1,657.21,317.06,355.26,629.6,84.215,0,0,0,100,0,1e+08,0.0044555,72.111,54.701,-1657.2,-2.7256e+05,0,-1.3511e+07,0,1.1609e+05
0,6,40,40,10,160,4,1,657.21,317.06,355.26,629.6,84.215,0,0,0,200,0,1e+05,0.052928,1837.5,1.8169e+05,95959,1.8298e+06,0,9.5045e+08,0,2.5017e+10
0,6,40,40,10,160,4,1,657.21,317.06,355.26,629.6,84.215,0,0,0,200,0,2e+05,0.062276,1628.8,95719,91716,1.8495e+06,0,1.2156e+09,0,1.8664e+10
0,6,40,40,10,160,4,1,657.21,317.06,355.26,629.6,84.215,0,0,0,200,0,4e+05,0.046002,1034.8,12903,74740,1.1791e+06,0,1.2676e+08,0,1.6883e+09
0,6,40,40,10,160,4,1,657.21,317.06,355.26,629.6,84.215,0,0,0,200,0,6e+05,0.0047954,54.576,475.62,26915,-1.3234e+05,0,-2.6975e+07,0,73628
0,6,40,40,10,160,4,1,657.21,317.06,355.26,629.6,84.215,0,0,0,200,0,8e+05,0.0047545,59.352,191.09,-366.23,-2.2224e+05,0,-2.7103e+07,0,30259
0,6,40,40,10,160,4,1,657.21,317.06,355.26,629.6,84.215,0,0,0,200,0,1e+06,0.0047737,60.515,117.16,-7899.4,-2.4662e+05,0,-2.7139e+07,0,18804
0,6,40,40,10,160,4,1,657.21,317.06,355.26,629.6,84.215,0,0,0,200,0,2e+06,0.0047846,66.781,54.445,-14059,-2.68e+05,0,-2.7171e+07,0,11598
0,6,40,40,10,160,4,1,657.21,317.06,355.26,629.6,84.215,0,0,0,200,0,4e+06,0.0047198,85.434,42.106,-14953,-2.7174e+05,0,-2.7177e+07,0,16027
0,6,40,40,10,160,4,1,657.21,317.06,355.26,629.6,84.215,0,0,0,200,0,6e+06,0.0045779,96.194,39.345,-14976,-2.7246e+05,0,-2.7178e+07,0,21947
0,6,40,40,10,160,4,1,657.21,317.06,355.26,629.6,84.215,0,0,0,200,0,8e+06,0.0046474,101.83,38.15,-14901,-2.7277e+05,0,-2.7178e+07,0,27972
0,6,40,40,10,160,4,1,657.21,317.06,355.26,629.6,84.215,0,0,0,200,0,1e+07,0.004658,106.2,37.479,-14772,-2.7295e+05,0,-2.7178e+07,0,33898
0,6,40,40,10,160,4,1,657.21,317.06,355.26,629.6,84.215,0,0,0,200,0,2e+07,0.0045996,116.68,36.466,-13930,-2.7336e+05,0,-2.7175e+07,0,61051
0,6,40,40,10,160,4,1,657.21,317.06,355.26,629.6,84.215,0,0,0,200,0,4e+07,0.0045821,117.15,37.747,-11309,-2.7331e+05,0,-2.7164e+07,0,1.0369e+05
0,6,40,40,10,160,4,1,657.21,317.06,355.26,629.6,84.215,0,0,0,200,0,6e+07,0.0044779,112.92,40.726,-8028.6,-2.7271e+05,0,-2.7149e+07,0,1.3457e+05
0,6,40,40,10,160,4,1,657.21,317.06,355.26,629.6,84.215,0,0,0,200,0,8e+07,0.0044232,110.12,44.776,-4491.9,-2.7169e+05,0,-2.7132e+07,0,1.5747e+05
0,6,40,40,10,160,4,1,657.21,317.06,355.26,629.6,84.215,0,0,0,200,0,1e+08,0.0044966,107.39,49.87,-989.51,-2.7031e+05,0,-2.7114e+07,0,1.7491e+05
0,6,40,40,10,160,4,1,657.21,317.06,355.26,629.6,84.215,0,0,0,400,0,1e+05,0.055214,1808.6,1.4636e+05,95645,1.9414e+06,0,1.2559e+09,0,1.8284e+10
0,6,40,40,10,160,4,1,657.21,317.06,355.26,629.6,84.215,0,0,0,400,0,2e+05,0.050714,1615.3,97977,92695,1.9181e+06,0,1.5924e+09,0,2.0048e+10
0,6,40,40,10,160,4,1,657.21,317.06,355.26,629.6,84.215,0,0,0,400,0,4e+05,0.068521,1217.9,24812,81357,1.4332e+06,0,3.4212e+08,0,5.3228e+09
0,6,40,40,10,160,4,1,657.21,317.06,355.26,629.6,84.215,0,0,0,400,0,6e+05,0.032895,624.05,1571.8,51045,1.4727e+05,0,-5.2423e+07,0,6.1105e+07
0,6,40,40,10,160,4,1,657.21,317.06,355.26,629.6,84.215,0,0,0,400,0,8e+05,0.0048163,101.71,275.76,9356.7,-1.9058e+05,0,-5.4189e+07,0,50565
0,6,40,40,10,160,4,1,657.21,317.06,355.26,629.6,84.215,0,0,0,400,0,1e+06,0.0047779,103.83,157.47,-2191.8,-2.2864e+05,0,-5.427e+07,0,30633
0,6,40,40,10,160,4,1,657.21,317.06,355.26,629.6,84.215,0,0,0,400,0,2e+06,0.0047945,97.5,62.21,-12175,-2.6136e+05,0,-5.4343e+07,0,15109
0,6,40,40,10,160,4,1,657.21,317.06,355.26,629.6,84.215,0,0,0,400,0,4e+06,0.0048218,109.74,46.294,-13755,-2.6643e+05,0,-5.4356e+07,0,17931
0,6,40,40,10,160,4,1,657.21,317.06,355.26,629.6,84.215,0,0,0,400,0,6e+06,0.0047712,125.28,43.077,-13868,-2.6721e+05,0,-5.4358e+07,0,23675
0,6,40,40,10,160,4,1,657.21,317.06,355.26,629.6,84.215,0,0,0,400,0,8e+06,0.0048021,135,41.633,-13827,-2.6755e+05,0,-5.4358e+07,0,29836
0,6,40,40,10,160,4,1,657.21,317.06,355.26,629.6,84.215,0,0,0,400,0,1e+07,0.0047656,144.38,40.771,-13707,-2.6774e+05,0,-5.4359e+07,0,36068
0,6,40,40,10,160,4,1,657.21,317.06,355.26,629.6,84.215,0,0,0,400,0,2e+07,0.0046445,163.62,39.047,-13094,-2.6824e+05,0,-5.4357e+07,0,66285
0,6,40,40,10,160,4,1,657.21,317.06,355.26,629.6,84.215,0,0,0,400,0,4e+07,0.0046792,171.79,38.728,-11349,-2.6863e+05,0,-5.435e+07,0,1.1938e+05
0,6,40,40,10,160,4,1,657.21,317.06,355.26,629.6,84.215,0,0,0,400,0,6e+07,0.0045319,171.04,39.946,-8987.8,-2.686e+05,0,-5.434e+07,0,1.6351e+05
0,6,40,40,10,160,4,1,657.21,317.06,355.26,629.6,84.215,0,0,0,400,0,8e+07,0.0045067,169.97,42.27,-6149.6,-2.6815e+05,0,-5.4326e+07,0,2.0036e+05
0,6,40,40,10,160,4,1,657.21,317.06,355.26,629.6,84.215,0,0,0,400,0,1e+08,0.0044881,169.77,45.542,-3055.2,-2.6732e+05,0,-5.431e+07,0,2.3147e+05
0,6,40,40,10,160,4,1,657.21,317.06,355.26,629.6,84.215,0,0,0,600,0,1e+05,0.064249,1779.5,1.4502e+05,94577,1.9087e+06,0,1.0243e+09,0,1.8583e+10
0,6,40,40,10,160,4,1,657.21,317.06,355.26,629.6,84.215,0,0,0,600,0,2e+05,0.068508,1596.4,83797,91962,1.9432e+06,0,1.1615e+09,0,1.6815e+10
0,6,40,40,10,160,4,1,657.21,317.06,355.26,629.6,84.215,0,0,0,600,0,4e+05,0.069123,1280.6,29889,82856,1.4746e+06,0,4.0105e+08,0,7.3426e+09
0,6,40,40,10,160,4,1,657.21,317.06,355.26,629.6,84.215,0,0,0,600,0,6e+05,0.047618,909.92,3530.1,60485,3.5162e+05,0,-7.3967e+07,0,2.3825e+08
0,6,40,40,10,160,4,1,657.21,317.06,355.26,629.6,84.215,0,0,0,600,0,8e+05,0.0051511,124.52,400.12,16490,-1.5131e+05,0,-8.1241e+07,0,70506
0,6,40,40,10,160,4,1,657.21,317.06,355.26,629.6,84.215,0,0,0,600,0,1e+06,0.0050713,141.34,210.09,2121.5,-2.0974e+05,0,-8.1386e+07,0,41985
0,6,40,40,10,160,4,1,657.21,317.06,355.26,629.6,84.215,0,0,0,600,0,2e+06,0.0050686,123.96,71.02,-10771,-2.5597e+05,0,-8.1511e+07,0,18679
0,6,40,40,10,160,4,1,657.21,317.06,355.26,629.6,84.215,0,0,0,600,0,4e+06,0.0049418,124.36,50.479,-13006,-2.6264e+05,0,-8.1533e+07,0,19749
0,6,40,40,10,160,4,1,657.21,317.06,355.26,629.6,84.215,0,0,0,600,0,6e+06,0.0047919,142.06,46.938,-13150,-2.6348e+05,0,-8.1536e+07,0,25191
0,6,40,40,10,160,4,1,657.21,317.06,355.26,629.6,84.215,0,0,0,600,0,8e+06,0.0069033,157.19,45.414,-13064,-2.6377e+05,0,-8.1536e+07,0,31317
0,6,40,40,10,160,4,1,657.21,317.06,355.26,629.6,84.215,0,0,0,600,0,1e+07,0.0047092,170.22,44.516,-12956,-2.6393e+05,0,-8.1537e+07,0,37615
0,6,40,40,10,160,4,1,657.21,317.06,355.26,629.6,84.215,0,0,0,600,0,2e+07,0.0046785,194.26,42.72,-12432,-2.6428e+05,0,-8.1536e+07,0,68911
0,6,40,40,10,160,4,1,657.21,317.06,355.26,629.6,84.215,0,0,0,600,0,4e+07,0.0046574,210.74,41.815,-11099,-2.6471e+05,0,-8.153e+07,0,1.2659e+05
0,6,40,40,10,160,4,1,657.21,317.06,355.26,629.6,84.215,0,0,0,600,0,6e+07,0.0044594,213.2,42.214,-9357.6,-2.6485e+05,0,-8.1522e+07,0,1.7721e+05
0,6,40,40,10,160,4,1,657.21,317.06,355.26,629.6,84.215,0,0,0,600,0,8e+07,0.0045244,213.4,43.497,-7194.2,-2.6473e+05,0,-8.1511e+07,0,2.2163e+05
0,6,40,40,10,160,4,1,657.21,317.06,355.26,629.6,84.215,0,0,0,600,0,1e+08,0.0044626,214.55,45.574,-4714.6,-2.6428e+05,0,-8.1497e+07,0,2.608e+05
0,6,40,40,10,160,4,1,657.21,317.06,355.26,629.6,84.215,0,0,0,800,0,1e+05,0.072119,1754.9,1.5392e+05,93377,1.8189e+06,0,1.1072e+09,0,2.0533e+10
0,6,40,40,10,160,4,1,657.21,317.06,355.26,629.6,84.215,0,0,0,800,0,2e+05,0.069889,1571.9,68940,90553,1.889e+06,0,7.8589e+08,0,1.2848e+10
0,6,40,40,10,160,4,1,657.21,317.06,355.26,629.6,84.215,0,0,0,800,0,4e+05,0.070392,1302.9,29948,83250,1.4538e+06,0,3.5779e+08,0,7.3502e+09
0,6,40,40,10,160,4,1,657.21,317.06,355.26,629.6,84.215,0,0,0,800,0,6e+05,0.071238,1033.2,5716.1,64878,5.9811e+05,0,-8.4054e+07,0,6.1972e+08
0,6,40,40,10,160,4,1,657.21,317.06,355.26,629.6,84.215,0,0,0,800,0,8e+05,0.0064609,123.76,592.62,22670,-94574,0,-1.0823e+08,0,95176
0,6,40,40,10,160,4,1,657.21,317.06,355.26,629.6,84.215,0,0,0,800,0,1e+06,0.0051432,172.79,276.58,5752.7,-1.8827e+05,0,-1.0848e+08,0,54203
0,6,40,40,10,160,4,1,657.21,317.06,355.26,629.6,84.215,0,0,0,800,0,2e+06,0.0051593,150.68,81.415,-9484.1,-2.5083e+05,0,-1.0867e+08,0,22634
0,6,40,40,10,160,4,1,657.21,317.06,355.26,629.6,84.215,0,0,0,800,0,4e+06,0.0050793,134.06,54.284,-12480,-2.5971e+05,0,-1.0871e+08,0,21652
0,6,40,40,10,160,4,1,657.21,317.06,355.26,629.6,84.215,0,0,0,800,0,6e+06,0.0048952,152.54,50.298,-12648,-2.6065e+05,0,-1.0871e+08,0,26733
0,6,40,40,10,160,4,1,657.21,317.06,355.26,629.6,84.215,0,0,0,800,0,8e+06,0.0049424,171.57,48.718,-12535,-2.609e+05,0,-1.0871e+08,0,32763
0,6,40,40,10,160,4,1,657.21,317.06,355.26,629.6,84.215,0,0,0,800,0,1e+07,0.0047562,186.98,47.857,-12388,-2.61e+05,0,-1.0871e+08,0,39055
0,6,40,40,10,160,4,1,657.21,317.06,355.26,629.6,84.215,0,0,0,800,0,2e+07,0.0048343,218.85,46.231,-11854,-2.6111e+05,0,-1.0871e+08,0,70842
0,6,40,40,10,160,4,1,657.21,317.06,355.26,629.6,84.215,0,0,0,800,0,4e+07,0.0046631,242.4,45.253,-10727,-2.6138e+05,0,-1.0871e+08,0,1.3114e+05
0,6,40,40,10,160,4,1,657.21,317.06,355.26,629.6,84.215,0,0,0,800,0,6e+07,0.0047126,252.39,45.15,-9313.3,-2.6163e+05,0,-1.087e+08,0,1.8576e+05
0,6,40,40,10,160,4,1,657.21,317.06,355.26,629.6,84.215,0,0,0,800,0,8e+07,0.0044437,250.01,45.732,-7694,-2.6169e+05,0,-1.0869e+08,0,2.3495e+05
0,6,40,40,10,160,4,1,657.21,317.06,355.26,629.6,84.215,0,0,0,800,0,1e+08,0.0045087,252.35,46.859,-5723.8,-2.6159e+05,0,-1.0868e+08,0,2.7953e+05
0,6,40,40,10,160,4,1,657.21,317.06,355.26,629.6,84.215,0,0,0,1000,0,1e+05,0.069712,1736.3,1.4228e+05,92453,1.7596e+06,0,9.2147e+08,0,1.8899e+10
0,6,40,40,10,160,4,1,657.21,317.06,355.26,629.6,84.215,0,0,0,1000,0,2e+05,0.076476,1529.8,59228,89311,1.7922e+06,0,6.0362e+08,0,1.0424e+10
0,6,40,40,10,160,4,1,657.21,317.06,355.26,629.6,84.215,0,0,0,1000,0,4e+05,0.077515,1325.9,29741,82872,1.4108e+06,0,3.111e+08,0,7.3386e+09
0,6,40,40,10,160,4,1,657.21,317.06,355.26,629.6,84.215,0,0,0,1000,0,6e+05,0.087251,1056.5,7900.8,67619,7.4621e+05,0,-7.7779e+07,0,1.1519e+09
0,6,40,40,10,160,4,1,657.21,317.06,355.26,629.6,84.215,0,0,0,1000,0,8e+05,0.059628,713.95,2394.1,46832,2.7988e+05,0,-1.271e+08,0,2.7761e+08
0,6,40,40,10,160,4,1,657.21,317.06,355.26,629.6,84.215,0,0,0,1000,0,1e+06,0.0051604,191.45,360.42,8997.5,-1.6281e+05,0,-1.3555e+08,0,68149
0,6,40,40,10,160,4,1,657.21,317.06,355.26,629.6,84.215,0,0,0,1000,0,2e+06,0.0050728,179.3,93.67,-8185.9,-2.4555e+05,0,-1.3583e+08,0,27133
0,6,40,40,10,160,4,1,657.21,317.06,355.26,629.6,84.215,0,0,0,1000,0,4e+06,0.0050885,141.79,57.784,-12073,-2.5732e+05,0,-1.3588e+08,0,23687
0,6,40,40,10,160,4,1,657.21,317.06,355.26,629.6,84.215,0,0,0,1000,0,6e+06,0.005026,158.72,53.141,-12296,-2.5844e+05,0,-1.3589e+08,0,28334
0,6,40,40,10,160,4,1,657.21,317.06,355.26,629.6,84.215,0,0,0,1000,0,8e+06,0.0049287,180.36,51.51,-12144,-2.5865e+05,0,-1.3589e+08,0,34247
0,6,40,40,10,160,4,1,657.21,317.06,355.26,629.6,84.215,0,0,0,1000,0,1e+07,0.0049346,198.48,50.622,-11959,-2.5874e+05,0,-1.3589e+08,0,40491
0,6,40,40,10,160,4,1,657.21,317.06,355.26,629.6,84.215,0,0,0,1000,0,2e+07,0.0047525,236.62,49.38,-11401,-2.5854e+05,0,-1.3589e+08,0,72478
0,6,40,40,10,160,4,1,657.21,317.06,355.26,629.6,84.215,0,0,0,1000,0,4e+07,0.0047355,266.41,48.446,-10382,-2.5864e+05,0,-1.3588e+08,0,1.3442e+05
0,6,40,40,10,160,4,1,657.21,317.06,355.26,629.6,84.215,0,0,0,1000,0,6e+07,0.0047299,284.26,48.113,-9125.2,-2.5886e+05,0,-1.3587e+08,0,1.9183e+05
0,6,40,40,10,160,4,1,657.21,317.06,355.26,629.6,84.215,0,0,0,1000,0,8e+07,0.0046463,284.06,48.218,-7840.4,-2.5904e+05,0,-1.3587e+08,0,2.445e+05
0,6,40,40,10,160,4,1,657.21,317.06,355.26,629.6,84.215,0,0,0,1000,0,1e+08,0.0045187,291.42,49.022,-6126.4,-2.5897e+05,0,-1.3586e+08,0,2.9317e+05
