0.30086,0.30081,0.3037,0.29946,0.30522,0.30288,0.30492,0.30161,0.30372,0.30343,0.30341,0.30298,0.30213,0.30121,0.30334,0.30223,0.30188,0.30275,0.30175,0.30159,0.3032,0.30152,0.30109,0.30143,0.30377,0.3021,0.30397,0.30341,0.3028,0.29942,0.30312,0.30098,0.2993,0.29997,0.2998,0.2977,0.30053,0.29949,0.29984,0.30291,0.2996,0.30014,0.30186,0.30054,0.29674,0.29807,0.2991,0.29602,0.29846,0.2972,0.29928,0.42848,0.43298,0.4228,0.41308,0.3889,0.36694,0.35148,0.33973,0.33111,0.32153,0.32153,0.31514,0.31031,0.30535,0.30394,0.30116,0.28893,0.29407,0.28483,0.28496,0.28021,0.28086,0.27867,0.27836,0.27896,0.27948,0.27692,0.27249,0.28048,0.27852,0.28158,0.28372,0.28868,0.28636,0.28779,0.28501,0.28573,0.28831,0.28733,0.28672,0.28622,0.28789,0.29036,0.29165,0.28892,0.29178,0.29196,0.29158,0.29468,0.29375,0.29247,0.29483,0.29506,0.29508,0.30148,0.30003,0.30199,0.30473,0.30537,0.30091,0.30496,0.30707,0.30341,0.30626,0.30352,0.30407,0.3053,0.30554,0.30777,0.30227,0.30529,0.30391,0.30492,0.30295,0.30144,0.29986,0.30305,0.30127,0.30243,0.3013,0.30379,0.30183,0.29987,0.29854,0.29976,0.29939,0.3006,0.29973,0.29999,0.29751,0.30311,0.29847,0.29859,0.30021,0.29946,0.30125,0.30035,0.30119,0.3018,0.30118,0.30188,0.30185,0.29895,0.30318,0.30088,0.30296,0.30281,0.2988,0.2995,0.30344,0.30302,0.30327,0.30368,0.30247,0.30482,0.30288,0.30159,0.30093,0.30053,0.30149,0.30425,0.30216,0.30204,0.3022,0.30071,0.30493,0.30094,0.30381,0.30266,0.3002,0.30106,0.30227,0.29997,0.30044,0.30317,0.29983,0.30128,0.2993,0.30114,0.30351,0.29928,0.30106,0.29982,0.30183,0.29953,0.29879,0.29992,0.30246,0.30085,0.30182,0.29969,0.3019,0.29764,0.29967,0.29695,0.30264,0.30107,0.29883,0.30112,0.29877,0.30243,0.30095,0.30066,0.30205,0.30031,0.30236,0.29933,0.30318,0.29859,0.30144,0.29905,0.29915,0.30053,0.3006,0.30003,0.3013,0.2999,0.29958,0.30088,0.30001,0.30006,0.30005,0.29993,0.3011,0.29989,0.29957,0.30161,0.302,0.2997,0.29832,0.29781,0.30159,0.3004,0.30069,0.30055,0.30367,0.30254,0.30324,0.3026,0.30119,0.30267,0.30058,0.3015,0.30406,0.30227,0.30195,0.30193,0.30229,0.30145,0.30299,0.3044,0.30135,0.30227,0.30399,0.3026,0.29973,0.30225
-0.013095,-0.012499,-0.013584,-0.0091285,-0.0052724,-0.013825,-0.0057549,-0.0081086,-0.011144,-0.0071108,-0.0026206,0.00049389,-6.4382e-05,-0.01144,0.0022289,0.0071121,0.0079521,0.017306,0.0051847,0.0018256,0.0057891,0.0044814,0.0077985,0.00072664,0.0079241,-0.0046457,-0.015291,-0.016368,-0.0082869,-0.020707,-0.026078,-0.025776,-0.031221,-0.020818,-0.020065,-0.029934,-0.034091,-0.033304,-0.036129,-0.034574,-0.042514,-0.029271,-0.019457,-0.012746,-0.026502,-0.027009,-0.011677,-0.0095041,-0.0049208,0.0010993,0.0037061,-0.36827,-0.29248,-0.23852,-0.18107,-0.15129,-0.1302,-0.083491,-0.035226,-0.000368,0.022452,0.047852,0.054561,0.058238,0.071023,0.072611,0.11007,0.082313,0.095971,0.08121,0.10462,0.12267,0.11974,0.11899,0.095479,0.096709,0.10646,0.11528,0.097653,0.10073,0.11952,0.11262,0.13344,0.098452,0.086934,0.051115,0.059283,0.039351,0.049567,0.02274,0.024966,0.018472,0.014566,-0.005632,-0.0052761,-0.017236,-0.016398,-0.029006,-0.037119,-0.036189,-0.041653,-0.03301,-0.031845,-0.025384,-0.046863,-0.027958,-0.039998,-0.029713,-0.03282,-0.03944,-0.020262,-0.031155,-0.032285,-0.036792,-0.035345,-0.01389,-0.038355,-0.0028297,-0.029493,-0.0018393,-0.031103,-0.0027431,-0.022626,-0.0016543,-0.0074925,0.0097447,0.0054354,0.0027165,-0.0036163,0.011286,0.006383,0.010238,0.0063931,-0.0023562,0.0047294,0.00012673,0.001666,0.012022,-0.0079956,0.0093973,-0.010172,-0.0025777,-0.0032285,0.0020348,-0.0025339,-0.0091824,-0.017181,-0.0025921,0.0024505,0.0025787,-0.0039686,-0.010329,-0.0014209,-0.011243,-0.011387,-0.0094056,-0.00244,0.0022153,0.0063895,0.0063045,-0.004469,-0.0035052,0.004718,0.0083099,0.0031309,-0.0048818,-0.0088834,-0.0052804,-4.9107e-05,0.0046076,-0.00094164,-0.0057495,0.0046584,0.003795,0.0029848,-0.008207,0.0042858,-0.0071446,-0.0063423,-0.0027843,-0.00038155,-0.0076804,-0.0039388,0.0033809,-0.0086631,-0.013294,-0.019667,-0.018239,-0.0084589,-0.024732,-0.013426,-0.020919,-0.019397,-0.032065,-0.01951,-0.033037,-0.026707,-0.032884,-0.010017,-0.017125,-0.011852,-0.030327,-0.021219,-0.032566,-0.012928,-0.01551,-0.025063,-0.0026404,-0.021643,-0.00028341,-0.015402,-0.01585,0.00077848,-0.022653,0.0048191,-0.013248,0.010289,-0.01454,8.0788e-05,0.0030138,-0.0075644,0.0054768,-0.0016345,0.018729,0.0049132,0.0073583,0.004274,0.0038405,0.0060663,0.0052512,0.017091,0.00015532,0.01247,-0.0020898,0.017237,0.0057617,0.010593,0.016245,0.0077922,0.0082136,0.012451,0.014018,0.00013984,0.022466,0.0033419,0.018399,0.007323,0.0096977,0.0081842,0.023137,-0.00077666,0.011068,0.013587,0.011042,0.01981,-0.0027971,0.0032627,-0.013709,-0.0062288,-0.0030857,-0.0023224,0.0054933,-0.0024223,-0.0068788,-0.0055133,-0.0093478,0.0040168,0.00053905
-0.049891,-0.034569,-0.0564,-0.0080181,-0.045022,-0.015113,-0.017392,-0.008512,-0.0073813,-0.0011944,0.0015054,0.0094427,0.012434,0.0085688,0.016192,-0.0038154,0.02736,0.019207,0.0031407,0.038636,-0.0014228,0.023331,0.013507,0.01619,0.025001,0.012386,0.022267,0.012151,0.025434,0.0038828,0.027753,0.0075599,0.021446,0.004786,0.012326,0.0079936,0.0064923,0.0032695,-0.0049173,-0.0087805,-0.0047334,0.0053141,-0.016114,-0.00767,-0.0042682,-0.0088111,-0.0038795,-0.0094332,-0.0041864,0.01355,-0.016452,1.1305,0.99414,0.86457,0.67131,0.56321,0.45884,0.32068,0.20952,0.056288,-0.040346,-0.13942,-0.2164,-0.31527,-0.36532,-0.43832,-0.50158,-0.49423,-0.5643,-0.54351,-0.58098,-0.5435,-0.53986,-0.51107,-0.44021,-0.43977,-0.37879,-0.32199,-0.28669,-0.23545,-0.16922,-0.12566,-0.053726,-0.02397,0.071542,0.062729,0.147,0.1931,0.19815,0.25404,0.28112,0.2697,0.32164,0.29185,0.31245,0.29842,0.30357,0.26786,0.3061,0.21217,0.25696,0.19723,0.16971,0.15874,0.11439,0.089319,0.056791,0.061078,0.015851,-0.034244,-0.0049126,-0.056042,-0.085953,-0.078664,-0.12655,-0.11021,-0.1527,-0.12536,-0.16994,-0.1594,-0.17531,-0.16791,-0.18337,-0.16407,-0.18623,-0.14077,-0.15872,-0.13105,-0.13686,-0.097656,-0.076925,-0.083968,-0.043836,-0.045503,-0.0092199,-0.01454,0.013378,0.043382,0.01192,0.07957,0.055702,0.052505,0.086769,0.072573,0.068273,0.086985,0.073256,0.082509,0.073746,0.079775,0.064906,0.070835,0.044994,0.056745,0.026759,0.037418,0.017705,-0.0032727,-0.0026983,-0.0078,-0.024745,-0.022752,-0.010861,-0.049669,-0.0094587,-0.044292,-0.032747,-0.041006,-0.043385,-0.044396,-0.031415,-0.06277,-0.0052102,-0.05925,-0.027223,-0.025875,-0.027404,-0.015883,-0.020504,-0.0031689,-0.012842,0.0034658,0.0048668,0.0027212,0.021979,0.0087529,0.031036,0.012452,0.038507,0.013838,0.040461,0.024384,0.036857,0.010727,0.052652,0.0054266,0.039756,0.015319,0.029517,0.0041136,0.026294,-0.0049995,0.007174,-0.0046716,-0.014133,0.00055146,-0.030698,-0.0054242,-0.024381,-0.032712,-0.01631,-0.031396,-0.012019,-0.034884,-0.0064455,-0.026225,-0.011541,-0.033919,-0.014502,-0.0058105,-0.033758,-0.0068354,-0.019849,-0.022112,-0.013925,-0.018912,-0.02274,-0.020192,-0.023132,-0.026188,-0.013699,-0.029269,-0.010165,-0.005909,-0.00067122,-0.0093208,0.0016551,0.010301,0.0050604,0.0044204,0.012668,0.0089627,0.0089246,-0.00095356,0.0031653,0.015,-0.007975,0.016957,0.00058368,0.023574,-0.0046504,0.022982,-0.0065815,0.014146,-0.0071347,0.0041773,0.0013151,0.0026994,-0.0067383,0.017139,-0.0063115,-0.0015083,-0.00035318,0.0020558,-0.0027489,-0.0032445,-0.00025398,0.0031624
-0.067068,-0.066484,-0.047163,-0.039631,-0.024266,0.00073644,0.0047955,0.0090791,0.023969,0.032588,0.046829,0.047069,0.042347,0.036387,0.034102,0.026921,0.037283,0.021603,0.0055082,-0.007877,8.6978e-05,-0.022846,-0.034976,-0.041366,-0.05068,-0.063514,-0.052681,-0.05327,-0.061748,-0.057184,-0.04804,-0.049026,-0.034782,-0.03485,-0.032134,-0.032687,-0.040232,-0.033107,-0.034252,-0.037803,-0.039526,-0.029346,-0.032623,-0.044042,-0.049814,-0.059123,-0.067273,-0.078029,-0.076628,-0.077875,-0.07235,-0.075406,-0.067141,-0.057358,-0.040966,-0.026072,-0.026158,-0.020969,-0.012467,-0.017016,-0.016119,-0.025335,-0.03105,-0.068528,-0.059099,-0.092451,-0.08043,-0.094218,-0.10898,-0.11453,-0.10852,-0.092146,-0.091787,-0.073058,-0.062035,-0.052806,-0.05168,-0.05996,-0.058903,-0.062082,-0.072702,-0.074554,-0.048298,-0.073245,-0.039398,-0.045983,-0.062819,-0.052633,-0.053327,-0.049376,-0.033192,-0.047527,-0.044519,-0.025245,-0.035191,-0.0081265,-0.0023848,0.00031117,0.017719,0.019027,0.027446,0.049252,0.05617,0.050811,0.061299,0.063372,0.059671,0.050953,0.054235,0.053961,0.051588,0.049923,0.039003,0.053316,0.034576,0.042271,0.013131,0.029085,0.016241,0.025224,0.015584,0.017352,0.024209,0.015852,0.0040027,0.0092729,0.0011249,0.0065344,0.0082422,-0.01046,-0.0012177,-0.0047997,-0.0055491,-0.0032755,-0.015508,-0.00047475,0.0013796,0.0056793,0.00079844,0.012196,0.017903,0.029526,0.018503,0.034636,0.042041,0.047601,0.049802,0.056426,0.062791,0.051897,0.059618,0.068316,0.070715,0.059237,0.064406,0.062197,0.054654,0.054406,0.05418,0.040754,0.044719,0.041375,0.04112,0.029682,0.0291,0.042602,0.043075,0.051464,0.055898,0.049419,0.066647,0.074513,0.08527,0.090369,0.096702,0.10078,0.10102,0.10025,0.10508,0.10012,0.087413,0.09585,0.094269,0.093583,0.087996,0.079658,0.079507,0.060271,0.069547,0.060466,0.058467,0.050191,0.037321,0.04019,0.032466,0.028456,0.014286,0.013622,0.005451,-0.012466,-0.020281,-0.027254,-0.040006,-0.040213,-0.065352,-0.050219,-0.061711,-0.06881,-0.065593,-0.080378,-0.075589,-0.10225,-0.071213,-0.076407,-0.078927,-0.095122,-0.085117,-0.076317,-0.092759,-0.084355,-0.093365,-0.089859,-0.099231,-0.1029,-0.11025,-0.12104,-0.11007,-0.11664,-0.10755,-0.11596,-0.10342,-0.11008,-0.10891,-0.11523,-0.11179,-0.092357,-0.10706,-0.10605,-0.099555,-0.092382,-0.10869,-0.10217,-0.095597,-0.092812,-0.091317,-0.090141,-0.10045,-0.089818,-0.093464,-0.10818,-0.11395,-0.12292,-0.11918,-0.12268,-0.10327,-0.11263,-0.12271,-0.11594,-0.13032,-0.13275,-0.12256,-0.14251,-0.15696,-0.16072,-0.1573,-0.15652,-0.14268,-0.15545
