-0.76731,-0.76637,-0.76433,-0.76102,-0.75672,-0.75127,-0.74467,-0.73713,-0.72852,-0.71888,-0.7082,-0.69647,-0.68395,-0.67041,-0.65618,-0.64092,-0.62491,-0.60863,-0.59151,-0.57408,-0.55641,-0.53845,-0.52024,-0.50197,-0.48371,-0.46565,-0.44776,-0.43005,-0.41263,-0.39588,-0.37966,-0.36406,-0.34919,-0.33527,-0.3221,-0.3099,-0.29873,-0.28866,-0.27962,-0.27171,-0.26502,-0.25962,-0.25524,-0.25209,-0.25053,-0.2501,-0.25097,-0.25326,-0.25671,-0.26149,-0.26753,-0.27484,-0.28336,-0.29274,-0.30299,-0.31359,-0.32385,-0.33322,-0.34165,-0.34835,-0.35357,-0.3567,-0.35785,-0.35661,-0.35394,-0.34793,-0.34031,-0.33085,-0.31846,-0.30387,-0.28715,-0.26815,-0.24736,-0.22441,-0.19982,-0.17347,-0.14536,-0.11595,-0.08513,-0.052705,-0.020019,0.014486,0.049629,0.084073,0.11919,0.15482,0.19036,0.22625,0.26271,0.2978,0.33358,0.36872,0.40265,0.43604,0.46836,0.49943,0.52926,0.55854,0.58649,0.61296,0.63752,0.66149,0.68404,0.70553,0.72545,0.74429,0.76137,0.77719,0.79153,0.8043,0.81544,0.82507,0.83329,0.84007,0.84534,0.84917,0.85152,0.85247,0.85213,0.85039,0.84761,0.84316,0.83784,0.83124,0.82351,0.81491,0.80512,0.79426,0.78278,0.77056,0.75722,0.7434,0.72869,0.71313,0.69717,0.68073,0.66361,0.64601,0.62853,0.6104,0.59237,0.57414,0.55595,0.53782,0.51945,0.50123,0.48359,0.46594,0.44869,0.43177,0.41545,0.39962,0.38426,0.36968,0.35609,0.34246,0.32995,0.3184,0.30713,0.29722,0.28774,0.27923,0.27187,0.26505,0.25944,0.25487,0.25112,0.24823,0.24651,0.24556,0.24554,0.24635,0.24801,0.25076,0.25485,0.25919,0.26479,0.27132,0.27871,0.28674,0.29576,0.30528,0.3157,0.32678,0.33839,0.3506,0.36315,0.37598,0.38955,0.40371,0.41768,0.43234,0.44729,0.46232,0.47747,0.49259,0.508,0.52328,0.53852,0.55328,0.56717,0.58188,0.59602,0.60972,0.62304,0.63574,0.64792,0.65952,0.67031,0.68037,0.68965,0.69822,0.70574,0.71217,0.71763,0.72196,0.72525,0.72732,0.72821,0.728,0.72677,0.72417,0.7204,0.71555,0.70958,0.70238,0.69402,0.68475,0.67429,0.6629,0.65071,0.63775,0.62379,0.60905,0.59383,0.57794,0.56181,0.54522,0.52823,0.51072,0.49355,0.47595,0.45868,0.44136,0.42424,0.4077,0.3914,0.37569,0.36031,0.34534,0.33153,0.31835,0.30625,0.2949,0.28445,0.27525,0.26685,0.25978,0.2539,0.24893,0.24544,0.2429,0.24151,0.24152,0.24252,0.24479,0.24792,0.25253,0.25805,0.26464,0.27228,0.28097,0.29046,0.30044,0.31166,0.3232,0.33527,0.34792,0.36096,0.37435,0.38802,0.402,0.41589,0.43044,0.44498,0.45906,0.47368,0.4879,0.50196,0.51596,0.52942,0.54301,0.55584,0.56883,0.58074,0.59197,0.60336,0.61402,0.62339,0.63265,0.64111
-0.31317,-0.31546,-0.3191,-0.32317,-0.32849,-0.33478,-0.342,-0.34995,-0.35848,-0.36811,-0.37809,-0.38875,-0.39979,-0.41131,-0.42333,-0.43591,-0.44852,-0.46179,-0.47482,-0.4878,-0.50072,-0.51428,-0.52707,-0.54004,-0.55282,-0.56523,-0.57765,-0.59018,-0.60117,-0.61264,-0.62336,-0.63354,-0.64382,-0.65334,-0.66219,-0.67047,-0.6778,-0.68482,-0.69107,-0.69639,-0.70147,-0.70599,-0.70968,-0.71211,-0.71414,-0.7158,-0.71597,-0.71607,-0.71505,-0.71349,-0.71121,-0.70806,-0.70422,-0.69932,-0.69245,-0.68378,-0.6725,-0.65883,-0.6422,-0.62259,-0.59985,-0.574,-0.54544,-0.51388,-0.47898,-0.44234,-0.40281,-0.36038,-0.31627,-0.27022,-0.22307,-0.17401,-0.12403,-0.07278,-0.020701,0.03164,0.083956,0.13629,0.18862,0.23958,0.28985,0.33875,0.38724,0.43417,0.47936,0.52251,0.56389,0.60277,0.63837,0.67186,0.70218,0.72952,0.75437,0.77614,0.79553,0.81209,0.82574,0.83538,0.84248,0.84717,0.84776,0.84724,0.84396,0.83727,0.82886,0.81809,0.80568,0.79108,0.77467,0.75673,0.73753,0.71644,0.69457,0.672,0.64824,0.62408,0.59937,0.57466,0.54972,0.52516,0.50094,0.47731,0.45451,0.43181,0.41076,0.39039,0.37113,0.35361,0.33733,0.32176,0.3086,0.29654,0.28639,0.27801,0.2713,0.26614,0.26286,0.26141,0.26141,0.26339,0.26705,0.27231,0.27906,0.2879,0.29777,0.3093,0.32204,0.33609,0.35106,0.36753,0.3847,0.40208,0.42046,0.4396,0.45937,0.47826,0.49767,0.51735,0.53636,0.55579,0.57436,0.59231,0.61002,0.62644,0.64267,0.65831,0.67271,0.68583,0.69857,0.70949,0.71937,0.72777,0.73464,0.74123,0.74498,0.7485,0.74914,0.74923,0.7474,0.7445,0.73965,0.73357,0.72626,0.71749,0.70777,0.69643,0.68454,0.67105,0.6577,0.64218,0.62628,0.61037,0.59433,0.57766,0.56094,0.54361,0.52678,0.51043,0.49379,0.47692,0.45954,0.44382,0.42856,0.41352,0.39933,0.38583,0.37293,0.36075,0.34995,0.33918,0.3297,0.32117,0.31378,0.3069,0.30136,0.29675,0.29331,0.29062,0.28936,0.28856,0.28909,0.29051,0.29275,0.29602,0.30013,0.30506,0.31087,0.31746,0.32466,0.33271,0.34139,0.35049,0.36035,0.37073,0.38165,0.39307,0.40453,0.41642,0.42839,0.44041,0.45312,0.46536,0.47838,0.49078,0.50351,0.51535,0.52799,0.54065,0.55197,0.56393,0.5755,0.58628,0.59694,0.60749,0.61671,0.62654,0.63467,0.64366,0.65031,0.65712,0.66341,0.66901,0.67353,0.67765,0.68107,0.68365,0.68594,0.68617,0.68608,0.68509,0.68352,0.68071,0.67691,0.67302,0.6672,0.66097,0.65388,0.64608,0.63787,0.62863,0.61879,0.60857,0.59756,0.58679,0.57571,0.56308,0.5514,0.53922,0.52658,0.51467,0.5019,0.49016,0.47774,0.46683,0.45489,0.44314,0.43264,0.4227,0.41216,0.40317,0.39424
0.23638,0.23296,0.23012,0.22742,0.22527,0.22337,0.22217,0.22123,0.22058,0.22064,0.2211,0.22196,0.22338,0.22511,0.22711,0.22979,0.23291,0.23639,0.24021,0.24441,0.24916,0.25444,0.25998,0.2657,0.27166,0.278,0.28458,0.29121,0.29809,0.30506,0.31223,0.3191,0.32621,0.33297,0.33967,0.34617,0.35239,0.3584,0.36401,0.36929,0.37444,0.37921,0.38344,0.38733,0.39075,0.39394,0.39664,0.39904,0.40091,0.40251,0.40374,0.4047,0.40527,0.40637,0.4095,0.4159,0.42519,0.4379,0.45296,0.47063,0.49004,0.51078,0.53277,0.55531,0.57829,0.6015,0.62459,0.64706,0.66948,0.69137,0.71304,0.73414,0.75463,0.77474,0.79432,0.8135,0.83242,0.85032,0.8685,0.88635,0.90397,0.92182,0.93835,0.95529,0.97197,0.9879,1.0047,1.0211,1.0374,1.0535,1.0694,1.0849,1.1004,1.1157,1.1306,1.1456,1.1605,1.1751,1.1893,1.2033,1.2172,1.2307,1.2442,1.2575,1.2704,1.2829,1.2956,1.3074,1.3196,1.3308,1.3425,1.3537,1.3643,1.3745,1.3848,1.3944,1.4037,1.4124,1.4206,1.4283,1.4353,1.4418,1.4475,1.4527,1.457,1.4609,1.4639,1.4663,1.4681,1.469,1.4695,1.4691,1.4681,1.4666,1.4645,1.4616,1.4585,1.4548,1.4505,1.4461,1.4413,1.4363,1.431,1.4252,1.4196,1.4134,1.4074,1.4009,1.3945,1.388,1.3814,1.3751,1.3686,1.3621,1.3554,1.3488,1.3423,1.3359,1.3296,1.3236,1.3178,1.3123,1.3071,1.3022,1.2974,1.293,1.2889,1.2851,1.2815,1.2786,1.2757,1.2734,1.2714,1.27,1.2683,1.2676,1.2668,1.2666,1.2666,1.2671,1.2679,1.2691,1.2706,1.2726,1.2748,1.2771,1.28,1.283,1.2865,1.2899,1.2939,1.2982,1.3026,1.3073,1.3121,1.3172,1.3221,1.3273,1.3323,1.3376,1.3428,1.3481,1.3531,1.3583,1.3633,1.368,1.3727,1.3772,1.3813,1.3854,1.3891,1.3923,1.3953,1.3981,1.4004,1.4026,1.4042,1.4058,1.4069,1.408,1.4086,1.409,1.4092,1.4093,1.409,1.4084,1.4077,1.4065,1.4051,1.4035,1.4015,1.3994,1.3968,1.3941,1.3911,1.3877,1.3841,1.3804,1.3766,1.3725,1.3684,1.3642,1.36,1.3557,1.3513,1.3472,1.3429,1.3387,1.3344,1.3301,1.3259,1.3218,1.3177,1.3137,1.3097,1.3057,1.3018,1.2982,1.2946,1.2913,1.2883,1.2855,1.283,1.2807,1.2788,1.2771,1.276,1.2749,1.2742,1.2739,1.274,1.2744,1.2752,1.2764,1.2779,1.2798,1.2821,1.2845,1.2873,1.2903,1.2934,1.2966,1.3001,1.3038,1.3076,1.3116,1.3155,1.3198,1.324,1.3284,1.3328,1.3372,1.3414,1.3458,1.3501,1.3544,1.3586,1.3628,1.367,1.3708,1.3747
