-0.57172,-0.58189,-0.59169,-0.60135,-0.61053,-0.61937,-0.62769,-0.63566,-0.64292,-0.64963,-0.65575,-0.6611,-0.66577,-0.6699,-0.67322,-0.67589,-0.67797,-0.67941,-0.68005,-0.68015,-0.67947,-0.67814,-0.67605,-0.67341,-0.67019,-0.66618,-0.66168,-0.65642,-0.65071,-0.64465,-0.63803,-0.6311,-0.62364,-0.61588,-0.60796,-0.5996,-0.59094,-0.58204,-0.57288,-0.56352,-0.55396,-0.54416,-0.53421,-0.52414,-0.51408,-0.50404,-0.49398,-0.48415,-0.47424,-0.46493,-0.45567,-0.44675,-0.43824,-0.42998,-0.42154,-0.41292,-0.40351,-0.39301,-0.38127,-0.3679,-0.35311,-0.33647,-0.31819,-0.29809,-0.27616,-0.25244,-0.22712,-0.1999,-0.17093,-0.14079,-0.10907,-0.076125,-0.041946,-0.0066976,0.029446,0.06649,0.10426,0.14216,0.18059,0.21919,0.25794,0.29624,0.33429,0.37158,0.40771,0.44371,0.47838,0.51176,0.54396,0.57442,0.6029,0.62986,0.6551,0.67881,0.70035,0.71986,0.73731,0.75294,0.76683,0.77904,0.78906,0.79747,0.80366,0.80817,0.81097,0.81193,0.81102,0.80853,0.80451,0.79885,0.79166,0.78322,0.77342,0.76246,0.75059,0.73766,0.72396,0.70951,0.69452,0.67905,0.66323,0.64705,0.6307,0.6142,0.59787,0.58158,0.5656,0.54969,0.53419,0.51917,0.50495,0.49065,0.47715,0.46385,0.45153,0.4401,0.42896,0.41867,0.40921,0.40069,0.3926,0.38557,0.3794,0.374,0.36926,0.36543,0.36242,0.3601,0.35852,0.35761,0.35743,0.35773,0.35908,0.36075,0.36328,0.36629,0.3696,0.37353,0.37817,0.38308,0.38846,0.39429,0.4005,0.40695,0.4138,0.42072,0.42805,0.43542,0.44329,0.45123,0.45933,0.46741,0.4755,0.48369,0.49191,0.50014,0.50806,0.51597,0.52345,0.53105,0.53841,0.54543,0.55227,0.55819,0.56441,0.57032,0.57587,0.58125,0.58626,0.59077,0.59488,0.59848,0.60157,0.60431,0.60636,0.60789,0.60883,0.60918,0.60896,0.60804,0.60658,0.6045,0.6018,0.59854,0.59487,0.59054,0.58582,0.58057,0.57501,0.56899,0.56269,0.55613,0.54907,0.542,0.53451,0.52692,0.51929,0.51135,0.50347,0.49523,0.48708,0.47895,0.47116,0.46312,0.45544,0.44773,0.44069,0.43344,0.42689,0.42029,0.4144,0.40849,0.40314,0.39835,0.39379,0.38995,0.38645,0.38348,0.38073,0.37882,0.37759,0.37672,0.37625,0.3766,0.37718,0.3787,0.38034,0.38259,0.38555,0.3887,0.39267,0.39683,0.40163,0.40648,0.41194,0.41759,0.42379,0.43003,0.43654,0.44322,0.44998,0.45676,0.46395,0.47087,0.47826,0.48547,0.49248,0.49969,0.50685,0.51363,0.51984,0.52629,0.53263,0.53866,0.54446,0.54984,0.55494,0.5596,0.56389,0.56776,0.57137,0.57439,0.577,0.57913,0.58093,0.58227,0.58313,0.58372,0.58381,0.58361,0.5829,0.58185,0.58024,0.5783,0.57585,0.57301,0.56974,0.56606,0.562,0.55753,0.55277
-0.48021,-0.47911,-0.47815,-0.47742,-0.47655,-0.47616,-0.4759,-0.47592,-0.47584,-0.47605,-0.47651,-0.47725,-0.47811,-0.47956,-0.48091,-0.4827,-0.48465,-0.48666,-0.48907,-0.49153,-0.49397,-0.49675,-0.49959,-0.50236,-0.50503,-0.50771,-0.51049,-0.51304,-0.5161,-0.51857,-0.52129,-0.52389,-0.52648,-0.52909,-0.53138,-0.53397,-0.53652,-0.53909,-0.54157,-0.54396,-0.5465,-0.54922,-0.55176,-0.55418,-0.55666,-0.55908,-0.5613,-0.56384,-0.56565,-0.56789,-0.56965,-0.57196,-0.57381,-0.57529,-0.57561,-0.57505,-0.57257,-0.56816,-0.56144,-0.552,-0.54023,-0.52526,-0.50787,-0.48753,-0.46427,-0.43836,-0.41049,-0.38044,-0.34824,-0.31279,-0.27652,-0.2384,-0.19887,-0.15812,-0.11625,-0.073595,-0.030867,0.012717,0.057041,0.099953,0.14369,0.18643,0.22859,0.27052,0.31141,0.35093,0.38876,0.42563,0.46036,0.49383,0.52535,0.5552,0.58231,0.60727,0.63037,0.65113,0.6684,0.68431,0.69913,0.71045,0.72018,0.72739,0.73288,0.73608,0.73745,0.73704,0.73495,0.73145,0.7264,0.72004,0.71253,0.70391,0.69441,0.68437,0.67347,0.66222,0.65052,0.6387,0.6268,0.61423,0.60256,0.59069,0.57923,0.5676,0.55671,0.54658,0.5358,0.5268,0.51801,0.51002,0.50245,0.49584,0.48985,0.48491,0.48098,0.47714,0.47465,0.47298,0.47223,0.4718,0.47245,0.47364,0.47575,0.47822,0.48154,0.48525,0.48905,0.49382,0.49844,0.50346,0.50856,0.51412,0.51911,0.52428,0.52946,0.53421,0.53956,0.54415,0.54833,0.55234,0.55548,0.55856,0.56129,0.56347,0.56535,0.56664,0.56726,0.56781,0.56742,0.56644,0.5654,0.5637,0.56185,0.55937,0.55693,0.55392,0.55087,0.54745,0.54379,0.53996,0.53567,0.5311,0.52668,0.52117,0.51635,0.51156,0.50671,0.50142,0.49669,0.49159,0.48675,0.48179,0.47696,0.47205,0.46773,0.46351,0.45948,0.45561,0.45196,0.44865,0.44566,0.44293,0.44062,0.43865,0.43698,0.43573,0.43497,0.43453,0.43449,0.43482,0.43559,0.43669,0.43855,0.44064,0.44327,0.44608,0.44939,0.45277,0.45647,0.4606,0.46476,0.46978,0.47407,0.47922,0.4838,0.48947,0.49445,0.50006,0.50511,0.51088,0.51575,0.52093,0.52646,0.53112,0.53566,0.54006,0.54424,0.54836,0.55244,0.55563,0.5583,0.56081,0.56337,0.56497,0.56654,0.56751,0.56831,0.56883,0.56834,0.56819,0.56716,0.56572,0.564,0.56206,0.55958,0.55687,0.55329,0.54976,0.54605,0.54202,0.53758,0.5336,0.52895,0.52423,0.5189,0.51402,0.50895,0.50412,0.49929,0.49437,0.48887,0.4842,0.47981,0.47521,0.47131,0.46721,0.464,0.46053,0.45777,0.45509,0.45286,0.45062,0.449,0.44741,0.44657,0.44554,0.44533,0.4451,0.44512,0.44563,0.44635,0.44747,0.44855,0.45012,0.45184,0.45391,0.45588,0.45803,0.46051,0.46323,0.46605
0.33718,0.33442,0.3316,0.32878,0.32563,0.32266,0.31948,0.31667,0.31371,0.31058,0.30766,0.30488,0.30222,0.29949,0.29697,0.29453,0.29249,0.29018,0.28826,0.28673,0.28522,0.28399,0.28315,0.28285,0.28268,0.28282,0.28322,0.28398,0.28509,0.2862,0.28741,0.28891,0.29057,0.29225,0.29428,0.29627,0.29834,0.3005,0.30259,0.30481,0.30704,0.30921,0.31151,0.31376,0.31594,0.31805,0.3198,0.32166,0.32327,0.3248,0.32603,0.32754,0.32889,0.33094,0.33522,0.34314,0.35447,0.36931,0.38732,0.40813,0.43145,0.45652,0.48326,0.51111,0.54021,0.56964,0.5992,0.62899,0.65799,0.68732,0.71604,0.74399,0.77218,0.79864,0.82503,0.85047,0.87504,0.89945,0.9226,0.946,0.96781,0.99006,1.0114,1.0317,1.0524,1.0718,1.0908,1.1091,1.1269,1.1443,1.1619,1.1782,1.1943,1.2094,1.2241,1.2383,1.2518,1.2652,1.2775,1.2895,1.3007,1.3114,1.3219,1.3316,1.3408,1.3498,1.3582,1.3663,1.3738,1.3812,1.3879,1.3942,1.4001,1.4056,1.4107,1.4154,1.4197,1.4234,1.4265,1.4296,1.4317,1.4335,1.435,1.4359,1.4361,1.4364,1.4358,1.4351,1.4337,1.432,1.4297,1.4272,1.424,1.4207,1.4171,1.4132,1.4087,1.4044,1.3998,1.3951,1.3902,1.3855,1.3807,1.3759,1.3712,1.3667,1.362,1.3576,1.3534,1.3494,1.3454,1.342,1.3384,1.3354,1.3323,1.3295,1.3273,1.3253,1.3235,1.3221,1.3208,1.3199,1.3191,1.3186,1.3184,1.3186,1.3188,1.3195,1.3203,1.3214,1.3227,1.3244,1.3264,1.3286,1.3309,1.3334,1.3365,1.3393,1.3425,1.3457,1.3489,1.3521,1.3553,1.3584,1.3615,1.3643,1.3669,1.3695,1.3719,1.3742,1.3763,1.378,1.3797,1.3811,1.3824,1.3835,1.3845,1.3854,1.3862,1.3868,1.3873,1.3875,1.3879,1.3879,1.3878,1.3875,1.3869,1.3863,1.3856,1.3847,1.3837,1.3826,1.3814,1.38,1.3785,1.3768,1.3749,1.3731,1.371,1.3688,1.3666,1.3644,1.3619,1.3593,1.3567,1.3539,1.351,1.348,1.3451,1.3422,1.3392,1.3363,1.3334,1.3306,1.3279,1.3255,1.3233,1.3211,1.3191,1.3173,1.3157,1.3143,1.3132,1.3122,1.3116,1.3109,1.3107,1.3107,1.3108,1.311,1.3112,1.3116,1.3121,1.3129,1.3138,1.3149,1.3158,1.3171,1.3186,1.3201,1.3219,1.3239,1.326,1.3281,1.3302,1.3322,1.3345,1.3366,1.339,1.3414,1.3439,1.3462,1.3485,1.3507,1.3529,1.3551,1.357,1.359,1.3608,1.3626,1.3643,1.3659,1.3675,1.3691,1.3704,1.3718,1.373,1.3741,1.3752,1.3759,1.3765,1.3769,1.3771,1.3772,1.3772,1.3768,1.3764,1.3757,1.375,1.3742,1.3733
